command line was: ExtrudeMesh taco2D Taco3D 29     1.00 4 0 0   0.00 1.00  (null)     0.00 0.00     0.00 [0]
(ExtrudeMesh) was invoked with following inputs ...
    ... input directory: taco2D 
    ... output directory: Taco3D
    ... levels: 29
    ... depth:     1.0000

    ... partitions: 4
    ... baseline: 0
    ... GL: 0

    ... percentage:     0.0000

    ... ratio:     1.0000

    ... total poitns in 2d mesh: 702 
    ... total elements in 2d mesh: 1286 
    ... total boundary elements in 2d mesh: 116 
    ... no of element type 101: 0 
    ... no of element type 202: 116 
    ... no of element type 303: 1286 
    ... no of element type 404: 0 
