#Time,"zbed","depth","height","surfgrad1","surfgrad2","densrel","mass balance","melting","rain","firn","accu","potrad","refreeze","bottomwater","enthbellowactive","outbedtemp","outbedpres","outbedvel1","outbedvel2","outbedvel3","zs top","zs top residual","ref zs top","zs top velocity","zs top loads","qlat","pressure","dsdt","ds","flow solution loads 1","flow solution loads 2","flow solution loads 3","flow solution loads 4","eij","strainrate 1","strainrate 2","strainrate 3","strainrate 4","strainrate 5","strainrate 6","strainrate 7","flow solution deformational heat","enthalpy_h","phase change enthalpy","water content","temperature","surface enthalpy","save enthalpy subgrid","enthalpy_h contact load","bedtemperatureexp","rock_temperature","rock_temperature contact load","icymask","surfaceenthexp","schur","mesh update:0","mesh update:1","mesh update:2","mesh velocity:0","mesh velocity:1","mesh velocity:2","velocity:0","velocity:1","velocity:2","Points:0","Points:1","Points:2"
527,3276.17506352,20.2693679665,0,0,0,1,0,0,0,0,0,0,0,0,0,0,0,0,0,0,0,0,0,0,0,0,-0.0219231528109,0,0,-4.04235676711,1.93927013225,16.2364439015,-1.39158742128e-15,0.00069327736785,0.0352608974655,0.000561527550725,-0.0351291476484,0.00154706479283,-0.0038460727108,0.0187428596543,0.00069327736785,0.00709711014147,1.36176634112e+20,1.35662357338e+20,0.00154611755246,0.00233438110141,1.36186028182e+20,1.36266393296e+20,19.9963996328,0.00233438110141,0.00233438110141,-8.70458138416,0,1.3565861969e+20,0,0,0,0,0,0,0,-0.87380655702,-0.230718665731,-0.803403774144,948279.204579,2104997.39882,3276.17506352
527,3270.50247852,20.6024614503,0,0,0,1,0,0,0,0,0,0,0,0,0,0,0,0,0,0,0,0,0,0,0,0,0.123072821881,0,0,-3.19531613901,1.2037019712,14.5192256224,-5.69675743409e-15,-0.00031123838718,0.0178826457852,-0.000831393954707,-0.0173624902176,0.00380504125061,-0.00163069091036,-0.00350907983386,-0.00031123838718,0.0017758446413,1.36159854902e+20,1.35632436631e+20,0.00158562604206,-0.0117882268336,1.36176376378e+20,1.36312378312e+20,23.2155191396,-0.0117882268336,-0.0117882268336,-32.7778296715,0,1.35658626607e+20,0,0,0,0,0,0,0,-0.868321656067,-0.224886767535,-0.814339993342,948272.84997,2104999.03872,3270.50247852
527,3278.93061325,20.1378805744,0,0,0,1,0,0,0,0,0,0,0,0,0,0,0,0,0,0,0,0,0,0,0,0,-0.014255858508,0,0,-5.33900114859,2.13558465074,17.8753844615,1.37329766892e-17,0.000821853295198,0.0384939913919,0.000859871341278,-0.038532009438,0.00262247170251,-0.00348057228258,0.0229420191607,0.000821853295198,0.00805878243212,1.36181716056e+20,1.35660775445e+20,0.00156615165669,0.00158758663632,1.36189803223e+20,1.3624321025e+20,18.9691825209,0.00158758663632,0.00158758663632,-8.21388342149,0,1.35658616548e+20,0,0,0,0,0,0,0,-0.865399812359,-0.23969756943,-0.791727392342,948282.260883,2104996.61009,3278.93061325
527,3279.96619209,20.0632627383,0,0,0,1,0,0,0,0,0,0,0,0,0,0,0,0,0,0,0,0,0,0,0,0,-0.0596253463132,0,0,-5.05076321734,2.16954086697,16.8969228656,1.10257671943e-15,0.00127351183822,0.0478071042432,-0.000764564090815,-0.0457690283141,0.000164519537777,-0.00503639825687,0.0335324162114,0.00127351183822,0.0110552273334,1.3616925576e+20,1.35670137607e+20,0.00150054479421,0.00600657474855,1.36177453539e+20,1.36236850159e+20,16.1024113673,0.00600657474855,0.00600657474855,1.00566522772,0,1.35658615151e+20,0,0,0,0,0,0,0,-0.862032671754,-0.234227975013,-0.784689745202,948283.420904,2104996.31073,3279.96619209
527,3238.79556437,22.4414649531,0,0,0,1,0,0,0,0,0,0,0,0,0,0,0,0,0,0,0,0,0,0,0,0,0.12156564865,0,0,-6.66310411198,-1.77993675691,23.6637912208,-5.55084615757e-15,-2.20970721437e-07,0.0201094903289,-0.000494641654086,-0.0196150696455,0.00364252892058,0.000425493687643,0.000598855053659,-2.20970721437e-07,0.00257094586194,1.35751669331e+20,1.35632747227e+20,0.000357526454282,-0.0116414281609,1.3576381407e+20,1.36593423054e+20,-132.74486509,-0.0116414281609,-0.0116414281609,-134.492832167,0,1.3565867563e+20,0,0,0,0,0,0,0,-0.807520556889,-0.115895681596,-0.889244250081,948240.870445,2105007.2915,3238.79556437
527,3238.27273228,22.4804412015,0,0,0,1,0,0,0,0,0,0,0,0,0,0,0,0,0,0,0,0,0,0,0,0,0.127964836821,0,0,-6.96719923086,-1.88713446261,24.1963524733,-6.16200344821e-15,-1.81577060654e-06,0.0200770873682,-0.000515928041856,-0.0195629750969,0.00366759810734,0.00044949731114,0.000547520543164,-1.81577060654e-06,0.00256309230984,1.35744335578e+20,1.35631426718e+20,0.000339448286109,-0.0122647090887,1.35755247405e+20,1.3659727464e+20,-145.321051267,-0.0122647090887,-0.0122647090887,-139.070995884,0,1.35658676115e+20,0,0,0,0,0,0,0,-0.806831729899,-0.114548352734,-0.88831913379,948240.352362,2105007.4252,3238.27273228
527,3258.11075034,20.7808015065,0,0,0,1,0,0,0,0,0,0,0,0,0,0,0,0,0,0,0,0,0,0,0,0,0.139166353743,0,0,-4.74292092679,0.215383163159,20.8283807996,-1.32433403716e-14,-2.55172022815e-05,0.019591466362,0.000289542160391,-0.0199065257247,0.00356964100433,-0.00120131635264,-0.00080259240079,-2.55172022815e-05,0.00248917858117,1.36000078528e+20,1.35629115337e+20,0.00111526075045,-0.0133557368369,1.3603179144e+20,1.36442071121e+20,-0.12018287436,-0.0133557368369,-0.0133557368369,-71.7873200283,0,1.35658628743e+20,0,0,0,0,0,0,0,-0.843108364013,-0.190664987475,-0.8664424218,948259.77137,2105002.41384,3258.11075034
527,3252.82695734,20.7569811681,0,0,0,1,0,0,0,0,0,0,0,0,0,0,0,0,0,0,0,0,0,0,0,0,0.107382014108,0,0,-3.6774389716,-0.142396432783,16.6940056273,-7.51112308073e-15,-1.20460087142e-05,0.020003381999,0.000237897333211,-0.0202533253409,0.00340082178505,-0.000349201426825,0.000902019625904,-1.20460087142e-05,0.00259563434604,1.35921204434e+20,1.35635674131e+20,0.000858416002188,-0.0102599421565,1.35949775878e+20,1.36486597719e+20,-23.2412641428,-0.0102599421565,-0.0102599421565,-59.5551577469,0,1.3565863652e+20,0,0,0,0,0,0,0,-0.838501874778,-0.164135680012,-0.886947322401,948254.397457,2105003.80066,3252.82695734
527,3262.09596872,20.759366062,0,0,0,1,0,0,0,0,0,0,0,0,0,0,0,0,0,0,0,0,0,0,0,0,0.0603915975906,0,0,-2.45924323554,0.460704672035,14.503593948,-6.16769949664e-15,6.8469100434e-05,0.021211758173,0.000862162591108,-0.0220054516637,0.00331055545552,-0.00149083235822,0.00320613755956,6.8469100434e-05,0.00308753633732,1.36059552721e+20,1.35645371036e+20,0.00124519247979,-0.00568307558769,1.36079741389e+20,1.36403957146e+20,13.9441778139,-0.00568307558769,-0.00568307558769,-38.6770356875,0,1.3565862814e+20,0,0,0,0,0,0,0,-0.864750694294,-0.206168341466,-0.865510142177,948263.814354,2105001.37049,3262.09596872
527,3249.33937703,20.7494482833,0,0,0,1,0,0,0,0,0,0,0,0,0,0,0,0,0,0,0,0,0,0,0,0,0.0574208702358,0,0,-1.86927223713,-0.108978213576,12.8158697233,-1.87483353702e-15,1.58643099421e-05,0.0203864544712,0.000245059439625,-0.0206156496009,0.00328926083124,6.44907250807e-05,0.00207598898795,1.58643099421e-05,0.00271286300787,1.3585990796e+20,1.35645983819e+20,0.000643139815629,-0.00539372674332,1.35884691442e+20,1.36515616365e+20,-125.474032937,-0.00539372674332,-0.00539372674332,-47.6067892663,0,1.35658648524e+20,0,0,0,0,0,0,0,-0.829470149569,-0.147535605549,-0.901568950342,948250.756242,2105004.74032,3249.33937703
527,3266.76328728,20.6849207529,0,0,0,1,0,0,0,0,0,0,0,0,0,0,0,0,0,0,0,0,0,0,0,0,0.0244750636098,0,0,-1.00234228593,0.895275787838,11.1445504008,-5.04389724615e-15,3.16920411114e-05,0.0209665035762,0.000685729026933,-0.021620540562,0.00223196831213,-0.00254183449148,0.00269751729378,3.16920411114e-05,0.00297484469626,1.36128635044e+20,1.3565278248e+20,0.00143059931681,-0.00218480517797,1.36142804398e+20,1.36353620869e+20,24.8599568997,-0.00218480517797,-0.00218480517797,-19.261169317,0,1.3565862785e+20,0,0,0,0,0,0,0,-0.874878284146,-0.213224255897,-0.846570965929,948268.938048,2105000.04825,3266.76328728
527,3287.87907171,19.9998983516,0,0,0,1,0,0,0,0,0,0,0,0,0,0,0,0,0,0,0,0,0,0,0,0,0.379017122162,0,0,-11.1409597973,2.2194683114,16.0939293523,7.11249367765e-16,-0.0125402208554,0.0259987299562,0.00979150504155,-0.0483304558532,0.0148520581377,-0.0462250756564,0.129502043947,-0.0125402208554,0.0323491828804,1.35695032755e+20,1.3557962365e+20,0.000354398412367,-0.037884375986,1.35726627936e+20,1.36176614976e+20,2.07631423936,-0.037884375986,-0.037884375986,-24.1406109902,0,1.35658596119e+20,0,0,0,0,0,0,0,-0.0627412899764,-0.305873351429,-0.0426434063224,948291.958167,2104994.10757,3287.87907171
527,3282.17269741,20.0560999415,0,0,0,1,0,0,0,0,0,0,0,0,0,0,0,0,0,0,0,0,0,0,0,0,0.0818260173027,0,0,-6.89453400357,2.15829337749,16.9265300426,1.58116857843e-15,-0.00324051672981,0.038721685926,0.00388303967349,-0.0458452423293,0.00387843265348,-0.0169004921261,0.0627568390135,-0.00324051672981,0.0172583454048,1.36032170116e+20,1.35640949056e+20,0.0011761638423,-0.00777078806765,1.3604791613e+20,1.36219990179e+20,10.65761274,-0.00777078806765,-0.00777078806765,-6.68485081511,0,1.35658609283e+20,0,0,0,0,0,0,0,-0.595533102887,-0.241347398348,-0.54108228553,948285.909222,2104995.66859,3282.17269741
527,3150.64593833,44.698008115,0,0,0,1,0,0,0,0,0,0,0,0,0,0,0,0,0,0,0,0,0,0,0,0,0.35470448288,0,0,-18.4842104839,-22.4770767747,32.8781928428,1.2078131607e-16,4.56428408819e-05,0.0104703404567,-0.000924496050514,-0.00950020156532,0.00429084036088,0.00357085732141,-0.00730480786539,4.56428408819e-05,0.00153066653672,1.36359884292e+20,1.35584640225e+20,0.00233068751789,-0.0343491506149,1.36362527867e+20,1.36813481128e+20,5.84883663648,-0.0343491506149,-0.0343491506149,-122.749908068,0,1.35657300707e+20,0,0,0,0,0,0,0,-0.515925403267,0.120085862282,-0.340131396024,948138.279736,2105033.76652,3150.64593833
527,3148.00188679,46.0113541676,0,0,0,1,0,0,0,0,0,0,0,0,0,0,0,0,0,0,0,0,0,0,0,0,0.404451530725,0,0,-18.5201467143,-24.1978646505,34.703246616,3.41664528332e-15,-3.50928542073e-05,0.00838779026118,-0.000662421527999,-0.00776046158739,0.00362506350154,0.00312095105724,-0.00690711182646,-3.50928542073e-05,0.00125915955859,1.36355510161e+20,1.35574375686e+20,0.00234839639035,-0.039194513075,1.36356968151e+20,1.36796818778e+20,6.89577250789,-0.039194513075,-0.039194513075,-130.133629526,0,1.35656903115e+20,0,0,0,0,0,0,0,-0.511906521156,0.112219137125,-0.311196525177,948134.084906,2105034.84906,3148.00188679
527,3145.76980892,47.1473981354,0,0,0,1,0,0,0,0,0,0,0,0,0,0,0,0,0,0,0,0,0,0,0,0,0.371111080571,0,0,-18.3068183151,-24.2029229898,33.6247565938,2.49020395175e-15,5.7657996859e-05,0.00968939453846,-0.000772136520509,-0.00885960002109,0.00423957108728,0.00365836578713,-0.00784751584699,5.7657996859e-05,0.00150980171197,1.3635580547e+20,1.35581254937e+20,0.00232860248263,-0.03594715323,1.36357280843e+20,1.36782072812e+20,6.10787167545,-0.03594715323,-0.03594715323,-124.669358143,0,1.35656367727e+20,0,0,0,0,0,0,0,-0.490892069603,0.1149092161,-0.297426240226,948130.669851,2105035.73036,3145.76980892
527,3226.81543438,23.188173305,0,0,0,1,0,0,0,0,0,0,0,0,0,0,0,0,0,0,0,0,0,0,0,0,0.123246442369,0,0,-6.60883783135,-2.74154180599,20.9361396083,-1.30766421057e-15,-8.99143618979e-07,0.0207767277081,-0.000900572251758,-0.0198770545999,0.0037841205569,0.00123460016135,-0.00119734333795,-8.99143618979e-07,0.0026717924843,1.3558818628e+20,1.35632400392e+20,0,-0.0326758472364,1.35601998243e+20,1.36670903727e+20,166.368223147,-0.0326758472364,-0.0326758472364,-218.781847949,0,1.35658693e+20,0,0,0,0,0,0,0,-0.795421642816,-0.0668198914082,-0.872215428645,948228.73475,2105010.42329,3226.81543438
527,3221.71802634,24.2129660852,0,0,0,1,0,0,0,0,0,0,0,0,0,0,0,0,0,0,0,0,0,0,0,0,0.13888027743,0,0,-7.68917494705,-3.56090255113,22.3974442415,-2.73784979663e-15,2.80793029881e-06,0.0203073063647,-0.000773563346512,-0.0195309350879,0.00393315867904,0.00167458065137,-0.00173725729223,2.80793029881e-06,0.00262057874071,1.35586854572e+20,1.35629174295e+20,0,-0.0333042251087,1.35597116236e+20,1.36700621644e+20,193.592468667,-0.0333042251087,-0.0333042251087,-223.041071782,0,1.35658700557e+20,0,0,0,0,0,0,0,-0.776235061641,-0.0469098757839,-0.851576774049,948223.787865,2105011.69991,3221.71802634
527,3152.75050101,43.6074613184,0,0,0,1,0,0,0,0,0,0,0,0,0,0,0,0,0,0,0,0,0,0,0,0,0.322271770522,0,0,-14.8280772018,-15.6146304751,24.9776936667,-2.3820895972e-15,9.24665408513e-05,0.0115020525044,-0.000984138181529,-0.010425447782,0.00500478551604,0.00395270957042,-0.00780826240662,9.24665408513e-05,0.00173130900509,1.36352839295e+20,1.35591332329e+20,0.00228938840916,-0.0311902044312,1.3635566256e+20,1.36824659289e+20,5.37963260415,-0.0311902044312,-0.0311902044312,-95.4185725953,0,1.35657547499e+20,0,0,0,0,0,0,0,-0.515337488292,0.124340813962,-0.365301663364,948141.674442,2105032.89047,3152.75050101
527,3142.57113873,47.6559997292,0,0,0,1,0,0,0,0,0,0,0,0,0,0,0,0,0,0,0,0,0,0,0,0,0.389200092649,0,0,-19.6515221609,-33.3774087872,40.6301754543,1.36311426817e-16,7.35389701631e-05,0.00884464140854,-0.000249216603693,-0.00852188583468,0.00416611837121,0.00344666951638,-0.00803103974883,7.35389701631e-05,0.00144188762972,1.36324141632e+20,1.35577522552e+20,0.00224462958823,-0.0377090230063,1.36325793219e+20,1.36750682664e+20,4.07724073341,-0.0377090230063,-0.0377090230063,-134.778028149,0,1.35655506619e+20,0,0,0,0,0,0,0,-0.490149922899,0.109985075062,-0.259401278211,948124.065758,2105037.43464,3142.57113873
527,3141.16829524,48.2796930534,0,0,0,1,0,0,0,0,0,0,0,0,0,0,0,0,0,0,0,0,0,0,0,0,0.429336063012,0,0,-21.0013931432,-37.5017196826,46.8331851373,-2.09477818497e-16,3.2528784363e-05,0.00711904648291,-0.000245567123111,-0.00684095057543,0.00320746233842,0.00275363640883,-0.00705138224839,3.2528784363e-05,0.00112661777872,1.36303430274e+20,1.35569241206e+20,0.00220726009851,-0.0416182665197,1.36304908938e+20,1.36736262351e+20,4.48990127048,-0.0416182665197,-0.0416182665197,-162.898262201,0,1.35655271583e+20,0,0,0,0,0,0,0,-0.491055665886,0.0998511919534,-0.235413472849,948121.762712,2105038.02898,3141.16829524
527,3139.64258186,48.8575489709,0,0,0,1,0,0,0,0,0,0,0,0,0,0,0,0,0,0,0,0,0,0,0,0,0.445616255369,0,0,-17.7737690322,-41.5679658527,46.8521901719,2.49187791483e-15,-1.768438696e-05,0.00796923907685,-0.00121538160194,-0.00677154186187,0.00333875115979,0.00293889416781,-0.0078836417117,-1.768438696e-05,0.00125473823007,1.36266502723e+20,1.35565882084e+20,0.00210634024476,-0.0432039572553,1.36268281223e+20,1.36707622997e+20,4.27878349318,-0.0432039572553,-0.0432039572553,-145.626620658,0,1.35654418549e+20,0,0,0,0,0,0,0,-0.507992858911,0.0891198065786,-0.202860897367,948117.014134,2105039.25442,3139.64258186
527,3237.73241017,22.5366109365,0,0,0,1,0,0,0,0,0,0,0,0,0,0,0,0,0,0,0,0,0,0,0,0,0.125030381324,0,0,-6.88732429553,-1.93184905191,24.0799712389,-4.74359789764e-15,-1.52155993566e-06,0.0201121332208,-0.000544331386286,-0.0195693233945,0.00365860521904,0.000477890433895,0.000498898656773,-1.52155993566e-06,0.00256720812564,1.35732826992e+20,1.35632032254e+20,0.000323268908098,-0.0151569224187,1.35745039207e+20,1.36600891909e+20,-111.007498755,-0.0151569224187,-0.0151569224187,-149.27107801,0,1.35658678104e+20,0,0,0,0,0,0,0,-0.806495395029,-0.11234077253,-0.888636367521,948239.782194,2105007.57234,3237.73241017
527,3138.37758313,49.1050775771,0,0,0,1,0,0,0,0,0,0,0,0,0,0,0,0,0,0,0,0,0,0,0,0,0.4532921577,0,0,-14.2088514515,-39.3624192565,43.9980143332,3.43394293362e-15,-3.79596170577e-05,0.00783738277504,-0.00192871280846,-0.00594662958364,0.00320610475175,0.0028684954523,-0.00775801102442,-3.79596170577e-05,0.0012176405501,1.36218553889e+20,1.35564298345e+20,0.00196694859653,-0.0439515901423,1.36219447327e+20,1.36684213589e+20,3.90260279078,-0.0439515901423,-0.0439515901423,-125.223031402,0,1.35653580953e+20,0,0,0,0,0,0,0,-0.508594188963,0.0789778832549,-0.178527627429,948113.355169,2105040.19867,3138.37758313
527,3163.36547059,40.0212788296,0,0,0,1,0,0,0,0,0,0,0,0,0,0,0,0,0,0,0,0,0,0,0,0,0.341854978035,0,0,-14.7103925849,-17.033467697,28.3741331311,-2.87336056959e-15,-2.98363047041e-05,0.0110849408691,-0.000521500803537,-0.0105932763703,0.0035776350443,0.00271763643119,-0.00615143610174,-2.98363047041e-05,0.00147863857382,1.36313096665e+20,1.35587291548e+20,0.00218205465869,-0.0330976088431,1.36317866474e+20,1.36860899577e+20,5.23410634771,-0.0330976088431,-0.0330976088431,-113.098276487,0,1.35658311186e+20,0,0,0,0,0,0,0,-0.607102084971,0.0954149005568,-0.417139418422,948158.117647,2105028.64706,3163.36547059
527,3162.98880998,40.1308580102,0,0,0,1,0,0,0,0,0,0,0,0,0,0,0,0,0,0,0,0,0,0,0,0,0.345316140177,0,0,-14.3968565068,-16.9420401959,27.9787525952,-2.78978350018e-15,-3.27972584742e-05,0.0108969112851,-0.00052344896001,-0.0104062595836,0.00353811934744,0.00267235412629,-0.00611899605846,-3.27972584742e-05,0.00145071574833,1.36314320647e+20,1.35586577376e+20,0.00218788150748,-0.0334347260356,1.36319126308e+20,1.36860120093e+20,5.16199571819,-0.0334347260356,-0.0334347260356,-110.674793002,0,1.35658298035e+20,0,0,0,0,0,0,0,-0.606926860986,0.0951565487083,-0.412959242416,948157.560492,2105028.79084,3162.98880998
527,3198.73527636,28.3983439797,0,0,0,1,0,0,0,0,0,0,0,0,0,0,0,0,0,0,0,0,0,0,0,0,0.176258506933,0,0,-10.6660301083,-6.07787407321,22.397408027,-4.40311072505e-15,8.53623368166e-06,0.0192972290648,-0.000888186968101,-0.0184005058631,0.00391436880101,0.00292748632053,-0.00451803348478,8.53623368166e-06,0.00254422231943,1.35794209895e+20,1.35621461284e+20,0.000519350031628,-0.0169685125576,1.35812205079e+20,1.36812967909e+20,245.029209137,-0.0169685125576,-0.0169685125576,-119.068628795,0,1.35658735856e+20,0,0,0,0,0,0,0,-0.701910920294,0.0393371010794,-0.735178998502,948200.342675,2105017.75028,3198.73527636
527,3197.12652632,28.8120253215,0,0,0,1,0,0,0,0,0,0,0,0,0,0,0,0,0,0,0,0,0,0,0,0,0.18004378107,0,0,-10.9226945333,-6.3365666678,22.4751903179,-4.19701936536e-15,1.09087064923e-05,0.019022892858,-0.000854805539465,-0.0181571786121,0.00393415572251,0.00293700383243,-0.00454301781017,1.09087064923e-05,0.00250503438716,1.35832304115e+20,1.356206802e+20,0.000636224434344,-0.0173371982586,1.35847766224e+20,1.36818343074e+20,212.831913975,-0.0173371982586,-0.0173371982586,-118.954429489,0,1.35658736446e+20,0,0,0,0,0,0,0,-0.693442027276,0.0434681247828,-0.723176801522,948198.763158,2105018.15789,3197.12652632
527,3137.97384529,48.3377425561,0,0,0,1,0,0,0,0,0,0,0,0,0,0,0,0,0,0,0,0,0,0,0,0,0.452995064817,0,0,-13.6965558041,-38.1779975171,42.4576615627,2.97526601876e-15,-3.4896840155e-05,0.00759204588038,-0.00149774364082,-0.00612919907972,0.00349695661113,0.00275117228245,-0.00769331540524,-3.4896840155e-05,0.00119359869556,1.36177439301e+20,1.35564359599e+20,0.00184315787673,-0.0439226532955,1.36179628431e+20,1.36668072151e+20,3.55554443741,-0.0439226532955,-0.0439226532955,-115.814140643,0,1.35652632909e+20,0,0,0,0,0,0,0,-0.518664787254,0.0862505979479,-0.175377227999,948110.599385,2105040.90984,3137.97384529
527,3205.75787709,27.3111609427,0,0,0,1,0,0,0,0,0,0,0,0,0,0,0,0,0,0,0,0,0,0,0,0,0.174621508947,0,0,-6.42400442088,-3.34031445832,14.3592943043,-2.21424179317e-15,-2.42611490661e-05,0.0184339503534,-0.000571573848647,-0.0178866376538,0.00345034131819,0.00199144258909,-0.00342612903253,-2.42611490661e-05,0.00237074645773,1.35694901862e+20,1.35621799077e+20,0.000219775623047,-0.0168090689539,1.35717007092e+20,1.36783159989e+20,1107.00966628,-0.0168090689539,-0.0168090689539,-63.102923243,0,1.35658730127e+20,0,0,0,0,0,0,0,-0.737267735263,0.00568919751261,-0.762838819472,948207.796089,2105015.82682,3205.75787709
527,3198.94883077,28.3484861005,0,0,0,1,0,0,0,0,0,0,0,0,0,0,0,0,0,0,0,0,0,0,0,0,0.175888830314,0,0,-10.5537100694,-6.04741328453,22.2360853379,-4.37117066385e-15,8.08219460657e-06,0.0193292639214,-0.000897244342292,-0.0184239373845,0.00392439995635,0.00290137652414,-0.00449770952845,8.08219460657e-06,0.00254742697995,1.35789169411e+20,1.35621537566e+20,0.000503967029398,-0.0169325060549,1.35808012091e+20,1.36812192646e+20,253.747730956,-0.0169325060549,-0.0169325060549,-118.088380087,0,1.35658735407e+20,0,0,0,0,0,0,0,-0.703339233726,0.0388317031513,-0.736529194868,948200.555385,2105017.69538,3198.94883077
527,3177.60676713,35.1316476066,0,0,0,1,0,0,0,0,0,0,0,0,0,0,0,0,0,0,0,0,0,0,0,0,0.264451293955,0,0,-15.9992396423,-12.8752704347,28.6626295285,1.77149816324e-16,-8.04691341082e-06,0.0142833084681,-0.000431592184231,-0.0138597631973,0.00345009930169,0.0029106275885,-0.00569236074594,-8.04691341082e-06,0.0018685003264,1.36199234593e+20,1.35603263049e+20,0.00179172404749,-0.0255584900135,1.36202780748e+20,1.36867595159e+20,0.623073188433,-0.0255584900135,-0.0255584900135,-134.710771147,0,1.35658668363e+20,0,0,0,0,0,0,0,-0.630398907134,0.0831633565447,-0.552745172564,948177.555326,2105023.63088,3177.60676713
527,3171.26222198,37.3740465598,0,0,0,1,0,0,0,0,0,0,0,0,0,0,0,0,0,0,0,0,0,0,0,0,0.283603561723,0,0,-17.5955762239,-15.6647663623,31.7780691385,-1.36888373328e-15,9.20474580376e-06,0.0135295799452,-0.000379738802374,-0.013140636397,0.00395133488158,0.00322302360822,-0.00646569300973,9.20474580376e-06,0.00183469277693,1.36253057848e+20,1.35599311135e+20,0.00196541885242,-0.0274239208942,1.36256496965e+20,1.36869340036e+20,0.679916467214,-0.0274239208942,-0.0274239208942,-140.840785945,0,1.35658571459e+20,0,0,0,0,0,0,0,-0.612229051263,0.091900454316,-0.497205334839,948169.467523,2105025.71806,3171.26222198
527,3187.38606061,31.1035167667,0,0,0,1,0,0,0,0,0,0,0,0,0,0,0,0,0,0,0,0,0,0,0,0,0.202391378399,0,0,-12.3260040124,-7.98764237214,22.9687015205,-4.62215920264e-16,2.07947560276e-05,0.0170107352469,-0.000641354870612,-0.0163485856203,0.00389032828446,0.00294966574467,-0.00475750012359,2.07947560276e-05,0.00221675293011,1.36047755544e+20,1.35616068813e+20,0.00129781951073,-0.0195138542384,1.36049207912e+20,1.36849546955e+20,4.97425739786,-0.0195138542384,-0.0195138542384,-114.762659291,0,1.35658734315e+20,0,0,0,0,0,0,0,-0.644429630405,0.0662448431212,-0.644518376683,948188.790043,2105020.7316,3187.38606061
527,3179.868208,34.4629005829,0,0,0,1,0,0,0,0,0,0,0,0,0,0,0,0,0,0,0,0,0,0,0,0,0.249076337177,0,0,-15.6469247634,-11.7543184179,27.963017626,1.20222126524e-15,-2.38136492588e-06,0.014768038899,-0.000487963707718,-0.0142824565562,0.00335535798848,0.00292638690832,-0.00532713721466,-2.38136492588e-06,0.00190880214859,1.36171374951e+20,1.35606435602e+20,0.00169842910786,-0.0240609692234,1.36175406877e+20,1.36864646933e+20,-0.157786080425,-0.0240609692234,-0.0240609692234,-132.306305066,0,1.35658699973e+20,0,0,0,0,0,0,0,-0.63134704934,0.0775918358604,-0.57221485544,948180.434,2105022.888,3179.868208
527,3206.66825845,26.987066104,0,0,0,1,0,0,0,0,0,0,0,0,0,0,0,0,0,0,0,0,0,0,0,0,0.172713754447,0,0,-6.0035650766,-3.16364660282,13.659770093,-1.44799274478e-15,-2.28419755661e-05,0.0185732359939,-0.000690823512077,-0.0179052544574,0.00351460204977,0.00196061912633,-0.00330472761098,-2.28419755661e-05,0.00237956659944,1.35682976844e+20,1.3562219274e+20,0.000182740840048,-0.0166232536655,1.3570230857e+20,1.36779267534e+20,1007.08032822,-0.0166232536655,-0.0166232536655,-61.1500367821,0,1.35658728967e+20,0,0,0,0,0,0,0,-0.740345235382,0.00237415131231,-0.768698790833,948208.748311,2105015.58108,3206.66825845
527,3188.77689898,31.0330971147,0,0,0,1,0,0,0,0,0,0,0,0,0,0,0,0,0,0,0,0,0,0,0,0,0.200446665593,0,0,-11.5181210962,-7.06533736726,21.4447142211,-2.7997973548e-15,2.21608343189e-05,0.0173297638652,-0.000736612486318,-0.0165709905446,0.00407126915553,0.00305695027704,-0.0047298288817,2.21608343189e-05,0.00226917291542,1.3602486264e+20,1.35616470101e+20,0.00122778804028,-0.0193244392111,1.36025853731e+20,1.36845769553e+20,8.17457407785,-0.0193244392111,-0.0193244392111,-107.066743492,0,1.35658741041e+20,0,0,0,0,0,0,0,-0.645974323627,0.064003272451,-0.656517329824,948190.402114,2105020.31558,3188.77689898
527,3168.80727425,38.4745920057,0,0,0,1,0,0,0,0,0,0,0,0,0,0,0,0,0,0,0,0,0,0,0,0,0.278785901941,0,0,-15.2094112778,-13.7063379675,27.2643941448,-2.1904240741e-15,3.37546647292e-05,0.0135507931156,-0.000589175659791,-0.0129278627911,0.00423235211831,0.00337681881873,-0.00686188638136,3.37546647292e-05,0.00186952188118,1.36268433434e+20,1.35600305224e+20,0.00200865526825,-0.0269546808315,1.36275322729e+20,1.36868736488e+20,0.0253663522919,-0.0269546808315,-0.0269546808315,-118.064166025,0,1.35658528912e+20,0,0,0,0,0,0,0,-0.602504369879,0.0968350062347,-0.476860402289,948165.899666,2105026.6388,3168.80727425
527,3216.32961188,25.8038610335,0,0,0,1,0,0,0,0,0,0,0,0,0,0,0,0,0,0,0,0,0,0,0,0,0.134343083586,0,0,-6.83685600179,-3.5694569047,19.423660629,1.61071730423e-15,9.70204470399e-06,0.0199584954627,-0.000847463914623,-0.0191013295033,0.00398189611305,0.00198499363451,-0.00247723850891,9.70204470399e-06,0.00258368401667,1.35621904252e+20,1.35630110554e+20,0.000117684869341,-0.0352375908863,1.35615763299e+20,1.36731107412e+20,-182.106737653,-0.0352375908863,-0.0352375908863,-194.762833514,0,1.35658719867e+20,0,0,0,0,0,0,0,-0.756004503648,-0.0269194716651,-0.825165616615,948218.583439,2105013.04298,3216.32961188
527,3213.1140325,25.9189794484,0,0,0,1,0,0,0,0,0,0,0,0,0,0,0,0,0,0,0,0,0,0,0,0,0.151836659083,0,0,-7.06337783928,-3.72698344377,19.210565634,5.38652362799e-15,5.6853593088e-06,0.0195449963053,-0.000888038462028,-0.0186512724839,0.00387290945885,0.00202099318463,-0.00270746724404,5.6853593088e-06,0.00251481943566,1.35649244481e+20,1.35626500738e+20,0.000211781521963,-0.0371061214457,1.35659633e+20,1.36747263597e+20,119.150021198,-0.0371061214457,-0.0371061214457,-192.350662453,0,1.35658723738e+20,0,0,0,0,0,0,0,-0.747274813201,-0.0174046707695,-0.804783141225,948215.37875,2105013.87,3213.1140325
527,3162.83456098,40.1332064846,0,0,0,1,0,0,0,0,0,0,0,0,0,0,0,0,0,0,0,0,0,0,0,0,0.345707766569,0,0,-14.4459103353,-17.0600397049,28.0152748864,-2.55826656063e-15,-3.2573922129e-05,0.0109325350706,-0.000535051211445,-0.0104300577813,0.00360542714678,0.00270918855438,-0.00618536672546,-3.2573922129e-05,0.00146253455932,1.3631396291e+20,1.35586496569e+20,0.00218704894716,-0.0334728704462,1.36318775224e+20,1.36859576969e+20,5.12909647252,-0.0334728704462,-0.0334728704462,-110.321845832,0,1.35658290213e+20,0,0,0,0,0,0,0,-0.606476623135,0.0957823579256,-0.412419615836,948157.285569,2105028.86179,3162.83456098
527,3158.5207202,41.165686978,0,0,0,1,0,0,0,0,0,0,0,0,0,0,0,0,0,0,0,0,0,0,0,0,0.337113768879,0,0,-14.6053520544,-16.3179349741,27.1772491635,-7.67384864191e-16,-1.30610406781e-05,0.0113187045185,-0.000992131785764,-0.0103396337734,0.00518982631512,0.00330783992321,-0.00826946283845,-1.30610406781e-05,0.00173937947573,1.36282267367e+20,1.35588269869e+20,0.00208642848909,-0.0326358150712,1.36287894328e+20,1.3684227923e+20,5.50308288241,-0.0326358150712,-0.0326358150712,-97.6322740207,0,1.35657987931e+20,0,0,0,0,0,0,0,-0.582600530268,0.112255720496,-0.39779079396,948149.155583,2105030.95985,3158.5207202
527,3155.05332976,42.8200862721,0,0,0,1,0,0,0,0,0,0,0,0,0,0,0,0,0,0,0,0,0,0,0,0,0.326536713035,0,0,-15.3850913906,-16.6567398771,26.9086608634,-3.20384093981e-15,5.04268568701e-05,0.011429904686,-0.000934655718654,-0.0104448221105,0.00507078225362,0.00365093542946,-0.00789510838298,5.04268568701e-05,0.00172481561563,1.36321195906e+20,1.35590452294e+20,0.00219690170926,-0.031605609832,1.3632643371e+20,1.36831804681e+20,4.6843079934,-0.031605609832,-0.031605609832,-99.4936610422,0,1.35657715237e+20,0,0,0,0,0,0,0,-0.544286944858,0.119536305326,-0.37988114295,948144.650581,2105032.12243,3155.05332976
527,3109.73901057,52.9313907141,0,0,0,1,0,0,0,0,0,0,0,0,0,0,0,0,0,0,0,0,0,0,0,0,0.481545625522,0,0,-16.8874997608,-39.203124041,69.5034791889,4.33961615046e-16,2.15615058375e-05,0.00622916990492,-0.0057059124092,-0.000501695989886,0.00621206153585,0.00489595843792,-0.0122738125486,2.15615058375e-05,0.00189885823138,1.3490278163e+20,1.35558468766e+20,0,-0.356393034158,1.34903626949e+20,1.35661162243e+20,3.40962709998,-0.356393034158,-0.356393034158,-186.539567477,0,1.35290811484e+20,0,0,0,0,0,0,0,-0.166239164312,0.0526439575766,-0.0367953903495,948019.149195,2105064.50989,3109.73901057
527,3109.61018889,52.8952886905,0,0,0,1,0,0,0,0,0,0,0,0,0,0,0,0,0,0,0,0,0,0,0,0,0.4818438566,0,0,-16.1582170109,-38.3465696532,68.4005324796,4.01788660533e-16,2.25938628193e-05,0.00613814015741,-0.00554052566854,-0.000575020626053,0.00612790327142,0.00472715138161,-0.0121519784147,2.25938628193e-05,0.00186235690268,1.348871165e+20,1.3555840723e+20,0,-0.363796615477,1.34887970267e+20,1.3564817217e+20,3.34390697101,-0.363796615477,-0.363796615477,-183.516630589,0,1.35283823253e+20,0,0,0,0,0,0,0,-0.165019516132,0.0515992441689,-0.0353038814931,948018.426852,2105064.6963,3109.61018889
527,3116.08783811,51.4432946194,0,0,0,1,0,0,0,0,0,0,0,0,0,0,0,0,0,0,0,0,0,0,0,0,0.471001299459,0,0,-13.7681809079,-27.3829639354,42.4089634495,7.06557892866e-16,-2.01063851945e-05,0.00439151352235,-0.00487333890101,0.00046171899346,0.00918744243656,0.00316814598305,-0.0123804287045,-2.01063851945e-05,0.00202125735169,1.35178937371e+20,1.3556064436e+20,0,-0.225926229906,1.35179964332e+20,1.35941708856e+20,2.36352441389,-0.225926229906,-0.225926229906,-93.6969633956,0,1.35463933942e+20,0,0,0,0,0,0,0,-0.292639441054,0.110304179353,-0.0683760660449,948036.752049,2105059.96721,3116.08783811
527,3114.49361266,52.2440758208,0,0,0,1,0,0,0,0,0,0,0,0,0,0,0,0,0,0,0,0,0,0,0,0,0.474871828991,0,0,-15.0800543671,-28.0495873401,47.9770894578,2.98364260926e-16,1.23104802596e-05,0.00687834784325,-0.00645342629642,-0.000412611066569,0.00970105711543,0.00474596690382,-0.0136329400867,1.23104802596e-05,0.00238283250081,1.35070094789e+20,1.35559845772e+20,0,-0.277338764832,1.35071123544e+20,1.35852157927e+20,2.59626961841,-0.277338764832,-0.277338764832,-117.121760501,0,1.35398084986e+20,0,0,0,0,0,0,0,-0.236345787685,0.0956026965043,-0.057594871391,948030.541899,2105061.56983,3114.49361266
527,3108.58000825,52.611383187,0,0,0,1,0,0,0,0,0,0,0,0,0,0,0,0,0,0,0,0,0,0,0,0,0.492868038834,0,0,-2.74607314442,-20.4782840634,40.2536579465,-8.51638943639e-19,2.30053156795e-05,0.00333994795904,-0.00300357863495,-0.000313364008403,0.00482536931746,0.00277983246544,-0.00995809744585,2.30053156795e-05,0.00130394104992,1.34639959876e+20,1.3555613264e+20,0,-0.480620365295,1.34640870075e+20,1.35470356232e+20,1.80625082742,-0.480620365295,-0.480620365295,-106.524420688,0,1.35181378638e+20,0,0,0,0,0,0,0,-0.152462885363,0.0374192306345,-0.0124298101773,948008.828866,2105067.1732,3108.58000825
527,3125.21439872,52.4604334676,0,0,0,1,0,0,0,0,0,0,0,0,0,0,0,0,0,0,0,0,0,0,0,0,0.451307098947,0,0,-21.8322932191,-35.2984071425,47.7801770119,-1.08840381961e-15,6.13126073046e-05,0.00525764907946,-0.00161875427709,-0.00357758219507,0.00376411092297,0.00293239990253,-0.00702216353859,6.13126073046e-05,0.000967128648667,1.35896437956e+20,1.35564707854e+20,0.000997310707512,-0.0437582454198,1.35896810745e+20,1.36426008252e+20,2.1032138108,-0.0437582454198,-0.0437582454198,-92.2800829086,0,1.35623955944e+20,0,0,0,0,0,0,0,-0.399605302084,0.123181734794,-0.156949275626,948078.403195,2105049.21853,3125.21439872
527,3123.98270047,52.6851576222,0,0,0,1,0,0,0,0,0,0,0,0,0,0,0,0,0,0,0,0,0,0,0,0,0.471782596902,0,0,-22.917176197,-37.6039450159,56.6425480241,-5.86110935099e-16,2.62369690492e-05,0.00406175947796,-0.00157791126517,-0.00245761124374,0.0030500813155,0.0027595873306,-0.00629194364413,2.62369690492e-05,0.000808753044433,1.35846403938e+20,1.35560483233e+20,0.000859589702327,-0.0457525589206,1.35846514761e+20,1.3639221568e+20,2.25438708146,-0.0457525589206,-0.0457525589206,-109.947655645,0,1.3561900893e+20,0,0,0,0,0,0,0,-0.396779147182,0.114578103296,-0.142221362933,948075.396648,2105049.99441,3123.98270047
527,3122.68016732,53.2825571362,0,0,0,1,0,0,0,0,0,0,0,0,0,0,0,0,0,0,0,0,0,0,0,0,0.465390013445,0,0,-16.6915757594,-33.1326720991,42.3085082808,6.60467909208e-17,4.35181687556e-05,0.00427891305699,-0.00117769628196,-0.00305769860628,0.00310805145895,0.00214407389843,-0.00714607583159,4.35181687556e-05,0.000877444159812,1.35796975084e+20,1.3556180214e+20,0.000707022045278,-0.0451299212919,1.35797487834e+20,1.3635364875e+20,1.77365405089,-0.0451299212919,-0.0451299212919,-69.1407249388,0,1.3561194343e+20,0,0,0,0,0,0,0,-0.39407218652,0.111314486976,-0.120655935817,948071.861868,2105050.90661,3122.68016732
527,3129.23572218,49.7323997615,0,0,0,1,0,0,0,0,0,0,0,0,0,0,0,0,0,0,0,0,0,0,0,0,0.417662061431,0,0,-20.1437474113,-28.677512607,40.3632270023,2.23595352602e-15,6.13251686701e-05,0.00669650710295,-0.0023145641824,-0.00432061775188,0.00565357741339,0.00322508052786,-0.00841882253632,6.13251686701e-05,0.00133005922866,1.35961892977e+20,1.35571649904e+20,0.00117322363207,-0.0404812187658,1.35963472684e+20,1.36500476289e+20,2.57557876879,-0.0404812187658,-0.0404812187658,-83.3077289717,0,1.35638632909e+20,0,0,0,0,0,0,0,-0.425629100395,0.142367902507,-0.187492832609,948086.376884,2105047.1608,3129.23572218
527,3120.0789368,51.9388823141,0,0,0,1,0,0,0,0,0,0,0,0,0,0,0,0,0,0,0,0,0,0,0,0,0.511694650047,0,0,-8.0741382921,-39.2474420398,48.6934154556,-6.10763932265e-16,-1.89601122885e-05,0.00281797197493,-0.00224334038684,-0.000593591700381,0.00294217109376,0.00111712654908,-0.00593813715222,-1.89601122885e-05,0.000651838773718,1.35541442454e+20,1.35552248211e+20,3.89185491194e-05,-0.0608523415347,1.35542415023e+20,1.36200600962e+20,2.51833881289,-0.0608523415347,-0.0608523415347,-11.4864475622,0,1.35590137003e+20,0,0,0,0,0,0,0,-0.40520935918,0.0806787366617,-0.0555966748198,948058.719703,2105054.29814,3120.0789368
527,3120.13476959,51.1911906932,0,0,0,1,0,0,0,0,0,0,0,0,0,0,0,0,0,0,0,0,0,0,0,0,0.490633997293,0,0,-9.57354968329,-38.3080595126,52.846622962,-1.75430687772e-15,-4.01727278272e-05,0.00190158316181,-0.002455819618,0.00051406372837,0.00444796649742,0.00107625543537,-0.00660417003819,-4.01727278272e-05,0.000828651186621,1.35394799809e+20,1.35556593647e+20,6.62073029317e-05,-0.134382589627,1.3539598281e+20,1.36126961196e+20,3.0194969017,-0.134382589627,-0.134382589627,-64.084362205,0,1.35570946305e+20,0,0,0,0,0,0,0,-0.398894142017,0.0967707280779,-0.0564739578033,948051.982143,2105056.03687,3120.13476959
527,3119.87373386,51.0788507713,0,0,0,1,0,0,0,0,0,0,0,0,0,0,0,0,0,0,0,0,0,0,0,0,0.488301429544,0,0,-9.68614258399,-33.9360455649,41.5805798975,-1.67270883072e-15,-3.63243852248e-05,0.00136240026849,-0.00196185371127,0.000563129057557,0.00515428655238,0.000836464792826,-0.00660479961118,-3.63243852248e-05,0.000828252284571,1.35325694788e+20,1.35557074913e+20,0,-0.156611272875,1.3532687525e+20,1.36086063472e+20,2.69263048183,-0.156611272875,-0.156611272875,-63.8102622589,0,1.35549481368e+20,0,0,0,0,0,0,0,-0.391109344798,0.10714164641,-0.0634422893619,948048.50453,2105056.93431,3119.87373386
527,3118.18376481,50.9101364915,0,0,0,1,0,0,0,0,0,0,0,0,0,0,0,0,0,0,0,0,0,0,0,0,0.47035285786,0,0,-12.1345235241,-30.8026431153,43.3975124329,-5.14758009404e-16,-4.62446553762e-05,0.00148757528608,-0.00305731187472,0.00152349193326,0.00748834078397,0.00156823173274,-0.00982655895459,-4.62446553762e-05,0.00140084531616,1.35261972352e+20,1.35560778153e+20,0,-0.18670205708,1.35263079673e+20,1.36021455284e+20,2.57397398922,-0.18670205708,-0.18670205708,-80.244209186,0,1.3551715042e+20,0,0,0,0,0,0,0,-0.353404480618,0.115235635688,-0.0724109446887,948043.05463,2105058.34074,3118.18376481
527,3109.91353105,53.0329431791,0,0,0,1,0,0,0,0,0,0,0,0,0,0,0,0,0,0,0,0,0,0,0,0,0.480939015471,0,0,-17.0921293981,-38.9178150683,68.3577274145,3.52154291657e-16,2.00961664339e-05,0.00615569202598,-0.00574185313247,-0.000393742727085,0.00637513291151,0.00481265573498,-0.0122518173213,2.00961664339e-05,0.00189557107197,1.3491824495e+20,1.35558593923e+20,0,-0.349087180038,1.34919097093e+20,1.35674345393e+20,3.35472775848,-0.349087180038,-0.349087180038,-182.46802052,0,1.35297216386e+20,0,0,0,0,0,0,0,-0.171516528234,0.0558276336715,-0.0387257618021,948019.900371,2105064.31603,3109.91353105
527,3117.28481579,50.5528928608,0,0,0,1,0,0,0,0,0,0,0,0,0,0,0,0,0,0,0,0,0,0,0,0,0.464167030236,0,0,-11.7841749435,-24.6669139723,37.3984197192,7.76524220753e-16,-4.49925922461e-05,0.0030458317066,-0.00440206454059,0.00131124024174,0.00991720391392,0.00253474649822,-0.0124073166934,-4.49925922461e-05,0.00201952197453,1.35219357102e+20,1.35562054486e+20,0,-0.206831890858,1.35220484149e+20,1.35985340531e+20,2.17318967127,-0.206831890858,-0.206831890858,-77.2389897,0,1.35486743049e+20,0,0,0,0,0,0,0,-0.319912044149,0.117489415829,-0.0737085510457,948040.046784,2105059.11696,3117.28481579
527,3108.5489076,49.1368458843,0,0,0,1,0,0,0,0,0,0,0,0,0,0,0,0,0,0,0,0,0,0,0,0,0.497375711502,0,0,3.11534419997,-22.2498325831,40.5101290856,6.00488823977e-17,-5.45302150381e-05,0.00152764710218,-0.00251695893736,0.000934781620143,0.00604788711283,0.00152969816727,-0.0106195462475,-5.45302150381e-05,0.00140970378878,1.34436584123e+20,1.35555202577e+20,0,-0.576784015754,1.34437539052e+20,1.35340097933e+20,1.90597650224,-0.576784015754,-0.576784015754,-105.591163439,0,1.35007948544e+20,0,0,0,0,0,0,0,-0.159074618682,0.0245585941152,0.00473455671197,948001.511294,2105069.0616,3108.5489076
527,3108.615875,48.876516373,0,0,0,1,0,0,0,0,0,0,0,0,0,0,0,0,0,0,0,0,0,0,0,0,0.496575141727,0,0,3.5012232129,-22.5508366285,40.9268668399,6.14186010148e-17,-5.8732094941e-05,0.00143915297614,-0.0024690540627,0.000971168991619,0.00613675659314,0.00144917176968,-0.0107139673839,-5.8732094941e-05,0.00142483420197,1.34421540461e+20,1.35555367761e+20,0,-0.583898170049,1.34422529777e+20,1.35332180837e+20,1.96164432591,-0.583898170049,-0.583898170049,-106.959245932,0,1.34998080877e+20,0,0,0,0,0,0,0,-0.160108832238,0.0239006123424,0.00569810224052,948001.058036,2105069.17857,3108.615875
527,3134.35141264,48.5291652567,0,0,0,1,0,0,0,0,0,0,0,0,0,0,0,0,0,0,0,0,0,0,0,0,0.426824830095,0,0,-14.0042001199,-27.7944182649,34.5218196194,3.05846132367e-15,8.99213963409e-06,0.00500985415007,-0.00136296140805,-0.00363790060238,0.0044262666315,0.00179041549232,-0.00711834292485,8.99213963409e-06,0.000986036771902,1.36031297265e+20,1.35569759352e+20,0.00138756386281,-0.0413736724336,1.36035086e+20,1.36582382901e+20,2.3635607943,-0.0413736724336,-0.0413736724336,-73.9168843301,0,1.35646456299e+20,0,0,0,0,0,0,0,-0.503771968918,0.130893936033,-0.18877944099,948097.28416,2105044.34602,3134.35141264
527,3132.55015017,48.9959616609,0,0,0,1,0,0,0,0,0,0,0,0,0,0,0,0,0,0,0,0,0,0,0,0,0.427103373463,0,0,-16.5122830287,-29.1481128995,37.1228218334,3.64874309337e-15,1.75592453822e-05,0.00548871140749,-0.00173093250658,-0.00374021965552,0.00463344774835,0.00230076751276,-0.00751132605829,1.75592453822e-05,0.00108020445044,1.36023284958e+20,1.35569701845e+20,0.00136364861528,-0.0414008025577,1.36025576836e+20,1.36557907647e+20,2.32636004396,-0.0414008025577,-0.0414008025577,-80.2743829211,0,1.35644474144e+20,0,0,0,0,0,0,0,-0.47994228586,0.136871426492,-0.18735025481,948093.771331,2105045.25256,3132.55015017
527,3136.85874251,47.4146555134,0,0,0,1,0,0,0,0,0,0,0,0,0,0,0,0,0,0,0,0,0,0,0,0,0.45836139447,0,0,-11.5893728221,-32.5153578516,38.2482051026,3.82087128487e-16,-2.32428407938e-05,0.00661142644341,-0.00157898593187,-0.00505568335233,0.00349077022536,0.00235851336901,-0.00712244240087,-2.32428407938e-05,0.00105022127244,1.36094606067e+20,1.35563252424e+20,0.00159745731132,-0.0444453338038,1.3609663843e+20,1.36632165105e+20,3.02868296331,-0.0444453338038,-0.0444453338038,-91.394799778,0,1.3565126704e+20,0,0,0,0,0,0,0,-0.525359116581,0.0917046013014,-0.166177654097,948105.284431,2105042.28144,3136.85874251
527,3135.13817836,48.2513904455,0,0,0,1,0,0,0,0,0,0,0,0,0,0,0,0,0,0,0,0,0,0,0,0,0.435725374778,0,0,-13.5300875856,-29.8111739941,35.756196949,2.89097926251e-15,-1.14475915757e-06,0.00517294196647,-0.0010075534468,-0.00416653327883,0.00392084654238,0.00190862847258,-0.00681633065169,-1.14475915757e-06,0.000933570142609,1.36050924669e+20,1.35567922845e+20,0.00145209279427,-0.0422405854858,1.36053628227e+20,1.36596119523e+20,2.51468389974,-0.0422405854858,-0.0422405854858,-80.3313344524,0,1.35647703658e+20,0,0,0,0,0,0,0,-0.51579620452,0.122177501501,-0.183314467197,948099.458977,2105043.78478,3135.13817836
527,3121.60135223,53.1347759282,0,0,0,1,0,0,0,0,0,0,0,0,0,0,0,0,0,0,0,0,0,0,0,0,0.469522022473,0,0,-10.6372433104,-27.8505748228,33.5252433301,1.16013873138e-15,4.40532022766e-05,0.00362025126794,-0.000882674086857,-0.00269352397881,0.00308950390058,0.00164471186336,-0.0068315411793,4.40532022766e-05,0.000810664956259,1.35715595387e+20,1.3556094959e+20,0.000509699687723,-0.0525629372252,1.35716774804e+20,1.36306843696e+20,1.76100315607,-0.0525629372252,-0.0525629372252,-34.9620452095,0,1.35604442221e+20,0,0,0,0,0,0,0,-0.390226645902,0.0995650257196,-0.0972285110256,948067.797949,2105051.95537,3121.60135223
527,3120.49750061,52.7368015782,0,0,0,1,0,0,0,0,0,0,0,0,0,0,0,0,0,0,0,0,0,0,0,0,0.494265561941,0,0,-9.3429703948,-35.0711743423,40.2688624261,-1.22293028606e-16,1.50097660874e-05,0.00329779776167,-0.00157499502786,-0.00170779296773,0.0030805263545,0.0012305958769,-0.006371083538,1.50097660874e-05,0.000719422960448,1.35633348163e+20,1.35555844287e+20,0.000289588790529,-0.0568271478953,1.35634389009e+20,1.36251771489e+20,2.12123823523,-0.0568271478953,-0.0568271478953,-24.5892564319,0,1.35597306509e+20,0,0,0,0,0,0,0,-0.396912131506,0.0885908558141,-0.0741139487816,948062.98164,2105053.19829,3120.49750061
527,3120.17036166,52.4152819452,0,0,0,1,0,0,0,0,0,0,0,0,0,0,0,0,0,0,0,0,0,0,0,0,0.522359685075,0,0,-7.58372954571,-36.8511530291,42.9527376818,-4.65333465758e-16,-3.13173256635e-05,0.00307326812658,-0.00220599511425,-0.000898590337993,0.00295954545161,0.00123316566491,-0.00564063374566,-3.13173256635e-05,0.00063542685848,1.35577405068e+20,1.35550047784e+20,0.00015626558727,-0.062301576002,1.35578381073e+20,1.36220457533e+20,2.29537204726,-0.062301576002,-0.062301576002,-17.7093984888,0,1.35593588262e+20,0,0,0,0,0,0,0,-0.402013837285,0.0794865773347,-0.0559612307925,948060.472332,2105053.84585,3120.17036166
527,3130.28134241,49.1496305537,0,0,0,1,0,0,0,0,0,0,0,0,0,0,0,0,0,0,0,0,0,0,0,0,0.420877446915,0,0,-19.3007930331,-28.3350058123,39.4256715832,3.86396217761e-15,3.4662701592e-05,0.00639455297749,-0.00243987045636,-0.00392001981954,0.00588755972407,0.00314128839844,-0.00879595443458,3.4662701592e-05,0.00136374192658,1.35980960851e+20,1.35570986482e+20,0.00123254363902,-0.0407943973119,1.35982438627e+20,1.3651856582e+20,2.53384507919,-0.0407943973119,-0.0407943973119,-79.0784579376,0,1.35640997839e+20,0,0,0,0,0,0,0,-0.440461605169,0.144553110619,-0.190181934254,948088.447471,2105046.62646,3130.28134241
527,3108.66185266,48.793013565,0,0,0,1,0,0,0,0,0,0,0,0,0,0,0,0,0,0,0,0,0,0,0,0,0.495865820188,0,0,3.72573766599,-22.5072520245,40.6538550179,5.84697656236e-17,-5.8443550449e-05,0.00145067613513,-0.00251112747634,0.00100200779076,0.00630569581894,0.00145566714388,-0.0108981379102,-5.8443550449e-05,0.00146522264285,1.34408128124e+20,1.35555514112e+20,0,-0.590243457018,1.34409122604e+20,1.353250568e+20,1.96057326099,-0.590243457018,-0.590243457018,-106.263615184,0,1.34990165697e+20,0,0,0,0,0,0,0,-0.160635280619,0.0232063070744,0.00627914658161,948000.65674,2105069.28213,3108.66185266
527,3073.02175738,20.0591148367,0,0,0,1,0,0,0,0,0,0,0,0,0,0,0,0,0,0,0,0,0,0,0,0,0.0951218146711,0,0,-0.570236601778,-2.55671825531,17.2901009981,4.94213266196e-15,4.59544616279e-06,0.0443641747413,-0.00311643940177,-0.0412431398934,-0.00247585767171,0.00515388994067,-0.00483739227771,4.59544616279e-06,0.00896922453086,1.28110654977e+20,1.35638203996e+20,0,-3.58387593459,1.28118649957e+20,1.28939072403e+20,12.7738829475,-3.58387593459,-3.58387593459,-200.455700744,0,1.27556368475e+20,0,0,0,0,0,0,0,-0.410499154456,0.073631874797,-0.3638427046,947766.998689,2105129.58098,3073.02175738
527,3068.83818078,20.0544204981,0,0,0,1,0,0,0,0,0,0,0,0,0,0,0,0,0,0,0,0,0,0,0,0,0.0941402434082,0,0,-0.477702134235,-2.39659344566,16.0059872372,5.66876673903e-15,6.50883503134e-06,0.0441990126765,-0.00311684381983,-0.0410756600217,-0.00276784313383,0.00539228814163,-0.00493031495574,6.50883503134e-06,0.00894204489755,1.2810924504e+20,1.35638406545e+20,0,-3.58454946719,1.28116458886e+20,1.28932238127e+20,11.0707312816,-3.58454946719,-3.58454946719,-181.928494094,0,1.27582723204e+20,0,0,0,0,0,0,0,-0.408790523351,0.0774130722168,-0.361186396163,947762.488107,2105130.745,3068.83818078
527,3110.82668336,19.9964307479,0,0,0,1,0,0,0,0,0,0,0,0,0,0,0,0,0,0,0,0,0,0,0,0,0.129622966275,0,0,-0.497993311277,-5.71706757711,21.0445483649,3.05540249063e-15,-7.55255111403e-06,0.027801370371,-0.00217495934748,-0.0256339635746,0.00318945610939,0.00315605977572,-0.00971541744553,-7.55255111403e-06,0.00514611465301,1.28520551648e+20,1.35631084565e+20,0,-3.3880872795,1.28524957162e+20,1.2947944712e+20,9.19310235861,-3.3880872795,-3.3880872795,-190.165765819,0,1.2731811241e+20,0,0,0,0,0,0,0,-0.306916618153,0.00615252429675,-0.167066327811,947816.964459,2105116.68659,3110.82668336
527,3109.13957247,20.0079191691,0,0,0,1,0,0,0,0,0,0,0,0,0,0,0,0,0,0,0,0,0,0,0,0,0.12096053611,0,0,-0.841877428014,-5.29340098368,20.0942810239,4.21979308289e-15,9.08774431693e-07,0.030410654753,-0.00244710232516,-0.0279626436534,0.00259763479882,0.00366485171941,-0.00894623950002,9.08774431693e-07,0.00560781506832,1.28465624793e+20,1.35632872074e+20,0,-3.41431336167,1.28470764816e+20,1.2938855286e+20,10.1909463194,-3.41431336167,-3.41431336167,-193.031212071,0,1.27335871254e+20,0,0,0,0,0,0,0,-0.329546229197,0.0162098005162,-0.196117778978,947813.289384,2105117.635,3109.13957247
527,3059.09404005,20.0368231284,0,0,0,1,0,0,0,0,0,0,0,0,0,0,0,0,0,0,0,0,0,0,0,0,0.113303672178,0,0,-1.76630244024,-4.86936732401,27.0974482642,-6.906199563e-16,-1.15141106141e-06,0.0450735950797,-0.00336498724735,-0.0417097592435,-0.00280118512984,0.00671354038735,-0.00721602279628,-1.15141106141e-06,0.00928436306968,1.28121861229e+20,1.35634452098e+20,0,-3.57852139931,1.28128318e+20,1.28927525152e+20,14.9690011743,-3.57852139931,-3.57852139931,-273.013696855,0,1.27666749696e+20,0,0,0,0,0,0,0,-0.438063922217,0.0964286484978,-0.361918798695,947750.945928,2105133.72363,3059.09404005
527,3051.72734685,20.0101634309,0,0,0,1,0,0,0,0,0,0,0,0,0,0,0,0,0,0,0,0,0,0,0,0,0.104376676005,0,0,-0.968542631536,-4.32317452985,18.0255679337,1.09961534446e-15,-8.42209839373e-07,0.0480902914572,-0.00214468732419,-0.0459464463428,-0.0047733266536,0.00958820893142,-0.00738325549216,-8.42209839373e-07,0.0104283280576,1.28158717408e+20,1.3563629421e+20,0,-3.56091105105,1.28164680362e+20,1.28965436283e+20,8.66606430896,-3.56091105105,-3.56091105105,-179.243919323,0,1.27728546326e+20,0,0,0,0,0,0,0,-0.472908247054,0.128442526238,-0.368546534968,947741.814835,2105136.08004,3051.72734685
527,3107.29774722,20.0196180067,0,0,0,1,0,0,0,0,0,0,0,0,0,0,0,0,0,0,0,0,0,0,0,0,0.114343347393,0,0,-0.723436303757,-4.54741839884,17.5512929816,2.98177031542e-15,5.76645131001e-07,0.0320503817664,-0.00238998025467,-0.0296598248666,0.00245271209618,0.00396096125481,-0.00855231143462,5.76645131001e-07,0.00598068430701,1.28423556866e+20,1.35634237552e+20,0,-3.43440132339,1.28429412729e+20,1.29332236063e+20,9.79600088511,-3.43440132339,-3.43440132339,-176.7365786,0,1.27344195318e+20,0,0,0,0,0,0,0,-0.341043028865,0.0222088160649,-0.217797223697,947810.119237,2105118.4531,3107.29774722
527,3080.68393101,20.0602818206,0,0,0,1,0,0,0,0,0,0,0,0,0,0,0,0,0,0,0,0,0,0,0,0,0.087061878919,0,0,-0.118323978431,-1.91835116982,13.7237546561,-3.3934419931e-19,6.85804034154e-06,0.0431691638236,-0.00240709155009,-0.0407552142331,-0.00234676443794,0.00484576101362,-0.00452115888753,6.85804034154e-06,0.00870492922334,1.28131515634e+20,1.35639867201e+20,0,-3.57390802327,1.2814011568e+20,1.28967383451e+20,11.4955651183,-3.57390802327,-3.57390802327,-170.615460199,0,1.27494163772e+20,0,0,0,0,0,0,0,-0.402156006597,0.0689825536776,-0.35927671334,947775.560903,2105127.37138,3080.68393101
527,3112.8205814,20.0019371184,0,0,0,1,0,0,0,0,0,0,0,0,0,0,0,0,0,0,0,0,0,0,0,0,0.140381749743,0,0,-0.116582457748,-4.3018088287,15.3595641309,-1.3406706166e-17,-1.02870501901e-05,0.0247032312006,-0.00174167423778,-0.022971844013,0.003900727259,0.00280943240429,-0.0111574018824,-1.02870501901e-05,0.00463775749509,1.2859544045e+20,1.35628864464e+20,0,-3.35232595956,1.28598334366e+20,1.29593632583e+20,4.74353712991,-3.35232595956,-3.35232595956,-123.965731797,0,1.27284750642e+20,0,0,0,0,0,0,0,-0.270484051733,-0.00660014234508,-0.121052927008,947821.697674,2105115.46512,3112.8205814
527,3044.02287964,20.0023419038,0,0,0,1,0,0,0,0,0,0,0,0,0,0,0,0,0,0,0,0,0,0,0,0,0.105886072768,0,0,-1.22397441156,-5.42799781148,18.5530414029,-1.66630333193e-15,-4.1631260017e-05,0.0520210930153,-0.000543393058377,-0.0515193312169,-0.011609474573,0.0163235530788,-0.00572484858111,-4.1631260017e-05,0.0124237871482,1.2822414272e+20,1.3563598274e+20,0,-3.52965322756,1.28226844886e+20,1.29048526417e+20,5.60020262854,-3.52965322756,-3.52965322756,-193.582721243,0,1.2779477124e+20,0,0,0,0,0,0,0,-0.539979216238,0.245249939309,-0.396113135773,947731.526078,2105138.73521,3044.02287964
527,3041.7331198,19.9999762001,0,0,0,1,0,0,0,0,0,0,0,0,0,0,0,0,0,0,0,0,0,0,0,0,0.102995115447,0,0,-0.95643586668,-4.82299931538,15.2228900528,1.40332926192e-15,-4.90379335183e-05,0.0520291090145,0.000418016495384,-0.0524961634434,-0.0128968987909,0.0176571109486,-0.00494552362388,-4.90379335183e-05,0.0127129350768,1.28245292598e+20,1.35636579301e+20,0,-3.51954977277,1.28246915188e+20,1.29071410685e+20,3.69532679723,-3.51954977277,-3.51954977277,-167.068211436,0,1.27821421837e+20,0,0,0,0,0,0,0,-0.556993353055,0.275603031753,-0.410594558898,947728.567237,2105139.49878,3041.7331198
527,3115.64549696,20.0075591507,0,0,0,1,0,0,0,0,0,0,0,0,0,0,0,0,0,0,0,0,0,0,0,0,0.158324414675,0,0,1.26301685233,-6.28575724936,25.1266958521,3.45054914644e-16,-1.00686437409e-05,0.0153554598749,-0.00136864670812,-0.0139968818105,0.00370595051751,0.000783320681682,-0.0107656531176,-1.00686437409e-05,0.0028418260147,1.28800387991e+20,1.3562516198e+20,0,-3.25449754246,1.2880133441e+20,1.29927923019e+20,4.63991046091,-3.25449754246,-3.25449754246,-186.784724939,0,1.27241935257e+20,0,0,0,0,0,0,0,-0.183812409095,-0.0178393342126,-0.0585628587825,947832.366924,2105112.71176,3115.64549696
527,3113.86609873,20.0020111644,0,0,0,1,0,0,0,0,0,0,0,0,0,0,0,0,0,0,0,0,0,0,0,0,0.154296235131,0,0,0.250004148484,-6.04720447037,21.3033801308,3.23239781241e-16,-1.61994412299e-05,0.0209388744632,-0.00161728146895,-0.0193377924355,0.00411572163693,0.00207048546386,-0.0114904684489,-1.61994412299e-05,0.00390346256859,1.28657832531e+20,1.35625993198e+20,0,-3.32253751217,1.28660056479e+20,1.29700488744e+20,5.45825491521,-3.32253751217,-3.32253751217,-163.328888671,0,1.27273499428e+20,0,0,0,0,0,0,0,-0.238780649361,-0.0111686077985,-0.0948392967141,947825.187342,2105114.56456,3113.86609873
527,3063.70379852,20.0474867732,0,0,0,1,0,0,0,0,0,0,0,0,0,0,0,0,0,0,0,0,0,0,0,0,0.102424767741,0,0,-0.974821315029,-3.57572515629,20.3558299696,1.48356190813e-15,5.45516909071e-06,0.0439913881748,-0.00323653651257,-0.0407493964931,-0.00260204263815,0.0060517026451,-0.00595485438764,5.45516909071e-06,0.00892436708048,1.28117487636e+20,1.35636696994e+20,0,-3.58061091409,1.28123922541e+20,1.28933432337e+20,12.2506238322,-3.58061091409,-3.58061091409,-215.059731627,0,1.27622100822e+20,0,0,0,0,0,0,0,-0.416957515281,0.0855482907775,-0.356416457528,947756.607455,2105132.26259,3063.70379852
527,3097.92100382,20.0494474302,0,0,0,1,0,0,0,0,0,0,0,0,0,0,0,0,0,0,0,0,0,0,0,0,0.10154064948,0,0,-0.692658622864,-3.20904559347,15.6214201533,1.78912541352e-15,2.74133275091e-06,0.0375137247912,-0.00230696180892,-0.0352040216496,0.000477359452992,0.00500584078011,-0.00628699014666,2.74133275091e-06,0.00727244404355,1.28286351006e+20,1.35636879442e+20,0,-3.49993719683,1.28293375936e+20,1.29138861025e+20,11.2443877034,-3.49993719683,-3.49993719683,-178.395001698,0,1.27373014331e+20,0,0,0,0,0,0,0,-0.368170940727,0.0476880158307,-0.28948964119,947796.755731,2105121.90175,3097.92100382
527,3094.87084343,20.0521376657,0,0,0,1,0,0,0,0,0,0,0,0,0,0,0,0,0,0,0,0,0,0,0,0,0.101454096055,0,0,-0.80788642869,-3.11403691912,16.2223262659,-1.68077994646e-15,1.626225033e-06,0.0391094732665,-0.00222689620281,-0.0368809508387,-0.00023306547314,0.00502577738835,-0.00570363116377,1.626225033e-06,0.00765723827819,1.28244824651e+20,1.35636897302e+20,0,-3.51977304808,1.28252265771e+20,1.29088516777e+20,11.9631862839,-3.51977304808,-3.51977304808,-185.863358202,0,1.27381652998e+20,0,0,0,0,0,0,0,-0.379537909402,0.0528098637768,-0.306890344555,947792.60228,2105122.97361,3094.87084343
527,3101.42419182,20.0577619923,0,0,0,1,0,0,0,0,0,0,0,0,0,0,0,0,0,0,0,0,0,0,0,0,0.110173341024,0,0,-0.605279611235,-2.7327361158,12.0542696925,-4.11256363828e-16,6.74542548709e-07,0.0359375502876,-0.002279940678,-0.0336569350671,0.000947395290896,0.00480755022702,-0.00743164419907,6.74542548709e-07,0.006899222021,1.28331470716e+20,1.35635098047e+20,0,-3.47838324949,1.28338068341e+20,1.29198787152e+20,8.07488320722,-3.47838324949,-3.47838324949,-133.917044978,0,1.27366204874e+20,0,0,0,0,0,0,0,-0.358690965394,0.0412397625002,-0.268405027728,947801.454275,2105120.68922,3101.42419182
527,3051.0622551,20.0090833553,0,0,0,1,0,0,0,0,0,0,0,0,0,0,0,0,0,0,0,0,0,0,0,0,0.104462067221,0,0,-0.964592790629,-4.34945063181,17.6896930693,1.25352412779e-15,-3.57415495797e-06,0.0484146094895,-0.00203738023376,-0.0463808034107,-0.00526386016781,0.0101039556134,-0.00728870195319,-3.57415495797e-06,0.0105810756488,1.28163822017e+20,1.35636276589e+20,0,-3.55847217829,1.28169559612e+20,1.28971970662e+20,8.2519677903,-3.55847217829,-3.55847217829,-176.234231512,0,1.27734453777e+20,0,0,0,0,0,0,0,-0.478268385362,0.13701176348,-0.370507745852,947740.938776,2105136.30612,3051.0622551
527,3116.25896993,20.0064976579,0,0,0,1,0,0,0,0,0,0,0,0,0,0,0,0,0,0,0,0,0,0,0,0,0.171655603334,0,0,1.65277284715,-5.16033389693,20.2957825103,2.59482216928e-16,-1.74611840281e-05,0.0104051152851,-0.000673360325376,-0.00974921614379,0.00319875951492,-7.33050967904e-05,-0.0102701332837,-1.74611840281e-05,0.00206902942688,1.28917050885e+20,1.356224111e+20,0,-3.19881425568,1.28917423552e+20,1.30125037538e+20,3.35061601625,-3.19881425568,-3.19881425568,-150.38785379,0,1.27232199396e+20,0,0,0,0,0,0,0,-0.141154041667,-0.0193048403208,-0.0352628365454,947837.512476,2105111.38388,3116.25896993
527,3090.86089078,20.049585868,0,0,0,1,0,0,0,0,0,0,0,0,0,0,0,0,0,0,0,0,0,0,0,0,0.108768191108,0,0,-0.822412910644,-2.71812184601,15.2769796112,-1.31628637418e-15,-3.23327979693e-06,0.0401096550847,-0.00214269853745,-0.037970189827,-0.00102909950352,0.00487337276998,-0.0055717144584,-3.23327979693e-06,0.00793258553028,1.2820963048e+20,1.35635388004e+20,0,-3.53658741459,1.28217251818e+20,1.2905135309e+20,11.4421116214,-3.53658741459,-3.53658741459,-174.817081658,0,1.27404871116e+20,0,0,0,0,0,0,0,-0.38674886553,0.0582579921576,-0.320319928466,947787.77305,2105124.21986,3090.86089078
527,3051.49116022,20.0094063822,0,0,0,1,0,0,0,0,0,0,0,0,0,0,0,0,0,0,0,0,0,0,0,0,0.104779150331,0,0,-0.964159022054,-4.30372746625,17.7396640306,1.32134680698e-15,-7.23997508323e-07,0.0482129714018,-0.00209723467713,-0.0461164607222,-0.00488187671105,0.00972265241364,-0.00739467659495,-7.23997508323e-07,0.0104776963581,1.28160038719e+20,1.35636211158e+20,0,-3.56027970542,1.28165963598e+20,1.28966767768e+20,8.42869462188,-3.56027970542,-3.56027970542,-176.045174049,0,1.27730781055e+20,0,0,0,0,0,0,0,-0.473774320267,0.129698368894,-0.368364943052,947741.512298,2105136.15812,3051.49116022
527,3116.56301157,20.0206044727,0,0,0,1,0,0,0,0,0,0,0,0,0,0,0,0,0,0,0,0,0,0,0,0,0.179156238968,0,0,3.7345496447,-6.28694674038,25.0355305373,4.41791646542e-17,-1.08141685295e-05,0.00549659936002,-0.000418433047299,-0.00508898048125,0.00215448233016,-0.000966347398398,-0.00814829083969,-1.08141685295e-05,0.0012545987678,1.29118094978e+20,1.35620863345e+20,0,-3.10289565604,1.29118258407e+20,1.30452488642e+20,4.26992164069,-3.10289565604,-3.10289565604,-195.467492821,0,1.27224033506e+20,0,0,0,0,0,0,0,-0.104522165212,-0.0195246717268,-0.0178387470542,947845.481317,2105109.3274,3116.56301157
527,3103.40567466,20.0602831676,0,0,0,1,0,0,0,0,0,0,0,0,0,0,0,0,0,0,0,0,0,0,0,0,0.10843297175,0,0,-0.524633546983,-2.83770330678,11.8635887095,-6.02907098443e-16,1.88547321918e-07,0.0348757039083,-0.00226991159735,-0.0326056037636,0.00137307667724,0.00467195904703,-0.00770232521998,1.88547321918e-07,0.00666139480703,1.28361566608e+20,1.35635457178e+20,0,-3.46400914948,1.28368075986e+20,1.29241224005e+20,7.73070601402,-3.46400914948,-3.46400914948,-131.556768997,0,1.27356981196e+20,0,0,0,0,0,0,0,-0.352581660143,0.037026035249,-0.255719772545,947804.284247,2105119.9589,3103.40567466
527,3082.00858357,20.0578051717,0,0,0,1,0,0,0,0,0,0,0,0,0,0,0,0,0,0,0,0,0,0,0,0,0.0868580527339,0,0,-0.0637345615455,-1.76722906509,12.5169243387,-1.1131170743e-15,5.68080789318e-06,0.0428666422441,-0.0023307363458,-0.0405302250904,-0.00212214537566,0.00487513512124,-0.0046005320567,5.68080789318e-06,0.00863113860185,1.28139621588e+20,1.3563990926e+20,0,-3.57003513755,1.28148188974e+20,1.28977000216e+20,10.608909268,-3.57003513755,-3.57003513755,-156.317550104,0,1.27482168533e+20,0,0,0,0,0,0,0,-0.400989912149,0.0672681877517,-0.35525800727,947777.107939,2105126.97214,3082.00858357
527,3087.60848227,20.0496485438,0,0,0,1,0,0,0,0,0,0,0,0,0,0,0,0,0,0,0,0,0,0,0,0,0.102888273985,0,0,-0.550485969917,-2.08530612467,12.646682303,-2.13642766443e-15,-2.4897798261e-06,0.0414307712322,-0.00206844239863,-0.0393648186134,-0.00156531069725,0.00502440992648,-0.00505879605227,-2.4897798261e-06,0.00828128185987,1.28176485967e+20,1.35636601348e+20,0,-3.55242161503,1.28184524139e+20,1.2901309849e+20,10.0070079506,-3.55242161503,-3.55242161503,-148.821423523,0,1.27430743336e+20,0,0,0,0,0,0,0,-0.395676097393,0.0637797781235,-0.335950856293,947783.656816,2105125.28211,3087.60848227
527,3110.75421132,26.6053527465,0,0,0,1,0,0,0,0,0,0,0,0,0,0,0,0,0,0,0,0,0,0,0,0,0.299564827797,0,0,3.77275200825,-17.3591159343,36.6351985937,-5.87639623152e-17,4.1733183009e-06,0.00040192486728,-0.00211535710088,0.00171760555191,0.00450898752073,0.000132762190089,-0.00814390092697,4.1733183009e-06,0.00103699781726,1.32252671541e+20,1.35596017659e+20,0,-1.61142400206,1.32254775703e+20,1.33881697596e+20,8.29829237067,-1.61142400206,-1.61142400206,-302.859244398,0,1.32854994857e+20,0,0,0,0,0,0,0,-0.106644929849,0.0158117186867,-0.00207945942646,947935.158491,2105086.18491,3110.75421132
527,3110.765816,26.6504858839,0,0,0,1,0,0,0,0,0,0,0,0,0,0,0,0,0,0,0,0,0,0,0,0,0.299250285225,0,0,3.86424995389,-17.4992888786,36.9334241257,-6.30291897956e-17,3.82400887355e-06,0.000362888282621,-0.00208941988624,0.00173035561249,0.00450642093754,0.000114245161233,-0.00814843914359,3.82400887355e-06,0.00103760396353,1.32243204693e+20,1.35596082564e+20,0,-1.61591956679,1.32245325221e+20,1.33874811554e+20,8.43364205919,-1.61591956679,-1.61591956679,-306.50666014,0,1.32849616561e+20,0,0,0,0,0,0,0,-0.10659375057,0.0154934876042,-0.00195596724229,947934.934667,2105086.24267,3110.765816
527,3111.50388998,29.4952428918,0,0,0,1,0,0,0,0,0,0,0,0,0,0,0,0,0,0,0,0,0,0,0,0,0.298584125441,0,0,-0.417929724652,-13.78587326,25.7264900498,8.66349425448e-17,2.30632208392e-05,0.00188399145483,-0.00287723089459,0.00101630266059,0.00596106839051,0.00122120216382,-0.0102190317725,2.30632208392e-05,0.00143205165535,1.32628053031e+20,1.35596220044e+20,0,-1.4333272323,1.32630262841e+20,1.34201961483e+20,5.59159251932,-1.4333272323,-1.4333272323,-205.204920771,0,1.33262719783e+20,0,0,0,0,0,0,0,-0.128362300421,0.0299609132486,-0.0140551855049,947946.160118,2105083.34578,3111.50388998
527,3110.79129771,26.867471898,0,0,0,1,0,0,0,0,0,0,0,0,0,0,0,0,0,0,0,0,0,0,0,0,0.299097334771,0,0,3.58156938549,-17.3573656464,36.428288285,-6.43567098335e-17,5.27079059155e-06,0.000491452998744,-0.00217960709495,0.0016934248868,0.00461115775182,0.000203215590024,-0.00827811313868,5.27079059155e-06,0.001063028251,1.32270485196e+20,1.35596114122e+20,0,-1.60297150007,1.32272586093e+20,1.33896828436e+20,8.25309218485,-1.60297150007,-1.60297150007,-301.38417631,0,1.32877063618e+20,0,0,0,0,0,0,0,-0.107711378217,0.0165524907123,-0.00276363999224,947935.667939,2105086.05344,3110.79129771
527,3115.9967118,20.0772674339,0,0,0,1,0,0,0,0,0,0,0,0,0,0,0,0,0,0,0,0,0,0,0,0,0.186336398827,0,0,4.17184158645,-5.13153497409,20.4171168563,1.09595526558e-17,-3.33889685228e-06,0.00134663554651,-0.000431028119383,-0.000918946323981,0.000580959049596,-0.0014611984941,-0.00511179064613,-3.33889685228e-06,0.000541865195161,1.29535847436e+20,1.35619381744e+20,0,-2.90368005221,1.2953624227e+20,1.31068513933e+20,4.50361556724,-2.90368005221,-2.90368005221,-188.633204695,0,1.27178828127e+20,0,0,0,0,0,0,0,-0.0575209764142,-0.0156444953153,-0.00569340897644,947859.839812,2105105.62198,3115.9967118
527,3116.64850333,20.0319472238,0,0,0,1,0,0,0,0,0,0,0,0,0,0,0,0,0,0,0,0,0,0,0,0,0.190435516286,0,0,4.11921675677,-5.78104286145,23.2333064213,-2.70931136459e-17,-1.09647151763e-05,0.00371881628655,-0.000254494928863,-0.00347528607286,0.0017725822568,-0.00120231313446,-0.00739974437477,-1.09647151763e-05,0.000999336979711,1.29212384237e+20,1.35618535882e+20,0,-3.05792365822,1.29212511773e+20,1.30596078757e+20,3.95861282971,-3.05792365822,-3.05792365822,-183.106862485,0,1.27214905035e+20,0,0,0,0,0,0,0,-0.0884961198275,-0.0195589084384,-0.0111392292777,947849.146527,2105108.38154,3116.64850333
527,3112.31216396,36.8460685583,0,0,0,1,0,0,0,0,0,0,0,0,0,0,0,0,0,0,0,0,0,0,0,0,0.362087851012,0,0,-0.805189776177,-30.1362131133,40.0239221921,2.30164771997e-16,2.05654550559e-05,0.00289791289148,-0.00381059802588,0.00093325058946,0.00797027340844,0.00254326377415,-0.013382080651,2.05654550559e-05,0.0020784866404,1.3337401885e+20,1.35583116761e+20,0,-1.07972756295,1.33375980647e+20,1.34759896475e+20,5.77265007733,-1.07972756295,-1.07972756295,-222.231054232,0,1.34284756998e+20,0,0,0,0,0,0,0,-0.187392333956,0.0353645965283,-0.0196735250243,947969.461325,2105077.33256,3112.31216396
527,3112.17085351,35.8332692083,0,0,0,1,0,0,0,0,0,0,0,0,0,0,0,0,0,0,0,0,0,0,0,0,0.356829318269,0,0,-0.0814873810725,-28.9413414597,36.4919805952,8.61232106203e-17,1.27178684635e-05,0.00285436600685,-0.00358901511164,0.000747366973255,0.00788501784586,0.00231891104357,-0.0131513531932,1.27178684635e-05,0.00201029243039,1.33295773792e+20,1.3558420178e+20,0,-1.11679171836,1.33297833377e+20,1.34698734098e+20,5.5172510191,-1.11679171836,-1.11679171836,-207.623314764,0,1.34192200872e+20,0,0,0,0,0,0,0,-0.184006772779,0.0348966539678,-0.014754550911,947966.82287,2105078.01345,3112.17085351
527,3116.77333009,20.0241498984,0,0,0,1,0,0,0,0,0,0,0,0,0,0,0,0,0,0,0,0,0,0,0,0,0.184492502051,0,0,3.90360482317,-5.72006766868,22.8964028949,-1.60510141778e-17,-1.12353983818e-05,0.0043713532935,-0.000285926444087,-0.00409666224779,0.00191490144122,-0.00110760273189,-0.00789159431634,-1.12353983818e-05,0.00109986865819,1.29162805188e+20,1.35619762208e+20,0,-3.08156591183,1.29162911403e+20,1.30524993911e+20,3.83210157375,-3.08156591183,-3.08156591183,-178.783270481,0,1.27221041156e+20,0,0,0,0,0,0,0,-0.0943656446818,-0.0194931012158,-0.0124090825754,947847.455525,2105108.81793,3116.77333009
527,3110.81701417,26.3135983954,0,0,0,1,0,0,0,0,0,0,0,0,0,0,0,0,0,0,0,0,0,0,0,0,0.296747129536,0,0,3.86228820842,-17.261037935,36.4041534991,-6.14925892693e-17,4.29914410596e-06,0.000294036238334,-0.00205428683938,0.00176454974515,0.00445530450376,3.99447982803e-05,-0.00808051829404,4.29914410596e-06,0.00102653989088,1.32213196512e+20,1.3559659907e+20,0,-1.63016793426,1.32215303656e+20,1.33854017127e+20,8.46915724775,-1.63016793426,-1.63016793426,-306.616281367,0,1.32799081895e+20,0,0,0,0,0,0,0,-0.105855244168,0.0150282185577,-0.00200008467635,947934.227733,2105086.4251,3110.81701417
527,3112.62095038,41.4659560714,0,0,0,1,0,0,0,0,0,0,0,0,0,0,0,0,0,0,0,0,0,0,0,0,0.413213334663,0,0,7.92150385782,-39.0473400832,53.2263583775,2.21826936855e-18,-1.30909449048e-05,0.00273765028129,-0.00360372503499,0.000852983808796,0.00807526540775,0.00191620273093,-0.0134280085362,-1.30909449048e-05,0.00203105397001,1.33811492125e+20,1.35572567845e+20,0,-0.872567451104,1.33813496177e+20,1.35055222776e+20,5.54962405389,-0.872567451104,-0.872567451104,-201.711145101,0,1.34682533992e+20,0,0,0,0,0,0,0,-0.236831557526,0.0251990438206,0.00713393609675,947984.534351,2105073.44275,3112.62095038
527,3113.24004524,40.475424849,0,0,0,1,0,0,0,0,0,0,0,0,0,0,0,0,0,0,0,0,0,0,0,0,0.400333140992,0,0,6.23578586512,-39.2866159768,49.298092217,-4.11985209093e-17,-1.29493050408e-05,0.00272152485863,-0.00354845991329,0.000813985749623,0.00805417940045,0.00193560431153,-0.0126985885711,-1.29493050408e-05,0.00194020775072,1.3372127389e+20,1.35575225424e+20,0,-0.915264687126,1.3372340884e+20,1.35013208416e+20,5.78466982342,-0.915264687126,-0.915264687126,-203.405475164,0,1.34625011551e+20,0,0,0,0,0,0,0,-0.249369030084,0.0289994627364,0.00307927465336,947982.042857,2105074.08571,3113.24004524
527,3112.31732075,37.4502142699,0,0,0,1,0,0,0,0,0,0,0,0,0,0,0,0,0,0,0,0,0,0,0,0,0.35878805724,0,0,-0.528076437247,-22.3566200518,29.5965927035,-2.84460776263e-17,1.08244123587e-05,0.00264987312846,-0.00320508404697,0.000566035330867,0.00890596375179,0.00187411381148,-0.0155159268091,1.08244123587e-05,0.00240036464366,1.3347562329e+20,1.35583797621e+20,0,-1.03160316604,1.33477531814e+20,1.34822379872e+20,4.2020830065,-1.03160316604,-1.03160316604,-160.514539789,0,1.3435806192e+20,0,0,0,0,0,0,0,-0.194572821727,0.0370036724688,-0.0198385906486,947972.461709,2105076.55827,3112.31732075
527,3112.79524106,33.5932469472,0,0,0,1,0,0,0,0,0,0,0,0,0,0,0,0,0,0,0,0,0,0,0,0,0.336928538461,0,0,0.589372400412,-18.5286489358,25.6437975002,-2.18800061303e-16,1.73260748986e-06,0.00231595227814,-0.00241812168017,0.000103902009525,0.00703918729531,0.00158696155091,-0.0118446207301,1.73260748986e-06,0.00172734856744,1.33074592576e+20,1.35588308078e+20,0,-1.22161814432,1.33076681536e+20,1.34581997813e+20,4.09836492142,-1.22161814432,-1.22161814432,-151.639926786,0,1.34001111134e+20,0,0,0,0,0,0,0,-0.183329592367,0.0376662116621,-0.00972233379462,947961.379196,2105079.41827,3112.79524106
527,3114.19940731,20.0695966116,0,0,0,1,0,0,0,0,0,0,0,0,0,0,0,0,0,0,0,0,0,0,0,0,0.197904249034,0,0,2.75064185084,-7.33459518101,19.3038493395,3.53698820309e-17,8.05301390787e-06,-0.000753991004695,-0.000205432823945,0.000967476842548,0.0021289708626,-0.00217955019367,-0.00516525539933,8.05301390787e-06,0.000588464887649,1.30690377668e+20,1.35616994721e+20,0,-2.35382660227,1.30692646589e+20,1.32630438979e+20,9.46934566998,-2.35382660227,-2.35382660227,-289.838951755,0,1.26884675176e+20,0,0,0,0,0,0,0,-0.0567939705378,-0.00802936399318,-0.00844127833771,947896.918861,2105096.0532,3114.19940731
527,3114.19462738,20.0700197796,0,0,0,1,0,0,0,0,0,0,0,0,0,0,0,0,0,0,0,0,0,0,0,0,0.197733074328,0,0,2.75012113816,-7.33948921327,19.3345454657,3.20397570789e-17,8.05202350234e-06,-0.000749565071501,-0.000202675971253,0.000960293066256,0.00212083566274,-0.0021765164053,-0.00516245263803,8.05202350234e-06,0.000587867091088,1.30688903454e+20,1.35617030042e+20,0,-2.35452830496,1.30691163436e+20,1.32627931932e+20,9.46917100693,-2.35452830496,-2.35452830496,-290.117381397,0,1.26885989124e+20,0,0,0,0,0,0,0,-0.0567259024514,-0.00804928639963,-0.00844037713952,947896.85427,2105096.06987,3114.19462738
527,3114.08340685,20.1774388479,0,0,0,1,0,0,0,0,0,0,0,0,0,0,0,0,0,0,0,0,0,0,0,0,0.192893665023,0,0,1.75432630323,-5.34148167536,16.2453955191,-1.81638344547e-16,7.79877812844e-06,8.30863140911e-05,-5.54905034853e-05,-1.97970324773e-05,0.00150864596606,-0.00185124902444,-0.00446991401683,7.79877812844e-06,0.000478365770917,1.30434097643e+20,1.35618028659e+20,0,-2.47579291448,1.30435457877e+20,1.32265711408e+20,6.73758418574,-2.47579291448,-2.47579291448,-227.536836171,0,1.27074781295e+20,0,0,0,0,0,0,0,-0.0448189903519,-0.0113278607541,-0.00973344288373,947887.676341,2105098.43836,3114.08340685
527,3114.19647328,20.1015532714,0,0,0,1,0,0,0,0,0,0,0,0,0,0,0,0,0,0,0,0,0,0,0,0,0.186578718439,0,0,3.2109143936,-6.20021952041,20.0857248893,2.10985664225e-17,5.21495709193e-06,0.00022943063483,-0.00023227704628,8.06136854192e-06,0.000702616066112,-0.00181932271922,-0.00370101050271,5.21495709193e-06,0.000365872403548,1.30166997886e+20,1.35619331725e+20,0,-2.60296190588,1.30168016432e+20,1.31909514134e+20,7.11495168015,-2.60296190588,-2.60296190588,-252.409349611,0,1.27153343653e+20,0,0,0,0,0,0,0,-0.0423860735021,-0.0128075605162,-0.00717737267773,947879.092402,2105100.65357,3114.19647328
527,3114.2212602,20.096377092,0,0,0,1,0,0,0,0,0,0,0,0,0,0,0,0,0,0,0,0,0,0,0,0,0.188413258857,0,0,3.20997527199,-5.94957389851,19.465550284,3.02998205798e-17,4.90042947135e-06,0.000200259976879,-0.000231403039122,3.60434917146e-05,0.000649919091176,-0.00179923527058,-0.00369436153868,4.90042947135e-06,0.000362274607424,1.30140285782e+20,1.35618953168e+20,0,-2.61568215337,1.3014128574e+20,1.31869887086e+20,6.61592046182,-2.61568215337,-2.61568215337,-238.350729051,0,1.27154455841e+20,0,0,0,0,0,0,0,-0.0425704890843,-0.0129581205582,-0.00690803274052,947878.184949,2105100.88776,3114.2212602
527,3112.89199748,39.4730845336,0,0,0,1,0,0,0,0,0,0,0,0,0,0,0,0,0,0,0,0,0,0,0,0,0.379509263674,0,0,3.76709352827,-29.7959245362,37.6916746499,-1.54334914579e-16,-1.76246439422e-06,0.00270269203148,-0.00312781961559,0.000423365119713,0.00889990620657,0.00165478230766,-0.0148750518608,-1.76246439422e-06,0.00228808679331,1.33668992762e+20,1.35579522098e+20,0,-0.940016875188,1.33671046289e+20,1.34964069029e+20,4.50962207266,-0.940016875188,-0.940016875188,-160.653571171,0,1.34556260181e+20,0,0,0,0,0,0,0,-0.232044979519,0.0328545729469,-0.0058630864248,947979.535939,2105074.73266,3112.89199748
527,3112.5044437,31.4675533712,0,0,0,1,0,0,0,0,0,0,0,0,0,0,0,0,0,0,0,0,0,0,0,0,0.315111958977,0,0,-0.24072992743,-16.8765810495,25.8466737783,7.03813771541e-17,1.03171870011e-05,0.00210687888013,-0.00292045664194,0.000823894948808,0.00790008006626,0.00127027395801,-0.0126524524672,1.03171870011e-05,0.00190327468178,1.3292305032e+20,1.35592809675e+20,0,-1.29344594811,1.32925293308e+20,1.34458889365e+20,4.82317328664,-1.29344594811,-1.29344594811,-173.756755259,0,1.33736239469e+20,0,0,0,0,0,0,0,-0.171672606668,0.0396887018549,-0.0141006636839,947955.900763,2105080.83206,3112.5044437
527,3114.28159789,20.0909014336,0,0,0,1,0,0,0,0,0,0,0,0,0,0,0,0,0,0,0,0,0,0,0,0,0.190611526114,0,0,3.17768483232,-5.76270261978,18.8933563507,5.27705617318e-17,4.29387555216e-06,0.000171713915948,-0.000316890193006,0.00014947015261,0.000657520692827,-0.00186675277119,-0.00377787571604,4.29387555216e-06,0.000367549744193,1.30102672519e+20,1.35618499558e+20,0,-2.63359923862,1.30103640915e+20,1.31819438455e+20,6.30379576663,-2.63359923862,-2.63359923862,-228.49594421,0,1.2715505415e+20,0,0,0,0,0,0,0,-0.0433743650661,-0.0127753142897,-0.00651603159712,947877.014068,2105101.18992,3114.28159789
527,3111.98698936,21.4100815615,0,0,0,1,0,0,0,0,0,0,0,0,0,0,0,0,0,0,0,0,0,0,0,0,0.260833382999,0,0,4.15414093949,-12.9169826423,27.5099112771,-2.28103449619e-17,7.87024007586e-06,-0.0008022712858,-0.00129447536377,0.00210461688965,0.00373136081323,-0.00100604291363,-0.00708568057425,7.87024007586e-06,0.000878797666635,1.31740728807e+20,1.35604009593e+20,0,-1.85449587542,1.31742905573e+20,1.33542358378e+20,8.96912586417,-1.85449587542,-1.85449587542,-297.984257713,0,1.32217262141e+20,0,0,0,0,0,0,0,-0.0949328389595,0.00729896552504,-0.00226138303559,947923.755319,2105089.12766,3111.98698936
527,3110.4402849,45.9623213433,0,0,0,1,0,0,0,0,0,0,0,0,0,0,0,0,0,0,0,0,0,0,0,0,0.457645906629,0,0,8.73465834193,-28.6168095062,44.7597108983,5.05716959893e-17,-2.90656662441e-05,0.00240114549922,-0.00334489654789,0.000914685382421,0.00885233951519,0.00168534832932,-0.0149220472696,-2.90656662441e-05,0.00227272614592,1.34096583439e+20,1.35563399974e+20,0,-0.737621488902,1.34098050253e+20,1.3517092131e+20,2.96780243845,-0.737621488902,-0.737621488902,-130.006151587,0,1.34824399916e+20,0,0,0,0,0,0,0,-0.17648483872,0.0125787313487,0.0152583419499,947991.89482,2105071.54327,3110.4402849
527,3114.1841768,20.071520312,0,0,0,1,0,0,0,0,0,0,0,0,0,0,0,0,0,0,0,0,0,0,0,0,0.198110894595,0,0,2.7659154917,-7.32995508283,19.2559854593,3.55738488299e-17,7.91931801675e-06,-0.000765446921491,-0.000205024933329,0.000978391172837,0.00213168697248,-0.00217503334884,-0.0051684294057,7.91931801675e-06,0.00058876391367,1.30695405971e+20,1.3561695208e+20,0,-2.35143447897,1.30697679953e+20,1.32635558051e+20,9.43070319276,-2.35143447897,-2.35143447897,-288.722852748,0,1.26900438242e+20,0,0,0,0,0,0,0,-0.0569770496898,-0.00800205786403,-0.00832868175064,947897.060773,2105096.01657,3114.1841768
527,3112.37704132,20.1952364127,0,0,0,1,0,0,0,0,0,0,0,0,0,0,0,0,0,0,0,0,0,0,0,0,0.250357061172,0,0,3.89565670052,-10.5099713496,23.6174510571,1.26492680217e-17,6.36639651585e-06,-0.00091421083212,-0.00105576333093,0.00197634055957,0.00346350374969,-0.00131348159992,-0.00672201507199,6.36639651585e-06,0.000824494232818,1.314865971e+20,1.35606171303e+20,0,-1.97523395771,1.31488932426e+20,1.33343188609e+20,8.36871543304,-1.97523395771,-1.97523395771,-274.203078481,0,1.31125732577e+20,0,0,0,0,0,0,0,-0.0842572877912,0.00238514569689,-0.00237589123655,947917.524793,2105090.73554,3112.37704132
527,3112.57402628,20.1673201659,0,0,0,1,0,0,0,0,0,0,0,0,0,0,0,0,0,0,0,0,0,0,0,0,0.248121865345,0,0,3.79696407459,-9.06763942385,21.5008191714,5.05025892281e-17,5.44909191883e-06,-0.000946476515738,-0.000891833923092,0.00184375953075,0.00327658426687,-0.0013730408198,-0.00646638104812,5.44909191883e-06,0.000787536935509,1.3134610721e+20,1.35606632524e+20,0,-2.04199545157,1.31348519941e+20,1.33221735543e+20,7.91823297697,-2.04199545157,-2.04199545157,-255.977594352,0,1.30323555714e+20,0,0,0,0,0,0,0,-0.0772800434546,-0.000124155175672,-0.00253627334335,947913.900501,2105091.67084,3112.57402628
527,3112.56848439,31.2045761775,0,0,0,1,0,0,0,0,0,0,0,0,0,0,0,0,0,0,0,0,0,0,0,0,0.313679007853,0,0,-0.160246564232,-16.0903337178,25.1037435622,1.0819034132e-16,7.66323502281e-06,0.001873355843,-0.00295730386343,0.00109161125545,0.00778129661612,0.0011700167882,-0.0122795675764,7.66323502281e-06,0.00184986024566,1.32882046483e+20,1.35593105352e+20,0,-1.31287923488,1.32884295076e+20,1.3443231894e+20,4.82998555589,-1.31287923488,-1.31287923488,-172.933489704,0,1.33681256823e+20,0,0,0,0,0,0,0,-0.170653934038,0.0396503908404,-0.0139120215144,947954.802023,2105081.11561,3112.56848439
527,3112.47738774,30.6437675204,0,0,0,1,0,0,0,0,0,0,0,0,0,0,0,0,0,0,0,0,0,0,0,0,0.310641900217,0,0,-0.208046576117,-15.8615888101,25.4676619461,1.3287603378e-16,1.03804929193e-05,0.00182374656646,-0.00298291061532,0.00116954454178,0.0077331787852,0.00114579100804,-0.012228950808,1.03804929193e-05,0.00183776902504,1.32847173658e+20,1.35593732015e+20,0,-1.32941287443,1.32849471926e+20,1.34401439927e+20,4.98660537595,-1.32941287443,-1.32941287443,-178.179596444,0,1.33625467482e+20,0,0,0,0,0,0,0,-0.16678084159,0.0393388857497,-0.0141852498157,947953.612264,2105081.42264,3112.47738774
527,3112.91933333,20.1605246148,0,0,0,1,0,0,0,0,0,0,0,0,0,0,0,0,0,0,0,0,0,0,0,0,0.235456027778,0,0,3.82212389151,-8.21853112685,19.9601567332,3.22346858408e-17,2.65022924461e-06,-0.0011129097382,-0.00060864471316,0.00172420468061,0.00305412192777,-0.00159232682492,-0.00628275930836,2.65022924461e-06,0.00076395870978,1.31235859852e+20,1.35609246067e+20,0,-2.09441434656,1.31238450815e+20,1.33133351873e+20,7.74986862459,-2.09441434656,-2.09441434656,-244.21073651,0,1.29665930937e+20,0,0,0,0,0,0,0,-0.076429858608,-0.00264158499082,-0.00255713727519,947911.333333,2105092.33333,3112.91933333
527,3113.54025147,20.180813847,0,0,0,1,0,0,0,0,0,0,0,0,0,0,0,0,0,0,0,0,0,0,0,0,0.216490310301,0,0,3.67691680181,-7.34804480051,17.8585968427,7.15645456603e-17,1.59418317342e-06,-0.00119328517504,-0.000191172926769,0.00138605228498,0.0025136944684,-0.00184123055865,-0.00549131032656,1.59418317342e-06,0.000650272775806,1.30992571771e+20,1.35613159554e+20,0,-2.21007759723,1.3099522372e+20,1.32928799181e+20,7.92990419883,-2.21007759723,-2.21007759723,-241.487904945,0,1.27744504499e+20,0,0,0,0,0,0,0,-0.0684187639559,-0.0066584449361,-0.00400304242119,947905.445972,2105093.85265,3113.54025147
527,3115.19211369,20.0776004036,0,0,0,1,0,0,0,0,0,0,0,0,0,0,0,0,0,0,0,0,0,0,0,0,0.193368658826,0,0,3.25557342303,-4.24571401655,15.7438241865,-6.1716039007e-18,-1.38640487518e-06,0.000213523219161,-0.000218978322617,4.06869857999e-06,0.000687703321458,-0.00179732197884,-0.00419875177263,-1.38640487518e-06,0.000421636819448,1.29837919093e+20,1.35617930629e+20,0,-2.7597154713,1.29838735575e+20,1.3148580264e+20,4.434886784,-2.7597154713,-2.7597154713,-167.29470832,0,1.27152443992e+20,0,0,0,0,0,0,0,-0.0482655421846,-0.0145798252944,-0.0053740790392,947869.352668,2105103.16705,3115.19211369
527,3115.44592593,20.0832913542,0,0,0,1,0,0,0,0,0,0,0,0,0,0,0,0,0,0,0,0,0,0,0,0,0.17982605577,0,0,4.03025456394,-5.00456165682,19.0444750593,3.39372848079e-17,-8.20586314966e-07,0.000722600575425,-0.000154377229123,-0.000569043932617,0.000673857472962,-0.00143883310901,-0.00431753908239,-8.20586314966e-07,0.000444484251206,1.2969657992e+20,1.3562072513e+20,0,-2.82707220338,1.2969716525e+20,1.31282996307e+20,4.7714359257,-2.82707220338,-2.82707220338,-189.66348638,0,1.27166262703e+20,0,0,0,0,0,0,0,-0.0506130509885,-0.0156012364113,-0.00521475017446,947864.833333,2105104.33333,3115.44592593
