#Time,"zbed","depth","height","surfgrad1","surfgrad2","densrel","mass balance","melting","rain","firn","accu","potrad","refreeze","bottomwater","enthbellowactive","outbedtemp","outbedpres","outbedvel1","outbedvel2","outbedvel3","zs top","zs top residual","ref zs top","zs top velocity","zs top loads","qlat","pressure","dsdt","ds","flow solution loads 1","flow solution loads 2","flow solution loads 3","flow solution loads 4","eij","strainrate 1","strainrate 2","strainrate 3","strainrate 4","strainrate 5","strainrate 6","strainrate 7","flow solution deformational heat","enthalpy_h","phase change enthalpy","water content","temperature","surface enthalpy","save enthalpy subgrid","enthalpy_h contact load","bedtemperatureexp","rock_temperature","rock_temperature contact load","icymask","surfaceenthexp","schur","mesh update:0","mesh update:1","mesh update:2","mesh velocity:0","mesh velocity:1","mesh velocity:2","velocity:0","velocity:1","velocity:2","Points:0","Points:1","Points:2"
411,3187.7496938,26.9169481952,0,0,0,1,0,0,0,0,0,0,0,0,0,0,0,0,0,0,0,0,0,0,0,0,0.197974746214,0,0,-0.134617077957,7.57969478044,15.0631718861,-4.28955169313e-16,1.32542721293e-05,0.013011361431,0.00722763381498,-0.0202257409739,-0.0163720435032,-0.00302116515267,-0.0148302669103,1.32542721293e-05,0.00422554859828,1.34406960079e+20,1.35616980175e+20,0,-0.590797029186,1.34411348917e+20,1.35633749362e+20,-1.08927853818e-09,-0.590797029186,-0.590797029186,-187.247504261,0,1.35658562442e+20,0,0,0,0,0,0,0,-0.304091169486,0.0710629982375,-0.18192365697,948142.622997,2104945.82687,3187.7496938
411,3190.70680364,24.5994235694,0,0,0,1,0,0,0,0,0,0,0,0,0,0,0,0,0,0,0,0,0,0,0,0,0.171528808805,0,0,0.777538978001,7.37506374773,16.7404062482,8.79279749895e-16,1.19310269453e-05,0.0124455182293,0.00758521036599,-0.0200187975683,-0.0161520116782,-0.00266121043875,-0.0149592835747,1.19310269453e-05,0.00420243733456,1.34229809481e+20,1.35622437271e+20,0,-0.674587661818,1.34234988854e+20,1.35635587092e+20,3.88874895758e-09,-0.674587661818,-0.674587661818,-274.607340693,0,1.3565857842e+20,0,0,0,0,0,0,0,-0.301941043308,0.077829454234,-0.172080985034,948142.418421,2104941.89271,3190.70680364
411,3171.82995768,38.6448752924,0,0,0,1,0,0,0,0,0,0,0,0,0,0,0,0,0,0,0,0,0,0,0,0,0.294058400179,0,0,-5.8325577856,18.7278558635,32.6393558061,-2.87330110993e-15,2.98208896525e-06,0.010494959817,0.0064067149951,-0.0168986927231,-0.0187406079809,-0.00508132852367,-0.0149718538798,2.98208896525e-06,0.0041729129223,1.35068791981e+20,1.35597153871e+20,0,-0.277954623476,1.35071691562e+20,1.35618419906e+20,8.75186010675e-09,-0.277954623476,-0.277954623476,-155.779074638,0,1.35658278349e+20,0,0,0,0,0,0,0,-0.435583568409,0.0721071127906,-0.259913232083,948143.792293,2104968.31333,3171.82995768
411,3172.70394,38.1726441734,0,0,0,1,0,0,0,0,0,0,0,0,0,0,0,0,0,0,0,0,0,0,0,0,0.286042439409,0,0,-5.43224500323,18.5605961974,32.1946996023,-3.13523079028e-15,9.60994843786e-06,0.0114849602627,0.00672337402041,-0.0181987243347,-0.0198474676351,-0.00561235425609,-0.0156050413489,9.60994843786e-06,0.0044904053215,1.35045650626e+20,1.35598807883e+20,0,-0.288886231496,1.35048646605e+20,1.35619404074e+20,1.00616016425e-08,-0.288886231496,-0.288886231496,-160.963197278,0,1.35658277482e+20,0,0,0,0,0,0,0,-0.419469608608,0.0692925142045,-0.251444056699,948143.724,2104967,3172.70394
411,3194.43561569,20.4943901074,0,0,0,1,0,0,0,0,0,0,0,0,0,0,0,0,0,0,0,0,0,0,0,0,0.156276267189,0,0,1.2372375513,6.51599070824,16.7005888863,7.3099937291e-16,1.79714482045e-05,0.0118185642001,0.00738130954522,-0.0191819022971,-0.0152617416838,-0.00137993532514,-0.015130313692,1.79714482045e-05,0.00403910798744,1.33977835549e+20,1.35625584616e+20,0,-0.793819764593,1.33984854834e+20,1.35638235236e+20,6.79823316978e-09,-0.793819764593,-0.793819764593,-330.358827064,0,1.3565858577e+20,0,0,0,0,0,0,0,-0.287445846918,0.0809611215353,-0.15875556348,948142.124346,2104936.23742,3194.43561569
411,3165.90685311,42.0792204654,0,0,0,1,0,0,0,0,0,0,0,0,0,0,0,0,0,0,0,0,0,0,0,0,0.336177418458,0,0,-6.97476501173,15.7940401274,28.0970750662,1.29898951397e-15,1.26428048808e-05,0.00497579434457,0.00490494639636,-0.00986809793605,-0.0128099274123,-0.00267512357088,-0.0118552170811,1.26428048808e-05,0.00250179844784,1.35219943277e+20,1.35588463039e+20,0,-0.206552578124,1.35222229298e+20,1.35610427412e+20,2.82381148219e-09,-0.206552578124,-0.206552578124,-94.4747476103,0,1.35658132382e+20,0,0,0,0,0,0,0,-0.528834490259,0.0842567471337,-0.313625269214,948144.253107,2104977.17514,3165.90685311
411,3182.55595052,30.6945341764,0,0,0,1,0,0,0,0,0,0,0,0,0,0,0,0,0,0,0,0,0,0,0,0,0.215225916036,0,0,-1.24876809265,10.2300252808,19.322706171,-2.12161866287e-17,2.03399089773e-05,0.0145952310856,0.00727471845334,-0.02184960963,-0.0183489999796,-0.0039917717223,-0.015511034117,2.03399089773e-05,0.00470816244587,1.34666652133e+20,1.35613420449e+20,0,-0.468007148957,1.34670734426e+20,1.35629325398e+20,5.1131328531e-10,-0.468007148957,-0.468007148957,-180.611595922,0,1.35658449832e+20,0,0,0,0,0,0,0,-0.322631642803,0.0685810719293,-0.199120430617,948143.002549,2104953.12594,3182.55595052
411,3186.43799655,27.8216163141,0,0,0,1,0,0,0,0,0,0,0,0,0,0,0,0,0,0,0,0,0,0,0,0,0.204471254794,0,0,-0.361221990863,9.22738967739,17.7291946909,-8.22022734431e-16,1.4643046014e-05,0.0133143387048,0.00723634338346,-0.0205360390422,-0.0165991357934,-0.00316155424241,-0.0150466280785,1.4643046014e-05,0.00430163447832,1.34481651188e+20,1.35615639637e+20,0,-0.555471390415,1.34485927119e+20,1.3563251709e+20,-4.58714277191e-09,-0.555471390415,-0.555471390415,-198.946709113,0,1.35658534699e+20,0,0,0,0,0,0,0,-0.30741359441,0.0703782181798,-0.185022193482,948142.71654,2104947.62578,3186.43799655
411,3156.9275363,47.4828724515,0,0,0,1,0,0,0,0,0,0,0,0,0,0,0,0,0,0,0,0,0,0,0,0,0.410495529224,0,0,-12.7747350318,21.5003841065,41.0835167985,5.3994024984e-15,-8.93227957145e-06,0.00623670244876,0.00283531502599,-0.00908094975432,-0.00568137154147,0.0004215246476,-0.0101458340569,-8.93227957145e-06,0.00161550121759,1.35374295446e+20,1.35573128572e+20,0,-0.13365789062,1.35375894508e+20,1.35597370862e+20,-8.22135184267e-10,-0.13365789062,-0.13365789062,-63.0167984326,0,1.35658184658e+20,0,0,0,0,0,0,0,-0.56748197358,0.0930172512711,-0.326832043341,948145.04571,2104992.41749,3156.9275363
411,3157.14220067,47.3297838562,0,0,0,1,0,0,0,0,0,0,0,0,0,0,0,0,0,0,0,0,0,0,0,0,0.409440382717,0,0,-12.6532093871,21.5635991951,40.9959743082,5.57313451564e-15,-9.91497569783e-06,0.00619733236491,0.00285203753907,-0.00905928487968,-0.00576833221707,0.000402036538316,-0.0101631083415,-9.91497569783e-06,0.00161994452717,1.35372214667e+20,1.35573346282e+20,0,-0.134640434331,1.35373825747e+20,1.35597748722e+20,-1.01140704981e-09,-0.134640434331,-0.134640434331,-63.7006439062,0,1.35658178312e+20,0,0,0,0,0,0,0,-0.569576824485,0.093273608084,-0.327328359778,948145.026682,2104992.05157,3157.14220067
411,3205.70570483,19.9986817686,0,0,0,1,0,0,0,0,0,0,0,0,0,0,0,0,0,0,0,0,0,0,0,0,0.154250618821,0,0,1.16379841388,4.73650957177,15.2132690421,3.10829681738e-17,-6.04749085566e-05,0.010864470209,0.0103607563309,-0.0212857014484,-0.0128837243239,-0.00768228581451,-0.0101900105214,-6.04749085566e-05,0.00389745693045,1.3296277245e+20,1.3562600268e+20,0,-1.27461694598,1.32973097166e+20,1.35643813841e+20,-1.62798780203e-09,-1.27461694598,-1.27461694598,-381.704639332,0,1.35658611393e+20,0,0,0,0,0,0,0,-0.160394684127,0.0451952569013,-0.0611899918912,948140.998388,2104914.58439,3205.70570483
411,3208.21690513,20.0007398806,0,0,0,1,0,0,0,0,0,0,0,0,0,0,0,0,0,0,0,0,0,0,0,0,0.106658585103,0,0,0.747169273891,3.73397249315,10.9993020154,3.4419834653e-17,-0.000102593467949,0.013970889036,0.00863409014402,-0.0227075726479,-0.0120358992289,-0.015996705166,-0.0107635499624,-0.000102593467949,0.00472100433123,1.32632188962e+20,1.35635823363e+20,0,-1.43136878721,1.32644162496e+20,1.35645187521e+20,6.42854012778e-11,-1.43136878721,-1.43136878721,-311.650668344,0,1.35658630714e+20,0,0,0,0,0,0,0,-0.10595802642,-0.0467036874756,-0.0100864842004,948140.620123,2104907.31006,3208.21690513
411,3195.71314719,20.0118141319,0,0,0,1,0,0,0,0,0,0,0,0,0,0,0,0,0,0,0,0,0,0,0,0,0.166917658529,0,0,1.22804721832,5.39038917368,14.2343837311,2.9965057074e-16,7.2722679338e-06,0.0112080645971,0.0066445475582,-0.0178453398874,-0.0145366539452,-0.000710322582836,-0.0144846928385,7.2722679338e-06,0.00375499770055,1.33882135339e+20,1.35623388764e+20,0,-0.839110518167,1.33889675864e+20,1.35638763676e+20,6.54699278031e-09,-0.839110518167,-0.839110518167,-297.11734541,0,1.35658581458e+20,0,0,0,0,0,0,0,-0.273855476945,0.0803608687541,-0.144814901283,948141.995296,2104933.75569,3195.71314719
411,3173.3959026,37.6434808277,0,0,0,1,0,0,0,0,0,0,0,0,0,0,0,0,0,0,0,0,0,0,0,0,0.278589733138,0,0,-5.0279801695,17.5313406965,30.4997130526,-2.84514754769e-15,1.34868632209e-05,0.0122208399182,0.00684945525638,-0.0190568083114,-0.020238944976,-0.00556990258628,-0.015969408291,1.34868632209e-05,0.0046780037142,1.35021093592e+20,1.35600345702e+20,0,-0.300489774594,1.3502417723e+20,1.35620119626e+20,8.8787653802e-09,-0.300489774594,-0.300489774594,-157.587670052,0,1.35658284513e+20,0,0,0,0,0,0,0,-0.411202110764,0.0683586119644,-0.247840605927,948143.676387,2104966.08437,3173.3959026
411,3180.28099943,32.4396573997,0,0,0,1,0,0,0,0,0,0,0,0,0,0,0,0,0,0,0,0,0,0,0,0,0.222094932318,0,0,-1.63080283585,10.9356593254,20.2814362052,4.35970501776e-16,2.41482654505e-05,0.0153200420921,0.0074179357688,-0.0227138295955,-0.0196550841258,-0.00457185984076,-0.0160106204655,2.41482654505e-05,0.00501946837362,1.34772949949e+20,1.35612003051e+20,0,-0.417753506915,1.34776899195e+20,1.35627436494e+20,2.42835917864e-09,-0.417753506915,-0.417753506915,-171.845039878,0,1.35658402442e+20,0,0,0,0,0,0,0,-0.336562307672,0.0679982540732,-0.209271032024,948143.177346,2104956.48741,3180.28099943
411,3204.55909573,19.998713558,0,0,0,1,0,0,0,0,0,0,0,0,0,0,0,0,0,0,0,0,0,0,0,0,0.17153244627,0,0,1.50732536059,5.45105967806,17.8156094967,6.36895297242e-17,-3.37962692515e-05,0.0099072336841,0.0109324822255,-0.0208735121789,-0.012702325603,-0.00386874331704,-0.010544971971,-3.37962692515e-05,0.00359367803454,1.33125104702e+20,1.35622436531e+20,0,-1.19767114835,1.33134535131e+20,1.35643325249e+20,-1.59731752709e-09,-1.19767114835,-1.19767114835,-433.280599426,0,1.35658605233e+20,0,0,0,0,0,0,0,-0.196015248233,0.0847801244493,-0.0877056476237,948141.167867,2104917.8436,3204.55909573
411,3180.84778096,32.0910576958,0,0,0,1,0,0,0,0,0,0,0,0,0,0,0,0,0,0,0,0,0,0,0,0,0.220926909043,0,0,-1.6027641756,11.2492590583,21.0999750714,4.65478199058e-16,2.19642575615e-05,0.015282913475,0.00734139410484,-0.0226023433223,-0.0192460151864,-0.00437352270014,-0.0158845597712,2.19642575615e-05,0.00494101148551,1.34749525727e+20,1.35612244068e+20,0,-0.428825314467,1.34753510118e+20,1.35627864941e+20,2.1080376539e-09,-0.428825314467,-0.428825314467,-185.599352575,0,1.35658410075e+20,0,0,0,0,0,0,0,-0.331448131513,0.0682774038513,-0.20592577437,948143.134639,2104955.66614,3180.84778096
411,3199.01352546,19.9963238783,0,0,0,1,0,0,0,0,0,0,0,0,0,0,0,0,0,0,0,0,0,0,0,0,0.138266615288,0,0,1.71804202028,4.29309909325,13.1386262045,-3.63946906598e-16,-5.79846580344e-06,0.00996577130499,0.00574018910772,-0.0157117588785,-0.0137521435959,0.000875247696739,-0.0133583481004,-5.79846580344e-06,0.00335537423151,1.33616760585e+20,1.35629300954e+20,0,-0.964757721211,1.33625676249e+20,1.35640754315e+20,4.29608791449e-09,-0.964757721211,-0.964757721211,-339.615014146,0,1.35658584896e+20,0,0,0,0,0,0,0,-0.259705162087,0.0886016951674,-0.133596043993,948141.711962,2104928.30697,3199.01352546
411,3200.45104265,20.0019759908,0,0,0,1,0,0,0,0,0,0,0,0,0,0,0,0,0,0,0,0,0,0,0,0,0.115155247688,0,0,2.04344298096,4.62704048389,14.4802995087,-2.81160812558e-16,7.76786306572e-06,0.00894490669764,0.00717505373695,-0.0161121925715,-0.0136106013457,0.000286031827081,-0.0127254645106,7.76786306572e-06,0.00331855676962,1.33490915694e+20,1.35634070013e+20,0,-1.0243501325,1.33500177329e+20,1.3564141242e+20,4.85613981675e-09,-1.0243501325,-1.0243501325,-393.957199785,0,1.35658590045e+20,0,0,0,0,0,0,0,-0.246927175228,0.0906952755115,-0.126282086936,948141.572836,2104925.63147,3200.45104265
411,3162.7068265,44.0613842694,0,0,0,1,0,0,0,0,0,0,0,0,0,0,0,0,0,0,0,0,0,0,0,0,0.356199123749,0,0,-5.67484071091,11.0849879081,20.2348226312,-4.45408472146e-16,1.37223987999e-05,0.00533334941522,0.00396828128203,-0.00928790829845,-0.00986578385287,-0.000720484209815,-0.0113515971305,1.37223987999e-05,0.00207731797051,1.35280587288e+20,1.35584331815e+20,0,-0.177910807987,1.35282611301e+20,1.35606219261e+20,-3.31065586445e-11,-0.177910807987,-0.177910807987,-56.2269345538,0,1.35658126276e+20,0,0,0,0,0,0,0,-0.564301553639,0.0880128420823,-0.332812725748,948144.554141,2104982.96425,3162.7068265
411,3157.30672198,47.2141257382,0,0,0,1,0,0,0,0,0,0,0,0,0,0,0,0,0,0,0,0,0,0,0,0,0.407041680729,0,0,-12.4418940588,21.1795965235,40.2932247261,5.65026179666e-15,-7.28112936738e-06,0.00616082426638,0.00285904844382,-0.00902715383956,-0.00587713878187,0.000349954028668,-0.0101618768027,-7.28112936738e-06,0.00162479316229,1.35370121204e+20,1.35573841214e+20,0,-0.135629040047,1.35371742811e+20,1.35598049153e+20,-1.13044781165e-09,-0.135629040047,-0.135629040047,-63.3053343286,0,1.35658178871e+20,0,0,0,0,0,0,0,-0.569023405042,0.0930740439881,-0.327493958761,948145.01052,2104991.74076,3157.30672198
411,3161.94480301,44.5407319637,0,0,0,1,0,0,0,0,0,0,0,0,0,0,0,0,0,0,0,0,0,0,0,0,0.362035755511,0,0,-5.64693883045,10.6311941389,19.6678094866,-2.04458701194e-16,1.11195901402e-05,0.0052826996876,0.00367235583178,-0.00894393592924,-0.00907710717564,-0.000322663271816,-0.0109885922928,1.11195901402e-05,0.00193104591024,1.35294444343e+20,1.35583127502e+20,0,-0.171366279717,1.35296410282e+20,1.35604994963e+20,-1.47598238204e-09,-0.171366279717,-0.171366279717,-50.5897580932,0,1.35658133177e+20,0,0,0,0,0,0,0,-0.570921471661,0.0897046194682,-0.33507824141,948144.61993,2104984.22943,3161.94480301
411,3187.7496938,0,26.8462596384,0.307208802404,-0.130484424982,1,-7.10071098136,6.86333308593,0.066452866302,0,0.383839821175,210,1.93827660117e-05,0.103138155375,1.33405592818e+20,-0.58872136723,0.197974746214,-0.304091169486,0.0710629982375,-0.18192365697,3214.3798127,0,3202.21854393,-7.17105356388,5.46279649708e-10,0,0.00638210730134,0,0,-9.69664880982e-14,-1.25085064686e-13,0.109212820408,1.02069006623e-15,-4.33933795188e-06,-0.00336715071974,0.00211227424896,0.00125053713283,-0.00534444827915,-0.00149697476296,-0.000738683339076,-4.33933795188e-06,0.00053291956679,1.33534145423e+20,1.35656516111e+20,0,-1.00387467815,1.33534145423e+20,1.35657411368e+20,-921.678889374,0,0,0,1,1.3565856877e+20,0,0,0,12.4003038899,0,0,-7.21500723195,-0.636184278634,0.182099351843,-0.317776970296,948142.622997,2104945.82687,3214.61884782
411,3190.70680364,0,24.6678482458,0.315250981072,-0.108917835291,1,-7.09833153826,6.86142328573,0.0665042471537,0,0.38413660321,210,1.75775461435e-05,0.103097240024,1.33500731563e+20,-0.672137411424,0.171528808805,-0.301941043308,0.077829454234,-0.172080985034,3215.08362308,0,3202.80189271,-8.51561322347,1.86264514923e-09,0,-0.0047257860718,0,0,4.44348439809e-13,-6.22380202556e-14,0.135671528867,1.58323604799e-15,5.69242070453e-06,-0.00315246635875,0.00406784983423,-0.000909691054767,-0.00615496414912,-0.00177518356894,-0.000557686320753,5.69242070453e-06,0.000698717960711,1.33527009221e+20,1.35658808352e+20,0,-1.00725452424,1.33527009221e+20,1.35657411368e+20,-1436.84280474,0,0,0,1,1.35658582912e+20,0,0,0,12.565584144,0,0,-8.0737243591,-0.597156686445,0.170927580274,-0.295134962673,948142.418421,2104941.89271,3215.36747686
411,3171.82995768,0,38.7152512949,0.323225973453,-0.264455022181,1,-7.11356483056,6.87368179291,0.0661813251837,0,0.382271366718,210,3.48387995043e-05,0.103362787234,1.33222592736e+20,-0.276584751482,0.294058400179,-0.435583568409,0.0721071127906,-0.259913232083,3210.32007255,0,3200.5593228,-7.26451824966,2.71807346466e-10,0,0.0251115390704,0,0,-4.44162710404e-13,1.38336629299e-13,0.175169057045,3.84129605534e-15,-2.94519619273e-06,-0.00312962048394,0.000592314311298,0.00253436097644,-0.00255671796426,-0.000179547550456,-0.00122623982155,-2.94519619273e-06,0.000301801831337,1.33572183553e+20,1.35652651104e+20,0,-0.985860024618,1.33572183553e+20,1.35657411368e+20,-1297.48488155,0,0,0,1,1.35658304321e+20,0,0,0,10.002900358,0,0,-7.48428949079,-0.822690385377,0.206771763133,-0.397327652546,948143.792293,2104968.31333,3210.56222316
411,3172.70394,0,38.2930760656,0.323964283717,-0.262925914655,1,-7.1120818128,6.87252505681,0.0662196870072,0,0.382492949267,210,3.38502033307e-05,0.103341081956,1.33235190882e+20,-0.287470774353,0.286042439409,-0.419469608608,0.0692925142045,-0.251444056699,3210.77428266,0,3200.590136,-7.24120189472,0,0,0.0238964280006,0,0,-4.82297535244e-13,9.92643744986e-14,0.175132295806,5.1754135374e-15,-3.77033590302e-06,-0.00315579382159,0.00068573534247,0.00246628814322,-0.00268148878732,-0.000259926960823,-0.00120951547322,-3.77033590302e-06,0.000308892590519,1.33567934682e+20,1.35652901854e+20,0,-0.987872248088,1.33567934682e+20,1.35657411368e+20,-1330.28479956,0,0,0,1,1.35658306292e+20,0,0,0,10.4255200561,0,0,-7.43155801208,-0.815662161251,0.20627571137,-0.395188037478,948143.724,2104967,3211.01565606
411,3194.4356157,0,20.4687473403,0.332867570333,-0.270997138645,1,-7.09941145982,6.8626041763,0.0665402322742,0,0.384344457634,210,1.51951237596e-05,0.103151325858,1.33510195752e+20,-0.790497731451,0.156276267189,-0.287445846918,0.0809611215353,-0.15875556348,3214.82733437,329.227830973,3204.57405433,-2.31723600939,329.227830974,0,-0.0244019292475,0,0,4.79743340962e-13,-1.81572731364e-13,0.151493274886,2.95995829075e-15,2.96311052487e-05,-0.00353695573002,0.00619400028283,-0.00262741344756,-0.00646694804839,-0.00470017451481,0.00154243701205,2.96311052487e-05,0.000951265621665,1.33531890698e+20,1.3566286876e+20,0,-1.00494259197,1.33531890698e+20,1.35657411368e+20,-1427.4647902,0,0,0,0.247484909457,1.35658584493e+20,0,0,0,10.3305212408,0,0,-3.89540015427,-0.527159424489,0.145786266266,-0.256232553645,948142.124346,2104936.23742,3214.90457557
411,3165.90685311,0,41.9701349632,0.324444751645,-0.272536996491,1,-7.12298794491,6.88049407508,0.0658360701115,0,0.380277131517,210,4.23997509538e-05,0.103439914604,1.3315341179e+20,-0.205472844068,0.336177418458,-0.528834490259,0.0842567471337,-0.313625269214,3207.64686467,0,3200.46020339,-7.34966873376,7.68209581323e-10,0,0.0307972653704,0,0,1.21780802642e-13,9.7083358302e-14,0.138908836461,-2.48024003177e-15,1.61070973242e-06,-0.00291558822759,8.19304733905e-05,0.00283526846393,-0.00189335296605,0.000163942708726,-0.00146474306069,1.61070973242e-06,0.000271825123758,1.33598141868e+20,1.35651477802e+20,0,-0.973567035519,1.33598141868e+20,1.35657411368e+20,-931.734209045,0,0,0,1,1.35658089553e+20,0,0,0,7.43165023966,0,0,-7.6646101348,-0.870928968004,0.210027776729,-0.405393924963,948144.253107,2104977.17514,3207.89185363
411,3182.55595053,0,30.652050586,0.31275365062,-0.183272738387,1,-7.10621623026,6.86693624439,0.0661800258764,0,0.382263861762,210,2.31884210598e-05,0.103140615547,1.33128489268e+20,-0.466077264777,0.215225916036,-0.322631642803,0.0685810719293,-0.199120430617,3212.96175893,0,3201.52846627,-7.34023853816,1.26782743293e-09,0,0.0140767445243,0,0,-3.60868714556e-13,-1.19033749623e-13,0.127176201403,2.39439300962e-15,-5.31281921176e-06,-0.00372954523179,0.00154661682512,0.00217761558746,-0.0046124139109,-0.00130573062455,-0.000806278833745,-5.31281921176e-06,0.00049603712858,1.33547366099e+20,1.35654928243e+20,0,-0.997613345269,1.33547366099e+20,1.35657411368e+20,-975.028550081,0,0,0,1,1.35658443833e+20,0,0,0,11.6779672774,0,0,-7.48825222618,-0.706838798491,0.192487373427,-0.353974328496,948143.002549,2104953.12594,3213.20643354
411,3186.43799655,0,27.7136190474,0.308037213632,-0.155994064285,1,-7.10208758158,6.86446286535,0.0664278388532,0,0.383695259593,210,2.04141344869e-05,0.103164640244,1.33293694414e+20,-0.553449376365,0.204471254794,-0.30741359441,0.0703782181798,-0.185022193482,3213.94976315,0,3202.00603722,-6.78655825154,0,0,0.0090703511294,0,0,-1.51172129413e-13,-1.60743766869e-13,0.124170753399,1.40360034283e-15,-7.08818558399e-06,-0.00368305781403,0.00184787706449,0.00182809256395,-0.00507400408495,-0.00173676381544,-0.000603737074249,-7.08818558399e-06,0.000526075838462,1.33538332227e+20,1.35655961364e+20,0,-1.00189182759,1.33538332227e+20,1.35657411368e+20,-944.647725448,0,0,0,1,1.35658540117e+20,0,0,0,12.1699445431,0,0,-6.97880108274,-0.652927759924,0.183787231026,-0.327345574989,948142.71654,2104947.62578,3214.17598176
411,3156.9275363,0,47.3667681313,0.310364412207,-0.194834728769,1,-7.13421848448,6.88966437046,0.0656230867996,0,0.379046914058,210,5.22450818943e-05,0.103650709501,1.33082846497e+20,-0.132902808764,0.410495529224,-0.56748197358,0.0930172512711,-0.326832043341,3204.04962025,0,3200.94010561,-7.4261481643,-1.86264514923e-09,0,0.0411647483048,0,0,-3.18856785486e-13,-9.14640567172e-14,0.164565315654,-6.97033281481e-15,1.2786010775e-06,-0.00245262963342,-0.00148008953561,0.00393399777011,-0.00104317987108,0.000852475084203,-0.00184019542923,1.2786010775e-06,0.000306070782611,1.33635920158e+20,1.35649338382e+20,0,-0.955677212082,1.33635920158e+20,1.35657411368e+20,-854.04391923,0,0,0,1,1.35658130618e+20,0,0,0,3.35705291448,0,0,-7.82728668544,-0.921789212345,0.198799113343,-0.410941140773,948145.04571,2104992.41749,3204.29715853
411,3157.14220067,0,47.2165797649,0.310540147492,-0.195506031556,1,-7.13402231358,6.88950438262,0.0656268440178,0,0.379068616206,210,5.20055036694e-05,0.103647049516,1.33081801835e+20,-0.133879675213,0.409440382717,-0.569576824485,0.093273608084,-0.327328359778,3204.11238745,0,3200.92404596,-7.42455760078,-1.91067299501e-09,0,0.0409683029114,0,0,-3.42972411803e-13,-9.37545382638e-14,0.164605150858,-7.07823643005e-15,1.61324770803e-06,-0.00245454006615,-0.00142312992501,0.00387928323887,-0.00103597667228,0.000826299420279,-0.00183257673229,1.61324770803e-06,0.00030105458867,1.33635236674e+20,1.3564937892e+20,0,-0.956000851746,1.33635236674e+20,1.35657411368e+20,-857.454388294,0,0,0,1,1.35658123088e+20,0,0,0,3.43582673706,0,0,-7.82343513363,-0.92107358395,0.199498895075,-0.411121950648,948145.026682,2104992.05157,3204.3598727
411,3205.70570483,0,19.999810797,0.251329314309,-0.429084641428,1,-7.06680753332,6.83504980996,0.0669826648819,0,0.386900002074,210,0,0.102435012152,1.33473226485e+20,-1.26972241961,0.154250618821,-0.160394684127,0.0451952569013,-0.0611899918912,3225.70570483,563.876605243,3215.73970483,4.11933987072e-12,563.876605243,0,-0.0277689577007,0,0,-1.05064277571e-14,4.19474266778e-13,0.137200244284,1.05029714915e-15,1.86216473058e-05,0.00219880671388,-0.000459778744447,-0.00172040632213,-0.00143158410403,-0.00162328024118,0.00132798300859,1.86216473058e-05,0.000213151489771,1.33436496127e+20,1.35663563595e+20,0,-1.05012598043,1.33436496127e+20,1.35657411368e+20,-2324.04814069,0,0,0,-1,1.35658611688e+20,0,0,0,9.9659999999,0,0,-8.23867974144e-12,-0.370584336141,0.0106369310131,-0.290471328395,948140.998388,2104914.58439,3225.70570483
411,3208.21690513,0,19.9999256679,0.262750819544,-0.380650536365,1,-7.05910163624,6.8286435786,0.0671072850909,0,0.387619823526,210,0,0.102279561898,1.33557431479e+20,-1.42568980156,0.106658585103,-0.10595802642,-0.0467036874756,-0.0100864842004,3228.21690513,423.139317078,3218.25090513,9.03145046771e-12,423.139317078,0,-0.0143410611781,0,0,-1.36851057276e-13,-1.58125276605e-13,0.102131436524,-3.87318472274e-16,1.76462747091e-05,0.000460235266311,-0.000131807708882,-0.000310781282719,-0.00167666233989,-0.00159000162797,0.000742957251629,1.76462747091e-05,0.000156076720097,1.33422616017e+20,1.35660792576e+20,0,-1.05670081069,1.33422616017e+20,1.35657411368e+20,-1773.89316029,0,0,0,-1,1.35658620654e+20,0,0,0,9.96599999912,0,0,-1.34159076729e-11,-0.363363783592,-0.0149176939394,-0.331157836786,948140.620123,2104907.31006,3228.21690513
411,3195.7131472,0,19.9967176093,0.3331960511,-0.361395817391,1,-7.09720135461,6.86054145875,0.0665334259518,0,0.38430514349,210,1.37044135235e-05,0.103080665175,1.3359906947e+20,-0.835541276533,0.166917658529,-0.273855476945,0.0803608687541,-0.144814901283,3215.7131472,449.449007877,3205.74714719,4.24384857049e-12,449.449007877,0,-0.0246262392048,0,0,3.77565876052e-13,-1.10353136172e-13,0.133524232892,2.5284500255e-15,3.08263640364e-05,-0.00397107877664,0.00562151049167,-0.001619605351,-0.00607905784516,-0.00576773378514,0.00210169398677,3.08263640364e-05,0.000979539503436,1.33524470766e+20,1.35662915049e+20,0,-1.00845689235,1.33524470766e+20,1.35657411368e+20,-1352.44936549,0,0,0,0,1.35658581261e+20,0,0,0,9.96600000277,0,0,-2.58626585564,-0.491034941158,0.122503276154,-0.241361317161,948141.995296,2104933.75569,3215.7131472
411,3173.39590261,0,37.7177631589,0.328229199512,-0.257167328932,1,-7.11178798459,6.87225416777,0.0662194135202,0,0.382491369573,210,3.30433896468e-05,0.103332065917,1.33260438045e+20,-0.299032832022,0.278589733138,-0.411202110764,0.0683586119644,-0.247840605927,3210.88036353,0,3200.62667724,-7.24437708455,0,0,0.0234727500054,0,0,-4.986539211e-13,1.22142371088e-13,0.167379015321,4.40964318638e-15,-3.57003832214e-06,-0.00320218056978,0.000719010666944,0.00247959986451,-0.00278299846644,-0.000355133896634,-0.00122534793738,-3.57003832214e-06,0.000320309659785,1.33566936861e+20,1.35652989284e+20,0,-0.98834480267,1.33566936861e+20,1.35657411368e+20,-1254.53765214,0,0,0,1,1.35658310775e+20,0,0,0,10.4951655332,0,0,-7.44096518863,-0.809713378112,0.205369974511,-0.392924037626,948143.676387,2104966.08437,3211.12184277
411,3180.28099943,0,32.422396065,0.322140789123,-0.201528040251,1,-7.10826020173,6.86827829401,0.06607953465,0,0.381683412241,210,2.47993366433e-05,0.10314201291,1.33088147863e+20,-0.415886854635,0.222094932318,-0.336562307672,0.0679982540732,-0.209271032024,3212.42922511,0,3201.23515217,-7.53401597548,1.63567523117e-09,0,0.0169689637429,0,0,-4.15558335899e-13,-6.20658654159e-14,0.129531202085,2.48234099195e-15,-4.23806363192e-06,-0.00368343516974,0.00132124609964,0.00235795100647,-0.00419281278233,-0.00108041183602,-0.000946378262152,-4.23806363192e-06,0.000461195949522,1.33552280796e+20,1.35654331404e+20,0,-0.995285730826,1.33552280796e+20,1.35657411368e+20,-989.937129075,0,0,0,1,1.35658392084e+20,0,0,0,11.4452067992,0,0,-7.6641409364,-0.738660339002,0.197287597221,-0.370090127664,948143.177346,2104956.48741,3212.68035897
411,3204.55909573,0,19.999867127,0.250564855838,-0.45437239699,1,-7.07023213313,6.83797488255,0.0669420197064,0,0.386665230607,210,0,0.102512852947,1.3344025293e+20,-1.19320186857,0.17153244627,-0.196015248233,0.0847801244493,-0.0877056476237,3224.55909573,663.12652975,3214.59309573,2.30175436378e-12,663.12652975,0,-0.0329003850283,0,0,7.35370163899e-14,3.80302003682e-13,0.161830151633,1.19742770799e-15,1.43415013247e-05,0.00202469751983,5.35435502638e-05,-0.00206389956877,-0.00166736484284,-0.00175067995884,0.0017652768577,1.43415013247e-05,0.000306237431212,1.33442833764e+20,1.35664622529e+20,0,-1.04712392478,1.33442833764e+20,1.35657411368e+20,-2745.54333429,0,0,0,-1,1.35658605657e+20,0,0,0,9.96600000023,0,0,4.59451749959e-12,-0.371309189578,0.0156793096361,-0.273046510026,948141.167867,2104917.8436,3224.55909573
411,3180.84778096,0,32.1102715794,0.320311505088,-0.193593170726,1,-7.10756464382,6.86760847389,0.0660734943807,0,0.381648522913,210,2.42083502773e-05,0.103117440236,1.33065779201e+20,-0.426941979592,0.220926909043,-0.331448131513,0.0682774038513,-0.20592577437,3212.69256184,0,3201.33185423,-7.51086563715,1.70718142793e-09,0,0.0166204026258,0,0,-4.28295080087e-13,-9.90746147607e-14,0.136186816817,2.93072135839e-15,-4.89935561416e-06,-0.00370112203636,0.00135993701953,0.00233628566122,-0.00432821639215,-0.00113267938779,-0.000967985036767,-4.89935561416e-06,0.000473731534346,1.33549820294e+20,1.35654403333e+20,0,-0.996451080412,1.33549820294e+20,1.35657411368e+20,-1090.94607631,0,0,0,1,1.3565840042e+20,0,0,0,11.6110697936,0,0,-7.63588929771,-0.732245824611,0.196355053,-0.366761514929,948143.134639,2104955.66614,3212.94292403
411,3199.01352546,0,19.9999483911,0.325286617699,-0.549914256836,1,-7.08710248602,6.85212198432,0.0666922394653,0,0.385222469619,210,8.70802422924e-06,0.102871523372,1.33738470648e+20,-0.960535715607,0.138266615288,-0.259705162087,0.0886016951674,-0.133596043993,3219.01352546,576.851199134,3209.04752546,1.36424205266e-11,576.851199134,0,-0.0282551631807,0,0,4.44220098714e-14,-3.89694647728e-13,0.141644651992,1.89858631476e-15,8.3924457605e-06,-0.00198944310398,0.00211656962511,-0.000118734075374,-0.00317763002957,-0.00516948069585,0.00269020177853,8.3924457605e-06,0.000697491527707,1.33493526878e+20,1.35663663925e+20,0,-1.02311262959,1.33493526878e+20,1.35657411368e+20,-2041.79437468,0,0,0,-0.673257538311,1.35658585144e+20,0,0,0,9.96599999965,0,0,-2.35569899408,-0.427428705145,0.0782130153578,-0.235234817051,948141.711962,2104928.30697,3219.01352546
411,3200.45104265,0,20.0008441795,0.305015740817,-0.556421264362,1,-7.0822632396,6.84845478672,0.0668376867974,0,0.386062591062,210,6.34633672578e-06,0.102812835123,1.33679235526e+20,-1.01996346433,0.115155247688,-0.246927175228,0.0906952755115,-0.126282086936,3220.45104265,660.399562076,3210.48504265,1.36424205266e-11,660.399562076,0,-0.0277076287532,0,0,-1.81040379375e-13,-5.25340847429e-13,0.159246531542,1.07956361664e-15,1.34909608411e-06,-0.000854032988369,0.0012208584855,-0.000365476401043,-0.00278075206299,-0.00403871519179,0.00286736768022,1.34909608411e-06,0.00056861247682,1.33480194609e+20,1.35663550935e+20,0,-1.02942758783,1.33480194609e+20,1.35657411368e+20,-2475.95219735,0,0,0,-1,1.3565859027e+20,0,0,0,9.96600000069,0,0,-1.45602255529,-0.393796278442,0.0462995390433,-0.24643900065,948141.572836,2104925.63147,3220.45104265
411,3162.70682651,0,44.348778923,0.328827992203,-0.250098532195,1,-7.1263259619,6.88291819914,0.0657158373008,0,0.37958265221,210,4.88955530369e-05,0.103468475275,1.33528281335e+20,-0.176954917681,0.356199123749,-0.564301553639,0.0880128420823,-0.332812725748,3206.69822765,0,3200.57852136,-7.30156166955,7.70553725637e-10,0,0.0339726272805,0,0,1.75371632357e-13,-6.50145925663e-14,0.0945244325027,-3.33379376438e-15,9.45693846385e-07,-0.00243658527318,-0.000344671011623,0.00278220197865,-0.0014811694086,0.000552165573451,-0.0015966506602,9.45693846385e-07,0.000246688407033,1.3360712e+20,1.35650822538e+20,0,-0.969315285892,1.3360712e+20,1.35657411368e+20,-669.679505388,0,0,0,1,1.35658130239e+20,0,0,0,6.36309168046,0,0,-7.54337409853,-0.892201919857,0.208728696388,-0.409594397935,948144.554141,2104982.96425,3206.94161304
411,3157.30672198,0,47.0951235731,0.311463751111,-0.196982946281,1,-7.13383753683,6.88938586172,0.0656364574285,0,0.379124144434,210,5.17317377821e-05,0.103647239951,1.33092973981e+20,-0.134863306954,0.407041680729,-0.569023405042,0.0930740439881,-0.327493958761,3204.15900204,0,3200.90790482,-7.41990205044,-1.86264514923e-09,0,0.0408864554047,0,0,-3.42827762974e-13,-8.76466157698e-14,0.162364637533,-6.99965932828e-15,1.2618671292e-06,-0.00246754771805,-0.00140269848361,0.00387150806879,-0.00105487575052,0.000821501438181,-0.00184424358919,1.2618671292e-06,0.000301976465807,1.33634731354e+20,1.3564939581e+20,0,-0.956240129828,1.33634731354e+20,1.35657411368e+20,-845.101812237,0,0,0,1,1.35658127116e+20,0,0,0,3.49842728543,0,0,-7.8140204739,-0.920222473609,0.199780435289,-0.41128292969,948145.01052,2104991.74076,3204.40633211
411,3161.94480301,0,44.8463867948,0.328296743433,-0.242765373665,1,-7.12705673497,6.88360081166,0.0657181960547,0,0.379596276659,210,5.01491680024e-05,0.103491904108,1.33605574899e+20,-0.170437838465,0.362035755511,-0.570921471661,0.0897046194682,-0.33507824141,3206.43081728,0,3200.58658169,-7.2964849564,6.10809475349e-10,0,0.0346293596256,0,0,1.58654472333e-13,-6.40360045148e-14,0.0898533368573,-3.17651977187e-15,4.80437682926e-07,-0.00234452116171,-0.000462397698408,0.0028073992978,-0.00138709528789,0.000609105346327,-0.00161171398984,4.80437682926e-07,0.00024219625246,1.33610040938e+20,1.35650687015e+20,0,-0.967932110853,1.33610040938e+20,1.35657411368e+20,-639.235359254,0,0,0,1,1.35658153855e+20,0,0,0,6.08745175637,0,0,-7.52812312587,-0.897017484321,0.208428579407,-0.409847372239,948144.61993,2104984.22943,3206.67403345
411,3207.94965488,19.983156888,0,0,0,1,0,0,0,0,0,0,0,0,0,0,0,0,0,0,0,0,0,0,0,0,0.0485356459505,0,0,1.98744024245,-3.60526590179,13.3374578457,1.31371513252e-16,4.25895461948e-05,0.00903907188755,0.014834005051,-0.0238304873924,0.0153200370997,0.00426279728856,-0.00461232056845,4.25895461948e-05,0.00410472908053,1.32465917375e+20,1.35647817348e+20,0,-1.51023862238,1.3247919039e+20,1.35638757477e+20,-2.87733500927e-09,-1.51023862238,-1.51023862238,-592.960068059,0,1.35658003466e+20,0,0,0,0,0,0,0,-0.205125826679,-0.135077960257,-0.227444200416,948150.094613,2105089.51178,3207.94965488
411,3197.46060038,20.0203663287,0,0,0,1,0,0,0,0,0,0,0,0,0,0,0,0,0,0,0,0,0,0,0,0,0.151818326403,0,0,-0.356677755686,-16.9736752892,32.4072014564,5.36484390106e-16,-1.51986494079e-07,0.0154977373843,0.00629038982234,-0.0217882791931,0.0170557869277,0.00339152933532,-0.00723779439162,-1.51986494079e-07,0.0040793716131,1.33196353341e+20,1.35626504628e+20,0,-1.16392447152,1.33205789753e+20,1.35631455796e+20,1.49370905005e-08,-1.16392447152,-1.16392447152,-820.96893477,0,1.35657743721e+20,0,0,0,0,0,0,0,-0.240116148863,-0.0737165759046,-0.202455409517,948149.534146,2105078.73358,3197.46060038
411,3192.87405714,21.7785708896,0,0,0,1,0,0,0,0,0,0,0,0,0,0,0,0,0,0,0,0,0,0,0,0,0.1847572195,0,0,-1.56826722178,-18.5956255633,33.5083313468,-1.63962345704e-16,-6.17934879079e-06,0.0175471573024,0.00430148484278,-0.021854821494,0.0170882149041,0.00415009459023,-0.00830148898926,-6.17934879079e-06,0.00419711475144,1.33503462045e+20,1.35619707591e+20,0,-1.01845763752,1.33511115877e+20,1.35628543926e+20,1.31748882787e-08,-1.01845763752,-1.01845763752,-736.793688228,0,1.35657694716e+20,0,0,0,0,0,0,0,-0.260587137113,-0.0537995541348,-0.202675044783,948149.265714,2105073.57143,3192.87405714
411,3183.45501085,28.6649550854,0,0,0,1,0,0,0,0,0,0,0,0,0,0,0,0,0,0,0,0,0,0,0,0,0.203258915716,0,0,-4.49049574079,-18.2070912696,28.0184212981,-2.22069152455e-15,6.12514444743e-06,0.021230150667,0.00159172732622,-0.0228157528488,0.0162503151793,0.00739263975276,-0.00927741362887,6.12514444743e-06,0.00452781752068,1.34137835188e+20,1.35615889802e+20,0,-0.718101912592,1.34141637358e+20,1.3562069262e+20,-4.3371235736e-09,-0.718101912592,-0.718101912592,-341.437944365,0,1.35657301653e+20,0,0,0,0,0,0,0,-0.302991004699,-0.0190383218786,-0.216179455888,948148.728003,2105063.23082,3183.45501085
411,3195.25397694,20.3035692639,0,0,0,1,0,0,0,0,0,0,0,0,0,0,0,0,0,0,0,0,0,0,0,0,0.169914455811,0,0,-0.819970909293,-17.9484552984,33.1056898058,6.95857163447e-16,-7.78684540385e-06,0.0160665424567,0.00512402545805,-0.0211983547602,0.0169269249635,0.00361262031154,-0.00770598601629,-7.78684540385e-06,0.00400657657227,1.33349113878e+20,1.35622770385e+20,0,-1.09152518636,1.3335780376e+20,1.35630162622e+20,1.51525997736e-08,-1.09152518636,-1.09152518636,-782.683087225,0,1.35657731181e+20,0,0,0,0,0,0,0,-0.247432237702,-0.0638017831231,-0.199479372723,948149.409264,2105076.33201,3195.25397694
411,3196.12724627,20.0246078504,0,0,0,1,0,0,0,0,0,0,0,0,0,0,0,0,0,0,0,0,0,0,0,0,0.17585882048,0,0,-0.744694628036,-17.8676805985,33.0936941287,5.517299374e-16,-8.0556314586e-06,0.0161989447188,0.0051571552336,-0.0213641555839,0.0170071261745,0.00299276320219,-0.00781068300484,-8.0556314586e-06,0.00402163824596,1.33284944456e+20,1.35621543759e+20,0,-1.12192357719,1.33294026597e+20,1.35630653626e+20,1.42774562611e-08,-1.12192357719,-1.12192357719,-801.433458542,0,1.35657744043e+20,0,0,0,0,0,0,0,-0.244345696968,-0.0642779918503,-0.198365637145,948149.456712,2105077.24445,3196.12724627
411,3148.87034569,54.0931096897,0,0,0,1,0,0,0,0,0,0,0,0,0,0,0,0,0,0,0,0,0,0,0,0,0.455912371666,0,0,-17.1484624122,-5.72302429604,31.1424958167,4.83447468606e-16,-3.68726636102e-06,0.00841625201363,0.000431175027164,-0.00885111430715,0.00124580892323,0.00273803722865,-0.00836841402518,-3.68726636102e-06,0.0013585087504,1.3541366031e+20,1.35563757646e+20,0,-0.115070309232,1.35414852934e+20,1.35582142748e+20,3.8348223905e-10,-0.115070309232,-0.115070309232,-21.8010919781,0,1.35658234126e+20,0,0,0,0,0,0,0,-0.442001619525,0.0870572291708,-0.298198670768,948146.364194,2105017.77297,3148.87034569
411,3149.06074113,53.6109469752,0,0,0,1,0,0,0,0,0,0,0,0,0,0,0,0,0,0,0,0,0,0,0,0,0.452856779285,0,0,-16.4310360935,1.66161405777,33.2185542575,2.05509589457e-15,1.12178207629e-05,0.00847505224846,0.00082426367712,-0.00928809810481,-0.000113955601198,0.00231111643778,-0.00913294711584,1.12178207629e-05,0.00144149208387,1.35431005433e+20,1.35564388105e+20,0,-0.106880473907,1.35432179253e+20,1.35583195473e+20,7.10687330365e-10,-0.106880473907,-0.106880473907,-22.7465262679,0,1.35658305569e+20,0,0,0,0,0,0,0,-0.460302210217,0.0845288739187,-0.304151002838,948146.093381,2105012.56501,3149.06074113
411,3151.48898408,51.700057824,0,0,0,1,0,0,0,0,0,0,0,0,0,0,0,0,0,0,0,0,0,0,0,0,0.447833855453,0,0,-14.0102332492,16.0604114982,38.2733088761,9.59804481288e-16,-2.6072256331e-05,0.00732716888038,0.00184005670514,-0.00919329784185,-0.00319577221335,0.0012576526051,-0.00923436195927,-2.6072256331e-05,0.00143578221422,1.35431151032e+20,1.35565424489e+20,0,-0.106811795887,1.35432425089e+20,1.35587637567e+20,-3.70299905912e-09,-0.106811795887,-0.106811795887,-35.6686513593,0,1.35658243312e+20,0,0,0,0,0,0,0,-0.516825747537,0.0879787794231,-0.309181500184,948145.561524,2105002.337,3151.48898408
411,3176.53622967,33.9816569458,0,0,0,1,0,0,0,0,0,0,0,0,0,0,0,0,0,0,0,0,0,0,0,0,0.236926689932,0,0,-9.27626487536,-22.501932267,33.5198643248,-2.07894201974e-15,2.30553477316e-05,0.0239734349258,-0.0017480455198,-0.0222023340582,0.0148532272926,0.00816732755939,-0.00985717077801,2.30553477316e-05,0.00458022568494,1.34505528552e+20,1.356089426e+20,0,-0.544193774757,1.34509461226e+20,1.35614988529e+20,4.47765685057e-09,-0.544193774757,-0.544193774757,-271.88100935,0,1.35657480567e+20,0,0,0,0,0,0,0,-0.303289176349,0.0114078388399,-0.214392160355,948148.34624,2105055.88923,3176.53622967
411,3174.88071001,34.8732036404,0,0,0,1,0,0,0,0,0,0,0,0,0,0,0,0,0,0,0,0,0,0,0,0,0.252413210047,0,0,-9.76640973324,-22.0820619983,32.5441355946,-2.01625139348e-15,2.12129165397e-05,0.0244532959602,-0.00232759332334,-0.0221044897203,0.0146035848053,0.00830469680119,-0.0100637078743,2.12129165397e-05,0.00459358801602,1.34591991815e+20,1.35605747038e+20,0,-0.503297428137,1.34595917497e+20,1.35613166729e+20,7.45528216135e-09,-0.503297428137,-0.503297428137,-239.289843413,0,1.3565754972e+20,0,0,0,0,0,0,0,-0.305119322702,0.0182243673437,-0.212721434226,948148.254925,2105054.13318,3174.88071001
411,3233.70659215,20.0014091354,0,0,0,1,0,0,0,0,0,0,0,0,0,0,0,0,0,0,0,0,0,0,0,0,0.384479933348,0,0,-5.31627518652,-15.8746102746,21.3827154916,-4.65372668253e-16,-0.00328508599864,0.00952179743857,-0.005837776539,-0.00696910689821,0.0090418937538,0.0373666056665,0.000248447542584,-0.00328508599864,0.00596501709268,1.30346190514e+20,1.35578496485e+20,0,-2.5176491354,1.30362460196e+20,1.3745474818e+20,3.25370823891e-09,-2.5176491354,-2.5176491354,-541.233479132,0,1.35657717981e+20,0,0,0,0,0,0,0,-0.107699628968,0.0385922759457,-0.0214111229087,948151.474334,2105116.04488,3233.70659215
411,3225.41221951,19.9990834465,0,0,0,1,0,0,0,0,0,0,0,0,0,0,0,0,0,0,0,0,0,0,0,0,-0.0123293049198,0,0,0.873714709114,-4.78972151303,15.6750769239,1.49509081037e-15,0.000210728608527,0.00711438921057,0.022418619605,-0.029322280207,0.0146601866497,0.0137268772875,-0.00156027004728,0.000210728608527,0.00610482320008,1.31374188785e+20,1.3566037844e+20,0,-2.02875326986,1.31390761486e+20,1.37837210724e+20,-4.97125367433e-09,-2.02875326986,-2.02875326986,-629.504116793,0,1.35657656829e+20,0,0,0,0,0,0,0,-0.154579627405,-0.153503174165,-0.219580658154,948151.058537,2105108.04878,3225.41221951
411,3151.99644954,50.872136511,0,0,0,1,0,0,0,0,0,0,0,0,0,0,0,0,0,0,0,0,0,0,0,0,0.428808406792,0,0,-20.9781243897,-16.7767415117,36.0620841253,-4.59854404651e-16,-6.82728967635e-06,0.00907600542367,-0.000528715607622,-0.00855411710572,0.00442338277336,0.00381124029742,-0.00828383728145,-6.82728967635e-06,0.00150665546542,1.35341710158e+20,1.3556935004e+20,0,-0.149045326617,1.35343141098e+20,1.35586630451e+20,5.45603368398e-09,-0.149045326617,-0.149045326617,-44.2491022175,0,1.35658160745e+20,0,0,0,0,0,0,0,-0.449222188691,0.0953323832306,-0.303263352832,948146.701835,2105024.26606,3151.99644954
411,3153.09034021,50.0225941064,0,0,0,1,0,0,0,0,0,0,0,0,0,0,0,0,0,0,0,0,0,0,0,0,0.41549803685,0,0,-19.6996662789,-18.6648235191,33.0229915086,-2.51624322753e-16,8.65998657957e-06,0.00964186430563,-0.000860743911812,-0.00877246040724,0.00539718668622,0.00408859377437,-0.00817952238514,8.65998657957e-06,0.00159062232319,1.35320137504e+20,1.3557209639e+20,0,-0.159232741999,1.35321645974e+20,1.35588437961e+20,6.30683006392e-09,-0.159232741999,-0.159232741999,-47.4237035716,0,1.35658120074e+20,0,0,0,0,0,0,0,-0.446928988041,0.0991064254996,-0.303206580561,948146.798969,2105026.13402,3153.09034021
411,3223.646,19.9982834708,0,0,0,1,0,0,0,0,0,0,0,0,0,0,0,0,0,0,0,0,0,0,0,0,-0.0763984539827,0,0,1.99705589019,-2.36830192013,13.8215259958,1.54813750316e-15,0.000805944427827,0.00681159483693,0.0270004727835,-0.0330061231926,0.015351212957,0.00833924261485,-0.00206542661916,0.000805944427827,0.0059182687366,1.31577692513e+20,1.35673599054e+20,0,-1.93194571165,1.31593572544e+20,1.37913891266e+20,-6.33950608585e-09,-1.93194571165,-1.93194571165,-619.713159259,0,1.3565762212e+20,0,0,0,0,0,0,0,-0.165898718296,-0.188496262101,-0.256643583465,948150.963934,2105106.22951,3223.646
411,3164.22990411,42.644816742,0,0,0,1,0,0,0,0,0,0,0,0,0,0,0,0,0,0,0,0,0,0,0,0,0.315895919049,0,0,-12.0153328921,-17.9969266599,26.3227462695,-6.30796621298e-16,4.7348980144e-05,0.0233901089871,-0.00493950027664,-0.0184032597303,0.0141534750899,0.0103363536955,-0.00950169952059,4.7348980144e-05,0.00432860415918,1.35005453607e+20,1.35592647918e+20,0,-0.307881122299,1.35007920559e+20,1.35601973658e+20,-1.04454843556e-09,-0.307881122299,-0.307881122299,-110.461718284,0,1.35657663707e+20,0,0,0,0,0,0,0,-0.361071964259,0.0691450242924,-0.24983973066,948147.587671,2105041.30137,3164.22990411
411,3160.40881395,45.5148571363,0,0,0,1,0,0,0,0,0,0,0,0,0,0,0,0,0,0,0,0,0,0,0,0,0.347643234777,0,0,-14.0466385272,-17.4274577692,26.3146130342,-4.91033209834e-15,1.9368240963e-05,0.0163285440876,-0.00403401481667,-0.01227516103,0.0111536727935,0.0077958887698,-0.00840958021099,1.9368240963e-05,0.00287008687848,1.3513285184e+20,1.35586097209e+20,0,-0.247690681824,1.35134873213e+20,1.35597971063e+20,-9.68548404315e-10,-0.247690681824,-0.247690681824,-72.6684452865,0,1.35657719582e+20,0,0,0,0,0,0,0,-0.407960457413,0.0866057873216,-0.278598382923,948147.332558,2105036.39535,3160.40881395
411,3149.01979466,53.4444524013,0,0,0,1,0,0,0,0,0,0,0,0,0,0,0,0,0,0,0,0,0,0,0,0,0.451182591426,0,0,-17.3525088112,5.98503252928,36.9315622069,3.20930010456e-15,1.63782115939e-05,0.00833258892037,0.000987377365463,-0.00930358807424,-0.00104447911568,0.00213962461539,-0.00933725753084,1.63782115939e-05,0.00144661106428,1.35443265755e+20,1.35564733541e+20,0,-0.101091683747,1.35444418863e+20,1.35583308748e+20,1.91999314482e-09,-0.101091683747,-0.101091683747,-24.5754686521,0,1.35658325876e+20,0,0,0,0,0,0,0,-0.469070569334,0.0816967904983,-0.306092369866,948145.926679,2105009.35922,3149.01979466
411,3149.76760821,52.8618865858,0,0,0,1,0,0,0,0,0,0,0,0,0,0,0,0,0,0,0,0,0,0,0,0,0.449541491386,0,0,-16.5546801113,9.05335535751,37.627903079,2.87382306076e-15,7.76911483401e-06,0.00817616231814,0.00123385391447,-0.00940224711778,-0.00181061528977,0.00185183321983,-0.00949018201311,7.76911483401e-06,0.00147370015215,1.35440458405e+20,1.3556507215e+20,0,-0.102417155958,1.35441647256e+20,1.35584760503e+20,-1.15116454195e-09,-0.102417155958,-0.102417155958,-27.9727665462,0,1.35658310888e+20,0,0,0,0,0,0,0,-0.485015868043,0.0842014048425,-0.307915825377,948145.799605,2105006.91548,3149.76760821
411,3167.03831552,40.7709008831,0,0,0,1,0,0,0,0,0,0,0,0,0,0,0,0,0,0,0,0,0,0,0,0,0.297996560279,0,0,-11.8762104775,-20.5922071831,29.2745851656,1.57295294019e-16,2.83988528478e-05,0.0262480152884,-0.00472107407913,-0.0214985423564,0.0156926072498,0.0111022530245,-0.0101500684084,2.83988528478e-05,0.00495740769356,1.3491636632e+20,1.35596341256e+20,0,-0.349973533079,1.34919117283e+20,1.35605435701e+20,-2.11141127261e-09,-0.349973533079,-0.349973533079,-136.995411265,0,1.35657651861e+20,0,0,0,0,0,0,0,-0.348254831593,0.0563446282056,-0.234201535781,948147.746529,2105044.35633,3167.03831552
411,3222.54388628,19.9996257141,0,0,0,1,0,0,0,0,0,0,0,0,0,0,0,0,0,0,0,0,0,0,0,0,-0.0609758911965,0,0,1.99138810903,-2.77689796471,14.5721146263,1.64775300653e-15,0.000733904848771,0.00681445172545,0.0260762006644,-0.0321567475411,0.0153025212148,0.0075988035866,-0.00268797370454,0.000733904848771,0.00577443742349,1.31638209791e+20,1.35670416498e+20,0,-1.90319238002,1.3165360605e+20,1.37600792042e+20,-8.55475953499e-09,-1.90319238002,-1.90319238002,-647.151781241,0,1.35657675964e+20,0,0,0,0,0,0,0,-0.167797367798,-0.1843724037,-0.253424208755,948150.901871,2105105.03599,3222.54388628
411,3215.30624232,20.0056870545,0,0,0,1,0,0,0,0,0,0,0,0,0,0,0,0,0,0,0,0,0,0,0,0,0.205937628503,0,0,-0.0124888373257,-6.02725283538,16.9361306382,-3.22066175822e-16,-0.000247406031347,0.00902721332777,0.0112414170936,-0.0205160364527,0.014091422058,-0.00239218614711,-0.00644521710425,-0.000247406031347,0.00345115165012,1.32040578938e+20,1.35615337192e+20,0,-1.71211271602,1.32048671604e+20,1.35644013947e+20,-1.43182868715e-08,-1.71211271602,-1.71211271602,-617.429142337,0,1.35657885479e+20,0,0,0,0,0,0,0,-0.175130112781,-0.120672599256,-0.196875683524,948150.490119,2105097.11767,3215.30624232
411,3158.42270504,46.9883398557,0,0,0,1,0,0,0,0,0,0,0,0,0,0,0,0,0,0,0,0,0,0,0,0,0.363999300201,0,0,-16.5905291553,-18.8831665143,29.715323576,-4.03865991754e-15,1.58617966344e-05,0.0144067137852,-0.00300172214048,-0.0113891298481,0.00989438107306,0.00673624154283,-0.00843392690124,1.58617966344e-05,0.00253072961019,1.35182956245e+20,1.35582722368e+20,0,-0.224024240289,1.35184850935e+20,1.35595163917e+20,-2.50942020163e-09,-0.224024240289,-0.224024240289,-71.4339783861,0,1.35657824736e+20,0,0,0,0,0,0,0,-0.42385593505,0.091729400682,-0.288997061749,948147.18705,2105033.59712,3158.42270504
411,3210.29579842,19.9902329052,0,0,0,1,0,0,0,0,0,0,0,0,0,0,0,0,0,0,0,0,0,0,0,0,0.127642607519,0,0,1.07690230614,-4.84664703416,14.7166781388,6.03719333725e-17,-7.91331374748e-05,0.00852881724138,0.0134947560988,-0.0221027064776,0.014901329077,0.00139707693418,-0.00564090443823,-7.91331374748e-05,0.00378945934838,1.32335560203e+20,1.35631493512e+20,0,-1.57209289517,1.32346840906e+20,1.35640207421e+20,-7.73405579314e-09,-1.57209289517,-1.57209289517,-582.890734333,0,1.35658027089e+20,0,0,0,0,0,0,0,-0.195350935953,-0.128170543443,-0.213301048653,948150.229872,2105092.11293,3210.29579842
411,3173.58752436,36.1220646049,0,0,0,1,0,0,0,0,0,0,0,0,0,0,0,0,0,0,0,0,0,0,0,0,0.256151151766,0,0,-10.4680134907,-22.2959223322,32.7864448911,-2.21265842212e-15,2.76605705509e-05,0.0244625279836,-0.00265863537034,-0.0217762320427,0.0145290558541,0.0085966503238,-0.00977930358654,2.76605705509e-05,0.00455679741909,1.34645066929e+20,1.35604975744e+20,0,-0.478209651471,1.34648790172e+20,1.35611767908e+20,8.1799905835e-09,-0.478209651471,-0.478209651471,-228.574957719,0,1.35657605572e+20,0,0,0,0,0,0,0,-0.30603061038,0.0233965606079,-0.214201824777,948148.183552,2105052.76061,3173.58752436
411,3207.94965488,0,19.99969083,0.495124405729,0.931393062853,1,-7.07507074819,6.82932535096,0.0644713240948,0,0.372394192885,210,0,0.101183232627,1.33700698808e+20,-1.50394154613,0.0485356459505,-0.205125826679,-0.135077960257,-0.227444200416,3227.94965488,747.743076031,3217.98341077,1.03122000277e-11,747.743076031,0,0.0023536000005,0,0,1.34729564997e-13,-2.35502320981e-13,0.20413406808,3.51805778279e-15,2.28038212747e-05,-0.0029630499729,0.0013504108704,0.00163544292377,0.0013746369674,0.0012416135461,0.000137780793899,2.28038212747e-05,0.000233616104937,1.33424093221e+20,1.35657347437e+20,0,-1.05600108834,1.33424093221e+20,1.35657411368e+20,-5293.88282293,0,0,0,-1,1.35658002813e+20,0,0,0,9.9662441055,0,0,-3.87940352867,-0.300656129052,-0.215243194575,-0.314475727281,948150.094613,2105089.51178,3227.94965488
411,3197.46060037,0,19.9945288215,0.480020706402,0.657294672375,1,-7.10361997568,6.85608359478,0.0645805622693,0,0.373025165839,210,1.18466941614e-05,0.102107257962,1.33605719757e+20,-1.15945259317,0.151818326403,-0.240116148863,-0.0737165759046,-0.202455409517,3217.46060037,904.725719518,3212.62045591,0,904.725719518,0,0.024569009919,0,0,8.51499608785e-13,1.18172555335e-12,0.331754868131,5.81937284281e-17,1.01169610823e-06,-0.00101975276235,-0.00179120192542,0.00281196638388,0.00418960159406,-0.000789451093472,0.000429878636975,1.01169610823e-06,0.000439053552232,1.3351190535e+20,1.35652763062e+20,0,-1.01440869895,1.3351190535e+20,1.35657411368e+20,-4117.92565686,0,0,0,-0.157598499065,1.35657752803e+20,0,0,0,4.84014446476,0,0,-1.74108541676,-0.379647980892,-0.216561725678,-0.329145509546,948149.534146,2105078.73358,3217.46060037
411,3192.87405714,0,21.7640698493,0.441078054649,0.531283320894,1,-7.11087230281,6.86329525013,0.0646865284432,0,0.373637239321,210,1.57624024252e-05,0.102386467516,1.33539285176e+20,-1.01483197399,0.1847572195,-0.260587137113,-0.0537995541348,-0.202675044783,3214.57063467,714.106081267,3210.97957143,-1.89133577853,714.106081266,0,0.0278959444379,0,0,5.7549520704e-13,7.38475947053e-13,0.313557181505,-3.82801971538e-16,-2.31440804931e-06,-0.000408681018856,-0.00314808173813,0.00355444834894,0.00509811103396,-0.000867771029556,0.000400690530976,-2.31440804931e-06,0.000542963502735,1.33534549084e+20,1.35652076516e+20,0,-1.00368351847,1.33534549084e+20,1.35657411368e+20,-3216.44363156,0,0,0,0.228571428576,1.35657699783e+20,0,0,0,3.65410776879,0,0,-2.99256059956,-0.433418659218,-0.200942902011,-0.341183431906,948149.265714,2105073.57143,3214.6336792
411,3183.45501085,0,28.7139727101,0.397889926889,0.251733947491,1,-7.11783994385,6.8696310875,0.0646764298103,0,0.373578908392,210,2.50128775872e-05,0.102590335947,1.33457623412e+20,-0.71630293497,0.203258915716,-0.302991004699,-0.0190383218786,-0.216179455888,3211.87182409,0,3208.72862156,-8.34746363761,-1.09844847802e-09,0,0.0255334220648,0,0,1.48580697512e-13,-1.68619941936e-13,0.195031628985,5.81082451533e-15,-5.38407397546e-07,0.000558606913631,-0.00538770533343,0.0048285600124,0.00606304031239,0.000171281136856,-0.000232350080666,-5.38407397546e-07,0.000738473355101,1.33557088758e+20,1.35652564045e+20,0,-0.993008754838,1.33557088758e+20,1.35657411368e+20,-1176.10738102,0,0,0,1,1.35657281577e+20,0,0,0,3.42145131317,0,0,-8.97900202332,-0.567175646352,-0.145195779677,-0.366654624167,948148.728003,2105063.23082,3212.15007288
411,3195.25397694,0,20.2708385746,0.468778775526,0.593268485453,1,-7.10853082021,6.86099582648,0.0646577777095,0,0.373471171594,210,1.34972483669e-05,0.102298706758,1.33551623012e+20,-1.08740835146,0.169914455811,-0.247432237702,-0.0638017831231,-0.199479372723,3215.48729171,802.021946661,3211.56509145,-1.4323901184,802.021946661,0,0.0288432684657,0,0,6.98132340538e-13,9.50291314601e-13,0.324606480295,-1.00092067527e-15,-1.19282363796e-06,-0.000646258358733,-0.00265340189959,0.00329846743469,0.00484470614101,-0.00106034047629,0.000321786786194,-1.19282363796e-06,0.00049682744985,1.33526168476e+20,1.35651881027e+20,0,-1.00765270972,1.33526168476e+20,1.35657411368e+20,-3520.73140259,0,0,0,0.133598409544,1.35657742396e+20,0,0,0,3.96994660037,0,0,-2.38105086791,-0.398742944665,-0.214063255232,-0.333579616949,948149.409264,2105076.33201,3215.53503805
411,3196.12724627,0,19.9987893502,0.481752475789,0.637859862372,1,-7.10703435115,6.85948506573,0.0646316296274,0,0.373320137098,210,1.24248517402e-05,0.102237962656,1.33594831568e+20,-1.11762045109,0.17585882048,-0.244345696968,-0.0642779918503,-0.198365637145,3216.12724627,873.407835568,3211.80782066,0,873.407835568,0,0.0286475679306,0,0,7.29663207506e-13,1.03168877992e-12,0.328496933553,-5.20342131676e-16,-2.441598324e-06,-0.000791280166607,-0.00221449674832,0.00300333531661,0.00453537775562,-0.00113024941131,0.000384443272255,-2.441598324e-06,0.000448976137269,1.33520696613e+20,1.35651921412e+20,0,-1.01024450515,1.33520696613e+20,1.35657411368e+20,-3759.89934232,0,0,0,0,1.3565775479e+20,0,0,0,4.31942560947,0,0,-1.71544948191,-0.38969315702,-0.217000944697,-0.332073983458,948149.456712,2105077.24445,3216.12724627
411,3148.87034569,0,54.1500929239,0.374311350368,0.0255854415272,1,-7.13924856366,6.89298747938,0.0653796384465,0,0.377640726823,210,6.64490047184e-05,0.103656456358,1.33421008877e+20,-0.114507184721,0.455912371666,-0.442001619525,0.0870572291708,-0.298198670768,3202.74658346,0,3202.52583684,-7.43815074449,-3.59942552521e-10,0,0.046634450922,0,0,-1.36938668065e-13,1.02535523427e-15,0.114896208434,-7.21931575995e-15,6.42771964881e-06,-0.000750085765472,-0.00540519746311,0.00616171094823,-0.000120837523202,-0.000100360204773,-0.00295886666173,6.42771964881e-06,0.000572781922136,1.3365011741e+20,1.35648209664e+20,0,-0.948954507149,1.3365011741e+20,1.35657411368e+20,-714.48174875,0,0,0,1,1.356582377e+20,0,0,0,0.468684984385,0,0,-7.90219710013,-0.928470121055,0.101970851219,-0.406286497785,948146.364194,2105017.77297,3202.99452182
411,3149.06074113,0,53.6168706611,0.357729761414,-0.00986189138767,1,-7.14012143117,6.89381932437,0.0653855714747,0,0.377674996714,210,6.42598067888e-05,0.103686306669,1.33465134731e+20,-0.106326242737,0.452856779285,-0.460302210217,0.0845288739187,-0.304151002838,3202.4217591,0,3202.10704019,-7.40054964014,-1.03260115247e-09,0,0.0475163250972,0,0,4.16909742871e-13,-1.88504649242e-14,0.121916257873,-4.72127507844e-15,7.61127819051e-06,-0.00118905228643,-0.00499399527016,0.00619065883478,-0.000354810856906,0.000102172154057,-0.00295377105505,7.61127819051e-06,0.000559261769907,1.33653690861e+20,1.35648027682e+20,0,-0.947262366374,1.33653690861e+20,1.35657411368e+20,-664.068820172,0,0,0,1,1.35658298066e+20,0,0,0,0.561403896665,0,0,-7.79333782278,-0.93708011885,0.127793052566,-0.405378600351,948146.093381,2105012.56501,3202.66844409
411,3151.48898408,0,51.7402765544,0.328325235173,-0.14092270309,1,-7.13767747412,6.89239577334,0.0655399236327,0,0.378566553513,210,6.25556452114e-05,0.103705114952,1.33449121988e+20,-0.106210238414,0.447833855453,-0.516825747537,0.0879787794231,-0.309181500184,3202.98067156,0,3201.36852616,-7.37385345974,6.07230791645e-10,0,0.0449411324341,0,0,7.67273112176e-14,-5.37342683194e-14,0.142525054865,1.3843278902e-15,-1.92337479387e-06,-0.00182655012644,-0.00332123229417,0.00514585904582,-0.00108759926419,0.00114647982156,-0.00242532865739,-1.92337479387e-06,0.000443695198891,1.33647617535e+20,1.35648559094e+20,0,-0.950138284229,1.33647617535e+20,1.35657411368e+20,-820.143621753,0,0,0,1,1.35658294455e+20,0,0,0,1.8579405158,0,0,-7.70695497159,-0.939150978437,0.175872913163,-0.408457072882,948145.561524,2105002.337,3203.22646667
411,3176.53622967,0,33.9706882351,0.445698052056,0.203253632412,1,-7.12210856456,6.87377412159,0.0647196092905,0,0.37382831831,210,3.18256192028e-05,0.102744797254,1.33486231574e+20,-0.542334165163,0.236926689932,-0.303289176349,0.0114078388399,-0.214392160355,3210.27953292,0,3207.24696138,-7.3949404438,-4.62821889215e-09,0,0.0306518888044,0,0,7.95231653789e-13,-1.93877208778e-14,0.206602881224,9.81053585276e-16,3.49141330515e-06,0.000426132014977,-0.00481132544564,0.00438868484397,0.00461158235861,0.000256083483309,-0.00109987097494,3.49141330515e-06,0.000588009008753,1.33572480882e+20,1.35651507802e+20,0,-0.985719212463,1.33572480882e+20,1.35657411368e+20,-1389.5547632,0,0,0,1,1.35657485261e+20,0,0,0,3.27906954842,0,0,-7.81371183264,-0.655823972593,-0.104707662073,-0.385739445289,948148.34624,2105055.88923,3210.52603093
411,3174.88071001,0,34.8459337047,0.447203779568,0.200380237902,1,-7.12398521817,6.87576888172,0.0647713148044,0,0.374126975634,210,3.28993954354e-05,0.102832301082,1.33425890077e+20,-0.50144137289,0.252413210047,-0.305119322702,0.0182243673437,-0.212721434226,3209.50283884,0,3206.91737825,-7.23777955528,-5.09181719676e-09,0,0.0327075831691,0,0,7.67913007502e-13,6.66658742366e-16,0.194635652402,-1.14814471504e-15,2.29109503605e-06,0.000337872680826,-0.00485552864869,0.0045199470629,0.00442031897988,4.31514762457e-05,-0.00121424509336,2.29109503605e-06,0.000584440069031,1.33580391227e+20,1.35651083591e+20,0,-0.98197320057,1.33580391227e+20,1.35657411368e+20,-1264.01153533,0,0,0,1,1.35657569002e+20,0,0,0,2.82671990927,0,0,-7.64738411344,-0.677968916313,-0.0936767713589,-0.389965976088,948148.254925,2105054.13318,3209.74409816
411,3233.70659215,0,19.9999329716,0.532483308984,0.944914341296,1,-6.99909340238,6.76361776912,0.0585148507941,0,0.37671659667,210,0,0.0950348338146,1.33786635204e+20,-2.50990346102,0.384479933348,-0.107699628968,0.0385922759457,-0.0214111229087,3253.70659215,499.399860699,3243.74059215,0,499.399860699,0,0.00768386688834,0,0,-0.870203097976,-2.27896377032,0.157193998593,2.01210717586e-15,-6.09967069273e-05,-0.00131897262254,0.00445064394493,-0.00319266802932,0.00166197382275,-0.00322700983661,-0.00245473316092,-6.09967069273e-05,0.000474136744114,1.3328175906e+20,1.35656247483e+20,0,-1.1234316612,1.3328175906e+20,1.35657411368e+20,-4998.09904374,0,0,0,-1,1.35657718658e+20,0,0,0,9.96600000012,0,0,-5.3290705182e-14,-0.238925051765,0.0910019958989,-0.46848088714,948151.474334,2105116.04488,3253.70659215
411,3225.41221952,0,19.9998437597,0.482922266627,0.941346933594,1,-7.02217446746,6.78477724017,0.0585138572272,0,0.37671020012,210,0,0.0956716856834,1.33510993949e+20,-2.02087659416,-0.0123293049198,-0.154579627405,-0.153503174165,-0.219580658154,3245.41221952,725.871992485,3235.44621951,0,725.871992485,0,0.0132852860181,0,0,-0.152312457324,-0.388132902752,0.228386765003,1.48720441714e-15,-1.29702748013e-05,-0.00258049298794,0.00120168012764,0.00136584258551,0.000277363970369,0.000762983810315,-0.00132203306626,-1.29702748013e-05,0.000241560959396,1.33327588436e+20,1.35655091568e+20,0,-1.10171848854,1.33327588436e+20,1.35657411368e+20,-6751.35528624,0,0,0,-1,1.35657656362e+20,0,0,0,9.96600000331,0,0,-1.13223251913e-11,-0.242412835503,0.0156585072099,-0.382365842787,948151.058537,2105108.04878,3245.41221952
411,3151.99644954,0,50.8603220408,0.407590759828,0.111744266389,1,-7.14048172018,6.89336667596,0.0652377373617,0,0.376821088935,210,5.57581924177e-05,0.103608626589,1.33202359082e+20,-0.1483695944,0.428808406792,-0.449222188691,0.0953323832306,-0.303263352832,3202.59867988,0,3203.11576147,-7.4159817251,-3.41769752151e-10,0,0.0486242657497,0,0,-1.91948393978e-13,7.30506379135e-15,0.143182028195,8.636403881e-16,1.57235809116e-07,-0.000384177677042,-0.00613122511275,0.0065155600256,0.00109739794974,-0.00102265354479,-0.00307097168763,1.57235809116e-07,0.000650805725882,1.33651742605e+20,1.3564779905e+20,0,-0.948184932402,1.33651742605e+20,1.35657411368e+20,-703.028453936,0,0,0,1,1.356581639e+20,0,0,0,-0.269882199064,0,0,-7.87709356223,-0.906356123622,0.0615341826777,-0.412412884753,948146.701835,2105024.26606,3202.84587927
411,3153.09034021,0,50.0136974536,0.413987462125,0.139995062866,1,-7.14017997385,6.89274230859,0.0651720991783,0,0.376441954821,210,5.45169157477e-05,0.10356022651,1.33232954047e+20,-0.158520375692,0.41549803685,-0.446928988041,0.0991064254996,-0.303206580561,3202.84313506,0,3203.2685567,-7.42476258395,-4.22455600857e-10,0,0.0482886483022,0,0,-7.87686067574e-14,-2.56530192278e-14,0.135444549242,2.36417241606e-15,-5.59105941439e-07,-0.000265267016684,-0.00615745948735,0.00642216739809,0.0013526028828,-0.00131553945826,-0.0029953559392,-5.59105941439e-07,0.000652380947853,1.33649069045e+20,1.35647868307e+20,0,-0.949450867504,1.33649069045e+20,1.35657411368e+20,-659.584819295,0,0,0,1,1.35658121246e+20,0,0,0,-0.177929555128,0,0,-7.90192399088,-0.897923057798,0.0495906125762,-0.413298432561,948146.798969,2105026.13402,3203.09062715
411,3223.646,0,19.9999135284,0.476664455401,0.941344493509,1,-7.02708485721,6.78928297826,0.058514350262,0,0.376713374261,210,0,0.0958075777948,1.33475506369e+20,-1.92440102862,-0.0763984539827,-0.165898718296,-0.188496262101,-0.256643583465,3243.646,736.895324162,3233.68,0,736.895324162,0,0.00908137411783,0,0,-2.39264710049e-12,-1.79219480787e-12,0.232026648754,1.62728134572e-15,-1.42218243896e-06,-0.00283816067292,0.000783926930892,0.00205281155959,3.54741051755e-06,0.00187216349273,-0.000940671340016,-1.42218243896e-06,0.000202910164151,1.33337347632e+20,1.35655959092e+20,0,-1.09709480431,1.33337347632e+20,1.35657411368e+20,-6781.10634599,0,0,0,-1,1.35657621205e+20,0,0,0,9.96600000295,0,0,-1.20891275133e-11,-0.243751777336,-0.0021975498866,-0.363235942976,948150.963934,2105106.22951,3243.646
411,3164.22990411,0,42.6294872289,0.429771312867,0.219252522921,1,-7.13118608532,6.88311170348,0.0649109538487,0,0.374933547702,210,4.37905324636e-05,0.103132870611,1.33176762865e+20,-0.306715498811,0.315895919049,-0.361071964259,0.0691450242924,-0.24983973066,3206.6174968,0,3205.05741096,-7.44791469169,1.46715200111e-09,0,0.0356677606907,0,0,4.17763236485e-14,4.10607620963e-14,0.132775669111,-8.85973999049e-16,3.91982442229e-06,-2.03288313903e-05,-0.00392659067174,0.00395083932756,0.00260383835712,-0.000921583239856,-0.00121246095045,3.91982442229e-06,0.000394834274223,1.33608891533e+20,1.35650472732e+20,0,-0.968476566219,1.33608891533e+20,1.35657411368e+20,-859.871609203,0,0,0,1,1.35657656076e+20,0,0,0,1.80834966139,0,0,-7.92530172899,-0.793869833188,-0.0332075562935,-0.411680970176,948147.587671,2105041.30137,3206.86576062
411,3160.40881395,0,45.522783876,0.432789344273,0.213474468212,1,-7.13304145309,6.88550151877,0.0650409296101,0,0.375684303475,210,5.14239043719e-05,0.103266607494,1.33380066234e+20,-0.246735813182,0.347643234777,-0.407960457413,0.0866057873216,-0.278598382923,3205.68174969,0,3204.23090698,-7.41657435763,3.24879967886e-10,0,0.0405793266666,0,0,-9.59206874143e-14,-1.41503088317e-13,0.121936147884,2.20903040892e-16,4.01012168473e-06,-0.000146172091834,-0.00437653723655,0.00452671945007,0.00235313018586,-0.00135547514889,-0.00192618217679,4.01012168473e-06,0.000459867342149,1.33618115375e+20,1.35649459188e+20,0,-0.964108494811,1.33618115375e+20,1.35657411368e+20,-825.910962328,0,0,0,1,1.35657713213e+20,0,0,0,1.69806186268,0,0,-7.86689495477,-0.831488524509,-0.010152361649,-0.413918030539,948147.332558,2105036.39535,3205.92896884
411,3149.01979466,0,53.4043974832,0.347394381797,-0.0287908111626,1,-7.14073164272,6.89442140816,0.0653935990713,0,0.377721365086,210,6.26623046104e-05,0.103709498254,1.33500967315e+20,-0.100547243466,0.451182591426,-0.469070569334,0.0816967904983,-0.306092369866,3202.18616053,0,3201.88062839,-7.38812086923,-1.52809668746e-09,0,0.0481624897856,0,0,6.09691959194e-13,-2.58012901976e-14,0.135173576831,-2.16604523673e-15,7.00645797096e-06,-0.00142881768118,-0.00484910691492,0.00628493105407,-0.000466288627999,8.99559785624e-05,-0.00293625722331,7.00645797096e-06,0.000559011368558,1.33656272298e+20,1.35647894341e+20,0,-0.94604004035,1.33656272298e+20,1.35657411368e+20,-670.435040212,0,0,0,1,1.35658314004e+20,0,0,0,0.551802831698,0,0,-7.74784307266,-0.942675187132,0.143716583491,-0.405803878532,948145.926679,2105009.35922,3202.43243123
411,3149.76760821,0,52.850601304,0.341969408916,-0.0651332212577,1,-7.14001240585,6.89394252242,0.0654277060368,0,0.377918371059,210,6.26165433961e-05,0.103708255498,1.33490824329e+20,-0.101855836404,0.449541491386,-0.485015868043,0.0842014048425,-0.307915825377,3202.37451778,0,3201.67746682,-7.36900446757,-7.53297248353e-10,0,0.0472345097447,0,0,4.30130917721e-13,-2.93472022179e-14,0.138266881374,-5.60121322804e-16,5.41127722866e-06,-0.00155365623807,-0.00433775938696,0.00589682690226,-0.000657661535104,0.000472407057742,-0.00281770942355,5.41127722866e-06,0.000518515849585,1.3365423098e+20,1.35648085837e+20,0,-0.947006633699,1.3365423098e+20,1.35657411368e+20,-717.264936446,0,0,0,1,1.35658308957e+20,0,0,0,0.942684440866,0,0,-7.70687925819,-0.942965493497,0.15575590257,-0.405624509947,948145.799605,2105006.91548,3202.62015127
411,3167.03831553,0,40.7948371813,0.439975567199,0.19832517436,1,-7.12923657459,6.88069043968,0.0647913393593,0,0.374242639893,210,4.21388347567e-05,0.103002502593,1.33417906604e+20,-0.348673563915,0.297996560279,-0.348254831593,0.0563446282056,-0.234201535781,3207.56580189,0,3205.52276273,-7.47234342211,1.23105407212e-09,0,0.0333722301618,0,0,1.73355183338e-13,8.71466223637e-14,0.15138979584,-5.86761252947e-16,1.47155531519e-06,0.00026164200463,-0.00411875740028,0.00385858695097,0.00283980407597,-0.000337750510861,-0.00119696082584,1.47155531519e-06,0.000408086437283,1.33598676254e+20,1.35650946435e+20,0,-0.973313938284,1.33598676254e+20,1.35657411368e+20,-1033.08771631,0,0,0,1,1.35657648536e+20,0,0,0,2.29211728151,0,0,-8.00393388028,-0.76909846544,-0.0467529613119,-0.409617159038,948147.746529,2105044.35633,3207.81488001
411,3222.54388628,0,19.9998934047,0.473583815139,0.943235822614,1,-7.03072370074,6.79209454032,0.0593300874155,0,0.376140574419,210,0,0.0964620403424,1.33507443817e+20,-1.89587803682,-0.0609758911965,-0.167797367798,-0.1843724037,-0.253424208755,3242.54388628,759.903648337,3232.57788628,1.87877864255e-12,759.903648337,0,0.00645628862799,0,0,-2.25870505921e-12,-1.78824022129e-12,0.238735316239,3.29579595331e-16,-2.93234931137e-07,-0.00272128299416,0.00066511672326,0.00205587303597,4.35343584092e-05,0.00210236789199,-0.000770817064285,-2.93234931137e-07,0.000223235381991,1.33343438216e+20,1.35656500811e+20,0,-1.09420946806,1.33343438216e+20,1.35657411368e+20,-6963.6457677,0,0,0,-1,1.35657675537e+20,0,0,0,9.96600000316,0,0,-9.89220222057e-12,-0.247204972922,-0.0204116612744,-0.356422120324,948150.901871,2105105.03599,3242.54388628
411,3215.30624232,0,20.0003376603,0.487653784714,0.922146488637,1,-7.051047839,6.81055822946,0.0608434454744,0,0.37595132071,210,0,0.0980382812041,1.33776544304e+20,-1.70827054294,0.205937628503,-0.175130112781,-0.120672599256,-0.196875683524,3235.30624232,683.086107906,3225.34024232,5.08256379253e-12,683.086107906,0,-0.032553327771,0,0,1.61986543825e-12,2.18160371054e-12,0.209469610051,-4.61806188465e-15,1.11850794574e-05,-0.00291665350508,0.00197048546749,0.000957353117048,-0.00017288790862,0.0051491178713,0.000120577633981,1.11850794574e-05,0.000510542698451,1.33383434531e+20,1.35664550907e+20,0,-1.07526147839,1.33383434531e+20,1.35657411368e+20,-6028.28211907,0,0,0,-1,1.35657887112e+20,0,0,0,9.96600000128,0,0,-3.53058364672e-12,-0.269453281728,-0.141870347875,-0.323595606947,948150.490119,2105097.11767,3235.30624232
411,3158.42270504,0,47.0237077294,0.428010626493,0.202528861961,1,-7.13456827671,6.88678561559,0.0650190291113,0,0.375557803536,210,5.52202122083e-05,0.103299490853,1.33548435394e+20,-0.223129274615,0.363999300201,-0.42385593505,0.091729400682,-0.288997061749,3205.1775455,0,3203.91618705,-7.44197654064,-5.22612667766e-10,0,0.0427460513252,0,0,-1.56820999032e-13,-1.93075771199e-13,0.132886878329,2.33924769728e-15,5.42374636624e-07,-0.000170635702446,-0.00488032470095,0.00505150277803,0.00219528361483,-0.00159711117117,-0.00223369039957,5.42374636624e-07,0.000522384571586,1.33623595694e+20,1.35649012067e+20,0,-0.961513480042,1.33623595694e+20,1.35657411368e+20,-895.202042288,0,0,0,1,1.35657823159e+20,0,0,0,1.50942433388,0,0,-7.93330866815,-0.849512873095,0.00405537590921,-0.412640319095,948147.18705,2105033.59712,3205.42561138
411,3210.29579842,0,20.0013704656,0.478829103829,0.936028441123,1,-7.06620717597,6.82334018987,0.0624940656451,0,0.374730871875,210,0,0.0995813857018,1.3371911936e+20,-1.56674014479,0.127642607519,-0.195350935953,-0.128170543443,-0.213301048653,3230.29579842,703.447048406,3220.32979842,8.8381680036e-12,703.447048406,0,-0.0104699422797,0,0,6.6520112758e-13,4.65030092278e-13,0.200894004229,8.9505506724e-16,2.03049819863e-05,-0.00310950631497,0.00169878641507,0.00143102488189,0.000779982808108,0.00271777664752,0.000148615603089,2.03049819863e-05,0.000342227200727,1.33411126647e+20,1.35659993731e+20,0,-1.06214352369,1.33411126647e+20,1.35657411368e+20,-5409.16420767,0,0,0,-1,1.35658028402e+20,0,0,0,9.96599999896,0,0,-2.41760116152,-0.290319650497,-0.188781131225,-0.315740158959,948150.229872,2105092.11293,3230.29579842
411,3173.58752436,0,36.1079702224,0.449359776325,0.185032155423,1,-7.12407093146,6.87585265064,0.0647722908506,0,0.374132613395,210,3.55983477212e-05,0.102835467925,1.33496804171e+20,-0.476449413515,0.256151151766,-0.30603061038,0.0233965606079,-0.214201824777,3209.46976833,0,3206.71495024,-7.24478898586,-4.59855766808e-09,0,0.0320703973911,0,0,7.52333065761e-13,-5.9958440639e-15,0.192291565744,-9.37835134785e-16,3.55044575639e-06,0.000367791390418,-0.00466986032605,0.00430561938139,0.00410876393608,0.000348911378716,-0.0013093151187,3.55044575639e-06,0.000544379765824,1.33580549677e+20,1.3565121508e+20,0,-0.981898125871,1.33580549677e+20,1.35657411368e+20,-1331.49369957,0,0,0,1,1.35657611713e+20,0,0,0,2.99631106219,0,0,-7.67704505029,-0.690856751299,-0.0856962065528,-0.391151771069,948148.183552,2105052.76061,3209.7112613
