#Time,"zbed","depth","height","surfgrad1","surfgrad2","densrel","mass balance","melting","rain","firn","accu","potrad","refreeze","bottomwater","enthbellowactive","outbedtemp","outbedpres","outbedvel1","outbedvel2","outbedvel3","zs top","zs top residual","ref zs top","zs top velocity","zs top loads","qlat","pressure","dsdt","ds","flow solution loads 1","flow solution loads 2","flow solution loads 3","flow solution loads 4","eij","strainrate 1","strainrate 2","strainrate 3","strainrate 4","strainrate 5","strainrate 6","strainrate 7","flow solution deformational heat","enthalpy_h","phase change enthalpy","water content","temperature","surface enthalpy","save enthalpy subgrid","enthalpy_h contact load","bedtemperatureexp","rock_temperature","rock_temperature contact load","icymask","surfaceenthexp","schur","mesh update:0","mesh update:1","mesh update:2","mesh velocity:0","mesh velocity:1","mesh velocity:2","velocity:0","velocity:1","velocity:2","Points:0","Points:1","Points:2"
51,3132.08975758,64.2374144821,0,0,0,1,0,0,0,0,0,0,0,0,0,0,0,0,0,0,0,0,0,0,0,0,0.569751001645,0,0,7.26183538055,34.4264503457,50.6194947572,-8.9690263318e-16,-2.63983781568e-05,-0.00403700461198,0.0105279570028,-0.00651735076896,-0.0167224958103,0.00443151477446,-0.0225479026057,-2.63983781568e-05,0.00443696586828,1.34895668514e+20,1.35540269775e+20,0,-0.359755269809,1.34896268772e+20,1.35295849339e+20,-2.39727369538e-09,-0.359755269809,-0.359755269809,-27.6480226936,0,1.35587505533e+20,0,0,0,0,0,0,0,-0.375608951447,0.0964577109781,-0.073658198182,948042.472727,2104994.61818,3132.08975758
51,3132.70476923,63.6931052119,0,0,0,1,0,0,0,0,0,0,0,0,0,0,0,0,0,0,0,0,0,0,0,0,0.565598142872,0,0,7.15028262251,33.2980257724,49.7472921668,-8.8721689159e-16,-2.88563757e-05,-0.00428445337396,0.0105575856714,-0.0063019886731,-0.0169832973768,0.00449012925228,-0.0228634743385,-2.88563757e-05,0.00451965733347,1.3489165823e+20,1.35541126603e+20,0,-0.36165027641,1.34892272454e+20,1.3529707981e+20,-1.90066329976e-09,-0.36165027641,-0.36165027641,-27.8444547344,0,1.35587666261e+20,0,0,0,0,0,0,0,-0.374639564695,0.0962534518775,-0.0743853368831,948042.413287,2104993.78601,3132.70476923
51,3184.28425714,19.9980401278,0,0,0,1,0,0,0,0,0,0,0,0,0,0,0,0,0,0,0,0,0,0,0,0,0.111534350355,0,0,1.75374300884,2.99221937115,9.79373560945,1.66002581844e-16,-0.000110377327629,0.00882403416287,0.0151915055373,-0.0241259170278,0.00032394239083,-0.0175148312604,-0.0237258552409,-0.000110377327629,0.00605627089948,1.32719741407e+20,1.35634817207e+20,0,-1.38983879162,1.32725725752e+20,1.35460890496e+20,-9.07623741244e-10,-1.38983879162,-1.38983879162,-290.311718976,0,1.35615547224e+20,0,0,0,0,0,0,0,-0.291742586461,-0.141257163849,-0.0351932406824,948037.4,2104923.6,3184.28425714
51,3184.51837799,19.9979008169,0,0,0,1,0,0,0,0,0,0,0,0,0,0,0,0,0,0,0,0,0,0,0,0,0.102816880249,0,0,1.52331314195,3.04546159127,9.40688293515,-3.31629691063e-17,-0.000177078634247,0.00886083784902,0.0169418413715,-0.0259797578547,0.00233577653803,-0.0203704048554,-0.022229570091,-0.000177078634247,0.00639745375616,1.32682682698e+20,1.35636616083e+20,0,-1.40741687986,1.32688615482e+20,1.35460770781e+20,-1.24798339021e-09,-1.40741687986,-1.40741687986,-286.541053937,0,1.35618498985e+20,0,0,0,0,0,0,0,-0.29111398057,-0.197179590264,-0.0325129222121,948037.200957,2104920.8134,3184.51837799
51,3133.36914731,63.1638778621,0,0,0,1,0,0,0,0,0,0,0,0,0,0,0,0,0,0,0,0,0,0,0,0,0.559595042584,0,0,6.82089782755,31.8951994672,47.1650197734,-8.74524536531e-16,-1.0585725062e-06,-0.00379435409942,0.0101121145963,-0.00631881906934,-0.0168399174942,0.003881393793,-0.0224119163812,-1.0585725062e-06,0.00440168470785,1.34884965726e+20,1.3554236519e+20,0,-0.364812292765,1.34885601475e+20,1.35298496437e+20,-1.94356698942e-09,-0.364812292765,-0.364812292765,-27.3604369373,0,1.35588528011e+20,0,0,0,0,0,0,0,-0.364227436365,0.0923223681105,-0.0731814984475,948042.335694,2104992.69972,3133.36914731
51,3121.89347819,73.2224467776,0,0,0,1,0,0,0,0,0,0,0,0,0,0,0,0,0,0,0,0,0,0,0,0,0.651007753245,0,0,9.10622250835,47.7085616073,61.3852387264,-5.45529326548e-18,-2.14995679921e-05,-0.00432965165001,0.00853779610894,-0.00422964402691,-0.0127878883907,0.00439443344233,-0.0197599878631,-2.14995679921e-05,0.00350178962479,1.3494539957e+20,1.35523504962e+20,0,-0.336256824851,1.34945798095e+20,1.35263792693e+20,6.95273283044e-10,-0.336256824851,-0.336256824851,-29.0413818726,0,1.35585136186e+20,0,0,0,0,0,0,0,-0.339601306531,0.0863334027393,-0.0670052565371,948043.364486,2105007.1028,3121.89347819
51,3127.44592299,68.3330047949,0,0,0,1,0,0,0,0,0,0,0,0,0,0,0,0,0,0,0,0,0,0,0,0,0.599240656231,0,0,9.71847129101,47.8700466151,62.1384601583,-1.35436005991e-16,3.20098183414e-05,-0.00429092918548,0.0109425034143,-0.0066195644105,-0.0158559991794,0.00497237987529,-0.0222133605834,3.20098183414e-05,0.00432668298432,1.34928047847e+20,1.3553418544e+20,0,-0.344457908272,1.34928545059e+20,1.35283193145e+20,-1.27084528983e-09,-0.344457908272,-0.344457908272,-28.0974696696,0,1.35584913552e+20,0,0,0,0,0,0,0,-0.397474549372,0.0957588704906,-0.0828956789974,948042.964892,2105001.50849,3127.44592299
51,3119.10468799,75.5395146631,0,0,0,1,0,0,0,0,0,0,0,0,0,0,0,0,0,0,0,0,0,0,0,0,0.677636132928,0,0,8.38347939739,43.7717211374,57.8438373327,-2.73273072999e-17,-3.71636438659e-05,-0.00381240672701,0.00772350440876,-0.00394826132562,-0.0118515427398,0.00436174153375,-0.0194400355014,-3.71636438659e-05,0.00332146857719,1.34956738788e+20,1.35518011088e+20,0,-0.330897763951,1.34957088033e+20,1.35252963636e+20,1.12828422286e-09,-0.330897763951,-0.330897763951,-27.1289038712,0,1.3558410055e+20,0,0,0,0,0,0,0,-0.324270755742,0.0843380363869,-0.0616573578621,948043.613105,2105010.58346,3119.10468799
51,3160.34153141,38.7546557538,0,0,0,1,0,0,0,0,0,0,0,0,0,0,0,0,0,0,0,0,0,0,0,0,0.311591428126,0,0,7.59872051929,24.5985771155,24.815897535,-2.95045611764e-17,4.11463012831e-05,-0.00184007592839,0.010044107715,-0.0081628854853,-0.0263576580537,0.000221410319509,-0.0264732413366,4.11463012831e-05,0.00632842075296,1.34385481897e+20,1.35593536111e+20,0,-0.600954651384,1.34388139773e+20,1.35375966584e+20,2.46262594725e-09,-0.600954651384,-0.600954651384,-89.8822537617,0,1.35613191884e+20,0,0,0,0,0,0,0,-0.44677749604,0.0663819387318,-0.0938254295125,948040.304319,2104964.26047,3160.34153141
51,3165.0956,34.139201424,0,0,0,1,0,0,0,0,0,0,0,0,0,0,0,0,0,0,0,0,0,0,0,0,0.250623765205,0,0,6.43798628001,19.3367682261,20.4816097551,-4.32992400622e-16,4.48107639317e-05,-0.00138116917932,0.0107319527674,-0.00930597282417,-0.0278574130841,8.79107843416e-05,-0.0269276657274,4.48107639317e-05,0.0066967467451,1.34186278616e+20,1.35606116304e+20,0,-0.695200798393,1.34189795969e+20,1.35395871887e+20,8.84756445849e-10,-0.695200798393,-0.695200798393,-128.316319061,0,1.35611395942e+20,0,0,0,0,0,0,0,-0.457975376085,0.0572702904293,-0.106414205148,948040,2104960,3165.0956
51,3139.610216,58.01317542,0,0,0,1,0,0,0,0,0,0,0,0,0,0,0,0,0,0,0,0,0,0,0,0,0.515454872723,0,0,8.05857742926,27.5680814742,37.0569818935,-1.16304361977e-16,2.75313350734e-05,-0.00261363674703,0.00833742493814,-0.00569625685604,-0.0161132625584,0.00157875782276,-0.0208171733309,2.75313350734e-05,0.00395190479702,1.34815293067e+20,1.35551472368e+20,0,-0.397744046075,1.3481613404e+20,1.35311806774e+20,6.08921982346e-10,-0.397744046075,-0.397744046075,-28.5553916547,0,1.35597473875e+20,0,0,0,0,0,0,0,-0.345801106344,0.0836445473164,-0.0638992777792,948041.7512,2104984.5168,3139.610216
51,3153.38263983,45.1398058243,0,0,0,1,0,0,0,0,0,0,0,0,0,0,0,0,0,0,0,0,0,0,0,0,0.363403370609,0,0,3.88841904652,20.6879130607,21.3481990105,8.45935766824e-16,0.000140380021236,-0.00250975853655,0.0123384715552,-0.00968833299746,-0.0267513896085,0.000920830317124,-0.0284783861927,0.000140380021236,0.00675299537598,1.34586404659e+20,1.35582845314e+20,0,-0.505941404612,1.34587967361e+20,1.35357652412e+20,-3.98327849036e-11,-0.505941404612,-0.505941404612,-47.1274597648,0,1.35609755253e+20,0,0,0,0,0,0,0,-0.408474230245,0.0503897028329,-0.101067097622,948040.763771,2104970.6928,3153.38263983
51,3183.04942011,20.0037562301,0,0,0,1,0,0,0,0,0,0,0,0,0,0,0,0,0,0,0,0,0,0,0,0,0.160553197513,0,0,2.54684918603,3.22573430336,12.2437563069,6.86094862413e-17,-2.87398035427e-05,0.00692555219995,0.00967024591287,-0.0166245379164,-0.0048507501217,-0.00956455447704,-0.0244453328629,-2.87398035427e-05,0.00484464576352,1.32880227329e+20,1.35624702085e+20,0,-1.3137481962,1.32886171558e+20,1.35454288705e+20,6.89112868905e-10,-1.3137481962,-1.3137481962,-311.880565496,0,1.35611722204e+20,0,0,0,0,0,0,0,-0.281426771414,-0.0405409877301,-0.0377501242692,948037.798923,2104929.18492,3183.04942011
51,3176.10559901,21.9509843782,0,0,0,1,0,0,0,0,0,0,0,0,0,0,0,0,0,0,0,0,0,0,0,0,0.167110813919,0,0,4.60088675454,7.26954823491,13.3577809512,6.61162385508e-16,4.55208524017e-05,0.00106712507514,0.00790340800591,-0.00892501222865,-0.0256755467344,0.00114313354583,-0.0313489649689,4.55208524017e-05,0.00716679281635,1.33506220689e+20,1.35623348905e+20,0,-1.01710061072,1.33512170956e+20,1.35435589253e+20,3.73580801936e-09,-1.01710061072,-1.01710061072,-256.858868475,0,1.35608860263e+20,0,0,0,0,0,0,0,-0.46147302157,0.0546748775999,-0.100695118889,948039.215347,2104949.01485,3176.10559901
51,3176.11932686,21.9337811326,0,0,0,1,0,0,0,0,0,0,0,0,0,0,0,0,0,0,0,0,0,0,0,0,0.166984603307,0,0,4.59594461045,7.25048317542,13.3483943176,6.62426025316e-16,4.55153895357e-05,0.00107511472247,0.00789247429931,-0.00892207363225,-0.0256624383986,0.00114517357586,-0.0313517614631,4.55153895357e-05,0.00716512699307,1.33505248787e+20,1.35623374948e+20,0,-1.01756072317,1.33511202102e+20,1.35435614919e+20,3.72701287496e-09,-1.01756072317,-1.01756072317,-257.01451942,0,1.35608847188e+20,0,0,0,0,0,0,0,-0.461154797257,0.0545853179237,-0.100596201882,948039.213781,2104948.99293,3176.11932686
51,3176.13945685,21.9256785547,0,0,0,1,0,0,0,0,0,0,0,0,0,0,0,0,0,0,0,0,0,0,0,0,0.16684940279,0,0,4.58974393378,7.23353559259,13.3406099633,6.61853623995e-16,4.5388265048e-05,0.00109166509689,0.00787852007889,-0.00892479691074,-0.0256147048007,0.00113138393531,-0.0313318402854,4.5388265048e-05,0.00715594598947,1.33503488672e+20,1.35623402846e+20,0,-1.01839453656,1.33509445476e+20,1.35435670303e+20,3.73385893888e-09,-1.01839453656,-1.01839453656,-257.278107847,0,1.35608849577e+20,0,0,0,0,0,0,0,-0.460680791856,0.0544803433926,-0.100485662539,948039.21066,2104948.94924,3176.13945685
51,3182.50393384,20.0035732551,0,0,0,1,0,0,0,0,0,0,0,0,0,0,0,0,0,0,0,0,0,0,0,0,0.17930823744,0,0,2.83481721036,3.32525744046,12.4227602593,3.99732172752e-17,-5.01435629391e-05,0.00550118918356,0.00660239655454,-0.012153729301,-0.00822142579083,-0.00599004074995,-0.0241519258933,-5.01435629391e-05,0.00428023346557,1.32928673978e+20,1.35620831975e+20,0,-1.29077473637,1.32934920117e+20,1.35452553675e+20,-1.26931762643e-09,-1.29077473637,-1.29077473637,-304.679741118,0,1.35610432825e+20,0,0,0,0,0,0,0,-0.303221994088,-0.0134242051852,-0.0408231142531,948038.010397,2104932.14556,3182.50393384
51,3179.97015825,19.9952775094,0,0,0,1,0,0,0,0,0,0,0,0,0,0,0,0,0,0,0,0,0,0,0,0,0.158206277478,0,0,3.76691415326,4.27101236649,12.3557759035,1.84071655882e-16,3.31860959008e-06,0.00382587344425,0.00522370116893,-0.00904625600359,-0.0147692897329,-0.00143282266514,-0.0257366419004,3.31860959008e-06,0.00484559493916,1.33170903488e+20,1.35625186356e+20,0,-1.17596086543,1.33177474312e+20,1.35443657521e+20,2.5851452905e-09,-1.17596086543,-1.17596086543,-296.251804991,0,1.35606426283e+20,0,0,0,0,0,0,0,-0.363660228662,0.0396448878305,-0.0644761080036,948038.594276,2104940.31987,3179.97015825
51,3168.93820097,30.2277000127,0,0,0,1,0,0,0,0,0,0,0,0,0,0,0,0,0,0,0,0,0,0,0,0,0.234484543212,0,0,6.57855447546,15.632682849,18.0049314711,-8.34609738789e-16,2.93566839763e-05,-0.00180361686401,0.0112465090997,-0.00941353555171,-0.026940533378,-0.000109271695475,-0.0260810282657,2.93566839763e-05,0.0064893793639,1.33997484074e+20,1.35609446516e+20,0,-0.784515518782,1.34001824774e+20,1.35408403142e+20,-2.18632502717e-10,-0.784515518782,-0.784515518782,-164.229812774,0,1.35611474305e+20,0,0,0,0,0,0,0,-0.494414460181,0.0694361708098,-0.099995404327,948039.78282,2104956.95948,3168.93820097
51,3144.25453975,53.9500249094,0,0,0,1,0,0,0,0,0,0,0,0,0,0,0,0,0,0,0,0,0,0,0,0,0.455055179757,0,0,6.71529603586,27.7907132673,33.8696350037,-8.6820210809e-17,0.00011214655462,-0.00233814827963,0.0108513336687,-0.00840103883445,-0.0203755286708,0.0018709956639,-0.0250442394514,0.00011214655462,0.00526316895032,1.34760148823e+20,1.35563934577e+20,0,-0.423804205717,1.3476114702e+20,1.35327871426e+20,2.81969234387e-09,-0.423804205717,-0.423804205717,-34.8797201304,0,1.35601792604e+20,0,0,0,0,0,0,0,-0.372050202477,0.0678868871657,-0.078095551594,948041.424686,2104979.94561,3144.25453975
51,3146.46580093,51.9335981497,0,0,0,1,0,0,0,0,0,0,0,0,0,0,0,0,0,0,0,0,0,0,0,0,0.422531656471,0,0,4.88577125235,25.9319977986,29.3941245905,-2.00091871559e-16,0.000173096535919,-0.00155900113495,0.0100471166545,-0.00831501898366,-0.0208165732675,0.00147380188422,-0.0248432180849,0.000173096535919,0.00526379152751,1.34724068049e+20,1.35570645124e+20,0,-0.440863193351,1.34725133483e+20,1.35334840409e+20,2.71905817578e-09,-0.440863193351,-0.440863193351,-37.7724936721,0,1.35604932278e+20,0,0,0,0,0,0,0,-0.371113240927,0.0600582773368,-0.0878721468176,948041.234059,2104977.27683,3146.46580093
51,3181.10774699,19.993677628,0,0,0,1,0,0,0,0,0,0,0,0,0,0,0,0,0,0,0,0,0,0,0,0,0.166076632376,0,0,3.41292353685,3.81526715066,12.4632250043,3.04237743026e-16,-2.17710506588e-05,0.00438819981099,0.00536489660826,-0.00977486746991,-0.0125793514504,-0.00251303735379,-0.0247575506941,-2.17710506588e-05,0.00452687370261,1.33059126919e+20,1.35623562312e+20,0,-1.22894669516,1.33065759091e+20,1.35448573454e+20,-3.1967460365e-10,-1.22894669516,-1.22894669516,-305.105725213,0,1.35607711009e+20,0,0,0,0,0,0,0,-0.349568791698,0.0246237109957,-0.0569251947243,948038.38755,2104937.4257,3181.10774699
51,3114.03034146,79.2885825919,0,0,0,1,0,0,0,0,0,0,0,0,0,0,0,0,0,0,0,0,0,0,0,0,0.721720857127,0,0,3.11919150161,20.3768956661,38.4255037966,-3.59172380189e-17,-5.01814812928e-05,-0.00299029185909,0.00648889431302,-0.00354878393522,-0.00928702489114,0.00595130493971,-0.0203096897033,-5.01814812928e-05,0.00326046009178,1.34967582183e+20,1.35508915823e+20,0,-0.325772713446,1.34967864544e+20,1.35234531328e+20,-2.09902504055e-10,-0.325772713446,-0.325772713446,-19.6029785406,0,1.35581081566e+20,0,0,0,0,0,0,0,-0.289605979713,0.0784210636499,-0.0503028218583,948044.134146,2105017.87805,3114.03034146
51,3114.89595294,78.5592915167,0,0,0,1,0,0,0,0,0,0,0,0,0,0,0,0,0,0,0,0,0,0,0,0,0.71722672065,0,0,4.35900470783,23.660934431,40.6449139618,3.62251078677e-18,-5.29425532683e-05,-0.0032989910262,0.00697435743326,-0.00372830896033,-0.00986888016172,0.00602356033252,-0.0206002313668,-5.29425532683e-05,0.00337731931092,1.34965457796e+20,1.35509843019e+20,0,-0.326776819078,1.34965751452e+20,1.35237788168e+20,-1.07684172697e-10,-0.326776819078,-0.326776819078,-19.9175650939,0,1.35582037404e+20,0,0,0,0,0,0,0,-0.296854332308,0.0808860388968,-0.0513677312363,948044.041176,2105016.57647,3114.89595294
51,3152.77088201,45.740691268,0,0,0,1,0,0,0,0,0,0,0,0,0,0,0,0,0,0,0,0,0,0,0,0,0.367698689752,0,0,4.07844928751,20.919413887,21.8855833639,8.92653322617e-16,0.000136678145611,-0.0025787869748,0.0121275670256,-0.00941210190518,-0.0262990418082,0.00102240258215,-0.0281218951291,0.000136678145611,0.00663272051742,1.34602060721e+20,1.35581959038e+20,0,-0.498537019368,1.34603545981e+20,1.35355097891e+20,-5.52240960862e-11,-0.498537019368,-0.498537019368,-45.0231056458,0,1.35609331115e+20,0,0,0,0,0,0,0,-0.404283476156,0.0516806698663,-0.0997102573054,948040.801741,2104971.22437,3152.77088201
51,3132.08975758,0,64.1494475807,0.178949512616,-0.120669290099,1,-6.93000458362,6.50629530477,0,0,0.165192040986,210,0,0.0631748533283,1.32740440686e+20,-0.35947160613,0.569751001645,-0.375608951447,0.0964577109781,-0.073658198182,3196.00321241,0,3178.09807273,-7.16248855973,1.67073625506e-09,0,-0.0117264106433,0,0,-2.21381103683e-12,-4.36899758794e-13,0.162546962864,9.78722278659e-16,-1.47253285069e-06,-0.000457921553541,0.000861739601022,-0.000405290580332,-0.000789144355329,-0.000287399482804,0.000122190424057,-1.47253285069e-06,5.70403771696e-05,1.33862121211e+20,1.35660253009e+20,0,-0.848583554308,1.33862121211e+20,1.32017432336e+20,-1595.17722531,0,0,0,1,1.3558809716e+20,0,0,0,18.1438893055,0,0,-7.70649090338,-1.33695393158,0.272827837381,-0.224899546706,948042.472727,2104994.61818,3196.24196203
51,3132.70476923,0,63.5766999556,0.178028404727,-0.120311297574,1,-6.92980541832,6.5060974152,0,0,0.165175405231,210,0,0.063168351823,1.32736623358e+20,-0.361360012359,0.565598142872,-0.374639564695,0.0962534518775,-0.0743853368831,3196.08071307,0,3178.11412168,-7.16461083529,1.86264514923e-09,0,-0.012054726258,0,0,-2.25356621475e-12,-4.30887532334e-13,0.160953657465,1.12189802447e-15,-1.14297784071e-06,-0.000481267259174,0.000910977985713,-0.00043085370438,-0.000840002300233,-0.000299573525098,0.000126300729551,-1.14297784071e-06,6.09502222062e-05,1.33861691952e+20,1.35660320761e+20,0,-0.848786751454,1.33861691952e+20,1.32016697129e+20,-1587.07454777,0,0,0,1,1.35588040665e+20,0,0,0,18.205411755,0,0,-7.70427303431,-1.33493345572,0.272535422635,-0.225170322597,948042.413287,2104993.78601,3196.31953343
51,3184.28425714,0,20.0000340099,0.198184464272,-0.182334570155,1,-6.90432531598,6.48577889947,0,0,0.168497911357,210,0,0.0625008030516,1.3318464745e+20,-1.38700081835,0.111534350355,-0.291742586461,-0.141257163849,-0.0351932406824,3204.28425714,395.81275217,3194.31762857,0,395.81275217,0,0.0168257165361,0,0,9.54143248796e-14,-1.02149296402e-14,0.0871176288014,2.12223669318e-16,-3.57588602494e-06,-0.00384713555674,0.00241209461811,0.00143146505261,0.000554752221251,-0.00015189152843,-0.00121537997561,-3.57588602494e-06,0.000279354357186,1.33817618637e+20,1.35654360964e+20,0,-0.869649971941,1.33817618637e+20,1.31941211294e+20,-1572.84973764,0,0,0,-1,1.35615541124e+20,0,0,0,9.96662857191,0,0,3.34970146858e-14,-0.647274387624,-0.114004705833,-0.200814172908,948037.4,2104923.6,3204.28425714
51,3184.51837799,0,20.0001115999,0.206936673044,-0.176167082785,1,-6.90366523923,6.48518164233,0,0,0.168506671702,210,0,0.0624811806404,1.33221104574e+20,-1.40460321994,0.102816880249,-0.29111398057,-0.197179590264,-0.0325129222121,3204.51837799,386.248965519,3194.55156459,0,386.248965519,0,0.0163936639138,0,0,3.62996426345e-13,-2.03553840441e-13,0.0863396357602,2.80696424635e-16,-2.49750124127e-06,-0.00395156362137,0.00254976094041,0.00139930517972,0.00056715594438,-0.000179608926273,-0.00128494328279,-2.49750124127e-06,0.000279412121679,1.33816323229e+20,1.35654450122e+20,0,-0.870263217576,1.33816323229e+20,1.31938992608e+20,-1558.21390067,0,0,0,-1,1.35618504481e+20,0,0,0,9.96681339743,0,0,3.34023080327e-14,-0.633943069909,-0.123650963356,-0.198538595422,948037.200957,2104920.8134,3204.51837799
51,3133.36914731,0,62.9279948436,0.179969903848,-0.12428937218,1,-6.92940503111,6.50578582799,0,0,0.165236002688,210,0,0.0631581148716,1.32692914134e+20,-0.364511854004,0.559595042584,-0.364227436365,0.0923223681105,-0.0731814984475,3196.20308684,0,3178.14826629,-7.15760161705,1.59353777638e-09,0,-0.0122845480971,0,0,-2.06881042041e-12,-4.05480516173e-13,0.153858562759,6.97496243813e-16,-1.06161214029e-06,-0.000533292207824,0.000984561534798,-0.000452330939114,-0.000870305900406,-0.000344268928182,0.00014135720431,-1.06161214029e-06,6.56296032438e-05,1.33861016045e+20,1.35660368187e+20,0,-0.849106699078,1.33861016045e+20,1.32015539481e+20,-1509.84652535,0,0,0,1,1.35588859783e+20,0,0,0,18.2934072681,0,0,-7.70151768139,-1.33078958792,0.271141613594,-0.22551449241,948042.335694,2104992.69972,3196.44167356
51,3121.89347819,0,73.1661599599,0.168423065926,-0.164235237968,1,-6.93336033638,6.5088898937,0,0,0.164665719995,210,0,0.0632600964965,1.33062292681e+20,-0.336068504572,0.651007753245,-0.339601306531,0.0863334027393,-0.0670052565371,3194.98673058,0,3177.76336449,-7.14509275285,1.766901707e-09,0,-0.00971360409049,0,0,-1.43310387354e-12,3.34090772509e-14,0.17952642676,2.03777687649e-15,-2.73451288198e-07,-8.94780351631e-05,0.000263004159382,-0.000173799575507,-0.000324091952586,-0.000115884455439,8.54513857507e-05,-2.73451288198e-07,1.62787425469e-05,1.338677496e+20,1.35659837643e+20,0,-0.845919327032,1.338677496e+20,1.32027072266e+20,-1688.95605418,0,0,0,1,1.35583872204e+20,0,0,0,17.4615358542,0,0,-7.70910433362,-1.36080349368,0.280341549936,-0.214265633088,948043.364486,2105007.1028,3195.22490034
51,3127.44592299,0,68.5369899565,0.181689072283,-0.119174488742,1,-6.93139878799,6.50749505078,0,0,0.165106174689,210,0,0.0632142700351,1.33162853909e+20,-0.344222952583,0.599240656231,-0.397474549372,0.0957588704906,-0.0828956789974,3195.53348909,0,3177.87830804,-7.14541341254,2.80978860564e-09,0,-0.0101300435081,0,0,-9.13441635782e-13,-2.63198469562e-13,0.192572823318,-7.90300717931e-16,-1.50997992414e-06,-0.000139164695273,0.000366184132905,-0.000228529417557,-0.00048912502819,-0.000156046663173,8.85251106757e-05,-1.50997992414e-06,2.66345004268e-05,1.33864723858e+20,1.3565992358e+20,0,-0.847351594953,1.33864723858e+20,1.32021889976e+20,-1793.72220537,0,0,0,1,1.35584668521e+20,0,0,0,17.8933614941,0,0,-7.72050573761,-1.35298410669,0.27914788674,-0.218399979827,948042.964892,2105001.50849,3195.77166953
51,3119.10468799,0,75.490012002,0.158341049591,-0.17318120224,1,-6.93456156433,6.51012122152,0,0,0.164807270483,210,0,0.0633005507987,1.33013696851e+20,-0.330732737928,0.677636132928,-0.324270755742,0.0843380363869,-0.0616573578621,3194.50347151,0,3177.69140718,-7.16269421111,0,0,-0.00977987909973,0,0,-1.94670575378e-12,1.3706911321e-13,0.162987650739,2.50454021262e-15,-1.54807161307e-07,1.11104021056e-06,0.000137618603146,-0.000138884450517,-0.000255090156709,-9.20846960826e-05,8.05237797746e-05,-1.54807161307e-07,9.28044048248e-06,1.33870420777e+20,1.35659851319e+20,0,-0.844654934322,1.33870420777e+20,1.32031647279e+20,-1523.05906669,0,0,0,1,1.35584264006e+20,0,0,0,17.0508208061,0,0,-7.72697124314,-1.36540658431,0.282548358093,-0.210790568021,948043.613105,2105010.58346,3194.74222798
51,3160.34153142,0,38.7445915424,0.218795401679,-0.0601428168592,1,-6.92029479452,6.49885127915,0,0,0.166784026804,210,0,0.0629302857517,1.32918187972e+20,-0.599697604122,0.311591428126,-0.44677749604,0.0663819387318,-0.0938254295125,3198.91854201,0,3179.64593717,-7.24286407324,1.08004162449e-09,0,-0.0135215372727,0,0,1.23491349493e-13,-2.16293506156e-13,0.126196495158,1.57714684136e-15,-2.44997814282e-06,-0.00301128690799,0.00455025580991,-0.00154141888006,-0.0037137350757,-0.00123601918558,1.57726986505e-05,-2.44997814282e-06,0.000468758553468,1.33845973656e+20,1.35660623456e+20,0,-0.856227253392,1.33845973656e+20,1.3198977588e+20,-1580.40614048,0,0,0,1,1.35614864844e+20,0,0,0,19.5140336396,0,0,-7.7225496746,-1.13407435167,0.194823298472,-0.213693463489,948040.304319,2104964.26047,3199.15997081
51,3165.0956,0,34.0781206752,0.241780435271,-0.00550609335698,1,-6.9201411103,6.49852523606,0,0,0.166582156937,210,0,0.0629195738636,1.33097166338e+20,-0.69353660873,0.250623765205,-0.457975376085,0.0572702904293,-0.106414205148,3199.05980066,0,3180.1074,-6.83930660695,7.45058059681e-10,0,-0.012214112372,0,0,6.00008931439e-13,-1.93908777922e-13,0.12326386227,-1.72752708409e-15,-8.37982624521e-06,-0.00399371205484,0.00567863013938,-0.00169329791078,-0.0045636824062,-0.0011038783222,-0.000672017899929,-8.37982624521e-06,0.00062666421708,1.33845266352e+20,1.35660353653e+20,0,-0.856562052474,1.33845266352e+20,1.31988564457e+20,-1593.39883934,0,0,0,1,1.35610464466e+20,0,0,0,19.1803775479,0,0,-7.31595696605,-1.07852193639,0.169458551112,-0.204964797248,948040,2104960,3199.28777755
51,3139.610216,0,57.6937607296,0.188724949972,-0.131118715738,1,-6.92585306699,6.50285491002,0,0,0.165591764005,210,0,0.0630618218788,1.32775485464e+20,-0.39734657159,0.515454872723,-0.345801106344,0.0836445473164,-0.0638992777792,3197.35199865,0,3178.3984448,-7.15726067017,-1.80006027221e-09,0,-0.0108663162783,0,0,-3.22326165765e-14,-9.42225519826e-14,0.133175354988,4.12319115467e-16,-2.5245945662e-06,-0.00101734348941,0.00150650335754,-0.000491684462699,-0.00130151517857,-0.000571372675746,0.000130329376884,-2.5245945662e-06,0.000116085694075,1.33854658196e+20,1.35660075518e+20,0,-0.852116256076,1.33854658196e+20,1.32004650182e+20,-1321.43688669,0,0,0,1,1.35595093198e+20,0,0,0,19.1921292056,0,0,-7.73098327392,-1.29670657671,0.258284284049,-0.230002421812,948041.7512,2104984.5168,3197.59057401
51,3153.38263983,0,45.1121568105,0.233429682133,-0.066051793625,1,-6.92308678349,6.5009699213,0,0,0.166302443673,210,0,0.0629998920647,1.32558084573e+20,-0.505202540406,0.363403370609,-0.408474230245,0.0503897028329,-0.101067097622,3198.09454413,0,3179.15401907,-7.04798943456,0,0,-0.0115905607438,0,0,1.50989302271e-13,-3.4039346788e-14,0.0995010971323,-1.55245861056e-15,-1.79147302077e-06,-0.00250819447623,0.0035203947636,-0.0010139917604,-0.00290842941457,-0.00115639929157,-1.73524259973e-05,-1.79147302077e-06,0.000337970321552,1.33850569259e+20,1.35660224975e+20,0,-0.85405181174,1.33850569259e+20,1.31997646922e+20,-1114.04923895,0,0,0,1,1.3560675461e+20,0,0,0,19.1754580414,0,0,-7.58811509296,-1.20027334631,0.220797945424,-0.224732121862,948040.763771,2104970.6928,3198.32947711
51,3183.04942011,0,19.9996686465,0.161767611753,-0.203125373203,1,-6.90814897781,6.48892904713,0,0,0.16810952505,210,0,0.0626042986625,1.33088401581e+20,-1.31093000326,0.160553197513,-0.281426771414,-0.0405409877301,-0.0377501242692,3203.04942011,458.230977498,3193.08342011,0,458.230977498,0,0.0105193223113,0,0,-9.09309407147e-14,1.61409236266e-13,0.102083530741,-7.41354355153e-16,-5.74662282206e-06,-0.00254817614143,0.00148893624166,0.00105349327694,0.000244969557896,9.16900729834e-05,-0.000622663247054,-5.74662282206e-06,0.000125300867376,1.33824451276e+20,1.35655662354e+20,0,-0.866415455829,1.33824451276e+20,1.31952913783e+20,-1765.49687917,0,0,0,-1,1.35611683969e+20,0,0,0,9.96599999997,0,0,3.15725901438e-14,-0.655100565002,-0.105420754221,-0.201453505724,948037.798923,2104929.18492,3203.04942011
51,3176.10559901,0,21.9379185693,0.187952646849,-0.0612281346909,1,-6.92278125751,6.50167308649,0,0,0.167374780093,210,0,0.0630229940008,1.33103225821e+20,-1.01428239424,0.167110813919,-0.46147302157,0.0546748775999,-0.100695118889,3197.74653185,0,3186.13959653,-9.21927469252,0,0,-0.0261931830189,0,0,1.94620584774e-13,-7.4692744426e-14,0.115300698207,1.60404018019e-15,1.92655342168e-05,-0.00663887516438,0.0128564722931,-0.00619833159451,-0.0075995712476,-0.0016505816756,-4.11288913626e-05,1.92655342168e-05,0.00148983573982,1.33852094558e+20,1.35663238408e+20,0,-0.853329786163,1.33852094558e+20,1.32000259353e+20,-1651.16382612,0,0,0,1,1.3560910456e+20,0,0,0,11.9142444768,0,0,-9.82841654537,-0.888726092426,0.0744994883658,-0.161976439541,948039.215347,2104949.01485,3198.05384101
51,3176.11932686,0,21.9203581895,0.187807883464,-0.0615653566286,1,-6.92279061601,6.50168195044,0,0,0.167375087848,210,0,0.0630232852189,1.33103438232e+20,-1.0147410597,0.166984603307,-0.461154797257,0.0545853179237,-0.100596201882,3197.74285506,0,3186.15332686,-9.22534031401,-3.29089250052e-12,0,-0.0262223954467,0,0,1.94091503762e-13,-7.45352690043e-14,0.115300470563,1.60275416245e-15,1.93539969624e-05,-0.00664556024704,0.0128731462692,-0.00620823202518,-0.00760426872117,-0.0016567494077,-3.81374999586e-05,1.93539969624e-05,0.00149181456069,1.33852113785e+20,1.35663244436e+20,0,-0.85332068454,1.33852113785e+20,1.32000292284e+20,-1651.42544142,0,0,0,1,1.35609091078e+20,0,0,0,11.8970395461,0,0,-9.83489423235,-0.888303039752,0.0742504974675,-0.161869846643,948039.213781,2104948.99293,3198.0503664
51,3176.13945685,0,21.9123815808,0.187501121168,-0.0628220341916,1,-6.92275618808,6.50165099384,0,0,0.167375757222,210,0,0.0630222681644,1.33103818359e+20,-1.01557321136,0.16684940279,-0.460680791856,0.0544803433926,-0.100485662539,3197.75653115,1.94928362916,3186.17345685,-9.17910090436,1.94928362916,0,-0.0262202894323,0,0,1.89801783975e-13,-7.43350671471e-14,0.115293839848,1.59082484082e-15,1.92178895353e-05,-0.00663514415739,0.0128416448718,-0.00618728282487,-0.007583646887,-0.00166805178988,-3.37179288112e-05,1.92178895353e-05,0.00148813783457,1.33852046636e+20,1.35663244002e+20,0,-0.85335247118,1.33852046636e+20,1.32000177275e+20,-1652.76124672,0,0,0,0.994923857852,1.35609093621e+20,0,0,0,11.8890443291,0,0,-9.78569979038,-0.887517947805,0.0736661185792,-0.161880636239,948039.21066,2104948.94924,3198.06250118
51,3182.50393384,0,20.000454093,0.142906406921,-0.258945905164,1,-6.90981094603,6.49032061723,0,0,0.16796508148,210,0,0.062650017598,1.33162238265e+20,-1.28781360702,0.17930823744,-0.303221994088,-0.0134242051852,-0.0408231142531,3202.50393384,451.111270896,3192.53750473,0,451.111270896,0,0.00566181964047,0,0,2.12341083201e-13,-1.15293919654e-13,0.10344420675,-5.93313678166e-16,-1.4576844542e-05,-0.00229015245322,0.0014353178432,0.000840257765473,4.80063038445e-05,-2.35039780513e-05,-0.000310885840208,-1.4576844542e-05,6.88232263511e-05,1.33827469683e+20,1.3565666475e+20,0,-0.864986595296,1.33827469683e+20,1.31958083509e+20,-1799.91811917,0,0,0,-1,1.35610479116e+20,0,0,0,9.96642911162,0,0,7.55539298426e-15,-0.66771693584,-0.0968297977652,-0.190612907446,948038.010397,2104932.14556,3202.50393384
51,3179.97015825,0,19.9960585272,0.150768999035,-0.310657315523,1,-6.91730791349,6.49678443958,0,0,0.167516993355,210,0,0.0628623813714,1.33198021152e+20,-1.17284705569,0.158206277478,-0.363660228662,0.0396448878305,-0.0644761080036,3199.97015825,370.270705932,3190.00415825,-9.14088109354e-12,370.270705932,0,-0.0288282502271,0,0,-3.46111560658e-13,2.39015690892e-14,0.113784200457,-6.33036718196e-16,5.18073789908e-06,-0.00515431476314,0.00811092094578,-0.00295142544474,-0.00354530819218,-0.00469509078064,0.00101722642484,5.18073789908e-06,0.00092233362925,1.33841490349e+20,1.35663782188e+20,0,-0.85834951787,1.33841490349e+20,1.3198209717e+20,-1912.31167162,0,0,0,0,1.35606302328e+20,0,0,0,9.96599999995,0,0,1.35710073931e-11,-0.727233885607,-0.0427609021981,-0.155625736885,948038.594276,2104940.31987,3199.97015825
51,3168.93820097,0,30.2639264869,0.255724041334,0.0409094059476,1,-6.92039929207,6.49883867709,0,0,0.166665786543,210,0,0.0629298717208,1.33139021823e+20,-0.782461269687,0.234484543212,-0.494414460181,0.0694361708098,-0.099995404327,3198.94610638,0,3180.73342788,-6.56413079759,0,0,-0.0124905562888,0,0,8.91210570141e-13,-9.72470573368e-14,0.11822513699,-2.45506364335e-15,-1.14427131359e-05,-0.00468102889432,0.00676709990266,-0.00209751372148,-0.00532879375033,-0.000728082929957,-0.00108557687773,-1.14427131359e-05,0.00076759936787,1.33845946252e+20,1.356604107e+20,0,-0.856240207028,1.33845946252e+20,1.31989728943e+20,-1577.31716796,0,0,0,1,1.35609556376e+20,0,0,0,18.4314828615,0,0,-7.03089610074,-1.04016591215,0.152650747745,-0.194954660006,948039.78282,2104956.95948,3199.16491074
51,3144.25453975,0,54.3016303718,0.193475650086,-0.0983039774459,1,-6.92327643892,6.50095831709,0,0,0.1661001337,210,0,0.0629995108173,1.32969100767e+20,-0.423332388533,0.455055179757,-0.372050202477,0.0678868871657,-0.078095551594,3198.09532006,0,3178.61685983,-7.16117461446,5.06577132698e-11,0,-0.00932263717617,0,0,3.03886768144e-13,-2.1984549815e-14,0.128163609071,-8.9094846553e-16,-5.7831990787e-06,-0.00136010601391,0.00188048314923,-0.000526160334398,-0.0016356401674,-0.00053267791207,2.67658950147e-05,-5.7831990787e-06,0.000151233886198,1.33850544127e+20,1.35659756962e+20,0,-0.854063719248,1.33850544127e+20,1.31997603878e+20,-1401.70732721,0,0,0,1,1.35602410976e+20,0,0,0,19.7171660521,0,0,-7.68415405967,-1.2727614268,0.249674200131,-0.23004800183,948041.424686,2104979.94561,3198.33402588
51,3146.46580093,0,52.156238768,0.198298287323,-0.0812067793265,1,-6.92238637002,6.5004324066,0,0,0.166416690617,210,0,0.062982232444,1.33025902104e+20,-0.440359559553,0.422531656471,-0.371113240927,0.0600582773368,-0.0878721468176,3198.30212894,0,3178.73793779,-7.14151122991,1.86264514923e-09,0,-0.00971670714385,0,0,3.86499800542e-13,3.26725751172e-14,0.11684317198,-1.31547126392e-15,-6.96098952574e-06,-0.0016449079525,0.00230323511085,-0.000665288147871,-0.0019998234788,-0.00058169619137,-2.30776939332e-05,-6.96098952574e-06,0.0001999852902,1.33849403319e+20,1.35659838283e+20,0,-0.854603737424,1.33849403319e+20,1.31995649977e+20,-1342.99264692,0,0,0,1,1.3560679841e+20,0,0,0,19.8022415245,0,0,-7.63850850691,-1.25429593498,0.242241133376,-0.230788253446,948041.234059,2104977.27683,3198.54017932
51,3181.10774699,0,19.9992832969,0.144248927728,-0.306760314997,1,-6.91399472452,6.4938823785,0,0,0.167665448325,210,0,0.0627670364488,1.33219802179e+20,-1.22580325702,0.166076632376,-0.349568791698,0.0246237109957,-0.0569251947243,3201.10774699,403.389645378,3191.14135341,-8.27311445581e-12,403.389645378,0,-0.0149962917667,0,0,-1.98274532104e-13,-1.52253655914e-13,0.110244495718,-1.13572308416e-15,-1.26039379168e-05,-0.00397733801717,0.0051461365446,-0.00118140246535,-0.00210036649011,-0.00274960945687,0.000439880036985,-1.26039379168e-05,0.000548581224989,1.33835195365e+20,1.35660927797e+20,0,-0.8613293907,1.33835195365e+20,1.31971315541e+20,-1918.40365349,0,0,0,-0.393574297194,1.3560781094e+20,0,0,0,9.96639357443,0,0,8.18750689729e-12,-0.702428266348,-0.0684071696657,-0.170647790109,948038.38755,2104937.4257,3201.10774699
51,3114.03034146,0,79.0721266072,0.147604565725,-0.128219130987,1,-6.93906158014,6.51414204448,0,0,0.164692012534,210,0,0.0634326517584,1.32980355318e+20,-0.325639294324,0.721720857127,-0.289605979713,0.0784210636499,-0.0503028218583,3192.92522898,0,3177.62138537,-7.22589020256,-4.40674584097e-10,0,-0.00499871971837,0,0,1.65300985976e-12,-1.10363615279e-14,0.102415172267,9.48668703291e-16,2.05947426072e-06,8.58388904999e-05,-4.6492586477e-05,-3.72868297622e-05,-0.000185624790575,-4.41777383688e-05,5.50137252474e-05,2.05947426072e-06,6.9992382149e-06,1.33879143229e+20,1.35658864672e+20,0,-0.840526160965,1.33879143229e+20,1.32046586515e+20,-908.420071562,0,0,0,1,1.35577770952e+20,0,0,0,15.5447066227,0,0,-7.83275678146,-1.37257692599,0.284403882179,-0.204893109128,948044.134146,2105017.87805,3193.16609199
51,3114.89595294,0,78.3608700572,0.146509090728,-0.135676849424,1,-6.9386619979,6.51385092366,0,0,0.164774123866,210,0,0.0634230872139,1.32989820809e+20,-0.326638061215,0.71722672065,-0.296854332308,0.0808860388968,-0.0513677312363,3193.03917569,0,3177.64296471,-7.23101203188,-7.99841740555e-10,0,-0.00459362032112,0,0,1.18402840638e-12,-6.14852939806e-14,0.110310028096,6.55934023395e-16,1.87187590381e-06,7.76922551038e-05,-3.36112854319e-05,-4.22090937681e-05,-0.00019980338186,-5.28191164413e-05,5.94153094858e-05,1.87187590381e-06,8.22850696678e-06,1.33878511678e+20,1.35658781075e+20,0,-0.840825101133,1.33878511678e+20,1.32045504836e+20,-963.151307671,0,0,0,1,1.35578065946e+20,0,0,0,15.6372447186,0,0,-7.83798809164,-1.37175033524,0.284137079261,-0.205895799572,948044.041176,2105016.57647,3193.28020942
51,3152.77088201,0,45.679927973,0.232426998233,-0.0660757630533,1,-6.92314261741,6.50099802227,0,0,0.166277254206,210,0,0.0630008152998,1.32565948317e+20,-0.497834802337,0.367698689752,-0.404283476156,0.0516806698663,-0.0997102573054,3198.08380487,0,3179.11372147,-7.03970537586,1.04481062518e-10,0,-0.0116928747561,0,0,1.17932420759e-13,-2.62802755061e-14,0.100423184452,-1.43644834371e-15,-2.17898921388e-06,-0.00242468639597,0.00343670137022,-0.00101419396347,-0.00285037620993,-0.00112715041793,-8.61405460478e-06,-2.17898921388e-06,0.000326784949508,1.33850630217e+20,1.35660246089e+20,0,-0.854022956761,1.33850630217e+20,1.31997751326e+20,-1118.66080329,0,0,0,1,1.35606192577e+20,0,0,0,19.2047402455,0,0,-7.57923063253,-1.20584929544,0.223213041429,-0.225385572344,948040.801741,2104971.22437,3198.31846172
51,3112.0630401,79.7641133661,0,0,0,1,0,0,0,0,0,0,0,0,0,0,0,0,0,0,0,0,0,0,0,0,0.713406684038,0,0,-7.93044746003,-24.417599347,68.8791948651,-3.02645288452e-16,-1.13101123828e-05,0.0059984870663,-0.0029609364774,-0.00304886070128,0.00383502633983,0.00592645046309,-0.021912781362,-1.13101123828e-05,0.00325251559198,1.34947032316e+20,1.35510631137e+20,0,-0.335483977814,1.3494731742e+20,1.35234730761e+20,1.6865161468e-09,-0.335483977814,-0.335483977814,-36.7407484727,0,1.35541606093e+20,0,0,0,0,0,0,0,-0.314999891657,0.0856551253038,-0.0403226886492,948046.116429,2105045.63001,3112.0630401
51,3110.03584841,81.6789704508,0,0,0,1,0,0,0,0,0,0,0,0,0,0,0,0,0,0,0,0,0,0,0,0,0.752493614978,0,0,-4.55675024959,-14.1564900871,70.3565514578,-5.04017755947e-16,-0.000101562307746,0.00350692860432,-0.00147832087998,-0.00213017003209,0.000891257025582,0.0057886534806,-0.0197236278457,-0.000101562307746,0.00274213753367,1.34960807325e+20,1.35502567111e+20,0,-0.328974257322,1.34961063975e+20,1.35224287801e+20,1.82877369862e-10,-0.328974257322,-0.328974257322,-36.3374535392,0,1.35555528788e+20,0,0,0,0,0,0,0,-0.295497171336,0.0818462525891,-0.0307080919867,948045.603912,2105038.45477,3110.03584841
51,3148.29330562,45.2435120148,0,0,0,1,0,0,0,0,0,0,0,0,0,0,0,0,0,0,0,0,0,0,0,0,0.358718569545,0,0,-11.9235963951,-53.2031228657,45.3982901466,-1.88617193973e-15,4.65482295419e-05,0.0244027753087,-0.0117862438893,-0.0125699831899,0.0251109492743,0.00993195688652,-0.0202225743111,4.65482295419e-05,0.00661170182192,1.34415452115e+20,1.35583811976e+20,0,-0.586777530954,1.34416952383e+20,1.35367978676e+20,-8.47070899162e-10,-0.586777530954,-0.586777530954,-138.629974064,0,1.35514059038e+20,0,0,0,0,0,0,0,-0.45622437991,0.116935775649,-0.138520798636,948048.837408,2105083.72372,3148.29330562
51,3137.72222166,55.0685202776,0,0,0,1,0,0,0,0,0,0,0,0,0,0,0,0,0,0,0,0,0,0,0,0,0.446766514566,0,0,-17.8649381364,-64.7520150745,55.5208117199,-7.00791226959e-16,5.9674326782e-05,0.0240637069224,-0.0131889753106,-0.010815057285,0.0238098850795,0.010060306044,-0.0219458171337,5.9674326782e-05,0.00653009324502,1.34665002515e+20,1.35565644745e+20,0,-0.468784658411,1.34665802606e+20,1.35349834212e+20,-4.45963263313e-10,-0.468784658411,-0.468784658411,-84.9341013931,0,1.35502851135e+20,0,0,0,0,0,0,0,-0.452347055103,0.141806761939,-0.113255665492,948048.203046,2105074.84264,3137.72222166
51,3183.12945455,20.001993985,0,0,0,1,0,0,0,0,0,0,0,0,0,0,0,0,0,0,0,0,0,0,0,0,0.100198754414,0,0,2.9815210039,-10.7049600997,15.2597224572,-1.21357674288e-16,3.30485467148e-05,0.0163726618301,0.005316324514,-0.0216559377974,0.0230287943216,0.00639503603293,-0.00930955933228,3.30485467148e-05,0.00521309747663,1.32517376228e+20,1.35637156347e+20,0,-1.4858236308,1.3252444706e+20,1.35409904191e+20,1.99066786384e-09,-1.4858236308,-1.4858236308,-579.846301856,0,1.35508081932e+20,0,0,0,0,0,0,0,-0.322477922844,-0.03610504345,-0.214419443491,948050.794721,2105111.1261,3183.12945455
51,3181.69308293,20.8872295176,0,0,0,1,0,0,0,0,0,0,0,0,0,0,0,0,0,0,0,0,0,0,0,0,0.110377527474,0,0,2.65680362774,-12.1931737611,16.2527593734,-8.61514979447e-17,3.12159459166e-05,0.0168253215631,0.00435101293984,-0.021145118557,0.0232163081259,0.00660099291,-0.00984326432741,3.12159459166e-05,0.00528062044092,1.32622264084e+20,1.35635055963e+20,0,-1.43610065763,1.32628942315e+20,1.35408015843e+20,2.4290340839e-09,-1.43610065763,-1.43610065763,-556.344541399,0,1.35505167496e+20,0,0,0,0,0,0,0,-0.328739892439,-0.0287233783282,-0.210809573705,948050.718293,2105110.0561,3181.69308293
51,3208.81609041,19.9999765484,0,0,0,1,0,0,0,0,0,0,0,0,0,0,0,0,0,0,0,0,0,0,0,0,0.0985110368332,0,0,1.66701679737,-4.95896696517,21.7140841445,-4.14447212108e-15,5.45407414224e-06,0.0128678071039,0.0161794801791,-0.0290418332089,0.0131967307152,0.00279475867204,-0.00620201826292,5.45407414224e-06,0.00486790742231,1.30910286948e+20,1.3563750461e+20,0,-2.2492112604,1.3091676386e+20,1.35468622556e+20,-4.87176301994e-09,-2.2492112604,-2.2492112604,-861.180645466,0,1.35555404118e+20,0,0,0,0,0,0,0,-0.235502871885,-0.189375926606,-0.249793569739,948052.617971,2105136.6516,3208.81609041
51,3196.35001921,19.9991092201,0,0,0,1,0,0,0,0,0,0,0,0,0,0,0,0,0,0,0,0,0,0,0,0,0.102529649149,0,0,5.10332395961,-9.75647172261,27.4957503501,-2.32875860979e-15,3.91506541729e-06,0.0125350556423,0.0129997892954,-0.0255309298722,0.0174917189889,0.00158055984361,-0.00695906809015,3.91506541729e-06,0.00467163033168,1.31659145523e+20,1.35636675352e+20,0,-1.89325546121,1.316624292e+20,1.35435835285e+20,2.01058651532e-09,-1.89325546121,-1.89325546121,-1288.96363009,0,1.35562597272e+20,0,0,0,0,0,0,0,-0.234501312163,-0.126868956278,-0.233947852376,948051.677977,2105123.49168,3196.35001921
51,3171.49813389,26.9214864928,0,0,0,1,0,0,0,0,0,0,0,0,0,0,0,0,0,0,0,0,0,0,0,0,0.208979355194,0,0,0.853433740566,-23.9600595227,24.8788665796,-1.96102049139e-16,6.90200495414e-06,0.0194128550973,-0.00304218865697,-0.0163637644354,0.0237195665171,0.00759727465201,-0.0132706912224,6.90200495414e-06,0.00541561923911,1.33389829316e+20,1.35614709413e+20,0,-1.07223402358,1.33394523949e+20,1.35390344828e+20,1.78274754832e-09,-1.07223402358,-1.07223402358,-404.854629475,0,1.35479952345e+20,0,0,0,0,0,0,0,-0.369441861468,0.0180567065366,-0.174785566456,948050.204976,2105102.86967,3171.49813389
51,3211.07034572,20.0000818793,0,0,0,1,0,0,0,0,0,0,0,0,0,0,0,0,0,0,0,0,0,0,0,0,0.0962056382945,0,0,1.15418123227,-4.00183778716,18.3018445163,-2.73155119597e-15,-6.87348056646e-06,0.0143189037317,0.016472100919,-0.0307978781312,0.0123423968318,0.0041003487315,-0.00663863585173,-6.87348056646e-06,0.00518051487485,1.3071237975e+20,1.35637980339e+20,0,-2.34339847988,1.30719969334e+20,1.35480182507e+20,-2.60841728058e-09,-2.34339847988,-2.34339847988,-717.739967417,0,1.35578346793e+20,0,0,0,0,0,0,0,-0.237770059848,-0.165282302736,-0.227537609264,948052.873606,2105140.23048,3211.07034572
51,3133.19257322,59.3083572801,0,0,0,1,0,0,0,0,0,0,0,0,0,0,0,0,0,0,0,0,0,0,0,0,0.491747902342,0,0,-17.0283080635,-59.6382897181,52.9891735715,-3.9353907742e-16,5.04464122566e-05,0.0218092574603,-0.012385048075,-0.00937376297304,0.0217203916819,0.00965628970366,-0.0221180599746,5.04464122566e-05,0.00606713969593,1.34735159181e+20,1.35556363833e+20,0,-0.435616002779,1.34735876528e+20,1.3533298549e+20,-4.67853207597e-10,-0.435616002779,-0.435616002779,-68.4341847814,0,1.35504302872e+20,0,0,0,0,0,0,0,-0.436681767001,0.13856752262,-0.10364775066,948047.926778,2105070.9749,3133.19257322
51,3123.10747421,67.8848033176,0,0,0,1,0,0,0,0,0,0,0,0,0,0,0,0,0,0,0,0,0,0,0,0,0.602378351675,0,0,-15.9273122524,-51.2081923195,55.2526181244,7.16112828931e-16,-9.13861661067e-06,0.0144942683445,-0.0101819100479,-0.00432149691314,0.0147725366364,0.00755812284237,-0.0206137766758,-9.13861661067e-06,0.00436425763073,1.3485957684e+20,1.35533538081e+20,0,-0.376812411079,1.34860092745e+20,1.35292408095e+20,9.12146007466e-10,-0.376812411079,-0.376812411079,-40.3559245216,0,1.35524000255e+20,0,0,0,0,0,0,0,-0.37841093757,0.11593968419,-0.0752799688403,948047.330283,2105062.62396,3123.10747421
51,3135.36323014,57.7201950105,0,0,0,1,0,0,0,0,0,0,0,0,0,0,0,0,0,0,0,0,0,0,0,0,0.468265175574,0,0,-17.6437242065,-62.9977457846,54.6764917289,-9.61796638341e-16,6.45916806321e-05,0.0227955472818,-0.0126186222903,-0.0101123333109,0.0225451176522,0.0096960298597,-0.0216575717655,6.45916806321e-05,0.0061969742725,1.34708151673e+20,1.35561208903e+20,0,-0.448382550899,1.34708916338e+20,1.35341808187e+20,-2.23501470602e-10,-0.448382550899,-0.448382550899,-74.2781823459,0,1.35510339778e+20,0,0,0,0,0,0,0,-0.451334722548,0.14358872668,-0.108364907336,948048.059589,2105072.83425,3135.36323014
51,3215.45490588,20.0001356063,0,0,0,1,0,0,0,0,0,0,0,0,0,0,0,0,0,0,0,0,0,0,0,0,0.0997356034911,0,0,0.337449129095,-2.53508137236,11.2352300657,-4.66545109582e-16,-6.37688549574e-05,0.0183222591365,0.0187367756613,-0.0371228036528,0.0117918353837,0.00855040602431,-0.00890345358325,-6.37688549574e-05,0.00658922396791,1.30211910436e+20,1.35637251917e+20,0,-2.58157354848,1.3022134267e+20,1.35495870451e+20,2.98810739289e-09,-2.58157354848,-2.58157354848,-427.5240951,0,1.35581830362e+20,0,0,0,0,0,0,0,-0.250174255773,-0.102989181398,-0.167302202028,948053.364706,2105147.10588,3215.45490588
51,3195.8617539,19.9990731016,0,0,0,1,0,0,0,0,0,0,0,0,0,0,0,0,0,0,0,0,0,0,0,0,0.101078465895,0,0,5.13820794116,-9.67136990657,26.9476549976,-2.14509809818e-15,5.2373174952e-06,0.0125749404154,0.0128320330153,-0.0254017361132,0.017698284574,0.00163039735395,-0.00693159643861,5.2373174952e-06,0.00467179026614,1.31685961379e+20,1.35636974811e+20,0,-1.88050674092,1.31689069444e+20,1.35434358246e+20,2.16821789974e-09,-1.88050674092,-1.88050674092,-1274.0696194,0,1.35562815444e+20,0,0,0,0,0,0,0,-0.234843674314,-0.123480507872,-0.233283338443,948051.642857,2105123,3195.8617539
51,3114.53826942,77.4165322473,0,0,0,1,0,0,0,0,0,0,0,0,0,0,0,0,0,0,0,0,0,0,0,0,0.711459040349,0,0,-8.54576337803,-28.7713654876,49.0719081665,8.5254580169e-16,-4.97917229909e-05,0.00852025705223,-0.00506618163889,-0.00350386713632,0.00910190100251,0.00592997548954,-0.0223845825927,-4.97917229909e-05,0.00367700881503,1.34931898775e+20,1.3551103296e+20,0,-0.342634294625,1.34932223677e+20,1.3525018587e+20,-2.60674109886e-09,-0.342634294625,-0.342634294625,-27.0097720249,0,1.35541709758e+20,0,0,0,0,0,0,0,-0.342798181447,0.0968289914434,-0.0470188371688,948046.480165,2105050.72231,3114.53826942
51,3109.47916482,82.1803579586,0,0,0,1,0,0,0,0,0,0,0,0,0,0,0,0,0,0,0,0,0,0,0,0,0.774458906341,0,0,-1.55664222228,-7.11017271227,77.3547852502,-1.29056141324e-16,-0.000150373365207,0.00129688216089,-0.000288093974926,-0.00115916155117,-0.000720950157501,0.00556541434344,-0.0186599014065,-0.000150373365207,0.00253395185736,1.34964219683e+20,1.35498035443e+20,0,-0.327362276078,1.34964465978e+20,1.35218314008e+20,3.17789844447e-10,-0.327362276078,-0.327362276078,-39.1572985567,0,1.35564978775e+20,0,0,0,0,0,0,0,-0.289313591557,0.0784057318094,-0.0250704189795,948045.286054,2105034.00475,3109.47916482
51,3110.25674194,82.3290896215,0,0,0,1,0,0,0,0,0,0,0,0,0,0,0,0,0,0,0,0,0,0,0,0,0.752255069499,0,0,0.88823082846,18.1364955913,75.3947772382,-4.31038563375e-16,-6.05558501912e-05,-0.000323025101764,0.00185166547896,-0.00158919622739,-0.00459742920688,0.0050062506142,-0.0177365351404,-6.05558501912e-05,0.00244247116173,1.34970053955e+20,1.35502616292e+20,0,-0.324606612631,1.34970301457e+20,1.35220482745e+20,1.56339205381e-09,-0.324606612631,-0.324606612631,-39.2189889116,0,1.35566784208e+20,0,0,0,0,0,0,0,-0.284314177136,0.0792657008763,-0.0429360996619,948044.798387,2105027.17742,3110.25674194
51,3116.77869512,75.0778349396,0,0,0,1,0,0,0,0,0,0,0,0,0,0,0,0,0,0,0,0,0,0,0,0,0.687073167933,0,0,-10.5598554128,-35.6564705413,49.9983154118,8.13107996839e-16,-3.73769575132e-05,0.00988814452445,-0.00615799914201,-0.00376752233996,0.0106605493599,0.00617591972207,-0.0219497812785,-3.73769575132e-05,0.00382336751009,1.34915223488e+20,1.35516064142e+20,0,-0.35051347402,1.34915595876e+20,1.3526136665e+20,-2.11819097766e-09,-0.35051347402,-0.35051347402,-29.7810437421,0,1.35542733585e+20,0,0,0,0,0,0,0,-0.358458004195,0.102525190682,-0.0545010224292,948046.682927,2105053.56098,3116.77869512
51,3111.34103947,81.6201428276,0,0,0,1,0,0,0,0,0,0,0,0,0,0,0,0,0,0,0,0,0,0,0,0,0.73672922602,0,0,2.42768420106,21.0843231128,57.5499671503,-4.83927933363e-16,-5.62158203215e-05,-0.00114838656909,0.00320075118888,-0.00210858044011,-0.00656516729646,0.00457955519644,-0.0173391159196,-5.62158203215e-05,0.00246096805167,1.34968234871e+20,1.35505819432e+20,0,-0.325465595371,1.34968492415e+20,1.35223767744e+20,1.14175092772e-09,-0.325465595371,-0.325465595371,-29.7497427042,0,1.3557748832e+20,0,0,0,0,0,0,0,-0.281296357499,0.0779830094887,-0.0427738772898,948044.547697,2105023.66776,3111.34103947
51,3121.06981911,70.1589305825,0,0,0,1,0,0,0,0,0,0,0,0,0,0,0,0,0,0,0,0,0,0,0,0,0.624677589423,0,0,-16.4006635406,-52.6989810712,63.834083686,3.18001054987e-16,-1.92457116797e-05,0.0126899331174,-0.00862013503184,-0.00408904379726,0.01276933789,0.00707818029058,-0.0208852398222,-1.92457116797e-05,0.00406326146191,1.34881053883e+20,1.3552893731e+20,0,-0.366661890818,1.34881512434e+20,1.35281830388e+20,1.85908595468e-09,-0.366661890818,-0.366661890818,-42.4709930891,0,1.35543984369e+20,0,0,0,0,0,0,0,-0.382054893744,0.112089189463,-0.0701144060227,948047.125478,2105059.75669,3121.06981911
51,3154.33222102,39.6926980519,0,0,0,1,0,0,0,0,0,0,0,0,0,0,0,0,0,0,0,0,0,0,0,0,0.308941639244,0,0,-6.9058393125,-45.1818093744,38.7179045031,-2.27100435454e-15,3.68737053301e-05,0.0235899385201,-0.00942239809605,-0.0141306667187,0.0260634262111,0.00960668744267,-0.0193430424793,3.68737053301e-05,0.0065995556499,1.34230322753e+20,1.35594082879e+20,0,-0.674355609949,1.34232542753e+20,1.35379810942e+20,1.61443889709e-10,-0.674355609949,-0.674355609949,-174.317285813,0,1.35522995041e+20,0,0,0,0,0,0,0,-0.468624020695,0.105973114532,-0.153771093095,948049.163073,2105088.28302,3154.33222102
51,3195.28950075,19.9994073309,0,0,0,1,0,0,0,0,0,0,0,0,0,0,0,0,0,0,0,0,0,0,0,0,0.104596497885,0,0,5.07628163311,-9.97562898253,27.0016483667,-2.04280711755e-15,5.39174870326e-06,0.0126815794672,0.0124498343676,-0.0251260220861,0.0178390344156,0.00176709600631,-0.00702900809253,5.39174870326e-06,0.00467018228115,1.31727014615e+20,1.35636248852e+20,0,-1.86101405537,1.31730493159e+20,1.35433041932e+20,1.90662619855e-09,-1.86101405537,-1.86101405537,-1264.93810042,0,1.35562338141e+20,0,0,0,0,0,0,0,-0.236923636557,-0.119781650549,-0.231271002042,948051.608793,2105122.5231,3195.28950075
51,3165.94481882,31.1152652161,0,0,0,1,0,0,0,0,0,0,0,0,0,0,0,0,0,0,0,0,0,0,0,0,0.226529385332,0,0,-0.656777564891,-23.4143849486,23.3319868103,2.87977082884e-16,2.01547835746e-05,0.0223106071365,-0.0055715965374,-0.0167188558155,0.0260342094471,0.00847403227303,-0.0163113547548,2.01547835746e-05,0.00625250232177,1.33710006904e+20,1.35611088021e+20,0,-0.920611345996,1.33713471058e+20,1.35390716807e+20,4.31218374365e-09,-0.920611345996,-0.920611345996,-275.764373828,0,1.3549631845e+20,0,0,0,0,0,0,0,-0.43458272267,0.0550170040345,-0.178986765693,948049.823171,2105097.52439,3165.94481882
51,3161.66828453,34.0032479268,0,0,0,1,0,0,0,0,0,0,0,0,0,0,0,0,0,0,0,0,0,0,0,0,0.244175149845,0,0,-3.021979094,-27.2336350671,25.3284372514,-1.2955142583e-16,3.63105797421e-05,0.0236431587113,-0.00703201837189,-0.0165748297597,0.02674134706,0.00914174874623,-0.0177622914089,3.63105797421e-05,0.00661552067265,1.33921946988e+20,1.35607446922e+20,0,-0.820269121996,1.33924940183e+20,1.3538737584e+20,3.5963327269e-09,-0.820269121996,-0.820269121996,-205.72671547,0,1.35508266863e+20,0,0,0,0,0,0,0,-0.449388279849,0.0777717305316,-0.174575743729,948049.569052,2105093.96672,3161.66828453
51,3112.0630401,0,79.8145585125,0.17808186657,-0.0273092903181,1,-6.94415881733,6.51747751066,0,0,0.163232143036,210,0,0.0635422358627,1.32940940979e+20,-0.335349258021,0.713406684038,-0.314999891657,0.0856551253038,-0.0403226886492,3191.61761276,0,3178.02543855,-7.22995685517,0,0,0.00658271301683,0,0,6.56549406983e-13,1.04978314922e-13,0.192999105819,3.33229243168e-15,1.31143727669e-06,0.000779009324412,-0.0011690561241,0.000391358236968,-7.6135689013e-05,6.28175575184e-05,6.80192434169e-05,1.31143727669e-06,5.40843015239e-05,1.33886379142e+20,1.35656474714e+20,0,-0.837101101155,1.33886379142e+20,1.32058979707e+20,-1624.11647133,0,0,0,1,1.35536874986e+20,0,0,0,13.8331727695,0,0,-7.87945984167,-1.35978276717,0.269452238296,-0.198682395296,948046.116429,2105045.63001,3191.85861132
51,3110.03584841,0,81.6826424988,0.172225871263,-0.0395690913172,1,-6.94393647131,6.51787132151,0,0,0.16388394473,210,0,0.0635551742069,1.32976016114e+20,-0.328852985126,0.752493614978,-0.295497171336,0.0818462525891,-0.0307080919867,3191.46364133,0,3177.78902689,-7.21796219809,2.29528888805e-09,0,0.00721477499905,0,0,4.29918444636e-13,8.90576494647e-15,0.186699376376,-5.27501203886e-16,4.84081276541e-06,0.0005115386235,-0.000780079626232,0.000273381815497,-0.000109382292775,-1.94743639237e-05,4.22617309978e-05,4.84081276541e-06,3.00087675443e-05,1.33887233467e+20,1.35656344281e+20,0,-0.836696712835,1.33887233467e+20,1.32060442937e+20,-1603.22330137,0,0,0,1,1.35556208345e+20,0,0,0,13.9152131774,0,0,-7.8489961438,-1.37059318271,0.279337410052,-0.196841343151,948045.603912,2105038.45477,3191.70424007
51,3148.29330562,0,45.2382397584,0.305044172317,0.0946807160655,1,-6.94056390604,6.5131853392,0,0,0.16214638752,210,0,0.0634012199626,1.32967535732e+20,-0.58606799237,0.358718569545,-0.45622437991,0.116935775649,-0.138520798636,3193.29753829,0,3181.33609291,-7.30727511952,7.92421163734e-10,0,0.0187999408681,0,0,1.34991176083e-14,8.72319060231e-15,0.266028270066,-3.46033607504e-15,7.80692314238e-06,0.00444802736028,-0.00842969596374,0.0039894755266,0.00465476901263,0.00018192282496,0.000813872165334,7.80692314238e-06,0.000854646658529,1.3387674504e+20,1.35653953564e+20,0,-0.84166142664,1.3387674504e+20,1.32043032459e+20,-2263.42677208,0,0,0,1,1.35511645229e+20,0,0,0,12.2050212197,0,0,-8.05713656054,-1.06163331537,0.0962251194047,-0.234671960052,948048.837408,2105083.72372,3193.54111413
51,3137.72222166,0,55.0879005275,0.2644354044,0.0729299499859,1,-6.94244809626,6.51509949312,0,0,0.162349606164,210,0,0.0634641079764,1.32773639616e+20,-0.468406416354,0.446766514566,-0.452347055103,0.141806761939,-0.113255665492,3192.55060386,0,3180.01143486,-7.20523804732,3.34393655386e-09,0,0.0145641906942,0,0,5.8983791718e-13,1.37099605028e-13,0.264609369908,-2.40629490404e-15,1.22946369395e-05,0.00354267881647,-0.00594106357005,0.00241067939052,0.00247713398971,1.47366215614e-05,0.000572393712106,1.22946369395e-05,0.000490309697954,1.3388106486e+20,1.35654827653e+20,0,-0.839616585873,1.3388106486e+20,1.32050144083e+20,-2250.57690308,0,0,0,1,1.35499304156e+20,0,0,0,12.779343603,0,0,-7.92379293163,-1.19310356982,0.164207005411,-0.222785148876,948048.203046,2105074.84264,3192.79077846
51,3183.12945454,0,20.0090758322,0.47718561412,0.789063682053,1,-6.91494722288,6.4887248742,0,0,0.161088626843,210,0,0.0625975907223,1.33466254859e+20,-1.48246930227,0.100198754414,-0.322477922844,-0.03610504345,-0.214419443491,3203.12945454,442.441907192,3193.17165103,-1.27822679127e-11,442.441907192,0,0.0346099989253,0,0,6.67021830406e-13,-1.92415650044e-13,0.233932047434,2.65510711171e-15,4.0060085649e-06,0.00280833847749,-0.00485898482308,0.00205465235416,0.00386693241169,-0.00543555041888,0.000380641217481,4.0060085649e-06,0.000758477211064,1.33824008448e+20,1.35650691011e+20,0,-0.866625092812,1.33824008448e+20,1.31952155337e+20,-4641.90886922,0,0,0,0,1.3550886574e+20,0,0,0,9.95780351831,0,0,1.36990712029e-11,-0.461317154392,-0.205963408461,-0.331353340285,948050.794721,2105111.1261,3203.12945454
51,3181.69308293,0,20.8924342048,0.472164512816,0.744970714575,1,-6.91639725283,6.49012764268,0,0,0.16116833351,210,0,0.0626436775717,1.33416123341e+20,-1.43293290855,0.110377527474,-0.328739892439,-0.0287233783282,-0.210809573705,3202.5475769,392.173448385,3192.49510488,-0.960050566376,392.173448386,0,0.0338837679188,0,0,6.53401722971e-13,-1.69544865947e-13,0.234332471659,2.89532109529e-15,3.68591340369e-06,0.00286351573124,-0.00561610302154,0.0027562732037,0.00424541480311,-0.0052241551933,0.000407110419801,3.68591340369e-06,0.000833809093089,1.33827051295e+20,1.35650840874e+20,0,-0.865184704021,1.33827051295e+20,1.31957366923e+20,-4411.0405049,0,0,0,0.104878048784,1.35505791885e+20,0,0,0,10.0844737056,0,0,-1.06896007204,-0.483053005692,-0.194461364287,-0.324600164032,948050.718293,2105110.0561,3202.57957858
51,3208.81609041,0,20.0001382357,0.458626178893,0.748680417098,1,-6.843606312,6.4231966357,0,0,0.16097017186,210,0,0.06044471225,1.33095274671e+20,-2.24613064601,0.0985110368332,-0.235502871885,-0.189375926606,-0.249793569739,3228.81609041,889.748965495,3218.84926461,0,889.748965495,0,-0.017719716571,0,0,2.78461720177e-12,2.54403199473e-12,0.288442141781,6.36829076223e-15,-1.11787664188e-06,0.000803023786777,-0.000140199470516,-0.000663942192902,-0.00117257556951,6.3420477886e-05,-9.0866594787e-05,-1.11787664188e-06,7.26464286137e-05,1.33669604532e+20,1.35661489801e+20,0,-0.939727142283,1.33669604532e+20,1.31708768793e+20,-7454.76248682,0,0,0,-1,1.35555427267e+20,0,0,0,9.96682580146,0,0,-9.72981342683e-14,-0.385827027393,-0.264104315355,-0.411151567114,948052.617971,2105136.6516,3228.81609041
51,3196.3500192,0,19.9984825748,0.460786658486,0.995781464224,1,-6.87861920733,6.45499837461,0,0,0.160637471628,210,0,0.0614895332409,1.33501189582e+20,-1.89169551936,0.102529649149,-0.234501312163,-0.126868956278,-0.233947852376,3216.3500192,1159.42797237,3206.38401921,0,1159.42797237,0,0.00346651779779,0,0,4.03559857321e-12,8.09307379971e-12,0.480605910882,1.84237927083e-14,6.68631858232e-07,0.00172395685482,-0.000442882491652,-0.00128040573131,-0.00084548442006,-0.00128453496419,0.000149398716574,6.68631858232e-07,0.000113371331874,1.33748465473e+20,1.35657117775e+20,0,-0.90238835965,1.33748465473e+20,1.31826875334e+20,-12714.860635,0,0,0,-1,1.35562480527e+20,0,0,0,9.96599999555,0,0,1.00030952365e-13,-0.382083646115,-0.26748572025,-0.382306629402,948051.677977,2105123.49168,3216.3500192
51,3171.49813388,0,26.9062910697,0.40358654475,0.43974955143,1,-6.92772342747,6.5007288916,0,0,0.161402953769,210,0,0.0629919732241,1.33022014267e+20,-1.07001003924,0.208979355194,-0.369441861468,0.0180567065366,-0.174785566456,3198.12582042,0,3186.82489336,-8.94416221646,1.86264514923e-09,0,0.0346715770088,0,0,1.77128848714e-13,4.54228545246e-13,0.251446665704,5.45792704719e-16,-6.4105459262e-06,0.00286177364081,-0.0107111253445,0.00784294115775,0.00764650695681,-0.00465557453518,0.000907575068565,-6.4105459262e-06,0.00144925099942,1.33850046775e+20,1.35650678303e+20,0,-0.854299235899,1.33850046775e+20,1.31996752046e+20,-3113.06752008,0,0,0,1,1.35478979696e+20,0,0,0,11.5990657952,0,0,-9.84929090041,-0.622326613826,-0.123911175915,-0.279262924345,948050.204976,2105102.86967,3198.42395916
51,3211.07034573,0,20.0001636022,0.462523967177,0.698569323742,1,-6.83728566782,6.4174458873,0,0,0.161019552796,210,0,0.0602557759578,1.3314062967e+20,-2.3397872242,0.0962056382945,-0.237770059848,-0.165282302736,-0.227537609264,3231.07034573,743.645191774,3221.10363941,0,743.645191774,0,-0.0130457157254,0,0,3.56563649404e-12,3.83972396605e-12,0.226324803271,7.50415039908e-15,-1.51742090594e-06,0.000469531873049,3.05482784867e-05,-0.000501597572442,-0.00088250401714,-3.23745482246e-06,-9.92736895567e-05,-1.51742090594e-06,4.77012492352e-05,1.33655345323e+20,1.35660525265e+20,0,-0.946478952438,1.33655345323e+20,1.31687413411e+20,-6086.77858527,0,0,0,-1,1.35578363685e+20,0,0,0,9.96670632007,0,0,-7.5280550071e-14,-0.37964118208,-0.263737616968,-0.41494882833,948052.873606,2105140.23048,3231.07034573
51,3133.19257322,0,59.3011460495,0.246285327293,0.0956950245086,1,-6.94318958593,6.51585287747,0,0,0.162429691576,210,0,0.0634888598238,1.32801100724e+20,-0.435276918368,0.491747902342,-0.436681767001,0.13856752262,-0.10364775066,3192.25415527,0,3179.6156841,-7.23904517313,3.25378389038e-09,0,0.0143873109253,0,0,5.20274606751e-13,1.24344978757e-13,0.234953041549,-1.20190173134e-15,1.21709890227e-05,0.00303392056518,-0.00514481175562,0.00212306217947,0.00194631807027,-0.000473075126311,0.000584304039186,1.21709890227e-05,0.000399954419365,1.33882555324e+20,1.35654864154e+20,0,-0.838911095425,1.33882555324e+20,1.32052943408e+20,-2030.6287907,0,0,0,1,1.35498366473e+20,0,0,0,12.8797726772,0,0,-7.95435303492,-1.2306554007,0.18134817338,-0.217164161292,948047.926778,2105070.9749,3192.49545678
51,3123.10747421,0,67.8103946435,0.218307941314,0.0624827304902,1,-6.94722710221,6.51973827815,0,0,0.162629253454,210,0,0.0636165115912,1.3300032876e+20,-0.376568595238,0.602378351675,-0.37841093757,0.11593968419,-0.0752799688403,3190.73064284,0,3178.88421797,-7.25287746928,2.96907496334e-09,0,0.0171004727105,0,0,-7.53760152843e-14,-1.08493935781e-13,0.19402915546,3.04182543815e-15,9.14314363859e-06,0.0020167695699,-0.00398337266662,0.00197574624036,0.00105814979453,-0.000308777967881,0.000219957914548,9.14314363859e-06,0.000260670493695,1.33890803467e+20,1.35654304266e+20,0,-0.835006910709,1.33890803467e+20,1.32067379971e+20,-1547.0121731,0,0,0,1,1.3552041952e+20,0,0,0,12.0881874557,0,0,-7.96206252472,-1.29816290297,0.225170273859,-0.206744608059,948047.330283,2105062.62396,3190.97240543
51,3135.36323014,0,57.7609655135,0.255415693654,0.0804029700669,1,-6.94141867682,6.51432040592,0,0,0.162529421243,210,0,0.0634385116825,1.32910509568e+20,-0.448021085994,0.468265175574,-0.451334722548,0.14358872668,-0.108364907336,3192.85578543,0,3179.77233288,-7.21170170161,3.10781067363e-09,0,0.0144939140873,0,0,6.41514391076e-13,1.54920444813e-13,0.248654084686,-1.66591647873e-15,1.15207833857e-05,0.00316623290676,-0.00531511073409,0.00216039861071,0.00225963295705,-0.000193815496665,0.000482688003114,1.15207833857e-05,0.000429007657586,1.33879530183e+20,1.35654842155e+20,0,-0.840343004755,1.33879530183e+20,1.32047249264e+20,-2188.61061682,0,0,0,1,1.3551235501e+20,0,0,0,13.3238426076,0,0,-7.90995200717,-1.21512502272,0.175220473881,-0.219015829805,948048.059589,2105072.83425,3193.09617548
51,3215.45490588,0,20.0002034574,0.441637592058,0.594341318379,1,-6.82523793285,6.40626059605,0,0,0.160869587378,210,0,0.0598882920562,1.33201961887e+20,-2.57708214851,0.0997356034911,-0.250174255773,-0.102989181398,-0.167302202028,3235.45490588,430.252763008,3225.48890588,0,430.252763008,0,-0.00112153880041,0,0,1.78673878379e-12,1.42103210851e-12,0.119935667205,-1.33482777169e-15,-1.99962883458e-06,-0.000222455855091,0.000236009756352,-1.55535300962e-05,-0.000134814976875,-8.99863364558e-05,-0.000145036882212,-1.99962883458e-06,3.17739703144e-06,1.33627612986e+20,1.35658064571e+20,0,-0.959611000317,1.33627612986e+20,1.31645879928e+20,-3219.42700792,0,0,0,-1,1.35581824111e+20,0,0,0,9.9659999968,0,0,2.38240799637e-14,-0.372192071554,-0.26067511953,-0.419605868951,948053.364706,2105147.10588,3235.45490588
51,3195.8617539,0,19.9985061834,0.463485160579,1.00752903682,1,-6.87996158286,6.45624397039,0,0,0.160653433923,210,0,0.0615304563057,1.33523127035e+20,-1.87903032914,0.101078465895,-0.234843674314,-0.123480507872,-0.233283338443,3215.8617539,1139.17218033,3205.89571549,0,1139.17218033,0,0.00467317246835,0,0,4.07490354652e-12,8.42687157883e-12,0.475901188957,1.89332485761e-14,1.29310210889e-06,0.00172952592278,-0.000419818556014,-0.00130841426466,-0.000821066874711,-0.00136455975061,0.00016102832966,1.29310210889e-06,0.000114129497974,1.33751470328e+20,1.35656868768e+20,0,-0.900965717562,1.33751470328e+20,1.31831501706e+20,-12637.8291008,0,0,0,-1,1.35562694708e+20,0,0,0,9.96603841069,0,0,1.04534228412e-13,-0.382487977569,-0.267266762535,-0.381036951817,948051.642857,2105123,3215.8617539
51,3114.53826942,0,77.4127800428,0.191684598886,-0.0548566603049,1,-6.94376956823,6.51723757676,0,0,0.163359741217,210,0,0.0635343530242,1.32995279922e+20,-0.342480765358,0.711459040349,-0.342798181447,0.0968289914434,-0.0470188371688,3191.71295313,0,3178.20258512,-7.19132061082,0,0,0.00947845658223,0,0,-8.7504604114e-13,1.4706471807e-13,0.144762200333,4.0386678767e-16,1.17638424119e-05,0.00111013914868,-0.0016937000108,0.000595324704527,0.000275291350847,0.000244117923087,7.50280232994e-05,1.17638424119e-05,8.3011983588e-05,1.33885858619e+20,1.35655877146e+20,0,-0.837347482748,1.33885858619e+20,1.32058088188e+20,-1213.94247808,0,0,0,1,1.35536821152e+20,0,0,0,13.7500786957,0,0,-7.85187663581,-1.34979477522,0.26340496786,-0.199089596501,948046.480165,2105050.72231,3191.95266382
51,3109.47916482,0,82.1332398734,0.169245595712,-0.0626172396541,1,-6.94365769231,6.51810125134,0,0,0.164413465097,210,0,0.0635627283698,1.33000916456e+20,-0.327245896982,0.774458906341,-0.289313591557,0.0784057318094,-0.0250704189795,3191.37398888,0,3177.69793819,-7.20360650422,2.79839556493e-09,0,0.00614584934509,0,0,-4.53509005748e-13,-1.20121127783e-13,0.202362779454,-1.60451075211e-15,7.97531105808e-06,0.000404310302868,-0.000649945613784,0.000253610621974,-8.265229528e-05,-5.56483200828e-06,2.781616588e-05,7.97531105808e-06,2.68069713574e-05,1.33887689431e+20,1.35656564866e+20,0,-0.836480889029,1.33887689431e+20,1.3206129728e+20,-1725.81962753,0,0,0,1,1.35568985999e+20,0,0,0,13.9161709062,0,0,-7.82598783994,-1.37448879557,0.281840003092,-0.196284523178,948045.286054,2105034.00475,3191.6141091
51,3110.25674194,0,82.5676720638,0.1578556962,-0.102174586857,1,-6.94055875016,6.5154001644,0,0,0.164566838061,210,0,0.0634739862937,1.3294523244e+20,-0.324489664485,0.752255069499,-0.284314177136,0.0792657008763,-0.0429360996619,3192.43303612,0,3177.58537097,-7.19643571688,0,0,-0.000176569443957,0,0,-3.04669651966e-13,5.07305890716e-15,0.197732012588,5.05937041881e-16,2.89345769243e-06,0.00014450667929,-0.000169213202044,2.75999804463e-05,-0.000131020773573,4.55774838474e-06,3.94800437573e-05,2.89345769243e-06,6.70727155028e-06,1.33881810122e+20,1.35657869566e+20,0,-0.839263822703,1.33881810122e+20,1.32051261247e+20,-1772.16110095,0,0,0,1,1.35564965562e+20,0,0,0,15.0875463391,0,0,-7.78657717844,-1.3751750085,0.284156970968,-0.199337439463,948044.798387,2105027.17742,3192.67291731
51,3116.77869512,0,75.0645038146,0.199138720677,-0.0348362989795,1,-6.94420547992,6.51749452961,0,0,0.16320403983,210,0,0.063542795007,1.33050492013e+20,-0.350337500775,0.687073167933,-0.358458004195,0.102525190682,-0.0545010224292,3191.61242542,0,3178.38086585,-7.18543735755,9.54037759344e-10,0,0.0116645220961,0,0,-7.80123932936e-13,4.83810992638e-14,0.155259522584,5.57920852006e-16,1.15975210469e-05,0.00133575542944,-0.00229036332473,0.000966205416329,0.000534006435736,0.00017558931087,7.51831030969e-05,1.15975210469e-05,0.00013128630643,1.3388641605e+20,1.3565542603e+20,0,-0.837083627676,1.3388641605e+20,1.32059042919e+20,-1298.67509803,0,0,0,1,1.3554022633e+20,0,0,0,13.471074149,0,0,-7.83898122667,-1.33744267449,0.254171652104,-0.200099880682,948046.682927,2105053.56098,3191.85194
51,3111.34103947,0,81.8106053476,0.156020000849,-0.105347765407,1,-6.93937823726,6.51436774721,0,0,0.164621487068,210,0,0.0634400670429,1.32947587596e+20,-0.32534390125,0.73672922602,-0.281296357499,0.0779830094887,-0.0427738772898,3192.83792995,0,3177.58959211,-7.19064202636,8.27161497189e-10,0,-0.00524415688207,0,0,6.5724705466e-13,2.82909592135e-13,0.146863775891,1.71812492918e-15,1.23014474004e-06,0.000135655863195,-8.09797859005e-05,-5.3445932554e-05,-0.000201499504185,-2.07504584691e-05,4.60683998163e-05,1.23014474004e-06,7.60242767298e-06,1.33879632873e+20,1.35658915322e+20,0,-0.840294394051,1.33879632873e+20,1.32047425145e+20,-1392.7895748,0,0,0,1,1.35578997949e+20,0,0,0,15.4880259096,0,0,-7.76300519624,-1.37433884177,0.283577440992,-0.201636265136,948044.547697,2105023.66776,3193.07761801
51,3121.06981911,0,70.1557025355,0.208841310301,-0.00279807785694,1,-6.94613174845,6.51908243363,0,0,0.163009400548,210,0,0.0635949643382,1.33161799149e+20,-0.36644519113,0.624677589423,-0.382054893744,0.112089189463,-0.0701144060227,3190.98896324,0,3178.72478854,-7.21586686509,1.98840335678e-09,0,0.0171757917167,0,0,-2.39083770474e-13,-9.8919404162e-14,0.214137164143,3.36786459755e-15,6.07848498489e-06,0.00180508269205,-0.00357480170844,0.00177579750137,0.000948309578181,0.00016581858751,3.2597945612e-05,6.07848498489e-06,0.000233039589619,1.33889525621e+20,1.35654288723e+20,0,-0.835611758883,1.33889525621e+20,1.32064943058e+20,-1710.58158922,0,0,0,1,1.35551451355e+20,0,0,0,12.5047036008,0,0,-7.88179393493,-1.31258433616,0.236789187211,-0.203549335692,948047.125478,2105059.75669,3191.22949214
51,3154.33222102,0,39.6962991015,0.342658344719,0.176561734011,1,-6.93911432092,6.51196375042,0,0,0.162263814761,210,0,0.063361085629,1.33184137502e+20,-0.673305344713,0.308941639244,-0.468624020695,0.105973114532,-0.153771093095,3193.77812949,0,3182.25676011,-7.25518058305,-8.73585595602e-10,0,0.0278045953203,0,0,8.36530605218e-14,7.08169671455e-14,0.25642726182,-3.10721135315e-15,4.3800636169e-06,0.00459987268467,-0.011326529696,0.00673103707495,0.00682700117662,-0.0010778398183,0.000688251775246,4.3800636169e-06,0.00130629580742,1.33874417944e+20,1.35652095368e+20,0,-0.84276291134,1.33874417944e+20,1.32038493361e+20,-2291.67712422,0,0,0,1,1.35528090191e+20,0,0,0,11.7632087392,0,0,-7.97559785186,-0.97272547261,0.0445749484844,-0.238195387814,948049.163073,2105088.28302,3194.01996885
51,3195.28950074,0,19.9984588183,0.462080623471,0.998402135268,1,-6.88155968987,6.45770382452,0,0,0.160647316147,210,0,0.0615784186589,1.33506882921e+20,-1.85936186328,0.104596497885,-0.236923636557,-0.119781650549,-0.231271002042,3215.28950074,1129.78646516,3205.32970045,0,1129.78646516,0,0.00670601783832,0,0,4.08437301202e-12,8.28747370449e-12,0.473733833275,1.87305486898e-14,5.49811752186e-07,0.00172982592726,-0.00062423513845,-0.00110504097705,-0.000544355937427,-0.00159848826573,0.000132938217075,5.49811752186e-07,0.000151523748828,1.33754656849e+20,1.35656449272e+20,0,-0.899457222462,1.33754656849e+20,1.3183692479e+20,-12508.645035,0,0,0,-0.952309985099,1.35562228597e+20,0,0,0,9.95980029354,0,0,7.57188648564e-13,-0.385676288189,-0.264873275194,-0.378564893046,948051.608793,2105122.5231,3215.28950074
51,3165.94481881,0,31.1445915335,0.407244937223,0.318123363494,1,-6.93080604284,6.50415744573,0,0,0.162059219669,210,0,0.0631046156596,1.33111505835e+20,-0.91897111744,0.226529385332,-0.43458272267,0.0550170040345,-0.178986765693,3196.82927783,0,3184.90344774,-7.52132393579,-5.19204222785e-10,0,0.0322350525832,0,0,3.3331777137e-13,2.85196953161e-13,0.211109542926,3.52524827838e-15,7.10970376744e-07,0.00374043847213,-0.0114826426792,0.00774291517743,0.00808248502207,-0.00256347808151,0.000619153154557,7.10970376744e-07,0.0014671383459,1.33857483701e+20,1.35651181102e+20,0,-0.850778772443,1.33857483701e+20,1.32009489517e+20,-2340.72512417,0,0,0,1,1.35494110922e+20,0,0,0,12.1765408944,0,0,-8.25491747834,-0.749093002979,-0.0619414799131,-0.258241161695,948049.823171,2105097.52439,3197.07998863
51,3161.66828452,0,34.0357456129,0.38634452556,0.241789054008,1,-6.93452495607,6.50773618324,0,0,0.162242964583,210,0,0.0632221922515,1.33156070572e+20,-0.818852387146,0.244175149845,-0.449388279849,0.0777717305316,-0.174575743729,3195.45109756,0,3183.77008652,-6.78148931173,-1.86264514923e-09,0,0.0312333589799,0,0,2.80874233097e-13,4.02024503538e-14,0.202992828407,1.96703931799e-15,2.7680024386e-06,0.00442094094023,-0.0120527581933,0.00763458525553,0.00802581768236,-0.00156607681115,0.000620963050194,2.7680024386e-06,0.00148105736423,1.33865247209e+20,1.3565138781e+20,0,-0.847103937422,1.33865247209e+20,1.32022786338e+20,-1984.99768306,0,0,0,1,1.35508085165e+20,0,0,0,11.9070606831,0,0,-7.43480768018,-0.840366119508,-0.0180956486016,-0.2485889399,948049.569052,2105093.96672,3195.67714721
