#Time,"zbed","depth","height","surfgrad1","surfgrad2","densrel","mass balance","melting","rain","firn","accu","potrad","refreeze","bottomwater","enthbellowactive","outbedtemp","outbedpres","outbedvel1","outbedvel2","outbedvel3","zs top","zs top residual","ref zs top","zs top velocity","zs top loads","qlat","pressure","dsdt","ds","flow solution loads 1","flow solution loads 2","flow solution loads 3","flow solution loads 4","eij","strainrate 1","strainrate 2","strainrate 3","strainrate 4","strainrate 5","strainrate 6","strainrate 7","flow solution deformational heat","enthalpy_h","phase change enthalpy","water content","temperature","surface enthalpy","save enthalpy subgrid","enthalpy_h contact load","bedtemperatureexp","rock_temperature","rock_temperature contact load","icymask","surfaceenthexp","schur","mesh update:0","mesh update:1","mesh update:2","mesh velocity:0","mesh velocity:1","mesh velocity:2","velocity:0","velocity:1","velocity:2","Points:0","Points:1","Points:2"
411,3132.08975758,49.8464589741,0,0,0,1,0,0,0,0,0,0,0,0,0,0,0,0,0,0,0,0,0,0,0,0,0.432219935363,0,0,6.2515398433,25.8191109122,39.0833746443,-1.08069329994e-16,-1.23947093765e-05,-0.000534771299269,0.00685711207181,-0.00633473548192,-0.0108629652043,0.00272312197848,-0.0139723158989,-1.23947093765e-05,0.00249463463061,1.34160894196e+20,1.35568646124e+20,0,-0.707193382359,1.34162677991e+20,1.35223718449e+20,8.47265420654e-09,-0.707193382359,-0.707193382359,-50.5776644334,0,1.3558306962e+20,0,0,0,0,0,0,0,-0.225253308944,0.0691329819215,-0.052259700207,948042.472727,2104994.61818,3132.08975758
411,3132.70476923,49.2817623448,0,0,0,1,0,0,0,0,0,0,0,0,0,0,0,0,0,0,0,0,0,0,0,0,0.427989728614,0,0,6.15236312257,24.8668585635,38.3155777134,-8.78617727744e-17,-1.4631592124e-05,-0.0006435130516,0.00681269923636,-0.00618381777688,-0.0108490365606,0.00278952216499,-0.0139318254216,-1.4631592124e-05,0.00248444623014,1.34146844515e+20,1.35569518951e+20,0,-0.713839254976,1.34148659136e+20,1.35226178026e+20,7.68794980993e-09,-0.713839254976,-0.713839254976,-51.7373528067,0,1.355828631e+20,0,0,0,0,0,0,0,-0.224846394645,0.0695381331682,-0.0529088876702,948042.413287,2104993.78601,3132.70476923
411,3184.28425714,19.9995368142,0,0,0,1,0,0,0,0,0,0,0,0,0,0,0,0,0,0,0,0,0,0,0,0,0.115383444502,0,0,0.606035169343,2.34743813017,9.75706246438,3.56044249143e-17,-8.99268574279e-05,0.00543961464095,0.0096017037535,-0.0151312452519,0.00113096672927,-0.00865938462742,-0.00901936876195,-8.99268574279e-05,0.00252657797229,1.31407026384e+20,1.35634022955e+20,0,-2.01304003649,1.31411952198e+20,1.35442913516e+20,2.29795529906e-09,-2.01304003649,-2.01304003649,-197.470243873,0,1.35615371916e+20,0,0,0,0,0,0,0,-0.0958116575145,-0.0486490108713,-0.0111922538536,948037.4,2104923.6,3184.28425714
411,3184.51837799,19.9994236265,0,0,0,1,0,0,0,0,0,0,0,0,0,0,0,0,0,0,0,0,0,0,0,0,0.0880244966268,0,0,0.581239106287,2.42876448101,8.860344402,-6.79253957955e-18,-0.00012163431473,0.00536347073008,0.00980903418117,-0.015294139226,0.0023369798743,-0.0108410224728,-0.00833991060167,-0.00012163431473,0.00268091442556,1.31387240999e+20,1.3563966856e+20,0,-2.02244483678,1.31392308412e+20,1.35443088418e+20,1.62922268127e-09,-2.02244483678,-2.02244483678,-194.180380235,0,1.35618364598e+20,0,0,0,0,0,0,0,-0.0992484417284,-0.081413167016,-0.0097509067897,948037.200957,2104920.8134,3184.51837799
411,3133.36914731,48.8235684605,0,0,0,1,0,0,0,0,0,0,0,0,0,0,0,0,0,0,0,0,0,0,0,0,0.422555038429,0,0,5.84472551177,23.7519363873,36.2565500204,-5.18530438783e-17,-6.17358886127e-06,-0.000696269017856,0.00663202333177,-0.00594192790278,-0.0105868804911,0.00253057321485,-0.0135285736345,-6.17358886127e-06,0.00239159664403,1.34125388251e+20,1.35570640311e+20,0,-0.723990808771,1.34127240061e+20,1.35229208614e+20,6.52500870827e-09,-0.723990808771,-0.723990808771,-49.7566306525,0,1.35583750881e+20,0,0,0,0,0,0,0,-0.219420327305,0.0677661184404,-0.053035610738,948042.335694,2104992.69972,3133.36914731
411,3121.89347819,58.7882166348,0,0,0,1,0,0,0,0,0,0,0,0,0,0,0,0,0,0,0,0,0,0,0,0,0.507380767251,0,0,7.88284035798,37.3353192946,48.8722769346,-2.95265067159e-16,2.03452472518e-06,7.58054588993e-05,0.00475909777652,-0.00483286871069,-0.00857528319606,0.00175387480473,-0.012304993916,2.03452472518e-06,0.00193539281035,1.34348928273e+20,1.35553138287e+20,0,-0.618247055775,1.34350237748e+20,1.35174844096e+20,7.62044360735e-09,-0.618247055775,-0.618247055775,-30.6361176585,0,1.35577346805e+20,0,0,0,0,0,0,0,-0.197881616499,0.0573350068545,-0.0442320566414,948043.364486,2105007.1028,3121.89347819
411,3127.44592299,54.2787005116,0,0,0,1,0,0,0,0,0,0,0,0,0,0,0,0,0,0,0,0,0,0,0,0,0.460379547605,0,0,8.48120225748,36.8829725136,48.9110240216,-1.63890849033e-16,2.75480239855e-05,8.55978821696e-05,0.00691320089376,-0.00697125075194,-0.0110647552881,0.00230605899513,-0.0145842904585,2.75480239855e-05,0.00260953318186,1.34268048849e+20,1.35562835937e+20,0,-0.656502647945,1.34269619735e+20,1.35201690152e+20,6.27072185746e-09,-0.656502647945,-0.656502647945,-45.7455400399,0,1.35578588371e+20,0,0,0,0,0,0,0,-0.235405875071,0.065127125071,-0.0547654061513,948042.964892,2105001.50849,3127.44592299
411,3119.10468799,60.839971411,0,0,0,1,0,0,0,0,0,0,0,0,0,0,0,0,0,0,0,0,0,0,0,0,0.533602741761,0,0,7.28246226616,34.6185212715,46.447631831,-6.95440425327e-17,-8.71925029411e-06,0.000375495559595,0.0042286291375,-0.00461284394739,-0.00808119932259,0.00176124152656,-0.0122910071432,-8.71925029411e-06,0.00186638460934,1.34391888553e+20,1.35547728011e+20,0,-0.597923299538,1.34393071024e+20,1.35159444978e+20,7.94191772841e-09,-0.597923299538,-0.597923299538,-22.0766885792,0,1.35569138749e+20,0,0,0,0,0,0,0,-0.186523919016,0.054730657703,-0.0398521328917,948043.613105,2105010.58346,3119.10468799
411,3160.34153141,24.0392731804,0,0,0,1,0,0,0,0,0,0,0,0,0,0,0,0,0,0,0,0,0,0,0,0,0.20562271232,0,0,5.87184017492,14.7037314353,17.0695236547,-7.91582356647e-17,2.04716975267e-05,-0.00175539818352,0.00899212323678,-0.00721625335573,-0.0140439778166,0.000154838396944,-0.0120802584971,2.04716975267e-05,0.00281586157878,1.3283850396e+20,1.35615402047e+20,0,-1.33352469004,1.32842290277e+20,1.35339963277e+20,5.03651500029e-09,-1.33352469004,-1.33352469004,-190.275771597,0,1.35612728832e+20,0,0,0,0,0,0,0,-0.222778395081,0.0624206694081,-0.0796669606665,948040.304319,2104964.26047,3160.34153141
411,3165.0956,21.5544019654,0,0,0,1,0,0,0,0,0,0,0,0,0,0,0,0,0,0,0,0,0,0,0,0,0.154184127434,0,0,4.89316423824,10.3654075781,13.5899946817,1.8182477009e-16,2.35950402285e-05,-0.0017736427314,0.0101732806722,-0.00837604290054,-0.014278734031,0.000979764735586,-0.0113128968583,2.35950402285e-05,0.00289425391635,1.32503959754e+20,1.35626016358e+20,0,-1.49222797319,1.32509669033e+20,1.35362096938e+20,3.40805854648e-09,-1.49222797319,-1.49222797319,-251.991803427,0,1.35610848459e+20,0,0,0,0,0,0,0,-0.204665479078,0.0606006502455,-0.0853235004371,948040,2104960,3165.0956
411,3139.610216,43.898728275,0,0,0,1,0,0,0,0,0,0,0,0,0,0,0,0,0,0,0,0,0,0,0,0,0.381105817655,0,0,6.55779563969,19.8655222673,27.8781312593,5.30697230954e-16,1.27843098215e-06,-0.000813357637654,0.00604570780212,-0.00523107173349,-0.0097107862051,0.00131696479408,-0.012180418087,1.27843098215e-06,0.0020901912196,1.33915464965e+20,1.35579192667e+20,0,-0.823343303319,1.33917764758e+20,1.35254188581e+20,-1.30027765409e-09,-0.823343303319,-0.823343303319,-54.8395073106,0,1.35593427395e+20,0,0,0,0,0,0,0,-0.204622526734,0.0656302807558,-0.0505588545382,948041.7512,2104984.5168,3139.610216
411,3153.38263983,31.524821318,0,0,0,1,0,0,0,0,0,0,0,0,0,0,0,0,0,0,0,0,0,0,0,0,0.244324020766,0,0,3.32176608139,13.2260836691,15.0692583805,4.66074567297e-17,5.61256350442e-05,-0.00141503278375,0.00999328258378,-0.00852212416499,-0.0153999744387,0.000662210367902,-0.0148112002428,5.61256350442e-05,0.00333979929564,1.33270453308e+20,1.35607416187e+20,0,-1.12879505512,1.33273587447e+20,1.35315444336e+20,-3.48247062833e-09,-1.12879505512,-1.12879505512,-102.99561025,0,1.35609885413e+20,0,0,0,0,0,0,0,-0.222541938602,0.0523044005045,-0.0820915337201,948040.763771,2104970.6928,3153.38263983
411,3183.04942011,20.000687891,0,0,0,1,0,0,0,0,0,0,0,0,0,0,0,0,0,0,0,0,0,0,0,0,0.158312923441,0,0,1.02341094227,2.15380168176,12.4829961587,-8.5282452363e-17,-3.36493776965e-05,0.0041649782288,0.00889180309628,-0.0130904307028,-0.00176065540639,-0.00226141673984,-0.00937872207883,-3.36493776965e-05,0.00198357752073,1.31503047459e+20,1.35625164349e+20,0,-1.96741314036,1.31507473752e+20,1.35435000933e+20,4.0451973038e-09,-1.96741314036,-1.96741314036,-219.486905904,0,1.35611608026e+20,0,0,0,0,0,0,0,-0.0849900158085,0.0141315696105,-0.017430371797,948037.798923,2104929.18492,3183.04942011
411,3176.10559901,19.9810213078,0,0,0,1,0,0,0,0,0,0,0,0,0,0,0,0,0,0,0,0,0,0,0,0,0.106195357171,0,0,2.86096025793,3.04320870686,9.80986808276,-2.84145236386e-16,1.16218196582e-05,0.000406826788163,0.00770171136105,-0.00809691632955,-0.00985584382007,0.00388247603531,-0.00989436111696,1.16218196582e-05,0.00221164740506,1.31693369658e+20,1.35635918918e+20,0,-1.87698724174,1.31703541981e+20,1.354078497e+20,-3.25591899315e-09,-1.87698724174,-1.87698724174,-352.197032693,0,1.35608814383e+20,0,0,0,0,0,0,0,-0.165591407583,0.0986464327324,-0.0885282515179,948039.215347,2104949.01485,3176.10559901
411,3176.11932686,19.9813908092,0,0,0,1,0,0,0,0,0,0,0,0,0,0,0,0,0,0,0,0,0,0,0,0,0.106215716365,0,0,2.85655643333,3.03483143257,9.80918810774,-2.84845291769e-16,1.15440328844e-05,0.000413957167815,0.0076954935456,-0.00809790668053,-0.00984607685151,0.00388515061712,-0.00989371499641,1.15440328844e-05,0.00221029972274,1.31692635594e+20,1.35635914717e+20,0,-1.87733579577,1.31702810636e+20,1.35407889782e+20,-3.2481108874e-09,-1.87733579577,-1.87733579577,-352.149902337,0,1.3560880156e+20,0,0,0,0,0,0,0,-0.165395565168,0.0986596014948,-0.0884704825757,948039.213781,2104948.99293,3176.11932686
411,3176.13945685,19.9813716755,0,0,0,1,0,0,0,0,0,0,0,0,0,0,0,0,0,0,0,0,0,0,0,0,0.106365560217,0,0,2.84981974725,3.03027691402,9.82021586845,-2.85661956055e-16,1.14999604294e-05,0.000426362809222,0.00769763832696,-0.00811250117575,-0.00982921591719,0.00387307918952,-0.00988537517381,1.14999604294e-05,0.00220849797498,1.31692045307e+20,1.35635883796e+20,0,-1.8776161858,1.31702209895e+20,1.35407969048e+20,-3.22520671411e-09,-1.8776161858,-1.8776161858,-351.829854453,0,1.35608803289e+20,0,0,0,0,0,0,0,-0.165191579631,0.0985751435922,-0.088308541556,948039.21066,2104948.94924,3176.13945685
411,3182.50393384,19.9999068279,0,0,0,1,0,0,0,0,0,0,0,0,0,0,0,0,0,0,0,0,0,0,0,0,0.157385987854,0,0,1.20583734467,2.03687875511,12.5656559835,-1.51850456191e-16,-3.92678251956e-05,0.00322121167647,0.00846936726775,-0.0117298467694,-0.00365553849734,-7.9332439786e-05,-0.0089899836118,-3.92678251956e-05,0.00182222603085,1.31516709716e+20,1.35625355623e+20,0,-1.96091989644,1.31521889499e+20,1.3543256342e+20,4.39108855977e-09,-1.96091989644,-1.96091989644,-223.468698547,0,1.35610389179e+20,0,0,0,0,0,0,0,-0.0913600619648,0.0370950124959,-0.0234186923264,948038.010397,2104932.14556,3182.50393384
411,3179.97015825,20.0070339858,0,0,0,1,0,0,0,0,0,0,0,0,0,0,0,0,0,0,0,0,0,0,0,0,0.151678421766,0,0,1.77523915277,2.47106045141,12.2422232466,-2.2071864757e-16,-5.51399456707e-06,0.00233845469082,0.00845239862292,-0.0107963673083,-0.00615497625922,0.00157924380856,-0.00821612557257,-5.51399456707e-06,0.00181696571195,1.31594173622e+20,1.35626533382e+20,0,-1.92411311786,1.31602417015e+20,1.3542054174e+20,3.12062637309e-09,-1.92411311786,-1.92411311786,-277.533433604,0,1.35606475794e+20,0,0,0,0,0,0,0,-0.123930054323,0.0857309213701,-0.0524283597718,948038.594276,2104940.31987,3179.97015825
411,3168.93820097,19.9803624907,0,0,0,1,0,0,0,0,0,0,0,0,0,0,0,0,0,0,0,0,0,0,0,0,0.130869868765,0,0,4.72383417608,7.34116138945,11.4244879312,4.54101529171e-16,3.00460185301e-05,-0.0020605953602,0.0108430456041,-0.00875240422539,-0.0133181398511,0.00185661773098,-0.0101095386642,3.00460185301e-05,0.00273216014741,1.32195743387e+20,1.35630827258e+20,0,-1.63844454989,1.32203204928e+20,1.35376686622e+20,1.52785675919e-09,-1.63844454989,-1.63844454989,-305.246144496,0,1.35610841332e+20,0,0,0,0,0,0,0,-0.201915063485,0.0722685786922,-0.0852169221087,948039.78282,2104956.95948,3168.93820097
411,3144.25453975,39.8115033747,0,0,0,1,0,0,0,0,0,0,0,0,0,0,0,0,0,0,0,0,0,0,0,0,0.330978192409,0,0,5.59197356855,19.5328429322,25.1565246606,-9.11995483496e-17,4.01790674963e-05,-0.000868034131275,0.00818257449767,-0.0072743612989,-0.0122232394923,0.00149775331445,-0.0143616337887,4.01790674963e-05,0.00277596289504,1.33736932112e+20,1.35589535887e+20,0,-0.907848847422,1.33739823674e+20,1.35276097534e+20,-8.37739755762e-10,-0.907848847422,-0.907848847422,-73.9313225693,0,1.35599962204e+20,0,0,0,0,0,0,0,-0.218798573475,0.0585497642187,-0.0627698288793,948041.424686,2104979.94561,3144.25453975
411,3146.46580093,37.871980395,0,0,0,1,0,0,0,0,0,0,0,0,0,0,0,0,0,0,0,0,0,0,0,0,0.301881389752,0,0,4.13493717907,17.8123969725,21.5178709174,-5.7752819316e-17,7.0365080063e-05,-0.000397991560543,0.0076703681222,-0.00720201148159,-0.0122599528386,0.00121077198858,-0.0137225547634,7.0365080063e-05,0.00268926853385,1.33634004861e+20,1.35595539659e+20,0,-0.956594993821,1.33637104072e+20,1.35285794698e+20,-7.49955469421e-10,-0.956594993821,-0.956594993821,-79.974807095,0,1.35605074077e+20,0,0,0,0,0,0,0,-0.215918776685,0.0541555064963,-0.0699103229212,948041.234059,2104977.27683,3146.46580093
411,3181.10774699,19.9981755595,0,0,0,1,0,0,0,0,0,0,0,0,0,0,0,0,0,0,0,0,0,0,0,0,0.152748073836,0,0,1.50901750444,2.23501882151,12.5798752585,-2.6470349733e-16,-1.67695088538e-05,0.00293485849965,0.00859821437653,-0.011549842385,-0.00560712351865,0.00121735042773,-0.00825905765943,-1.67695088538e-05,0.00185159838492,1.3155364305e+20,1.35626312659e+20,0,-1.94337267749,1.31560977057e+20,1.35426598589e+20,3.66760861039e-09,-1.94337267749,-1.94337267749,-258.9475869,0,1.35607540919e+20,0,0,0,0,0,0,0,-0.114685458413,0.0716031336025,-0.0412294316675,948038.38755,2104937.4257,3181.10774699
411,3114.03034146,65.0021837942,0,0,0,1,0,0,0,0,0,0,0,0,0,0,0,0,0,0,0,0,0,0,0,0,0.576661133144,0,0,2.74916405491,16.3791475773,31.2565173234,1.06613566214e-16,-1.31894269507e-05,0.000889930718655,0.00361370982474,-0.00451682997034,-0.00611034649028,0.00295026552633,-0.0122741736041,-1.31894269507e-05,0.00172958784305,1.34441830041e+20,1.35538844063e+20,0,-0.574302898661,1.34442795925e+20,1.3513041629e+20,1.45327492913e-09,-0.574302898661,-0.574302898661,-9.63564642775,0,1.35565968897e+20,0,0,0,0,0,0,0,-0.163944830347,0.0489920803195,-0.0309931874306,948044.134146,2105017.87805,3114.03034146
411,3114.89595294,64.2057583978,0,0,0,1,0,0,0,0,0,0,0,0,0,0,0,0,0,0,0,0,0,0,0,0,0.572561923649,0,0,3.76660608425,18.9506506667,32.9663678181,5.90775386141e-17,-1.65396506044e-05,0.00064654618514,0.00397549736264,-0.00463858319839,-0.00654743550151,0.00301428354318,-0.0126142761344,-1.65396506044e-05,0.00182011518527,1.34433728766e+20,1.35539689821e+20,0,-0.578134997013,1.3443473006e+20,1.35135643899e+20,1.46289547796e-09,-0.578134997013,-0.578134997013,-11.0565169086,0,1.3556656635e+20,0,0,0,0,0,0,0,-0.168564562162,0.0508016376286,-0.031958685409,948044.041176,2105016.57647,3114.89595294
411,3152.77088201,32.1672719094,0,0,0,1,0,0,0,0,0,0,0,0,0,0,0,0,0,0,0,0,0,0,0,0,0.248121081157,0,0,3.47454536602,13.4724689204,15.50014941,4.76662040388e-17,5.42042194031e-05,-0.00138560790272,0.00976943833944,-0.00832962621732,-0.015189223135,0.000744266758973,-0.0147211634886,5.42042194031e-05,0.00329085281066,1.3330589439e+20,1.35606632688e+20,0,-1.11199649786,1.3330901569e+20,1.35312551841e+20,-3.94016325952e-09,-1.11199649786,-1.11199649786,-98.8147638749,0,1.35609638521e+20,0,0,0,0,0,0,0,-0.221936456136,0.052866493406,-0.0808512302647,948040.801741,2104971.22437,3152.77088201
411,3132.08975758,0,49.8171679086,0.211823041811,-0.121848508387,1,-7.24035211635,6.94688499053,0.0580515997602,0,0.335313085964,210,0.000118523739191,0.102313832223,1.3316859413e+20,-0.706349413816,0.432219935363,-0.225253308944,0.0691329819215,-0.052259700207,3181.59674753,0,3178.09807273,-8.10919755142,4.82029987099e-09,0,0.0170700172698,0,0,-3.54454344657e-13,2.86866490162e-14,0.264596759588,8.34648730081e-16,-2.9556462727e-06,-0.0026522813467,0.000793613721644,0.00185571197879,-0.00248268869489,-0.000411452173459,-0.000656802823551,-2.9556462727e-06,0.000251712845223,1.33865900735e+20,1.3565431055e+20,0,-0.846794498566,1.33865900735e+20,1.35657411368e+20,2125.68069703,0,0,0,1,1.35586204001e+20,0,0,0,3.76898138411,0,0,-10.0106755631,-0.804671367099,0.226343830517,-0.123134979841,948042.472727,2104994.61818,3181.86705411
411,3132.70476923,0,49.228047067,0.212863376791,-0.118787830346,1,-7.24026860248,6.94677599944,0.0580454810753,0,0.335277743697,210,0.000116508298123,0.102307651828,1.33190298976e+20,-0.712980687595,0.427989728614,-0.224846394645,0.0695381331682,-0.0529088876702,3181.63946202,0,3178.11412168,-8.10947632771,5.32221544037e-09,0,0.0170452210659,0,0,-4.59332571979e-13,1.74936987969e-14,0.261921516928,8.77883768444e-16,-2.73462019674e-06,-0.00271338919012,0.000806168626483,0.00190448594344,-0.00259648521554,-0.000434358484514,-0.000666905489633,-2.73462019674e-06,0.000262548483671,1.33865501669e+20,1.35654315667e+20,0,-0.846983408378,1.33865501669e+20,1.35657411368e+20,2170.61284923,0,0,0,1,1.35585974432e+20,0,0,0,3.79565621572,0,0,-10.0067433051,-0.800693886217,0.226084193517,-0.123191306636,948042.413287,2104993.78601,3181.90977789
411,3184.28425714,0,20.0005093207,0.19818446427,-0.182334570158,1,-7.17061777383,6.8896972827,0.0593276169157,0,0.342683515925,210,3.20532746624e-05,0.100977102851,1.33230041818e+20,-2.01069905535,0.115383444502,-0.0958116575145,-0.0486490108713,-0.0111922538536,3204.28425714,411.681759896,3194.31762857,-5.06718476702e-12,411.681759896,0,0.0127273025776,0,0,6.27096021173e-13,-9.92493412126e-14,0.150095199083,-3.1772810875e-16,-5.42717515829e-06,-0.00102081700183,0.000479668939593,0.000535720887083,0.000159410865806,3.18376321734e-05,-0.00037129451301,-5.42717515829e-06,4.88278549795e-05,1.3363726573e+20,1.35655206713e+20,0,-0.955040098998,1.3363726573e+20,1.35657411368e+20,1345.36031501,0,0,0,-1,1.35615364814e+20,0,0,0,9.96662857189,0,0,-5.04739107652e-12,-0.234336830316,0.0403540472621,-0.16798167775,948037.4,2104923.6,3204.28425714
411,3184.51837799,0,20.0002304588,0.206936673045,-0.176167082788,1,-7.16994864103,6.88910002556,0.0593307014071,0,0.342701332322,210,3.11529014858e-05,0.100958790914,1.33270767035e+20,-2.02003648305,0.0880244966268,-0.0992484417284,-0.081413167016,-0.0097509067897,3204.51837799,401.562732534,3194.55156459,2.54571483511e-12,401.562732534,0,0.0106520690475,0,0,8.36042478034e-13,-2.21930839109e-13,0.1473265361,4.08237620374e-17,-3.34726218656e-06,-0.00107133727229,0.000632221903786,0.000435768106316,0.000131110560432,-3.25706127241e-05,-0.000360244604082,-3.34726218656e-06,4.5597545352e-05,1.33634712126e+20,1.35655634959e+20,0,-0.956249347512,1.33634712126e+20,1.35657411368e+20,1334.34412294,0,0,0,-1,1.35618366647e+20,0,0,0,9.96681339745,0,0,0,-0.231803957677,0.0387361892526,-0.161225567936,948037.200957,2104920.8134,3204.51837799
411,3133.36914731,0,48.762763356,0.215071646504,-0.125557220696,1,-7.2394939479,6.94618303125,0.0580676439287,0,0.335405759029,210,0.000116761232172,0.102297586417,1.33191703344e+20,-0.723114612502,0.422555038429,-0.219420327305,0.0677661184404,-0.053035610738,3181.8724287,0,3178.14826629,-8.09366413474,4.78061332914e-09,0,0.016961163262,0,0,-4.04902268463e-13,1.32112215402e-14,0.250252674444,5.67940956465e-16,-3.18422042514e-06,-0.00278076332617,0.000836314490222,0.00194126461552,-0.00269450804456,-0.000458716048798,-0.000674918733687,-3.18422042514e-06,0.000274022919164,1.33863329392e+20,1.35654333013e+20,0,-0.848011688626,1.33863329392e+20,1.35657411368e+20,2065.00982227,0,0,0,1,1.35586756996e+20,0,0,0,3.99395121356,0,0,-9.99248662007,-0.79280860336,0.224791815498,-0.123208076443,948042.335694,2104992.69972,3182.1422175
411,3121.89347819,0,58.7259218601,0.189163387044,-0.180352171825,1,-7.24464199592,6.94983327029,0.0578655331188,0,0.33423834246,210,0.000148186763565,0.102331643509,1.32740555119e+20,-0.61762767624,0.507380767251,-0.197881616499,0.0573350068545,-0.0442320566414,3180.44074445,0,3177.76336449,-8.11810516773,4.31425753413e-09,0,0.0195870118501,0,0,6.88805191132e-15,1.22532219747e-13,0.28886496013,-1.7996421922e-16,-3.54416989796e-07,-0.00165613824546,0.000163919960011,0.00149186386846,-0.00125864633861,1.62548481548e-05,-0.000297207813029,-3.54416989796e-07,0.000123358946296,1.33876707643e+20,1.35653791144e+20,0,-0.841679035367,1.33876707643e+20,1.35657411368e+20,1614.96008648,0,0,0,1,1.35577450726e+20,0,0,0,2.9479834662,0,0,-10.0429316124,-0.855176900362,0.234110213116,-0.115598245082,948043.364486,2105007.1028,3180.71134795
411,3127.44592299,0,54.3843227683,0.209634245178,-0.149725801694,1,-7.24079797167,6.94714911584,0.0580242763469,0,0.335155262612,210,0.000139130955857,0.102310901249,1.32943850858e+20,-0.65575954595,0.460379547605,-0.235405875071,0.065127125071,-0.0547654061513,3181.49318086,0,3177.87830804,-8.11013631854,1.88373965828e-09,0,0.0165319183751,0,0,-1.21722469778e-13,2.06661886547e-13,0.310188795993,-9.23202754354e-16,-1.62329863792e-06,-0.00176992916353,0.00041151197094,0.00135679389395,-0.00153520304486,-0.000212552918859,-0.000454429344445,-1.62329863792e-06,0.000141194108867,1.33866863866e+20,1.35654421592e+20,0,-0.846338659257,1.33866863866e+20,1.35657411368e+20,1798.00003769,0,0,0,1,1.35583856134e+20,0,0,0,3.88521069494,0,0,-10.0468072616,-0.837909023463,0.232117875023,-0.118926774044,948042.964892,2105001.50849,3181.76351874
411,3119.10468799,0,60.760233955,0.180629846688,-0.181576744141,1,-7.24652475295,6.9518112153,0.0579130073287,0,0.334512559259,210,0.000147806672042,0.102416797181,1.3274157044e+20,-0.597364048057,0.533602741761,-0.186523919016,0.054730657703,-0.0398521328917,3179.665001,0,3177.69140718,-8.13016802401,2.54551817586e-09,0,0.0207417324101,0,0,2.66152587921e-13,-3.014268502e-14,0.2616055816,1.0203623696e-15,-6.60147952824e-07,-0.00148959043458,-8.01748624111e-06,0.00149694777287,-0.00108630870557,9.72628003936e-05,-0.000239142513413,-6.60147952824e-07,0.000106276102095,1.33883959448e+20,1.35653552856e+20,0,-0.838246502082,1.33883959448e+20,1.35657411368e+20,1468.97562979,0,0,0,1,1.35564940786e+20,0,0,0,2.24459942347,0,0,-10.0550700966,-0.865988450489,0.235842013004,-0.113880644451,948043.613105,2105010.58346,3179.9360066
411,3160.34153142,0,23.8688219034,0.218100445961,-0.287740385501,1,-7.23036853004,6.94067340964,0.0586072978234,0,0.338522865422,210,6.83068522409e-05,0.102345849048,1.32835574729e+20,-1.33172945594,0.20562271232,-0.222778395081,0.0624206694081,-0.0796669606665,3183.96345398,0,3179.64593717,-10.1549621312,-1.08004162449e-09,0,0.0178672676035,0,0,-3.589871274e-13,4.71323823483e-14,0.231326080425,-3.02183749094e-17,6.41351135202e-06,-0.00665472793394,0.00200555252366,0.00465558892163,-0.00893910662827,-0.00174985972904,-0.000370037854167,6.41351135202e-06,0.00111413956632,1.33842738786e+20,1.35654146031e+20,0,-0.85775861139,1.33842738786e+20,1.35657411368e+20,4936.82701529,0,0,0,1,1.35615089855e+20,0,0,0,4.65601554206,0,0,-12.5023593319,-0.452213684217,0.176092432182,-0.0931545499423,948040.304319,2104964.26047,3184.30195271
411,3165.0956,0,21.4225976511,0.188727136447,-0.610890601238,1,-7.22436414583,6.93488046313,0.0585531271109,0,0.338209968812,210,6.62044678385e-05,0.102132511447,1.33007644511e+20,-1.48951916486,0.154184127434,-0.204665479078,0.0606006502455,-0.0853235004371,3186.4385958,228.015952263,3180.1074,-4.02460838012,228.015952262,0,0.0201658409309,0,0,-6.81699141582e-13,1.49502632497e-13,0.244578586828,4.41827970698e-16,3.80479187799e-06,-0.00600873566799,0.00188906251473,0.00412347794514,-0.00582186404757,-0.000730959422484,0.000910206149161,3.80479187799e-06,0.000771391877978,1.33822659289e+20,1.35653671697e+20,0,-0.867263770527,1.33822659289e+20,1.35657411368e+20,5155.76320344,0,0,0,0.399999999994,1.35609892878e+20,0,0,0,6.46534941309,0,0,-4.94473193203,-0.368777833541,0.159923248433,-0.091890617355,948040,2104960,3186.57274941
411,3139.610216,0,43.8586773773,0.229511055227,-0.148251468454,1,-7.23477809243,6.9425326366,0.0581949013506,0,0.336140813342,210,0.00011270470792,0.102231722066,1.33010643324e+20,-0.822254750918,0.381105817655,-0.204622526734,0.0656302807558,-0.0505588545382,3183.30203018,0,3178.3984448,-8.13353598412,0,0,0.0142060310068,0,0,-1.40312561569e-13,-1.61787538921e-13,0.213840634047,3.03708620748e-16,-3.88799517525e-06,-0.00302709810275,0.00105513899841,0.00196807110917,-0.00337657139914,-0.000614255200728,-0.000510075515357,-3.88799517525e-06,0.000336853947484,1.33849934612e+20,1.35654901563e+20,0,-0.854352276504,1.33849934612e+20,1.35657411368e+20,1922.25928227,0,0,0,1,1.35593255436e+20,0,0,0,5.17470325021,0,0,-10.0468823707,-0.730688595033,0.214778456091,-0.122865991131,948041.7512,2104984.5168,3183.57314805
411,3153.38263983,0,31.7606862605,0.275800514805,-0.0280827744,1,-7.22919739338,6.9387685914,0.0584504293191,0,0.337616773902,210,8.95886647668e-05,0.102216620732,1.33286505012e+20,-1.12731006088,0.244324020766,-0.222541938602,0.0523044005045,-0.0820915337201,3184.79621632,0,3179.15401907,-7.57237619102,1.74820296846e-09,0,0.0153719706294,0,0,-1.94186945244e-13,9.27177870149e-14,0.169351657464,-3.80585197314e-16,1.1572979028e-06,-0.00447365183762,0.00204559990635,0.00242920922918,-0.00687839294085,-0.00213025840616,-0.0027008229559,1.1572979028e-06,0.000825851623233,1.33836239302e+20,1.35654660959e+20,0,-0.860835228428,1.33836239302e+20,1.35657411368e+20,2257.46243301,0,0,0,1,1.35606790944e+20,0,0,0,5.89460979054,0,0,-9.34729631778,-0.577928237075,0.185714452406,-0.1097021999,948040.763771,2104970.6928,3185.04862886
411,3183.04942011,0,19.9988684371,0.161767611753,-0.203125373204,1,-7.17484293205,6.89284743036,0.0591908672442,0,0.341893633225,210,3.58344493279e-05,0.101022499113,1.33072410987e+20,-1.96530986765,0.158312923441,-0.0849900158085,0.0141315696105,-0.017430371797,3203.04942011,476.323783573,3193.08342011,-1.36424205266e-11,476.323783573,0,0.0127919523765,0,0,1.19332914785e-12,-8.07224026304e-13,0.172487985298,-1.00137575678e-15,-7.87238938862e-06,-0.000598817821181,5.68889679608e-05,0.000534056463832,0.000145585580933,0.000147394331074,-0.000217682081767,-7.87238938862e-06,3.79368132576e-05,1.33650734744e+20,1.35655193372e+20,0,-0.948662114408,1.33650734744e+20,1.35657411368e+20,1644.25033292,0,0,0,-1,1.35611575507e+20,0,0,0,9.96599999996,0,0,2.51289115194e-12,-0.236125241316,0.0399426345736,-0.174978026438,948037.798923,2104929.18492,3203.04942011
411,3176.10559901,0,19.9613003662,0.139756804218,-0.662820894507,1,-7.19574354766,6.91056155872,0.0589167842783,0,0.340310496748,210,4.45996035508e-05,0.101488036142,1.33527048025e+20,-1.87215514108,0.106195357171,-0.165591407583,0.0986464327324,-0.0885282515179,3196.10559901,491.642717344,3186.13959653,-3.37683677497e-14,491.642717344,0,-0.0183144484401,0,0,-9.96633709268e-13,-1.22304411509e-13,0.227984985504,1.19263240735e-15,3.15904827566e-06,-0.000897086178747,0.00107446908305,-0.00017422385603,4.25594816119e-05,-0.00169070706047,-2.03172395567e-05,3.15904827566e-06,6.68501754567e-05,1.33726480208e+20,1.35661612531e+20,0,-0.912797330582,1.33726480208e+20,1.35657411368e+20,3913.63494112,0,0,0,0.00247524753279,1.35609015186e+20,0,0,0,9.96600247622,0,0,3.35045523767e-14,-0.267340652286,0.0944409888308,-0.0998787783903,948039.215347,2104949.01485,3196.10559901
411,3176.11932686,0,19.9608688396,0.139727639242,-0.662450247476,1,-7.19570394339,6.91052653812,0.0589170290558,0,0.340311910613,210,4.45610153403e-05,0.101486989563,1.33527115638e+20,-1.87250239883,0.106215716365,-0.165395565168,0.0986596014948,-0.0884704825757,3196.11932686,491.89184251,3186.15332686,2.41032165565e-14,491.89184251,0,-0.0183731746675,0,0,-9.98215062085e-13,-1.22414544146e-13,0.227941013482,1.19556470383e-15,3.14028482447e-06,-0.000888123135875,0.00107071048521,-0.000179447064515,4.95865475989e-05,-0.00169106473802,-2.51726919539e-05,3.14028482447e-06,6.58480837775e-05,1.3372633045e+20,1.3566162465e+20,0,-0.912868234172,1.3372633045e+20,1.35657411368e+20,3911.33866751,0,0,0,0,1.35609002224e+20,0,0,0,9.96600000098,0,0,-2.41032165565e-14,-0.267227323883,0.0943089215275,-0.0999255399144,948039.213781,2104948.99293,3196.11932686
411,3176.13945685,0,19.9610943475,0.139853919702,-0.66120480191,1,-7.19564621593,6.91047518522,0.0589173279552,0,0.340313637092,210,4.45402409458e-05,0.101485429394,1.33525526992e+20,-1.87278775078,0.106365560217,-0.165191579631,0.0985751435922,-0.088308541556,3196.13945685,491.923838499,3186.17345685,0,491.923838499,0,-0.0183744008205,0,0,-9.94224936427e-13,-1.24042344364e-13,0.227805887646,1.18799149289e-15,3.09671796868e-06,-0.000886604755952,0.00107033203672,-0.000180630562796,5.01144660984e-05,-0.00168519379143,-2.48168227921e-05,3.09671796868e-06,6.57814692712e-05,1.33726110863e+20,1.35661624903e+20,0,-0.91297220529,1.33726110863e+20,1.35657411368e+20,3904.68734443,0,0,0,-0.00507614214836,1.35609004234e+20,0,0,0,9.96600000097,0,0,6.95213770354e-14,-0.267139894688,0.094119992745,-0.100139702304,948039.21066,2104948.94924,3196.13945685
411,3182.50393384,0,19.9974669359,0.142906406922,-0.258945905164,1,-7.17665421957,6.89423900046,0.0591400090896,0,0.341599870351,210,3.58602109666e-05,0.101046610496,1.3314613627e+20,-1.95845859345,0.157385987854,-0.0913600619648,0.0370950124959,-0.0234186923264,3202.50393384,468.632188127,3192.53750473,-7.78830056528e-12,468.632188127,0,0.010872184925,0,0,4.32327587929e-13,-8.11188991426e-13,0.17202980966,9.3436755222e-17,-1.11761677642e-05,-0.000438423271915,-2.71766408722e-05,0.000454423745023,0.000191383365006,0.000141430683182,-0.000146266848808,-1.11761677642e-05,2.78195294129e-05,1.3365668486e+20,1.35655589536e+20,0,-0.945844668034,1.3365668486e+20,1.35657411368e+20,1769.33180065,0,0,0,-1,1.35610427612e+20,0,0,0,9.96642911163,0,0,1.36119974775e-11,-0.239150989057,0.0403445543548,-0.171226322459,948038.010397,2104932.14556,3202.50393384
411,3179.97015825,0,20.00927166,0.131839441687,-0.417699215154,1,-7.1846144005,6.90070282281,0.0589822385843,0,0.340688568764,210,4.06277075479e-05,0.101191944028,1.33173257898e+20,-1.92019664843,0.151678421766,-0.123930054323,0.0857309213701,-0.0524283597718,3199.97015825,490.333189596,3190.00415825,0,490.333189596,0,-0.0208524819639,0,0,1.75711016993e-14,1.21226261357e-13,0.19574605916,-6.86782726923e-16,-3.88720124622e-06,-0.000562869454344,0.00110874763889,-0.000549765385789,5.86406639267e-05,-0.000742195958896,5.21650963677e-05,-3.88720124622e-06,7.36130983189e-05,1.33684323474e+20,1.35662136286e+20,0,-0.932757697279,1.33684323474e+20,1.35657411368e+20,2538.22200685,0,0,0,-1,1.35606358445e+20,0,0,0,9.96599999995,0,0,4.67504822725e-12,-0.248757820346,0.0562907673123,-0.139506374817,948038.594276,2104940.31987,3199.97015825
411,3168.93820097,0,20.0758197698,0.131408779242,-0.783903368908,1,-7.21749994592,6.92884604605,0.058602224488,0,0.338493561221,210,6.30951540516e-05,0.101955114914,1.33233764343e+20,-1.63490298387,0.130869868765,-0.201915063485,0.0722685786922,-0.0852169221087,3188.93820097,389.899209486,3180.73342788,-4.73173094433e-12,389.899209486,0,0.0163074483086,0,0,-3.668449031e-13,1.53645352339e-13,0.242309429503,1.35551206976e-16,3.35518878221e-06,-0.00537521797901,0.00201335351817,0.00336521964962,-0.00380091647204,-0.00062747223166,0.00140840074463,3.35518878221e-06,0.000581330369058,1.3380064249e+20,1.35654467919e+20,0,-0.877686652541,1.3380064249e+20,1.35657411368e+20,4913.81496453,0,0,0,0.346839546187,1.35609098766e+20,0,0,0,8.2047730972,0,0,1.36402612598e-11,-0.311032308003,0.144815329377,-0.0862899069114,948039.78282,2104956.95948,3188.93820097
411,3144.25453975,0,39.8005505464,0.238146816305,-0.125798601878,1,-7.23261469645,6.9414813272,0.0583709589219,0,0.337157743242,210,0.000100411511425,0.102271981797,1.3291359475e+20,-0.906479827194,0.330978192409,-0.218798573475,0.0585497642187,-0.0627698288793,3183.70671371,0,3178.61685983,-8.35621997199,0,0,0.0145776528957,0,0,5.51912072533e-14,-6.28464911442e-14,0.212459609041,1.94806520366e-16,-3.70245435274e-06,-0.00373848355737,0.00151206485324,0.00222271624978,-0.00340982562895,-0.000663541052487,-0.000499389953337,-3.70245435274e-06,0.00036686409344,1.3384603745e+20,1.35654824875e+20,0,-0.85619706756,1.3384603745e+20,1.35657411368e+20,2102.65080033,0,0,0,1,1.35601400989e+20,0,0,0,5.36839454473,0,0,-10.3192322344,-0.689441048381,0.208328319882,-0.121116435942,948041.424686,2104979.94561,3183.98525438
411,3146.46580093,0,37.8119910222,0.25388925535,-0.105225232549,1,-7.23123376393,6.94080665868,0.0584826598362,0,0.337802941281,210,9.666994121e-05,0.102297273251,1.33000090836e+20,-0.95512741491,0.301881389752,-0.215918776685,0.0541555064963,-0.0699103229212,3183.97678387,0,3178.73793779,-8.18808314448,4.49004662722e-10,0,0.0158767588293,0,0,8.85273364898e-14,3.6715327944e-14,0.198620233371,3.76781331962e-16,-2.50461794567e-06,-0.00418734604595,0.00178688004803,0.00239796137998,-0.00399626010765,-0.00100094350771,-0.000979299900877,-2.50461794567e-06,0.000462881154729,1.33843595096e+20,1.35654556791e+20,0,-0.857353193417,1.33843595096e+20,1.35657411368e+20,2142.6027505,0,0,0,1,1.3560574799e+20,0,0,0,5.51178218167,0,0,-10.1131760901,-0.660815027421,0.202763563024,-0.119287673839,948041.234059,2104977.27683,3184.24971997
411,3181.10774699,0,20.0051345583,0.137489764365,-0.348972490858,1,-7.18114774542,6.89780076173,0.0590345091407,0,0.340990489842,210,3.80556791734e-05,0.101118806729,1.33216083523e+20,-1.93988810515,0.152748073836,-0.114685458413,0.0716031336025,-0.0412294316675,3201.10774699,484.395801801,3191.14135341,0,484.395801801,0,-0.00882914694417,0,0,-2.35252859144e-13,-2.47411529013e-13,0.187125296195,1.74587961438e-16,-9.85710281955e-06,-0.000443574482183,0.000624924784115,-0.000191207404751,9.59286476858e-05,-0.000323620444781,-9.81507500618e-06,-9.85710281955e-06,4.86690098044e-05,1.33671914314e+20,1.35659655132e+20,0,-0.938633336327,1.33671914314e+20,1.35657411368e+20,2225.18721096,0,0,0,-1,1.35607633332e+20,0,0,0,9.96639357443,0,0,1.36747373799e-11,-0.24470184528,0.0476383707425,-0.154340107711,948038.38755,2104937.4257,3201.10774699
411,3114.03034146,0,64.9991293483,0.200163065913,-0.107296814219,1,-7.24928617157,6.95415583528,0.0578775889047,0,0.334307978143,210,0.000159810065384,0.102478779976,1.32740893263e+20,-0.573846119458,0.576661133144,-0.163944830347,0.0489920803195,-0.0309931874306,3178.74699623,0,3177.62138537,-8.09804553928,1.53554648889e-09,0,0.0241224335293,0,0,-1.06918674457e-13,-2.59484168567e-14,0.160799400223,-2.47443098572e-16,1.05301217773e-06,-0.00120691158831,-0.000361087777007,0.0015690523775,-0.000896350118169,-3.61747020834e-05,-0.000529310733635,1.05301217773e-06,0.000101034093705,1.33892564046e+20,1.35652855215e+20,0,-0.834173564901,1.33892564046e+20,1.35657411368e+20,767.000087381,0,0,0,1,1.35569115952e+20,0,0,0,1.39554571422,0,0,-10.0137828952,-0.883382768306,0.234655356073,-0.110218370415,948044.134146,2105017.87805,3179.01693108
411,3114.89595294,0,64.2187815953,0.199392652661,-0.116904985957,1,-7.2489682555,6.95401474532,0.0579059913022,0,0.334472033837,210,0.000155602708142,0.102486211595,1.32659652623e+20,-0.57766146216,0.572561923649,-0.168564562162,0.0508016376286,-0.031958685409,3178.80240826,0,3177.64296471,-8.09487471833,1.59968348111e-09,0,0.0239118440408,0,0,-1.08554668523e-13,-3.29248066714e-14,0.172791911741,-9.33054823169e-17,8.52312239035e-07,-0.0012390661494,-0.000348865594104,0.00158878405574,-0.000942710153016,-1.87176823993e-05,-0.00051011715554,8.52312239035e-07,0.000104432914598,1.33892047452e+20,1.35652898673e+20,0,-0.83441808426,1.33892047452e+20,1.35657411368e+20,892.803900846,0,0,0,1,1.35570654031e+20,0,0,0,1.42927270698,0,0,-10.0084130697,-0.880968048284,0.234945251003,-0.110691501403,948044.041176,2105016.57647,3179.07223741
411,3152.77088201,0,32.3943218056,0.278925411646,-0.0161113211979,1,-7.22915717819,6.93868661275,0.0584419143392,0,0.337567590345,210,9.12005177439e-05,0.102210309721,1.33302724477e+20,-1.11051767811,0.248121081157,-0.221936456136,0.052866493406,-0.0808512302647,3184.83401053,0,3179.11372147,-7.4026025723,1.86264514923e-09,0,0.0147566809496,0,0,-1.96098778737e-13,9.18403946279e-14,0.170330582802,-2.40728323347e-16,1.2050016079e-06,-0.00429212924218,0.00208418926372,0.00220914498007,-0.00665602946417,-0.00215020484604,-0.00272585832924,1.2050016079e-06,0.000792055743684,1.33835970897e+20,1.3565478793e+20,0,-0.86096228211,1.33835970897e+20,1.35657411368e+20,2153.95354185,0,0,0,1,1.35606100226e+20,0,0,0,5.96704247727,0,0,-9.13800141536,-0.587473152211,0.186951706952,-0.110700594069,948040.801741,2104971.22437,3185.08076395
411,3112.0630401,65.1259874049,0,0,0,1,0,0,0,0,0,0,0,0,0,0,0,0,0,0,0,0,0,0,0,0,0.571915645435,0,0,-6.02316878418,-19.9125020825,56.3336248209,3.90255836937e-16,9.75111296295e-06,0.00698358080587,-0.0022203516736,-0.00475347801931,0.00162651656974,0.0043811785364,-0.0136708538596,9.75111296295e-06,0.00192403917487,1.34379235846e+20,1.3553982316e+20,0,-0.603906625792,1.34380173351e+20,1.35097386378e+20,-6.2871803885e-09,-0.603906625792,-0.603906625792,-17.3512279121,0,1.35539779939e+20,0,0,0,0,0,0,0,-0.186574630808,0.0469587222861,-0.0257187814343,948046.116429,2105045.63001,3112.0630401
411,3110.03584841,67.2079215234,0,0,0,1,0,0,0,0,0,0,0,0,0,0,0,0,0,0,0,0,0,0,0,0,0.604418146332,0,0,-3.36959012134,-11.6336373265,57.678753743,2.4361254066e-16,-3.11681271838e-05,0.00536522010263,-0.00112620159413,-0.00427018663568,-0.000310165812518,0.00413975279177,-0.0124951104843,-3.11681271838e-05,0.00164117919275,1.34425647691e+20,1.35533117237e+20,0,-0.581957012348,1.3442647756e+20,1.35092770272e+20,1.10210299785e-09,-0.581957012348,-0.581957012348,-14.2617080769,0,1.35554857528e+20,0,0,0,0,0,0,0,-0.169829246441,0.0453388100068,-0.0184537363335,948045.603912,2105038.45477,3110.03584841
411,3148.29330562,30.6408256227,0,0,0,1,0,0,0,0,0,0,0,0,0,0,0,0,0,0,0,0,0,0,0,0,0.252243352496,0,0,-6.15737369957,-37.0692956274,33.1539071054,-2.13544181552e-15,2.71706645879e-05,0.0159279473589,-0.00635066846741,-0.00955010822688,0.0173756928761,0.00620554973612,-0.0120513885219,2.71706645879e-05,0.00393057635459,1.32906502542e+20,1.35605782093e+20,0,-1.30129662711,1.32909682828e+20,1.3526238153e+20,8.48490511429e-09,-1.30129662711,-1.30129662711,-229.930959869,0,1.35513896706e+20,0,0,0,0,0,0,0,-0.29162846603,0.0618188783854,-0.105285833156,948048.837408,2105083.72372,3148.29330562
411,3137.72222166,40.8300394063,0,0,0,1,0,0,0,0,0,0,0,0,0,0,0,0,0,0,0,0,0,0,0,0,0.332053176112,0,0,-11.3834901457,-48.1725466127,42.2977801951,-1.16416900803e-15,3.25258205492e-05,0.01679169446,-0.008042415652,-0.00871675298744,0.0160737477249,0.00710355930325,-0.0138540658731,3.25258205492e-05,0.00395653379244,1.33545546363e+20,1.35589314056e+20,0,-0.998492905438,1.33548301409e+20,1.35223843553e+20,1.1819947035e-08,-0.998492905438,-0.998492905438,-129.17415976,0,1.35506046678e+20,0,0,0,0,0,0,0,-0.304564108787,0.0841290847672,-0.0894378138501,948048.203046,2105074.84264,3137.72222166
411,3183.12945455,19.9703261379,0,0,0,1,0,0,0,0,0,0,0,0,0,0,0,0,0,0,0,0,0,0,0,0,0.0499924425075,0,0,2.08052640854,-2.89152684173,12.00168527,-6.14070976892e-16,2.3583460167e-05,0.00888846680852,0.0153628085229,-0.0242276918712,0.0146684172201,0.0011998811146,-0.00255565797961,2.3583460167e-05,0.0041923720255,1.30075474595e+20,1.35647516723e+20,0,-2.64654891803,1.30072799578e+20,1.35375949445e+20,4.69736677054e-10,-2.64654891803,-2.64654891803,-650.424938206,0,1.35512088072e+20,0,0,0,0,0,0,0,-0.152918688062,-0.115641701364,-0.218303930957,948050.794721,2105111.1261,3183.12945455
411,3181.69308293,19.9722035953,0,0,0,1,0,0,0,0,0,0,0,0,0,0,0,0,0,0,0,0,0,0,0,0,0.0574652175221,0,0,2.0090087144,-3.90752516272,12.5931098997,-8.1704145257e-16,2.28050001877e-05,0.00911556202884,0.0141625998179,-0.0232553568466,0.0147876358947,0.00133109546093,-0.00287440423381,2.28050001877e-05,0.00409338553701,1.30172818797e+20,1.35645974689e+20,0,-2.60021673636,1.30170563089e+20,1.353714249e+20,6.68855713368e-10,-2.60021673636,-2.60021673636,-656.272174382,0,1.35513623985e+20,0,0,0,0,0,0,0,-0.155826241025,-0.106794968132,-0.210432333139,948050.718293,2105110.0561,3181.69308293
411,3208.81609041,19.9987224571,0,0,0,1,0,0,0,0,0,0,0,0,0,0,0,0,0,0,0,0,0,0,0,0,0.100757490034,0,0,0.12777496726,-3.39261866495,22.1373454464,-1.52771318104e-15,2.51492374922e-06,0.0106686951554,0.0208960765974,-0.031562256829,0.0123203185247,0.0019314538101,-0.00345471625671,2.51492374922e-06,0.00540388501707,1.29387547544e+20,1.35637041045e+20,0,-2.97438388812,1.29396691191e+20,1.37452587679e+20,-4.34736461947e-09,-2.97438388812,-2.97438388812,-546.817647114,0,1.35545769109e+20,0,0,0,0,0,0,0,-0.198291834099,-0.237194146414,-0.268566632214,948052.617971,2105136.6516,3208.81609041
411,3196.35001921,20.0055117201,0,0,0,1,0,0,0,0,0,0,0,0,0,0,0,0,0,0,0,0,0,0,0,0,0.0902997949092,0,0,2.15612713339,-3.68200092651,26.1967364407,-2.63283686983e-15,2.20400883069e-06,0.00866332048766,0.0202977268589,-0.0289588433378,0.0135129854052,0.000180444491047,-0.00284672152995,2.20400883069e-06,0.00501408548712,1.29736423171e+20,1.35639199039e+20,0,-2.80808193865,1.2974687001e+20,1.35425613428e+20,1.16400415896e-08,-2.80808193865,-2.80808193865,-968.445688205,0,1.35525544916e+20,0,0,0,0,0,0,0,-0.156845940469,-0.195621975709,-0.266711362041,948051.677977,2105123.49168,3196.35001921
411,3171.49813389,20.0141064812,0,0,0,1,0,0,0,0,0,0,0,0,0,0,0,0,0,0,0,0,0,0,0,0,0.140492212477,0,0,1.58884683479,-11.9606882756,18.2168795636,-2.33887132333e-15,1.13118377611e-05,0.00987439465364,0.00548815296786,-0.0153512357837,0.0149249541483,0.00183426671758,-0.00514514381222,1.13118377611e-05,0.00307866168751,1.30878054756e+20,1.35628841676e+20,0,-2.26454528547,1.30882510335e+20,1.35333754028e+20,6.52549948358e-09,-2.26454528547,-2.26454528547,-718.487355594,0,1.35520560463e+20,0,0,0,0,0,0,0,-0.172775338976,-0.044492085332,-0.145667594184,948050.204976,2105102.86967,3171.49813389
411,3211.07034572,19.9991865556,0,0,0,1,0,0,0,0,0,0,0,0,0,0,0,0,0,0,0,0,0,0,0,0,0.0919615182736,0,0,0.119618263162,-2.63657965471,18.3844586397,2.24840153726e-16,-6.6763041271e-07,0.0122830103982,0.0210594054638,-0.0333430834924,0.0121324107086,0.00265710259534,-0.00426204077611,-6.6763041271e-07,0.00576573949458,1.29290674472e+20,1.35638856136e+20,0,-3.02059033008,1.29301646326e+20,1.37651201822e+20,-2.25725089507e-09,-3.02059033008,-3.02059033008,-451.617836649,0,1.35555130479e+20,0,0,0,0,0,0,0,-0.206964424102,-0.210220351337,-0.244398268966,948052.873606,2105140.23048,3211.07034572
411,3133.19257322,44.6778361481,0,0,0,1,0,0,0,0,0,0,0,0,0,0,0,0,0,0,0,0,0,0,0,0,0.372836083433,0,0,-11.3472875583,-45.001236761,40.8238942645,-8.04592329534e-16,2.64943201067e-05,0.0153590073257,-0.00757800600902,-0.00775450699657,0.014348752415,0.00681729687098,-0.0140677315714,2.64943201067e-05,0.00363907279275,1.33739336875e+20,1.35580899076e+20,0,-0.906718348008,1.33741800568e+20,1.35201951649e+20,7.91718562756e-09,-0.906718348008,-0.906718348008,-99.2603422169,0,1.35506920973e+20,0,0,0,0,0,0,0,-0.295607853841,0.083317692488,-0.0819527145704,948047.926778,2105070.9749,3133.19257322
411,3123.10747421,53.4363604476,0,0,0,1,0,0,0,0,0,0,0,0,0,0,0,0,0,0,0,0,0,0,0,0,0.470210430467,0,0,-11.7172819781,-40.4551934845,44.1032899994,-4.41261985815e-16,2.06750058377e-06,0.0117652206679,-0.00686564497559,-0.00489750819175,0.00879760643149,0.00581036415557,-0.0131954736152,2.06750058377e-06,0.00261199916893,1.34097252632e+20,1.35560807544e+20,0,-0.737306495481,1.3409872997e+20,1.35151306098e+20,-1.0395539574e-09,-0.737306495481,-0.737306495481,-35.0561829544,0,1.3552379975e+20,0,0,0,0,0,0,0,-0.248256753949,0.0674662831087,-0.0579835100938,948047.330283,2105062.62396,3123.10747421
411,3135.36323014,43.2216061183,0,0,0,1,0,0,0,0,0,0,0,0,0,0,0,0,0,0,0,0,0,0,0,0,0.351102687619,0,0,-11.5494927583,-47.2833244769,41.9112366544,-9.65969628536e-16,3.51079810202e-05,0.016065096437,-0.00774816932115,-0.00828181913479,0.015148745999,0.00691710847335,-0.0138260135868,3.51079810202e-05,0.00376606075324,1.33662500801e+20,1.35585383399e+20,0,-0.943090817493,1.33665196165e+20,1.35212572795e+20,1.14148811194e-08,-0.943090817493,-0.943090817493,-111.18489222,0,1.35513004409e+20,0,0,0,0,0,0,0,-0.305658166086,0.0863857843911,-0.0860350279047,948048.059589,2105072.83425,3135.36323014
411,3215.45490588,20.0006617419,0,0,0,1,0,0,0,0,0,0,0,0,0,0,0,0,0,0,0,0,0,0,0,0,0.0836533802939,0,0,0.133844953243,-1.52246302769,10.7910972185,6.94826906387e-16,-3.41190193142e-05,0.0166130827392,0.0227195540788,-0.0393667558373,0.0124937746728,0.00553520441224,-0.00712791155995,-3.41190193142e-05,0.00713203987515,1.29030569134e+20,1.35640570562e+20,0,-3.14464913383,1.2904701066e+20,1.36939379819e+20,1.4722258236e-09,-3.14464913383,-3.14464913383,-268.396761824,0,1.35544386142e+20,0,0,0,0,0,0,0,-0.232363211423,-0.144742520561,-0.182841048676,948053.364706,2105147.10588,3215.45490588
411,3195.8617539,20.0052890933,0,0,0,1,0,0,0,0,0,0,0,0,0,0,0,0,0,0,0,0,0,0,0,0,0.0873874379261,0,0,2.22650924303,-3.51485295207,25.5711702812,-2.45874491748e-15,3.67489916965e-06,0.0086074225548,0.0202658754612,-0.0288696231168,0.0136034183968,0.000178411828521,-0.0027562262939,3.67489916965e-06,0.00500381029539,1.29746942715e+20,1.35639800021e+20,0,-2.80306647164,1.29757252319e+20,1.35422843673e+20,1.14936721461e-08,-2.80306647164,-2.80306647164,-962.491442811,0,1.35526451901e+20,0,0,0,0,0,0,0,-0.155151109891,-0.192939922433,-0.266294634111,948051.642857,2105123,3195.8617539
411,3114.53826942,62.9131375919,0,0,0,1,0,0,0,0,0,0,0,0,0,0,0,0,0,0,0,0,0,0,0,0,0.56991873073,0,0,-6.5360131019,-23.3265536219,39.9835362952,-4.02333627275e-16,-1.93455442028e-05,0.00852102817137,-0.00358431023996,-0.00495606347561,0.00480699646202,0.0046784297168,-0.0142874042786,-1.93455442028e-05,0.00219598584857,1.34324401759e+20,1.35540235168e+20,0,-0.629842248753,1.34325473776e+20,1.35108942451e+20,1.66656711135e-09,-0.629842248753,-0.629842248753,-15.6331297413,0,1.35537358979e+20,0,0,0,0,0,0,0,-0.210640939798,0.0534532515685,-0.0327156782972,948046.480165,2105050.72231,3114.53826942
411,3109.47916482,67.8995135506,0,0,0,1,0,0,0,0,0,0,0,0,0,0,0,0,0,0,0,0,0,0,0,0,0.623321607698,0,0,-0.910778763896,-5.90879943955,63.4607421051,2.16537682638e-16,-5.27932907345e-05,0.00411848592486,-0.00045304229385,-0.00371823692175,-0.00120305606217,0.0040690887838,-0.012182146027,-5.27932907345e-05,0.00156840575439,1.34443850224e+20,1.35529217071e+20,0,-0.573348318558,1.344446512e+20,1.35092561448e+20,3.48263538241e-09,-0.573348318558,-0.573348318558,-14.1942928003,0,1.35564288609e+20,0,0,0,0,0,0,0,-0.162147705152,0.0438686389768,-0.0143416342931,948045.286054,2105034.00475,3109.47916482
411,3110.25674194,68.0022585922,0,0,0,1,0,0,0,0,0,0,0,0,0,0,0,0,0,0,0,0,0,0,0,0,0.608978667746,0,0,1.12676889262,14.6986277548,61.9343327689,6.8031937612e-17,-2.77645215522e-05,0.00249400363053,0.000961031912924,-0.00348280006501,-0.00361405733817,0.0027167584133,-0.0115500231531,-2.77645215522e-05,0.00145121090709,1.34458190074e+20,1.35532176295e+20,0,-0.566568437533,1.34459013428e+20,1.35103111459e+20,-2.36069618334e-09,-0.566568437533,-0.566568437533,-15.5896140231,0,1.3556260246e+20,0,0,0,0,0,0,0,-0.157731749008,0.0471205573117,-0.0243836451999,948044.798387,2105027.17742,3110.25674194
411,3116.77869512,60.6997528049,0,0,0,1,0,0,0,0,0,0,0,0,0,0,0,0,0,0,0,0,0,0,0,0,0.547896564929,0,0,-7.99279246947,-28.6258534305,40.494914747,-4.416272776e-16,-1.57194202431e-05,0.00920676334556,-0.00432628441854,-0.00489619834727,0.00576937803081,0.00485494208934,-0.0138747438693,-1.57194202431e-05,0.0022607088974,1.34269902253e+20,1.35544778893e+20,0,-0.655622152249,1.34271075372e+20,1.35120435622e+20,3.08465110365e-09,-0.655622152249,-0.655622152249,-21.1267628993,0,1.35539250054e+20,0,0,0,0,0,0,0,-0.226255571654,0.0574517840061,-0.0394134422635,948046.682927,2105053.56098,3116.77869512
411,3111.34103947,67.2844556445,0,0,0,1,0,0,0,0,0,0,0,0,0,0,0,0,0,0,0,0,0,0,0,0,0.592662158622,0,0,2.29983370307,17.0714887636,47.174511655,-1.54599383597e-16,-2.31074077139e-05,0.00196780517108,0.00174618439433,-0.00373709697313,-0.00467705388967,0.00233204844137,-0.01116712651,-2.31074077139e-05,0.00143445567158,1.34454262613e+20,1.35535542717e+20,0,-0.568425202655,1.34455127611e+20,1.35111942035e+20,-3.92087952751e-10,-0.568425202655,-0.568425202655,-12.0452474453,0,1.35562264744e+20,0,0,0,0,0,0,0,-0.156136297011,0.0471607164976,-0.025023553687,948044.547697,2105023.66776,3111.34103947
411,3121.06981911,55.9320382046,0,0,0,1,0,0,0,0,0,0,0,0,0,0,0,0,0,0,0,0,0,0,0,0,0.491437896927,0,0,-12.2275709417,-41.9043710437,51.2436230046,-3.84290971302e-16,-2.08842792933e-06,0.0108156896481,-0.00596278240643,-0.0048549956696,0.00741104822616,0.00552630114041,-0.0134014306112,-2.08842792933e-06,0.00245360079721,1.34161655021e+20,1.35556427714e+20,0,-0.706831317215,1.34163024928e+20,1.3514034123e+20,2.70324533771e-09,-0.706831317215,-0.706831317215,-35.6526460721,0,1.35543469611e+20,0,0,0,0,0,0,0,-0.248514009011,0.0644474067955,-0.0529183169515,948047.125478,2105059.75669,3121.06981911
411,3154.33222102,23.7724599639,0,0,0,1,0,0,0,0,0,0,0,0,0,0,0,0,0,0,0,0,0,0,0,0,0.206871744899,0,0,-2.25538885453,-29.9258737124,27.6528166124,-5.43496667762e-16,2.22090424086e-05,0.0145178929818,-0.00393525064842,-0.010560433291,0.0178127320632,0.00540038974713,-0.0106859721704,2.22090424086e-05,0.00377956708942,1.32455742778e+20,1.35615144332e+20,0,-1.51510025875,1.32461236526e+20,1.35285288394e+20,7.1686029188e-09,-1.51510025875,-1.51510025875,-315.677056977,0,1.35525692994e+20,0,0,0,0,0,0,0,-0.285347031671,0.0463041526608,-0.115368567491,948049.163073,2105088.28302,3154.33222102
411,3195.28950075,20.0059777401,0,0,0,1,0,0,0,0,0,0,0,0,0,0,0,0,0,0,0,0,0,0,0,0,0.0900507989662,0,0,2.19552436603,-3.66933680311,25.5428012234,-2.15942782559e-15,3.64250786208e-06,0.00855984089724,0.0199891983212,-0.0285453967106,0.0135711979845,0.000177716778309,-0.00276295373775,3.64250786208e-06,0.00494124045093,1.29765719969e+20,1.3563925042e+20,0,-2.79411890656,1.29775773916e+20,1.35420616054e+20,1.17355666156e-08,-2.79411890656,-2.79411890656,-964.383415775,0,1.35525878745e+20,0,0,0,0,0,0,0,-0.15407238291,-0.189446460872,-0.262953743443,948051.608793,2105122.5231,3195.28950075
411,3165.94481882,19.9848500077,0,0,0,1,0,0,0,0,0,0,0,0,0,0,0,0,0,0,0,0,0,0,0,0,0.147421096398,0,0,1.03428340063,-12.9210656461,16.5956722508,-1.17300881355e-15,1.42060508866e-05,0.0121284734583,0.00149475931796,-0.0136090267254,0.0174224977913,0.00291526182223,-0.00749879234134,1.42060508866e-05,0.00348064516913,1.31366762442e+20,1.35627411886e+20,0,-2.03221300402,1.31374340869e+20,1.35320864544e+20,1.08940606346e-08,-2.03221300402,-2.03221300402,-536.040260035,0,1.35516454722e+20,0,0,0,0,0,0,0,-0.223804363714,-0.0116044482167,-0.138597318415,948049.823171,2105097.52439,3165.94481882
411,3161.66828453,19.9916918053,0,0,0,1,0,0,0,0,0,0,0,0,0,0,0,0,0,0,0,0,0,0,0,0,0.155139063769,0,0,-0.133942436456,-16.3253477631,17.702168604,-4.79955555794e-16,2.09783925811e-05,0.0134954632118,-0.00077036455765,-0.0127041202616,0.0182909488519,0.00395840368267,-0.00890282007722,2.09783925811e-05,0.00373685439686,1.31780207798e+20,1.35625819284e+20,0,-1.83576368729,1.31789426858e+20,1.35308821851e+20,1.15929370182e-08,-1.83576368729,-1.83576368729,-404.061647096,0,1.35515438788e+20,0,0,0,0,0,0,0,-0.247524505446,0.0116070112677,-0.133262371568,948049.569052,2105093.96672,3161.66828453
411,3112.0630401,0,65.0963039942,0.224608557489,-0.0340554821167,1,-7.25734064218,6.95880334614,0.05736058077,0,0.331321676407,210,0.000168475672359,0.102411814636,1.33170061057e+20,-0.603463224285,0.571915645435,-0.186574630808,0.0469587222861,-0.0257187814343,3176.92332902,0,3178.02543855,-8.15425678498,-1.25541801132e-09,0,0.0274543289782,0,0,5.40093699246e-13,4.41761493707e-14,0.295278661627,1.14055940114e-15,-3.50518069643e-06,-0.000213104124893,-0.0016676768857,0.0018772758299,-0.000188016005,2.36160449572e-05,-0.000457858311399,-3.50518069643e-06,0.00010877221925,1.33909588471e+20,1.35652167647e+20,0,-0.826115443717,1.33909588471e+20,1.35657411368e+20,1462.50681975,0,0,0,1,1.35535407851e+20,0,0,0,-0.830300972201,0,0,-10.1405145417,-0.890427977651,0.207492153052,-0.104424122977,948046.116429,2105045.63001,3177.19513758
411,3110.03584841,0,67.241468909,0.217838217371,-0.0517919475833,1,-7.25586887444,6.95867529824,0.0575912078318,0,0.332653806307,210,0.000167728287849,0.10250559174,1.32926883163e+20,-0.58156454285,0.604418146332,-0.169829246441,0.0453388100068,-0.0184537363335,3176.97438457,0,3177.78902689,-8.12840803851,-7.15000705204e-10,0,0.0286511019603,0,0,2.59546527156e-14,-1.60900734465e-14,0.287442775068,-9.24179432365e-16,-6.3964980558e-07,-0.000541044332884,-0.00134193956227,0.00188234424535,-0.000419797392202,4.24133907551e-05,-0.00049518965348,-6.3964980558e-07,0.000102054986895,1.33909128136e+20,1.35651920682e+20,0,-0.826333313868,1.33909128136e+20,1.35657411368e+20,1397.96553144,0,0,0,1,1.35555347078e+20,0,0,0,-0.543695387642,0,0,-10.0801721026,-0.89693884626,0.219521387419,-0.104978161867,948045.603912,2105038.45477,3177.24533151
411,3148.29330562,0,30.6354530206,0.354780703231,0.0812353199639,1,-7.25465419113,6.95432173561,0.0569795635956,0,0.329120874963,210,9.72117168644e-05,0.102102696234,1.33013320809e+20,-1.29978881928,0.252243352496,-0.29162846603,0.0618188783854,-0.105285833156,3178.61153261,0,3181.33609291,-10.2109993397,2.14044797099e-09,0,0.0320957016829,0,0,8.03264002448e-14,3.77828710996e-14,0.387212570338,1.36648646832e-15,9.37784340565e-06,0.00356511450984,-0.0106437276476,0.00708799098119,0.00409214811728,0.00173290943917,-0.00152633282324,9.37784340565e-06,0.00109195702158,1.33892877607e+20,1.35651209862e+20,0,-0.834025285148,1.33892877607e+20,1.35657411368e+20,6324.40092182,0,0,0,1,1.35513534005e+20,0,0,0,-2.38419365837,0,0,-11.9305267142,-0.631798630112,0.0313495641923,-0.108164670439,948048.837408,2105083.72372,3178.95189925
411,3137.72222166,0,40.8389510341,0.312150486028,0.0522821499636,1,-7.25536231233,6.95536336539,0.0570536252561,0,0.329548664103,210,0.000120936531791,0.102168383931,1.32738038886e+20,-0.997188125692,0.332053176112,-0.304564108787,0.0841290847672,-0.0894378138501,3178.28581151,0,3180.01143486,-7.73327281853,0,0,0.0209850170061,0,0,3.64472881278e-13,2.37251466828e-14,0.381258427166,2.58522454014e-15,1.46875360603e-05,0.00197083125976,-0.00474981765056,0.00279367392686,0.00234584809947,0.0004682251949,-1.9356343655e-05,1.46875360603e-05,0.000381827291392,1.33897049336e+20,1.35653502651e+20,0,-0.832050554663,1.33897049336e+20,1.35657411368e+20,4272.26338292,0,0,0,1,1.35501873525e+20,0,0,0,-1.46784758497,0,0,-9.64425661878,-0.744307727661,0.0947050951442,-0.108185757355,948048.203046,2105074.84264,3178.54358727
411,3183.12945454,0,20.042797034,0.532545382038,1.18376998617,1,-7.18889906767,6.89264325743,0.0567188297223,0,0.327614844466,210,3.7921392102e-05,0.0999655234232,1.33552412934e+20,-2.64782297913,0.0499924425075,-0.152918688062,-0.115641701364,-0.218303930957,3203.12945454,586.499500807,3193.17165103,0,586.499500807,0,0.0159058746013,0,0,-2.61920820645e-13,-1.14136982693e-12,0.408949557824,1.04747119047e-15,8.05262197281e-06,0.00213327294676,-0.000888994867294,-0.00123622545749,-0.000462957397922,-0.00291813370831,-0.0006436317892,8.05262197281e-06,0.00026090597321,1.33649861809e+20,1.35654550783e+20,0,-0.94907549818,1.33649861809e+20,1.35657411368e+20,3015.07689309,0,0,0,-1,1.3551134688e+20,0,0,0,9.95780351832,0,0,-4.9930734034e-14,-0.26688735148,-0.317982945126,-0.385464037329,948050.794721,2105111.1261,3203.12945454
411,3181.69308293,0,20.0315020348,0.537258583135,1.18787658541,1,-7.19277169989,6.8963075326,0.056740177232,0,0.327738150273,210,4.06690810362e-05,0.100094979972,1.33538101802e+20,-2.60129132182,0.0574652175221,-0.155826241025,-0.106794968132,-0.210432333139,3201.69308293,600.266960414,3192.49510488,1.43079044553e-12,600.266960414,0,0.0187834361014,0,0,-2.45085794476e-13,-1.19024627552e-12,0.419675790035,1.1708430024e-15,9.9405992693e-06,0.00196972401748,-0.000485974259515,-0.0014738091587,6.90915451923e-05,-0.00375915727948,-0.000516743490465,9.9405992693e-06,0.000355238469657,1.33664931196e+20,1.35653956974e+20,0,-0.941940900963,1.33664931196e+20,1.35657411368e+20,3575.40480606,0,0,0,-1,1.3551311506e+20,0,0,0,9.19797804755,0,0,1.38308876552e-12,-0.270282142558,-0.312258460695,-0.374265131063,948050.718293,2105110.0561,3201.69308293
411,3208.81609041,0,20.0010729935,0.458626178893,0.748680417098,1,-7.11768061025,6.82711501893,0.0566771220726,0,0.327373936019,210,4.28475381546e-07,0.097808192155,1.33099866376e+20,-2.97002402144,0.100757490034,-0.198291834099,-0.237194146414,-0.268566632214,3228.81609041,924.037978948,3218.84926461,-1.12659018461e-11,924.037978948,0,-0.0171965384303,0,0,1.12617853301e-12,3.32194396944e-12,0.494943483731,-4.88065491432e-15,-1.4379502698e-06,0.000547155675553,7.71089287321e-06,-0.000556304518696,-0.00104008273359,3.96085660231e-05,-0.000125398613712,-1.4379502698e-06,6.15232469227e-05,1.33420281485e+20,1.35661381836e+20,0,-1.05780678403,1.33420281485e+20,1.35657411368e+20,-3841.09023952,0,0,0,-1,1.35545818184e+20,0,0,0,9.96682580145,0,0,-9.28327609577e-15,-0.34054730474,-0.342756851259,-0.439821790576,948052.617971,2105136.6516,3228.81609041
411,3196.3500192,0,19.9933510443,0.460786658485,0.995781464223,1,-7.15303743621,6.85891675784,0.0565599793035,0,0.326697305167,210,1.3152493014e-05,0.0987899768886,1.33436383391e+20,-2.80310355978,0.0902997949092,-0.156845940469,-0.195621975709,-0.266711362041,3216.3500192,1206.77429547,3206.38401921,0,1206.77429547,0,-0.00028452974981,0,0,-6.20327025628e-12,-1.47373726539e-12,0.73036480128,-2.46431020555e-15,-1.66147987374e-06,0.00128324614106,-0.000391390798532,-0.000893516822405,-0.00123780041176,-0.000742052292243,-0.000523548434041,-1.66147987374e-06,9.94598477279e-05,1.33518826056e+20,1.35657891845e+20,0,-1.01113022239,1.33518826056e+20,1.35657411368e+20,-2596.71867789,0,0,0,-1,1.35525663524e+20,0,0,0,9.96599999556,0,0,1.30812646247e-11,-0.296237870963,-0.342675282238,-0.424069693793,948051.677977,2105123.49168,3216.3500192
411,3171.49813388,0,19.9270148436,0.532847494587,1.20758994469,1,-7.22092188236,6.92231549471,0.0567768500036,0,0.327949976653,210,6.16696528221e-05,0.100965031769,1.33295916104e+20,-2.26242585419,0.140492212477,-0.172775338976,-0.044492085332,-0.145667594184,3191.49813388,726.115570547,3186.82489336,7.71023055828e-12,726.115570547,0,0.0475619252985,0,0,2.50014595651e-13,-2.10654032396e-13,0.511933674366,2.20030313608e-15,1.68697753437e-05,0.000468737564315,0.00219910377395,-0.00265097156292,0.00384100791706,-0.0096017121044,0.000430807047789,1.68697753437e-05,0.000992014748209,1.33773511462e+20,1.35648018273e+20,0,-0.890531550488,1.33773511462e+20,1.35657411368e+20,7564.63590488,0,0,0,-1,1.35522344834e+20,0,0,0,4.6732405187,0,0,1.3607661601e-11,-0.288222240651,-0.273775026628,-0.297237275877,948050.204976,2105102.86967,3191.49813388
411,3211.07034573,0,20.0007007764,0.462523967177,0.698569323742,1,-7.11130891827,6.82136427054,0.0566945089542,0,0.327474364757,210,0,0.097636372472,1.33167098684e+20,-3.01535754685,0.0919615182736,-0.206964424102,-0.210220351337,-0.244398268966,3231.07034573,772.110853222,3221.10363941,-1.36424205266e-11,772.110853222,0,-0.012108861679,0,0,1.7773950782e-12,3.20370295167e-12,0.40374978868,-3.24550597879e-15,-1.80358835501e-06,0.000253976814003,0.000118344796255,-0.000374125198613,-0.000731070211597,1.60108267001e-05,-0.000150812558672,-1.80358835501e-06,3.95151677073e-05,1.33406845138e+20,1.35660331935e+20,0,-1.06417151844,1.33406845138e+20,1.35657411368e+20,-3350.77142721,0,0,0,-1,1.35555147767e+20,0,0,0,9.96670632006,0,0,3.99085968736e-12,-0.343183748223,-0.343581064658,-0.439445536996,948052.873606,2105140.23048,3231.07034573
411,3133.19257322,0,44.6395068058,0.304106770712,0.0870381246272,1,-7.25720530614,6.95718556667,0.0570785796382,0,0.329692803643,210,0.000120583140482,0.102238853011,1.32729563085e+20,-0.905551849116,0.372836083433,-0.295607853841,0.083317692488,-0.0819527145704,3177.57219576,0,3179.6156841,-7.71301982387,0,0,0.0252130338298,0,0,4.6307390744e-13,9.62874596388e-15,0.344507446132,2.89035302367e-15,8.02095402016e-06,0.00156089551975,-0.00480306688959,0.00325019232386,0.00214293148076,-0.000657901139306,-7.3463787358e-05,8.02095402016e-06,0.000378835262442,1.33903718362e+20,1.35652630161e+20,0,-0.828894029703,1.33903718362e+20,1.35657411368e+20,3709.00337992,0,0,0,1,1.3550055635e+20,0,0,0,-1.78638767609,0,0,-9.73358879139,-0.778618280806,0.110446544602,-0.106289476343,948047.926778,2105070.9749,3177.82929642
411,3123.10747421,0,53.4135941426,0.283518046905,0.0518668401978,1,-7.2604041316,6.96049947495,0.0571504328862,0,0.330107836725,210,0.000134347454367,0.102378256357,1.3299276319e+20,-0.736607449827,0.470210430467,-0.248256753949,0.0674662831087,-0.0579835100938,3176.25752824,0,3178.88421797,-8.18214216771,-1.10642981411e-09,0,0.0322168123922,0,0,4.96784347805e-13,-2.61371911819e-14,0.292606220386,8.1350809916e-16,2.56988162372e-06,0.000938380306739,-0.00484144379646,0.00390563337135,0.00125713615692,-0.000109586574472,-0.000709881741079,2.56988162372e-06,0.000369789689667,1.3391580623e+20,1.35651184866e+20,0,-0.823172559401,1.3391580623e+20,1.35657411368e+20,2500.8399531,0,0,0,1,1.355201854e+20,0,0,0,-2.35395166173,0,0,-10.1583232903,-0.839086591248,0.158637424666,-0.102685370314,948047.330283,2105062.62396,3176.53026631
411,3135.36323014,0,43.2654796891,0.307875836596,0.0842865864063,1,-7.25486267807,6.95522975492,0.0571149000006,0,0.329902594465,210,0.000130339924989,0.1021900274,1.32743318808e+20,-0.941814533518,0.351102687619,-0.305658166086,0.0863857843911,-0.0860350279047,3178.34119794,0,3179.77233288,-7.64291246637,0,0,0.0221166266413,0,0,3.13788264775e-13,1.36715600786e-14,0.362998720984,2.61890772456e-15,8.35633384948e-06,0.00165525158771,-0.00447711165351,0.00283021639966,0.00238685953687,-0.000673189677632,3.51621696053e-05,8.35633384948e-06,0.000355897177064,1.33896552953e+20,1.35653269133e+20,0,-0.832285509906,1.33896552953e+20,1.35657411368e+20,3738.6991447,0,0,0,1,1.35513895564e+20,0,0,0,-1.17637118641,0,0,-9.6858062118,-0.763976195443,0.102158264151,-0.106204249052,948048.059589,2105072.83425,3178.59596169
411,3215.45490588,0,19.9998652979,0.441637592058,0.59434131838,1,-7.09696887527,6.81017897928,0.0543974998528,0,0.329616707371,210,0,0.0956727004661,1.33229870271e+20,-3.13680494623,0.0836533802939,-0.232363211423,-0.144742520561,-0.182841048676,3235.45490588,446.20545972,3225.48890588,-1.44449158517e-12,446.20545972,0,0.00169766984182,0,0,2.98585643369e-12,2.6444847403e-12,0.219772138099,3.09469230163e-15,-1.70815836596e-06,-0.000344686769759,0.000232217492087,0.000110761119307,-2.56629481463e-05,-3.32691862318e-05,-0.000213154017822,-1.70815836596e-06,5.91584858904e-07,1.33382613117e+20,1.35657482796e+20,0,-1.07565065183,1.33382613117e+20,1.35657411368e+20,-1889.97236411,0,0,0,-1,1.35544391001e+20,0,0,0,9.96599999681,0,0,7.51398943066e-12,-0.351364294627,-0.34335654223,-0.436617492744,948053.364706,2105147.10588,3235.45490588
411,3195.8617539,0,19.9933963026,0.463485160578,1.00752903682,1,-7.15436331063,6.86016235363,0.0565655995803,0,0.326729768568,210,1.38871202604e-05,0.0988332877794,1.3345602773e+20,-2.79815358241,0.0873874379261,-0.155151109891,-0.192939922433,-0.266294634111,3215.8617539,1185.80043576,3205.89571549,-1.04815715925e-12,1185.80043576,0,0.000412398558602,0,0,-6.27723006962e-12,-1.40216283297e-12,0.72129319025,-2.33270661018e-15,-1.46195126003e-06,0.0013193455569,-0.000395568433323,-0.000925239074836,-0.00124589391277,-0.000787356328531,-0.000540078777515,-1.46195126003e-06,0.000101477998288,1.33523408337e+20,1.35657748026e+20,0,-1.00895994273,1.33523408337e+20,1.35657411368e+20,-2427.86788011,0,0,0,-1,1.35526561996e+20,0,0,0,9.9660384107,0,0,1.36424205266e-11,-0.294699267977,-0.342331166817,-0.423324419682,948051.642857,2105123,3215.8617539
411,3114.53826942,0,62.9919723909,0.245039049906,-0.0398079056018,1,-7.25622983503,6.95803068832,0.0574070157526,0,0.331589890502,210,0.000171630884081,0.102406157901,1.33252138674e+20,-0.629335180052,0.56991873073,-0.210640939798,0.0534532515685,-0.0327156782972,3177.22794492,0,3178.20258512,-8.1020824102,0,0,0.0256110526281,0,0,5.88424534077e-13,-2.57805714339e-14,0.218664331919,8.99654072459e-16,6.91747275422e-06,7.77304602562e-05,-0.00181061631376,0.00173980332626,0.000203675723013,0.000144292867983,-0.000384118633161,6.91747275422e-06,0.000104724086397,1.33906767592e+20,1.35652548025e+20,0,-0.827450608645,1.33906767592e+20,1.35657411368e+20,1075.17340847,0,0,0,1,1.35531834637e+20,0,0,0,-0.704570790935,0,0,-10.057602872,-0.883520590368,0.199155895452,-0.103222190824,948046.480165,2105050.72231,3177.49801433
411,3109.47916482,0,67.9357356138,0.211184819844,-0.0778517583856,1,-7.254464409,6.9583813723,0.0577788658533,0,0.333737741816,210,0.000164491691781,0.102575663263,1.32824789975e+20,-0.572969526202,0.623321607698,-0.162147705152,0.0438686389768,-0.0143416342931,3177.09037674,0,3177.69793819,-8.10515369451,-9.26894733529e-10,0,0.0283295597481,0,0,-1.50212119553e-13,2.25893436712e-15,0.310139268765,-1.17645343016e-15,2.92467295767e-06,-0.000694252646887,-0.00112798970121,0.00182516702105,-0.000468380458823,0.000161492341578,-0.000477769456164,2.92467295767e-06,9.97088753266e-05,1.33908058671e+20,1.35651987036e+20,0,-0.826839514858,1.33908058671e+20,1.35657411368e+20,1525.31028668,0,0,0,1,1.35567820524e+20,0,0,0,-0.337389660492,0,0,-10.0251732296,-0.898272910104,0.225202186255,-0.104401536345,948045.286054,2105034.00475,3177.36054853
411,3110.25674194,0,68.0746717581,0.191728347197,-0.117289659432,1,-7.25161644575,6.95604939352,0.0578316540694,0,0.334042652959,210,0.000171727521547,0.1025214755,1.33305773349e+20,-0.566179071641,0.608978667746,-0.157731749008,0.0471205573117,-0.0243836451999,3178.00378642,0,3177.58537097,-8.12647093479,-2.53860508242e-09,0,0.0258531298084,0,0,5.28182784248e-13,3.01698630239e-14,0.306797436653,1.47783313785e-16,-3.03416141948e-07,-0.000973102278755,-0.000596155015928,0.00156895387854,-0.00060963135616,0.000209376641718,-0.000351190925011,-3.03416141948e-07,8.46151358107e-05,1.33899502195e+20,1.3565249807e+20,0,-0.83088956928,1.33899502195e+20,1.35657411368e+20,1287.17760649,0,0,0,1,1.35562813658e+20,0,0,0,0.689297816226,0,0,-10.0538916762,-0.894576200569,0.231486650841,-0.106759697156,948044.798387,2105027.17742,3178.27466878
411,3116.77869512,0,60.8103640937,0.256909087773,-0.0253232864091,1,-7.25640538521,6.95790792175,0.057353445434,0,0.33128046184,210,0.000169287947255,0.102379364663,1.33251667972e+20,-0.655067206706,0.547896564929,-0.226255571654,0.0574517840061,-0.0394134422635,3177.2759702,0,3178.38086585,-8.10503445688,-4.77018879672e-10,0,0.0264409361764,0,0,5.98400055795e-13,-3.52342223826e-14,0.236134213241,4.49307593906e-16,7.05472652798e-06,0.000339375698161,-0.00249173564796,0.00215941467632,0.000439621359994,0.000163981602809,-0.000467245550943,7.05472652798e-06,0.000161761063473,1.33906315765e+20,1.35652376771e+20,0,-0.827664468216,1.33906315765e+20,1.35657411368e+20,1333.17042109,0,0,0,1,1.35535991695e+20,0,0,0,-0.83472783853,0,0,-10.0679844428,-0.873093415862,0.189732833228,-0.10210050336,948046.682927,2105053.56098,3177.54613802
411,3111.34103947,0,67.3058543188,0.189034056998,-0.105289279185,1,-7.25047146346,6.95509986709,0.057850613472,0,0.334152164769,210,0.000170055111867,0.102498334635,1.33323421434e+20,-0.56801613819,0.592662158622,-0.156136297011,0.0471607164976,-0.025023553687,3178.37543512,0,3177.58959211,-8.14325205427,-1.03548365204e-09,0,0.0238111597533,0,0,3.07433537692e-13,-6.24798549885e-14,0.233970976929,-2.31607963544e-16,-1.01089343038e-06,-0.00105599923005,-0.000413763066003,0.00146875140262,-0.000739567810716,7.26737235398e-05,-0.00037121638629,-1.01089343038e-06,8.48958793134e-05,1.33896016489e+20,1.3565291945e+20,0,-0.832539416871,1.33896016489e+20,1.35657411368e+20,941.427652164,0,0,0,1,1.35560314305e+20,0,0,0,1.05728475469,0,0,-10.0761887561,-0.89068175528,0.232156933509,-0.107842936326,948044.547697,2105023.66776,3178.64687686
411,3121.06981911,0,55.9836640483,0.263341095909,-0.0208147319273,1,-7.25820679597,6.95920227108,0.0572859422501,0,0.330890555257,210,0.000151985946019,0.102393210142,1.33028149228e+20,-0.706183176889,0.491437896927,-0.248514009011,0.0644474067955,-0.0529183169515,3176.76760455,0,3178.72478854,-8.13471279999,-2.44160746312e-09,0,0.028747847098,0,0,4.10090927954e-13,-1.21643539192e-14,0.323173636555,-5.48506856522e-16,3.53287109799e-06,0.00081755063366,-0.00393383486198,0.00311981709942,0.000869946885753,0.000550434785037,-0.000647078313962,3.53287109799e-06,0.000286397710788,1.33911054976e+20,1.35651900718e+20,0,-0.82542137884,1.33911054976e+20,1.35657411368e+20,2308.11254649,0,0,0,1,1.35550792169e+20,0,0,0,-1.68602689083,0,0,-10.1184254498,-0.851906712326,0.172315712696,-0.101628882031,948047.125478,2105059.75669,3177.03876164
411,3154.33222102,0,23.7793357622,0.418078655014,0.303209086733,1,-7.2568176838,6.95647112861,0.0570108038237,0,0.329301322312,210,8.22314805912e-05,0.102186585539,1.33045085316e+20,-1.51249333366,0.206871744899,-0.285347031671,0.0463041526608,-0.115368567491,3177.9067365,283.792419831,3182.25676011,-6.07844743832,283.792419833,0,0.0567799387679,0,0,6.87829547736e-14,2.89394145065e-14,0.403449581191,-5.99328550136e-17,8.65020871804e-06,0.00423444705669,-0.0172837318662,0.0130579350183,0.00789722444244,-0.00479692362588,-0.00368045451159,8.65020871804e-06,0.00239435256746,1.33901095614e+20,1.35646116074e+20,0,-0.830135572947,1.33901095614e+20,1.35657411368e+20,7534.58464835,0,0,0,0.530997304579,1.3553092926e+20,0,0,0,-4.14740868872,0,0,-9.75220131522,-0.544936409778,-0.0394058510137,-0.11972275174,948049.163073,2105088.28302,3178.10935142
411,3195.28950074,0,19.993436774,0.465686558956,1.01337555186,1,-7.15596774192,6.86162220775,0.0565634455296,0,0.32671732651,210,1.51456475693e-05,0.0988803349643,1.33440192287e+20,-2.78932788061,0.0900507989662,-0.15407238291,-0.189446460872,-0.262953743443,3215.28950074,1181.22200752,3205.32970045,0,1181.22200752,0,0.00191227822254,0,0,-6.28591296419e-12,-1.53187489188e-12,0.720293211817,-2.41005574036e-15,-1.48147986536e-06,0.00129040516794,-0.000397281938143,-0.000894604709665,-0.00116132415209,-0.000910104742647,-0.00056835917248,-1.48147986536e-06,0.000109931161219,1.33529364002e+20,1.3565743851e+20,0,-1.00613969422,1.33529364002e+20,1.35657411368e+20,-2214.82673311,0,0,0,-1,1.35525998168e+20,0,0,0,9.95980029355,0,0,1.29918132884e-11,-0.293425813805,-0.341326006973,-0.421315301083,948051.608793,2105122.5231,3215.28950074
411,3165.94481881,0,20.0385043918,0.580743849584,0.995699290436,1,-7.23522451188,6.93648235395,0.0569753410092,0,0.329096484792,210,7.07036798634e-05,0.101514803448,1.33221354763e+20,-2.02861192825,0.147421096398,-0.223804363714,-0.0116044482167,-0.138597318415,3185.94481881,582.185613675,3184.90344774,2.23650134417e-11,582.185613675,0,0.0538264415547,0,0,-2.47925180193e-13,-3.85252031592e-13,0.414903560607,-8.68370149928e-17,2.52073892606e-06,0.00194273420927,-0.00340231724479,0.00146210377444,0.00781322758908,-0.0139866857803,-0.000720939222168,2.52073892606e-06,0.00187779436225,1.33829294594e+20,1.35646725541e+20,0,-0.864122742956,1.33829294594e+20,1.35657411368e+20,7367.14694614,0,0,0,-3.5574912892,1.35512695546e+20,0,0,0,1.04137107606,0,0,4.9198276115e-12,-0.356643026161,-0.220199915469,-0.221514903923,948049.823171,2105097.52439,3185.94481881
411,3161.66828452,0,20.0817145867,0.530663684235,0.720746813727,1,-7.24687469353,6.94739206436,0.0570181022937,0,0.329343479161,210,7.27408263049e-05,0.101891400882,1.33143515813e+20,-1.83138480887,0.155139063769,-0.247524505446,0.0116070112677,-0.133262371568,3181.66828452,529.36880155,3183.77008652,3.19836447953e-11,529.36880155,0,0.0609331107422,0,0,-2.88176951335e-13,-7.70790345952e-14,0.364981468584,-1.97640258086e-15,2.40638352881e-06,0.00340334178311,-0.0116006876339,0.0081997522343,0.00981200138266,-0.0134802407678,-0.00266201970084,2.40638352881e-06,0.00262801369501,1.33869002058e+20,1.35645259031e+20,0,-0.845327208737,1.33869002058e+20,1.35657411368e+20,6921.05938633,0,0,0,-3.27787021631,1.35511525105e+20,0,0,0,-2.10180199893,0,0,-1.95174483829,-0.421604454482,-0.152993944668,-0.170288461852,948049.569052,2105093.96672,3181.66828452
