#Time,"zbed","depth","height","surfgrad1","surfgrad2","densrel","mass balance","melting","rain","firn","accu","potrad","refreeze","bottomwater","enthbellowactive","outbedtemp","outbedpres","outbedvel1","outbedvel2","outbedvel3","zs top","zs top residual","ref zs top","zs top velocity","zs top loads","qlat","pressure","dsdt","ds","flow solution loads 1","flow solution loads 2","flow solution loads 3","flow solution loads 4","eij","strainrate 1","strainrate 2","strainrate 3","strainrate 4","strainrate 5","strainrate 6","strainrate 7","flow solution deformational heat","enthalpy_h","phase change enthalpy","water content","temperature","surface enthalpy","save enthalpy subgrid","enthalpy_h contact load","bedtemperatureexp","rock_temperature","rock_temperature contact load","icymask","surfaceenthexp","schur","mesh update:0","mesh update:1","mesh update:2","mesh velocity:0","mesh velocity:1","mesh velocity:2","velocity:0","velocity:1","velocity:2","Points:0","Points:1","Points:2"
21,3118.99166466,60.2606399937,0,0,0,1,0,0,0,0,0,0,0,0,0,0,0,0,0,0,0,0,0,0,0,0,0.546468619561,0,0,27.9083451921,38.0694753514,69.2487687422,-2.14404647962e-16,-5.58280468668e-05,-0.00886694819952,0.00971416590983,-0.000903045757181,-0.0145919483306,0.00898308738273,-0.0268800916286,-5.58280468668e-05,0.00546845794099,1.32738190057e+20,1.35545073463e+20,0,-1.38110288773,1.32739008231e+20,1.33117808456e+20,1.08001705918,-1.38110288773,-1.38110288773,28.5314345058,0,1.3335285766e+20,0,0,0,0,0,0,0,-0.360731377758,0.13094696642,0.014448847753,947931.542105,2105017.30526,3118.99166466
21,3122.76157511,56.5978089628,0,0,0,1,0,0,0,0,0,0,0,0,0,0,0,0,0,0,0,0,0,0,0,0,0.521077088889,0,0,25.4996436809,35.0643848346,65.6588896795,-1.96160198106e-16,-9.53409884727e-05,-0.00897112039267,0.00969656333582,-0.000820783931621,-0.0121781305537,0.00845560582645,-0.0242007021013,-9.53409884727e-05,0.00474173021044,1.32607769787e+20,1.35550312385e+20,0,-1.44298150195,1.32608730576e+20,1.33062774545e+20,1.2045766784,-1.44298150195,-1.44298150195,18.4428490335,0,1.33412845185e+20,0,0,0,0,0,0,0,-0.372817005061,0.134354115547,0.0133256501426,947929.973464,2105011.54641,3122.76157511
21,3106.07249317,73.5132521297,0,0,0,1,0,0,0,0,0,0,0,0,0,0,0,0,0,0,0,0,0,0,0,0,0.685605171468,0,0,22.7494276055,16.7236813308,61.8314421961,-8.47329676251e-17,-0.000184405929076,-0.00700313938751,0.00439176077006,0.00242697268836,-0.00896591092172,0.0075963820829,-0.0250254963978,-0.000184405929076,0.00440987925974,1.33024552035e+20,1.35516366973e+20,0,-1.2453389007,1.33025037821e+20,1.3322765754e+20,0.471343727933,-1.2453389007,-1.2453389007,25.5872828226,0,1.33412570298e+20,0,0,0,0,0,0,0,-0.287268726516,0.0997207517057,0.0505930516231,947937.392168,2105038.78221,3106.07249317
21,3108.24835539,71.3792631704,0,0,0,1,0,0,0,0,0,0,0,0,0,0,0,0,0,0,0,0,0,0,0,0,0.662153828575,0,0,20.487318158,19.4488252762,48.2754002853,1.52074421326e-17,-0.000154651751557,-0.00754876947104,0.00546089769729,0.00193322002219,-0.0098783265877,0.00827224267914,-0.0251918237949,-0.000154651751557,0.00451210900266,1.32986445134e+20,1.3552120532e+20,0,-1.26339030531,1.32986972576e+20,1.3321247471e+20,0.414668672247,-1.26339030531,-1.26339030531,23.0848465437,0,1.33423398189e+20,0,0,0,0,0,0,0,-0.302168507425,0.108769870878,0.0470213686909,947936.200702,2105034.40806,3108.24835539
21,3114.67643207,64.8039396639,0,0,0,1,0,0,0,0,0,0,0,0,0,0,0,0,0,0,0,0,0,0,0,0,0.59522196187,0,0,26.7760263818,32.301697031,61.3487358321,6.09318085489e-16,-0.000113902254849,-0.00904696233672,0.0080677034844,0.000865356597479,-0.0124860019426,0.00877590336829,-0.0247175635451,-0.000113902254849,0.00482296299816,1.32834246945e+20,1.35535014628e+20,0,-1.33556184845,1.32834939549e+20,1.33148023331e+20,0.778923113113,-1.33556184845,-1.33556184845,30.2168179044,0,1.33422938994e+20,0,0,0,0,0,0,0,-0.331713609599,0.123700612569,0.0284940594569,947933.214674,2105023.44565,3114.67643207
21,3109.40671343,70.221824488,0,0,0,1,0,0,0,0,0,0,0,0,0,0,0,0,0,0,0,0,0,0,0,0,0.642462212417,0,0,20.8823875342,21.1672870645,47.4749718231,4.22048967138e-16,-0.00014481893861,-0.00841738282421,0.00646409216565,0.00180847171994,-0.0111190206784,0.00886402293974,-0.026473555149,-0.00014481893861,0.00496033751666,1.329549595e+20,1.35525268051e+20,0,-1.27832288142,1.32955516993e+20,1.33196834994e+20,0.449651940897,-1.27832288142,-1.27832288142,23.8279345135,0,1.33435796462e+20,0,0,0,0,0,0,0,-0.300409073821,0.110194601732,0.0434413543432,947935.578796,2105032.1249,3109.40671343
21,3112.71191108,66.9230866846,0,0,0,1,0,0,0,0,0,0,0,0,0,0,0,0,0,0,0,0,0,0,0,0,0.616649412743,0,0,23.9329764858,28.6854263903,56.2318617945,1.17032263369e-15,-0.00012390755752,-0.00927291898286,0.00778576636319,0.00136324506215,-0.0126114697485,0.00915661597682,-0.0266201628652,-0.00012390755752,0.00520930724447,1.32894232095e+20,1.35530593676e+20,0,-1.30711085807,1.32894864658e+20,1.33176613045e+20,0.625515018529,-1.30711085807,-1.30711085807,28.4214727633,0,1.33453140915e+20,0,0,0,0,0,0,0,-0.332218715092,0.119431848336,0.0354315191687,947934.145885,2105026.86434,3112.71191108
21,3126.38285389,52.942225352,0,0,0,1,0,0,0,0,0,0,0,0,0,0,0,0,0,0,0,0,0,0,0,0,0.479260073346,0,0,18.1102500159,23.9587739683,48.3925522132,2.19598423533e-17,-5.91758489859e-05,-0.00823565103719,0.0100446466198,-0.00186817143158,-0.0130745265523,0.00852518646937,-0.0252414252714,-5.91758489859e-05,0.0050318311146,1.32494142739e+20,1.35558940339e+20,0,-1.49685556989,1.32495252274e+20,1.33026093296e+20,1.07999043271,-1.49685556989,-1.49685556989,4.27956013972,0,1.33382541465e+20,0,0,0,0,0,0,0,-0.379217223913,0.131832558939,-0.000892665340802,947928.456909,2105005.97879,3126.38285389
21,3169.24302927,20.6901826814,0,0,0,1,0,0,0,0,0,0,0,0,0,0,0,0,0,0,0,0,0,0,0,0,0.1653071938,0,0,4.09900465674,6.86624962539,25.28268941,-2.73302575894e-16,-2.09454929602e-05,0.0067617172637,0.00971517971782,-0.0164978424745,-0.0071690034421,-0.000156031936105,-0.0157834549458,-2.09454929602e-05,0.00351081877803,1.29726834334e+20,1.356237211e+20,0,-2.81264959578,1.29733437206e+20,1.32981762037e+20,8.80616704448,-2.81264959578,-2.81264959578,-510.718144731,0,1.33329131404e+20,0,0,0,0,0,0,0,-0.221591717102,0.0860420198668,-0.0767991299162,947909.555548,2104936.58749,3169.24302927
21,3172.55731505,20.6323714676,0,0,0,1,0,0,0,0,0,0,0,0,0,0,0,0,0,0,0,0,0,0,0,0,0.136760639575,0,0,2.2830650811,4.8599730762,15.8604335963,3.25578901561e-16,-0.00020283526273,0.0150049913022,0.0117128063419,-0.0269206329069,-0.00201069087383,-0.0150936018716,-0.0218297673613,-0.00020283526273,0.00643580126886,1.29488673279e+20,1.35629611687e+20,0,-2.92617433575,1.29495191e+20,1.33113770786e+20,5.42336207774,-2.92617433575,-2.92617433575,-325.190039437,0,1.33240902992e+20,0,0,0,0,0,0,0,-0.273788970264,-0.065729169426,-0.0387177688321,947906.350836,2104924.82225,3172.55731505
21,3172.78731579,20.6270058587,0,0,0,1,0,0,0,0,0,0,0,0,0,0,0,0,0,0,0,0,0,0,0,0,0.140827481569,0,0,2.18408367035,4.76468616034,15.1803830895,3.40491938051e-16,-0.000238243934767,0.0150089494508,0.0118659682395,-0.0271131616251,-0.00164388693559,-0.016780566452,-0.0225871034952,-0.000238243934767,0.00669954287963,1.29466520642e+20,1.35628772487e+20,0,-2.93673219315,1.2947304789e+20,1.33121382202e+20,5.12091850164,-2.93673219315,-2.93673219315,-309.114508829,0,1.33253579303e+20,0,0,0,0,0,0,0,-0.279782905564,-0.0858615502551,-0.0336402486446,947906.064719,2104923.77185,3172.78731579
21,3144.27438186,33.5637235332,0,0,0,1,0,0,0,0,0,0,0,0,0,0,0,0,0,0,0,0,0,0,0,0,0.321533541472,0,0,9.74333445256,12.0849244002,24.157491494,3.40335590234e-16,-2.55658803396e-05,-0.00603587915454,0.00852950898205,-0.00251919570785,-0.0130880262222,0.00595282663878,-0.022235999145,-2.55658803396e-05,0.0044162495881,1.31483679576e+20,1.3559148465e+20,0,-1.97661306296,1.3148630174e+20,1.32718921171e+20,1.76854595739,-1.97661306296,-1.97661306296,-74.4424261245,0,1.33454148703e+20,0,0,0,0,0,0,0,-0.325953334799,0.106845274827,-0.01385240158,947920.278043,2104975.95227,3144.27438186
21,3147.59399703,30.204610851,0,0,0,1,0,0,0,0,0,0,0,0,0,0,0,0,0,0,0,0,0,0,0,0,0.285241579857,0,0,10.2816644644,13.364616152,25.0610061954,-5.22677104664e-16,-8.7100043024e-06,-0.00427863963308,0.00775439598672,-0.00348446635794,-0.0131402513027,0.00474057572482,-0.0198479660127,-8.7100043024e-06,0.003926431094,1.31241933397e+20,1.35598973147e+20,0,-2.0915510354,1.3124454745e+20,1.32681831635e+20,2.48259376402,-2.0915510354,-2.0915510354,-139.580591709,0,1.33400526608e+20,0,0,0,0,0,0,0,-0.319387558683,0.098405044667,-0.0252036462225,947918.866204,2104970.76908,3147.59399703
21,3150.66941031,27.0600957646,0,0,0,1,0,0,0,0,0,0,0,0,0,0,0,0,0,0,0,0,0,0,0,0,0.250724338225,0,0,11.6213436606,14.7513393497,27.0392684528,-8.79908563331e-16,3.83275224973e-06,-0.00376241646938,0.00789071154947,-0.00412446232784,-0.0138242032947,0.00381489394384,-0.0188994545085,3.83275224973e-06,0.00387458256814,1.31026103334e+20,1.35606095522e+20,0,-2.19414491908,1.31028703388e+20,1.32672586671e+20,3.13202622293,-2.19414491908,-2.19414491908,-193.32109795,0,1.33363980369e+20,0,0,0,0,0,0,0,-0.320087922501,0.0956817264608,-0.0305817085908,947917.803959,2104966.86933,3150.66941031
21,3155.4206505,22.3709181608,0,0,0,1,0,0,0,0,0,0,0,0,0,0,0,0,0,0,0,0,0,0,0,0,0.211180260279,0,0,10.8135157373,13.2046929849,25.7188089227,8.83124358079e-17,5.38922399135e-06,-0.00270118040039,0.00754330073284,-0.00483673110846,-0.0140231112312,0.00516776913986,-0.0169061258441,5.38922399135e-06,0.0036581646534,1.30661227295e+20,1.35614255286e+20,0,-2.36770255151,1.30665247407e+20,1.32697077357e+20,5.11149814927,-2.36770255151,-2.36770255151,-315.55171584,0,1.33241906998e+20,0,0,0,0,0,0,0,-0.296469904703,0.0895519082611,-0.0440696753696,947916.025634,2104960.34068,3155.4206505
21,3157.53327083,20.7579748501,0,0,0,1,0,0,0,0,0,0,0,0,0,0,0,0,0,0,0,0,0,0,0,0,0.187580619016,0,0,8.70980623844,10.8451449105,21.5704665417,5.66977807907e-16,8.50620637341e-06,-0.00192139960593,0.00770306372481,-0.00577315791251,-0.0143767793034,0.0055744560067,-0.0164410104587,8.50620637341e-06,0.00367977455517,1.30503650849e+20,1.35619124984e+20,0,-2.4426986325,1.30508296785e+20,1.3269831344e+20,5.35918216576,-2.4426986325,-2.4426986325,-331.288121342,0,1.33197013656e+20,0,0,0,0,0,0,0,-0.283728389385,0.0867036086645,-0.05409824235,947915.209464,2104957.34433,3157.53327083
21,3158.52503376,20.753279922,0,0,0,1,0,0,0,0,0,0,0,0,0,0,0,0,0,0,0,0,0,0,0,0,0.18330875509,0,0,8.44666979598,10.503035822,21.9281529172,4.13770665833e-16,5.316704838e-06,-0.00133735647772,0.00749696557874,-0.00615429239618,-0.0137692226908,0.00545406299809,-0.0159394183777,5.316704838e-06,0.00351844389766,1.30436043654e+20,1.35620006483e+20,0,-2.47490039278,1.30441068263e+20,1.32713232557e+20,5.84059148455,-2.47490039278,-2.47490039278,-355.242059854,0,1.33200242924e+20,0,0,0,0,0,0,0,-0.274447134638,0.0894359837294,-0.0595285806531,947914.733177,2104955.59577,3158.52503376
21,3163.86700559,20.7691679185,0,0,0,1,0,0,0,0,0,0,0,0,0,0,0,0,0,0,0,0,0,0,0,0,0.118953482535,0,0,4.35112899934,4.38212961868,12.6809945789,7.64992906816e-16,1.19622898461e-05,0.00159260846648,0.00874241063557,-0.0103230568122,-0.0123336128584,0.00530419002269,-0.0154893596568,1.19622898461e-05,0.00357505036575,1.30042921247e+20,1.35633286242e+20,0,-2.66205753435,1.30050227846e+20,1.32793783594e+20,5.57290008179,-2.66205753435,-2.66205753435,-315.320519375,0,1.33269686086e+20,0,0,0,0,0,0,0,-0.236902908378,0.10463516756,-0.0904637473828,947912.543235,2104947.55599,3163.86700559
21,3168.60167556,20.6989080607,0,0,0,1,0,0,0,0,0,0,0,0,0,0,0,0,0,0,0,0,0,0,0,0,0.173884015465,0,0,4.38397337366,7.07236014566,25.0983297624,-2.61635592211e-16,-2.69523880178e-05,0.00514683074521,0.00864726710552,-0.0138210502387,-0.00862103127439,0.00128031959452,-0.0151904292153,-2.69523880178e-05,0.00319569680311,1.29756251426e+20,1.35621951259e+20,0,-2.79863546613,1.29763559251e+20,1.32954981558e+20,9.15040702789,-2.79863546613,-2.79863546613,-523.595717344,0,1.33325212208e+20,0,0,0,0,0,0,0,-0.23209767196,0.0970266130664,-0.0842072178756,947910.085047,2104938.53141,3168.60167556
21,3166.09552123,20.7436871618,0,0,0,1,0,0,0,0,0,0,0,0,0,0,0,0,0,0,0,0,0,0,0,0,0.140959484053,0,0,4.12169372585,5.52456249453,18.074779342,4.05999875637e-16,-3.15334206723e-06,0.00347949086473,0.0089326758369,-0.0124153200437,-0.010393747841,0.00326187854881,-0.0154006767931,-3.15334206723e-06,0.00343141760929,1.2991703714e+20,1.35628745283e+20,0,-2.7220345549,1.29924123271e+20,1.32880058807e+20,7.02433227409,-2.7220345549,-2.7220345549,-402.730846714,0,1.33315294908e+20,0,0,0,0,0,0,0,-0.231495267148,0.0981570329276,-0.0885906061863,947911.303665,2104943.00524,3166.09552123
21,3130.61095561,47.82586792,0,0,0,1,0,0,0,0,0,0,0,0,0,0,0,0,0,0,0,0,0,0,0,0,0.433861392708,0,0,9.82764892973,14.7146395841,29.1130877,-2.64332929492e-16,5.85114640666e-05,-0.006227358419,0.00796519843332,-0.00167932855025,-0.0116869524857,0.00641688656985,-0.0214752946583,5.85114640666e-05,0.00404449711386,1.32284764189e+20,1.3556830746e+20,0,-1.59619580634,1.32286091092e+20,1.32937255358e+20,0.875314110338,-1.59619580634,-1.59619580634,-10.1709700416,0,1.33370135391e+20,0,0,0,0,0,0,0,-0.347914048675,0.121331956723,-0.0154111455504,947926.222049,2104997.7741,3130.61095561
21,3135.56441415,43.1963352862,0,0,0,1,0,0,0,0,0,0,0,0,0,0,0,0,0,0,0,0,0,0,0,0,0.404491733603,0,0,13.9719526587,19.0543487402,38.0191605298,-3.27667431057e-16,-5.70995759964e-06,-0.00711072786592,0.00991626921721,-0.00281125130889,-0.0123594166578,0.00726962934737,-0.0235971589503,-5.70995759964e-06,0.00464155750022,1.32044229995e+20,1.35574367353e+20,0,-1.71037975094,1.32045886556e+20,1.3286304676e+20,1.57930983929,-1.71037975094,-1.71037975094,-37.6351647916,0,1.33441690301e+20,0,0,0,0,0,0,0,-0.374571703956,0.125992675368,-0.0118558179614,947924.316281,2104990.77758,3135.56441415
21,3142.06467961,35.579497197,0,0,0,1,0,0,0,0,0,0,0,0,0,0,0,0,0,0,0,0,0,0,0,0,0.334876709169,0,0,10.8950904225,14.0031872325,29.1638563414,3.5186103077e-16,-1.75031013389e-05,-0.00617723246674,0.00872631271707,-0.00256658335167,-0.0129910064188,0.00615118993026,-0.0229739776201,-1.75031013389e-05,0.00454354184621,1.31639573706e+20,1.35588731428e+20,0,-1.90256359267,1.31641984296e+20,1.3274307338e+20,1.89718121141,-1.90256359267,-1.90256359267,-71.6684929723,0,1.33414680031e+20,0,0,0,0,0,0,0,-0.340434193137,0.111797409063,-0.0138234500986,947921.276096,2104979.61635,3142.06467961
21,3128.93641007,49.7728320923,0,0,0,1,0,0,0,0,0,0,0,0,0,0,0,0,0,0,0,0,0,0,0,0,0.454895450476,0,0,11.0345628603,16.5542289846,32.6804432644,-5.02643685184e-17,4.35225829554e-05,-0.00684106941156,0.0081305172344,-0.00124592523989,-0.011656359717,0.00684935001797,-0.0218393483798,4.35225829554e-05,0.00411733362417,1.32357530645e+20,1.3556396747e+20,0,-1.56167481531,1.32358766552e+20,1.32962034549e+20,0.862774876244,-1.56167481531,-1.56167481531,-4.93282723455,0,1.33358386811e+20,0,0,0,0,0,0,0,-0.352412911706,0.123682790853,-0.0102171466002,947926.972753,2105000.53011,3128.93641007
21,3136.42018182,42.4286346411,0,0,0,1,0,0,0,0,0,0,0,0,0,0,0,0,0,0,0,0,0,0,0,0,0.405122514213,0,0,14.474974724,18.9174502022,38.3251231319,-3.53504118339e-16,-3.20145191303e-05,-0.00732542943115,0.00977783163397,-0.00248441672195,-0.0117991270604,0.0071894928767,-0.0231061012021,-3.20145191303e-05,0.00450189284335,1.31999287965e+20,1.35574237203e+20,0,-1.73170971227,1.32001003061e+20,1.32848532891e+20,1.64753378055,-1.73170971227,-1.73170971227,-40.8759113606,0,1.33437726659e+20,0,0,0,0,0,0,0,-0.372945191958,0.127877746984,-0.00860809947511,947923.939394,2104989.39394,3136.42018182
21,3137.23560935,41.4301242239,0,0,0,1,0,0,0,0,0,0,0,0,0,0,0,0,0,0,0,0,0,0,0,0,0.392241782147,0,0,14.1978619571,18.6859534142,37.679847772,-3.51061079166e-16,-2.39232393855e-05,-0.00714316621704,0.00964165166739,-0.00252240868973,-0.0118014602651,0.0069203811901,-0.0226594027658,-2.39232393855e-05,0.00440777416349,1.31948612873e+20,1.35576894968e+20,0,-1.75576460334,1.31950433902e+20,1.32836689252e+20,1.72637476797,-1.75576460334,-1.75576460334,-46.3355293879,0,1.33431291364e+20,0,0,0,0,0,0,0,-0.368789849117,0.124886428737,-0.00954465649623,947923.537712,2104987.91927,3137.23560935
21,3118.99166466,0,60.0816477937,0.249888827386,-0.0570086286861,0.381679389313,-4.3790286101,4.21283111503,0.603840531326,0.96393868881,0.215116553503,210,0.00518319117135,0.176076831164,1.33534229778e+20,-1.38071489227,0.546468619561,-0.360731377758,0.13094696642,0.014448847753,3179.048575,0,3155.71016692,-3.15184504808,1.0867764179e-09,0,-0.00509559545856,0,0,-1.44686695791e-13,1.22103716027e-13,0.080256731758,-7.87528345194e-16,-1.42944106179e-06,-0.00328676028078,0.00393191972868,-0.000646588888962,-0.00495700423101,-0.00151243825329,-0.000281071287673,-1.42944106179e-06,0.000552310239722,1.36778832648e+20,1.35658884664e+20,0.00336700259633,0.000695377015314,1.36778832648e+20,1.36778832648e+20,431.041232666,0,0,0,1,1.33347448482e+20,0,0,0,23.4434695855,0,0,-1.14183119395,-1.86401039358,0.532502314628,-0.267529846823,947931.542105,2105017.30526,3179.1536365
21,3122.76157511,0,56.6206690769,0.251168948104,-0.0479171456517,0.381679389313,-4.37810724545,4.21228524631,0.604755872944,0.968120829427,0.215442641475,210,0.00532139624123,0.175946064809,1.33746746263e+20,-1.44252574391,0.521077088889,-0.372817005061,0.134354115547,0.0133256501426,3179.26236931,0,3156.2642126,-3.15732353669,9.83195326641e-10,0,-0.00215716141053,0,0,-5.325776116e-13,8.00841073184e-14,0.079731777233,6.4264024761e-16,-5.32179743081e-06,-0.00406040236497,0.0044242127213,-0.000369132153756,-0.00580477280034,-0.00166855696669,-0.000630010416399,-5.32179743081e-06,0.000682280287807,1.36778832648e+20,1.35658278284e+20,0.00336882561367,0.000409173539035,1.36778832648e+20,1.36778832648e+20,426.63008611,0,0,0,1,1.3342108741e+20,0,0,0,23.1034008255,0,0,-1.14487635053,-1.80476437781,0.509671831417,-0.25933570663,947929.973464,2105011.54641,3179.36761343
21,3106.07249317,0,73.4940275948,0.24605144822,-0.070865340728,0.381679389313,-4.37748667199,4.21178277012,0.604959711318,0.96804894069,0.215515258343,210,0.00496247629125,0.176162228863,1.34129887131e+20,-1.24510862573,0.685605171468,-0.287268726516,0.0997207517057,0.0505930516231,3179.46055939,0,3154.3049317,-3.12064146822,0,0,-0.0187648362848,0,0,-1.7097575444e-13,-2.63503267782e-13,0.0572502920847,-4.60944647175e-15,2.70920285398e-06,-0.00108544573284,0.0027308219879,-0.0016426670522,-0.00236293781966,-0.00088812477482,0.000326489934171,2.70920285398e-06,0.000249180414124,1.36778832648e+20,1.35661705474e+20,0.00335852213504,0.00202676107181,1.36778832648e+20,1.36778832648e+20,306.453213179,0,0,0,1,1.33400502265e+20,0,0,0,25.2596490658,0,0,-1.10736530629,-1.96992470152,0.583744353598,-0.266010846707,947937.392168,2105038.78221,3179.56458077
21,3108.24835538,0,71.3936691602,0.243667649595,-0.0804612471848,0.381679389313,-4.37730636784,4.21172109293,0.605277031361,0.973805921367,0.215628302749,210,0.00477538321908,0.176361116687,1.34207801645e+20,-1.2631402803,0.662153828575,-0.302168507425,0.108769870878,0.0470213686909,3179.48445898,0,3154.442848,-3.12896523521,-2.41393651472e-09,0,-0.015844789254,0,0,-5.72806531469e-13,8.60814429392e-14,0.0462179520302,-2.58317946572e-15,1.70222139348e-07,-0.0013789401831,0.00276960899824,-0.001390498593,-0.00261689119998,-0.00102382997167,0.000308604607637,1.70222139348e-07,0.000269311404066,1.36778832648e+20,1.35661102887e+20,0.00336033374916,0.00174234849101,1.36778832648e+20,1.36778832648e+20,247.566440412,0,0,0,1,1.33397975786e+20,0,0,0,25.1459098163,0,0,-1.11509029579,-1.95862962134,0.575193631316,-0.269755044246,947936.200702,2105034.40806,3179.58875782
21,3114.67643207,0,64.7750051362,0.253281093864,-0.0467542609118,0.381679389313,-4.37742666419,4.21204304414,0.605924883234,0.975875645947,0.215859098224,210,0.00492984556848,0.176492507347,1.34056274352e+20,-1.33523343421,0.59522196187,-0.331713609599,0.123700612569,0.0284940594569,3179.35793986,0,3155.21085054,-3.13845635868,-1.86264514923e-09,0,-0.00887151197831,0,0,4.5003455974e-13,1.71811491287e-13,0.0662076899112,-1.29591076583e-15,-3.0617334819e-06,-0.00241727506625,0.00357204487609,-0.00115783154333,-0.00439931036797,-0.00127685574244,-0.000182220730238,-3.0617334819e-06,0.000462276183909,1.36778832648e+20,1.35659663867e+20,0.00336466000648,0.00106315128436,1.36778832648e+20,1.36778832648e+20,355.047959426,0,0,0,1,1.33442449455e+20,0,0,0,24.2517045332,0,0,-1.1231545409,-1.90830863467,0.549798433357,-0.271046668773,947933.214674,2105023.44565,3179.46255508
21,3109.40671343,0,70.1553833114,0.246027286298,-0.0705038219881,0.381679389313,-4.37699241111,4.21170532573,0.606110054957,0.978944954924,0.215925065148,210,0.00476142958666,0.176507180075,1.34245011835e+20,-1.27805858969,0.642462212417,-0.300409073821,0.110194601732,0.0434413543432,3179.49072286,0,3154.52032938,-3.126467997,-2.6386183644e-09,0,-0.0144281615303,0,0,-7.80596416958e-13,1.31651891307e-13,0.0468424455897,-2.82998855499e-16,-2.62851180955e-06,-0.00150051919955,0.00285836671501,-0.00136047602728,-0.00290166138906,-0.00102531056788,0.00023482952125,-2.62851180955e-06,0.000293560958371,1.36778832648e+20,1.35660810548e+20,0.00336121263395,0.00160436895072,1.36778832648e+20,1.36778832648e+20,250.650710315,0,0,0,1,1.33433373146e+20,0,0,0,25.0746090756,0,0,-1.11074645291,-1.9508252625,0.570175914125,-0.270581817587,947935.578796,2105032.1249,3179.59493846
21,3112.71191108,0,67.0260148385,0.258659409704,-0.0433323835258,0.381679389313,-4.37641706422,4.21143374029,0.606893722835,0.981051351964,0.216204244707,210,0.00478035141239,0.176710624435,1.34393281674e+20,-1.30681095636,0.616649412743,-0.332218715092,0.119431848336,0.0354315191687,3179.59781318,0,3154.92895888,-3.10754934331,-1.16812271844e-09,0,-0.0108563554407,0,0,-1.01015471981e-13,1.24074047819e-13,0.0584083797526,1.68890071534e-15,-5.25999229404e-06,-0.00195376419499,0.00319305464584,-0.00124455044314,-0.0037940627574,-0.00114047146228,-0.000120924097121,-5.25999229404e-06,0.000388121680733,1.36778832648e+20,1.35660073464e+20,0.00336342859847,0.00125647503759,1.36778832648e+20,1.36778832648e+20,311.714712894,0,0,0,1,1.33490790912e+20,0,0,0,24.7724392717,0,0,-1.08966126059,-1.93069345326,0.558825438427,-0.273988429128,947934.145885,2105026.86434,3179.70139815
21,3126.38285389,0,53.0870181791,0.252655638357,-0.0217775212283,0.381679389313,-4.37820899316,4.21220307882,0.604218739331,0.967689951119,0.21525128908,210,0.00544594516914,0.175725171227,1.33987798387e+20,-1.49632919653,0.479260073346,-0.379217223913,0.131832558939,-0.000892665340802,3179.29314155,0,3156.94448773,-3.2004295667,-7.37156012481e-10,0,-5.76134727651e-05,0,0,-4.17228432986e-13,1.94736695525e-15,0.0629268480335,-8.77618947508e-16,-6.51588609077e-06,-0.00498766085071,0.0051981601605,-0.000217015195879,-0.00714110975546,-0.00178472533837,-0.00129896221984,-6.51588609077e-06,0.000894486411157,1.36778832648e+20,1.35657845019e+20,0.00337012817811,0.000204677569903,1.36778832648e+20,1.36778832648e+20,336.141346682,0,0,0,1,1.33378987615e+20,0,0,0,22.4553348152,0,0,-1.18972706092,-1.74326383826,0.488622050275,-0.248895252679,947928.456909,2105005.97879,3179.39982254
21,3169.24302927,0,20.6903936794,0.18799479004,-0.404011789832,0.381679389313,-4.34835973986,4.18533105754,0.605748511274,1.0001440638,0.21579626619,210,0.00499667113957,0.175481479889,1.33837857787e+20,-2.80950296171,0.1653071938,-0.221591717102,0.0860420198668,-0.0767991299162,3189.8169412,0,3179.27702927,-3.49607568697,3.75857756132e-10,0,-0.0208383072567,0,0,-2.09796809333e-12,1.96023470599e-13,0.0876224117115,-2.00282231816e-15,-8.10520314329e-06,0.00135769531572,-0.000410937614367,-0.000954862904493,-0.000413611610522,-0.000437407354444,0.000819632750992,-8.10520314329e-06,0.000105584964558,1.36778832648e+20,1.35662133362e+20,0.00335723573577,0.00222871714446,1.36778832648e+20,1.36778832648e+20,492.54110291,0,0,0,1,1.33330755815e+20,0,0,0,10.6564477878,0,0,-1.48697133719,-0.482390780676,0.0118780315271,-0.262641513951,947909.555548,2104936.58749,3189.93347706
21,3172.55731505,0,20.632303456,0.207431190538,-0.315226261377,0.381679389313,-4.33970322263,4.17702444711,0.604620234271,1.00011999768,0.215394320565,210,0.00494171000389,0.175161103836,1.33965410137e+20,-2.92306706952,0.136760639575,-0.273788970264,-0.065729169426,-0.0387177688321,3193.07088222,0,3182.59131505,-3.56193483836,2.1879379038e-10,0,-0.0188990260523,0,0,-9.11851604388e-13,3.63019047593e-13,0.0527827262746,1.13905282317e-15,-2.59364715964e-06,0.000809070703799,-0.000135792814771,-0.000675871536187,0.000153627656425,-0.000170254906863,0.000261411683281,-2.59364715964e-06,4.84064847323e-05,1.36778832648e+20,1.35661733166e+20,0.00335843888155,0.00203983115513,1.36778832648e+20,1.36778832648e+20,286.885196972,0,0,0,1,1.33240228561e+20,0,0,0,10.5982983271,0,0,-1.55728632621,-0.491202029651,-0.00110336271022,-0.333955845839,947906.350836,2104924.82225,3193.18961338
21,3172.78731579,0,20.6270223183,0.202987224924,-0.308035748404,0.381679389313,-4.3390061488,4.17645133071,0.604822574623,1.00142353981,0.215466403767,210,0.00491491868466,0.175176630195,1.34016105878e+20,-2.93362027349,0.140827481569,-0.279782905564,-0.0858615502551,-0.0336402486446,3193.29531026,0,3182.82131579,-3.56882854134,1.41656719987e-10,0,-0.0182405747834,0,0,-6.64739213729e-13,2.98926977997e-13,0.0501035080014,1.66362538486e-15,-1.64649681116e-06,0.000777578322247,-0.000130925343853,-0.000648299475205,0.000264246695528,-0.000175591097964,0.000198877433511,-1.64649681116e-06,4.38841822778e-05,1.36778832648e+20,1.35661597288e+20,0.00335884738471,0.00197569800154,1.36778832648e+20,1.36778832648e+20,272.117555057,0,0,0,1,1.33252887186e+20,0,0,0,10.592955426,0,0,-1.56391439363,-0.493855456072,-0.00140217582678,-0.338478732933,947906.064719,2104923.77185,3193.41427122
21,3144.27438186,0,33.5319007121,0.251556235322,-0.052338021432,0.381679389313,-4.3818427609,4.21626362999,0.606448410297,0.962660209517,0.216045603321,210,0.00539752754304,0.176029998576,1.34184634586e+20,-1.97536704084,0.321533541472,-0.325953334799,0.106845274827,-0.01385240158,3177.70177769,0,3161.69174224,-3.19006990205,0,0,0.00555002323889,0,0,-2.80567716368e-13,4.65629838452e-14,0.047725804594,2.368493209e-15,2.64162829964e-06,-0.0100766375428,0.00860279141311,0.00147648775799,-0.0121773931441,-0.00349623844261,-0.00206406575936,2.64162829964e-06,0.00188734297813,1.36778832648e+20,1.35656687821e+20,0.0033736071668,-0.000341506245811,1.36778832648e+20,1.36778832648e+20,257.045043094,0,0,0,1,1.33470995737e+20,0,0,0,16.1163711078,0,0,-1.17432981815,-1.06596177231,0.270050672613,-0.100336832502,947920.278043,2104975.95227,3177.80811335
21,3147.59399703,0,30.2372189324,0.246629986797,-0.100014693444,0.381679389313,-4.38186561972,4.21618612846,0.606147003877,0.961292982798,0.215938228101,210,0.00524700186342,0.17620463962,1.34094064577e+20,-2.0903084176,0.285241579857,-0.319387558683,0.098405044667,-0.0252036462225,3177.7332251,0,3162.69333697,-3.15805024906,1.5285135615e-09,0,0.0105923187999,0,0,1.68070147052e-13,5.05485079516e-14,0.0581204016686,1.15645728969e-15,-7.37904679896e-07,-0.010344645704,0.00746926713726,0.0028746406621,-0.0116599725723,-0.00402907625122,-0.0016235131582,-7.37904679896e-07,0.00179439393433,1.36778832648e+20,1.35655647289e+20,0.00337673541336,-0.000832625833467,1.36778832648e+20,1.36778832648e+20,314.571495575,0,0,0,1,1.33413361947e+20,0,0,0,15.145156473,0,0,-1.14207040688,-0.912146731964,0.220088957271,-0.082121235957,947918.866204,2104970.76908,3177.83849344
21,3150.66941031,0,27.0512544967,0.202698082118,-0.0536768048573,0.381679389313,-4.38252920909,4.21649018805,0.605215042936,0.96594456449,0.21560621954,210,0.00512063066041,0.176345162123,1.33850014338e+20,-2.19290851166,0.250724338225,-0.320087922501,0.0956817264608,-0.0305817085908,3177.61011068,0,3163.56756638,-3.27580222269,5.50340757023e-10,0,0.0122210858216,0,0,2.34103418552e-13,6.31699552646e-14,0.0675656009977,1.81889187428e-15,1.69259107028e-06,-0.00870404191883,0.00617688368532,0.00252885082459,-0.0124814220387,-0.00235187232761,-0.00269914929378,1.69259107028e-06,0.00173390320612,1.36778832648e+20,1.35655311176e+20,0.00337774590067,-0.000991267741397,1.36778832648e+20,1.36778832648e+20,364.622548963,0,0,0,1,1.3335923159e+20,0,0,0,14.1517377114,0,0,-1.26310736282,-0.801574717261,0.192149725224,-0.0670678729012,947917.803959,2104966.86933,3177.71930409
21,3155.4206505,0,22.3644346889,0.116524063486,-0.30981328045,0.381679389313,-4.3829601416,4.21632681109,0.603505283595,0.94912468727,0.214997122407,210,0.00515832024872,0.176184582731,1.33744873602e+20,-2.36578957663,0.211180260279,-0.296469904703,0.0895519082611,-0.0440696753696,3177.67181632,0,3166.05792227,-3.34591378807,-1.65112094816e-09,0,0.00220276099176,0,0,5.84036800301e-13,1.75474857296e-13,0.0811720589235,2.13714053259e-15,5.70402399095e-06,-0.00496138514939,0.00393751367104,0.00102957550234,-0.00805494530191,-0.00188239492767,0.000733197399991,5.70402399095e-06,0.00099132400783,1.36778832648e+20,1.35657378566e+20,0.00337153051824,-1.54829029346e-05,1.36778832648e+20,1.36778832648e+20,465.284801263,0,0,0,1,1.33237707742e+20,0,0,0,11.7254245063,0,0,-1.33874135063,-0.630641502108,0.158807641194,-0.081198092301,947916.025634,2104960.34068,3177.78334678
21,3157.53327083,0,20.7590822325,0.0732087141385,-0.39110445661,0.381679389313,-4.3817923852,4.21502905272,0.602810638631,0.9467717344,0.21474965702,210,0.00501169812283,0.176245339459,1.33736405713e+20,-2.44048739747,0.187580619016,-0.283728389385,0.0867036086645,-0.05409824235,3178.17860926,0,3167.56727083,-3.40350643877,-3.08391855405e-09,0,-0.00283970821128,0,0,4.67751448634e-13,1.28104805125e-13,0.0765156807129,1.88478591833e-15,5.30295547024e-06,-0.00293487402413,0.00266831897022,0.000271858009379,-0.00640680333099,-0.00139775352169,0.00171737384287,5.30295547024e-06,0.000700999958833,1.36778832648e+20,1.35658419135e+20,0.00336840215958,0.000475653597447,1.36778832648e+20,1.36778832648e+20,446.58461113,0,0,0,1,1.33196063245e+20,0,0,0,10.7247886417,0,0,-1.39892437733,-0.561259526046,0.141682916211,-0.0918805836106,947915.209464,2104957.34433,3178.29205947
21,3158.52503376,0,20.7527833991,0.0761825741025,-0.414591212068,0.381679389313,-4.37896378617,4.21251561274,0.603056707062,0.953675488112,0.214837318232,210,0.00501574930028,0.176173954616,1.3376261841e+20,-2.47250848733,0.18330875509,-0.274447134638,0.0894359837294,-0.0595285806531,3179.16350148,0,3168.55903376,-3.41429503095,-2.60432922709e-09,0,-0.00678747020003,0,0,7.58163501877e-13,-8.92665354154e-15,0.0794578415471,1.61500909194e-15,5.36881072824e-06,-0.00236834743711,0.0022921192238,8.15970240363e-05,-0.00542448210531,-0.00138989401687,0.00151870229047,5.36881072824e-06,0.000598942469706,1.36778832648e+20,1.35659233804e+20,0.00336595294314,0.000860165615147,1.36778832648e+20,1.36778832648e+20,465.081867702,0,0,0,1,1.33199016537e+20,0,0,0,10.7182775474,0,0,-1.40938516707,-0.549783210915,0.130148844046,-0.104884277511,947914.733177,2104955.59577,3179.27731131
21,3163.86700559,0,20.7681407032,0.111426508446,-0.623382827954,0.381679389313,-4.36322555867,4.19884663344,0.605392259293,0.989982868176,0.215669352387,210,0.00443515355151,0.176476848932,1.33971406777e+20,-2.65857736804,0.118953482535,-0.236902908378,0.10463516756,-0.0904637473828,3184.521956,0,3173.90100559,-3.40514232228,3.45202392237e-10,0,-0.0336580651255,0,0,2.30618428266e-14,-3.77268453703e-13,0.0579799761836,1.11379526028e-15,6.48903152456e-06,0.00148452350076,-0.000178302914432,-0.0012997315548,-0.000821096445943,-0.00225194377054,0.00124374673895,6.48903152456e-06,0.000149837273282,1.36778832648e+20,1.35664778885e+20,0.00334928225773,0.00347736156087,1.36778832648e+20,1.36778832648e+20,351.018954097,0,0,0,1,1.33269148908e+20,0,0,0,10.7344551584,0,0,-1.39476853717,-0.492777964249,0.0653577028414,-0.157663514164,947912.543235,2104947.55599,3184.63546074
21,3168.60167556,0,20.6993170679,0.178438456922,-0.443741287157,0.381679389313,-4.35006493657,4.1869449928,0.605902392932,0.999846580114,0.215851086114,210,0.00486205278882,0.175670054382,1.33941090601e+20,-2.79515319568,0.173884015465,-0.23209767196,0.0970266130664,-0.0842072178756,3189.1846027,0,3178.63567556,-3.48667262456,-9.89821435597e-10,0,-0.0250547444711,0,0,-1.54049194294e-12,1.79457338371e-13,0.088635850715,-1.35120870379e-15,-7.15313834141e-06,0.00154435872333,-0.000363888806907,-0.00118762305477,-0.0004760147036,-0.000664155793411,0.000816214411923,-7.15313834141e-06,0.00012588872326,1.36778832648e+20,1.35663003476e+20,0.00335461983193,0.00263939812916,1.36778832648e+20,1.36778832648e+20,503.65273753,0,0,0,1,1.33326592403e+20,0,0,0,10.665149557,0,0,-1.47703133915,-0.482807472545,0.0158377650134,-0.245332039605,947910.085047,2104938.53141,3189.30082512
21,3166.09552123,0,20.743261448,0.151825194856,-0.54801560053,0.381679389313,-4.35689680586,4.19322525275,0.605949643666,0.996110836415,0.21586791906,210,0.00459205451911,0.176171037014,1.33928295779e+20,-2.71865874054,0.140959484053,-0.231495267148,0.0981570329276,-0.0885906061863,3186.72452661,0,3176.12952123,-3.4343450304,0,0,-0.0301389605943,0,0,-1.007292304e-12,-1.30416910545e-13,0.0711040155661,5.77153566314e-17,8.47452793583e-07,0.00152206584188,-0.000301794919915,-0.00121942346917,-0.000648893521177,-0.0015999918365,0.00114165538109,8.47452793583e-07,0.000143634502065,1.36778832648e+20,1.35664052672e+20,0.00335146553997,0.00313460077955,1.36778832648e+20,1.36778832648e+20,416.040615973,0,0,0,1,1.33315634329e+20,0,0,0,10.7094835429,0,0,-1.42333463244,-0.487028964068,0.0430206848618,-0.200934644227,947911.303665,2104943.00524,3186.83900478
21,3130.61095561,0,47.6081052604,0.248760971912,-0.0277821100968,0.381679389313,-4.3810016346,4.21482587667,0.604408361883,0.95932725674,0.215318841601,210,0.00553723868183,0.175713879529,1.33917189783e+20,-1.59556610122,0.433861392708,-0.347914048675,0.121331956723,-0.0154111455504,3178.26593357,0,3157.94570981,-3.17308717754,4.56684801091e-10,0,0.00264949885362,0,0,-5.84529342361e-14,-1.28938406139e-13,0.0425425508816,-1.02515945609e-15,1.42361798307e-06,-0.00728631529311,0.00694326844127,0.000344470469818,-0.00936315378246,-0.00240459575723,-0.00176577671485,1.42361798307e-06,0.00129796656984,1.36778832648e+20,1.35657286376e+20,0.00337180767756,-5.8995170676e-05,1.36778832648e+20,1.36778832648e+20,228.903636326,0,0,0,1,1.33373256146e+20,0,0,0,20.4259933329,0,0,-1.16229613113,-1.60199838491,0.44248491682,-0.212679434908,947926.222049,2104997.7741,3178.37170314
21,3135.56441415,0,43.3897849698,0.248969878437,-0.0365322485637,0.381679389313,-4.37913453256,4.21361472788,0.60594192889,0.966098299138,0.215865170692,210,0.00470260484896,0.176779409339,1.33410445506e+20,-1.70959327244,0.404491733603,-0.374571703956,0.125992675368,-0.0118558179614,3178.74066654,0,3159.11842126,-3.17396735558,3.36320136154e-09,0,0.00323978555225,0,0,3.0736417946e-13,-7.90756681113e-14,0.0605224290551,5.62628566192e-15,2.33364493487e-07,-0.0080927085688,0.00744111381284,0.00065182812045,-0.0101772761956,-0.00290176229082,-0.00167347428938,2.33364493487e-07,0.00147004983936,1.36778832648e+20,1.35657164563e+20,0.00337217389302,-0.000116489095202,1.36778832648e+20,1.36778832648e+20,324.008394928,0,0,0,1,1.33451476183e+20,0,0,0,19.7280441873,0,0,-1.15937373175,-1.45356428073,0.391174352872,-0.179588033106,947924.316281,2104990.77758,3178.84646545
21,3142.06467961,0,35.4905368394,0.248193404094,-0.0114913095794,0.381679389313,-4.38314473869,4.21691849664,0.604798327607,0.954643538772,0.215457765833,210,0.00565185685775,0.175698004276,1.34012296793e+20,-1.90141838015,0.334876709169,-0.340434193137,0.111797409063,-0.0138234500986,3177.44392743,0,3160.97269688,-3.22447595272,0,0,0.0049912445455,0,0,-3.36897159128e-13,3.22668295366e-14,0.054717941811,1.80362723075e-15,8.11099143753e-06,-0.00954967206048,0.00884385090221,0.000713932149709,-0.0125050721799,-0.00271745463484,-0.00299232099394,8.11099143753e-06,0.00189873360106,1.36778832648e+20,1.35656803131e+20,0.00337326049913,-0.000287081201097,1.36778832648e+20,1.36778832648e+20,294.790148915,0,0,0,1,1.33405971402e+20,0,0,0,16.5787130745,0,0,-1.21328790371,-1.17554412688,0.304182578868,-0.118292799448,947921.276096,2104979.61635,3177.55140996
21,3128.93641007,0,49.6572163695,0.249287381327,-0.0165723570742,0.381679389313,-4.38022598676,4.21401010714,0.604088474352,0.959638776164,0.215204882534,210,0.00565994777597,0.175505820319,1.34093841844e+20,-1.56108834816,0.454895450476,-0.352412911706,0.123682790853,-0.0102171466002,3178.58527878,0,3157.60132761,-3.18601853175,0,0,0.00159839588964,0,0,-1.78856903995e-13,-1.16422658069e-13,0.0454381097261,-5.96066554939e-16,-1.15432947637e-06,-0.00648456092331,0.0064944446015,-1.10380076716e-05,-0.00878031192728,-0.00214881018802,-0.00173157248183,-1.15432947637e-06,0.0011762397777,1.36778832648e+20,1.35657503282e+20,0.00337115557206,4.33822580128e-05,1.36778832648e+20,1.36778832648e+20,243.638817191,0,0,0,1,1.33362301867e+20,0,0,0,21.0901517838,0,0,-1.1761451092,-1.65090986772,0.458229497494,-0.225220975562,947926.972753,2105000.53011,3178.69147939
21,3136.42018182,0,42.6459858358,0.247748878004,-0.0310550606362,0.381679389313,-4.37880478093,4.21332681789,0.605986230047,0.964945292352,0.21588095286,210,0.00468952655044,0.1767836194,1.33442936453e+20,-1.73089540189,0.405122514213,-0.372945191958,0.127877746984,-0.00860809947511,3178.85328423,0,3159.31339394,-3.18120084851,3.49951512886e-09,0,0.00303268849074,0,0,3.69505141974e-13,-8.05026815415e-14,0.0614966870943,6.03351609522e-15,-1.94250703713e-06,-0.00812866675125,0.00755110178057,0.000575622463648,-0.010376527451,-0.00291529136353,-0.00177030857239,-1.94250703713e-06,0.00149993846616,1.36778832648e+20,1.356572073e+20,0.00337204540946,-9.63178414126e-05,1.36778832648e+20,1.36778832648e+20,329.216568394,0,0,0,1,1.33457430306e+20,0,0,0,19.6459303224,0,0,-1.16659560468,-1.42383516818,0.381721154012,-0.172836481758,947923.939394,2104989.39394,3178.95932426
21,3137.23560935,0,41.6342254769,0.25003029861,-0.0280279456255,0.381679389313,-4.37942506155,4.21381435102,0.605737471321,0.960904744917,0.215792333237,210,0.00484409792265,0.176607910077,1.33525360817e+20,-1.75489992307,0.392241782147,-0.368789849117,0.124886428737,-0.00954465649623,3178.6623024,0,3159.58402186,-3.17736291208,3.02062549578e-09,0,0.00376693810973,0,0,3.79114146953e-13,-8.8508372821e-14,0.0617695963181,5.23666029832e-15,1.17633201042e-06,-0.00844705057318,0.00773959533388,0.000708631571307,-0.0107052353077,-0.00299792589595,-0.0020056250277,1.17633201042e-06,0.00157147083304,1.36778832648e+20,1.3565705578e+20,0.00337250093868,-0.000167833754314,1.36778832648e+20,1.36778832648e+20,331.005912351,0,0,0,1,1.33443999347e+20,0,0,0,19.1841926396,0,0,-1.16339604691,-1.38674198217,0.370284972046,-0.163454116101,947923.537712,2104987.91927,3178.7682145
21,3103.86030764,75.7290446893,0,0,0,1,0,0,0,0,0,0,0,0,0,0,0,0,0,0,0,0,0,0,0,0,0.69884528214,0,0,17.4141024278,7.52487737076,53.266879673,2.32523400913e-16,-0.000144935355293,-0.0046865819668,0.00240154009667,0.00214010651484,-0.00655268024392,0.00769517396341,-0.0258420715659,-0.000144935355293,0.00429140168275,1.33089462518e+20,1.35513635341e+20,0,-1.21455854247,1.33089898254e+20,1.33265620887e+20,0.374192525923,-1.21455854247,-1.21455854247,20.2806382785,0,1.33460954239e+20,0,0,0,0,0,0,0,-0.285733973679,0.0892543617432,0.0520979112824,947939.140247,2105045.19981,3103.86030764
21,3127.23804226,51.1483699374,0,0,0,1,0,0,0,0,0,0,0,0,0,0,0,0,0,0,0,0,0,0,0,0,0.425472634508,0,0,-12.0774656768,-31.6632187205,38.6391317153,3.91435085226e-15,0.000118856940017,0.0269492837958,-0.0213751006839,-0.00545532617189,0.018780920638,0.0157999987553,-0.0311385435221,0.000118856940017,0.00845903774025,1.33082223985e+20,1.3557003831e+20,0,-1.21798773183,1.33083321663e+20,1.33654194549e+20,1.17191144755,-1.21798773183,-1.21798773183,-31.1754745963,0,1.33365030978e+20,0,0,0,0,0,0,0,-0.458191100823,0.230604995822,-0.0975128418028,947954.910161,2105103.09484,3127.23804226
21,3127.1576734,51.2345310624,0,0,0,1,0,0,0,0,0,0,0,0,0,0,0,0,0,0,0,0,0,0,0,0,0.42639542654,0,0,-12.0943055085,-31.6618636015,38.6553155491,3.93227968268e-15,0.000118633826306,0.0269289020988,-0.0214005524195,-0.00540971585304,0.0188179456231,0.0157916821879,-0.0311655514808,0.000118633826306,0.00846431888741,1.33084506514e+20,1.35569847904e+20,0,-1.21690552668,1.33085594161e+20,1.33653721277e+20,1.16175595114,-1.21690552668,-1.21690552668,-30.4623914967,0,1.33365207059e+20,0,0,0,0,0,0,0,-0.457939510964,0.230484318152,-0.0973343509301,947954.887195,2105103.01052,3127.1576734
21,3138.43445117,39.1324046445,0,0,0,1,0,0,0,0,0,0,0,0,0,0,0,0,0,0,0,0,0,0,0,0,0.296478457,0,0,-7.53579854916,-29.1437913025,33.0966843617,5.30051183271e-16,0.000126149500494,0.0314309686503,-0.0192143348471,-0.0120904843026,0.01612595357,0.0173392185402,-0.030075101841,0.000126149500494,0.00870206423281,1.32773715224e+20,1.35596654514e+20,0,-1.36425570804,1.3277614659e+20,1.33715807647e+20,2.31284937483,-1.36425570804,-1.36425570804,-112.904437386,0,1.33339523549e+20,0,0,0,0,0,0,0,-0.5101697302,0.246507585163,-0.118504435085,947958.023278,2105114.52381,3138.43445117
21,3103.60564509,76.0195169622,0,0,0,1,0,0,0,0,0,0,0,0,0,0,0,0,0,0,0,0,0,0,0,0,0.699170074206,0,0,11.4015565304,-10.4209097246,58.9595204673,1.89223749234e-16,-0.000126439373858,-0.000179760051726,-0.00104703306264,0.00110035374051,0.000904224416977,0.00755711298689,-0.0298302936687,-0.000126439373858,0.00487336578842,1.33187003288e+20,1.35513568333e+20,0,-1.16833466438,1.33187428484e+20,1.33355993266e+20,0.405468095251,-1.16833466438,-1.16833466438,18.6145608089,0,1.33374970314e+20,0,0,0,0,0,0,0,-0.351626012669,0.0871756500093,0.0447574799144,947943.457696,2105061.05017,3103.60564509
21,3102.96219715,76.7526215243,0,0,0,1,0,0,0,0,0,0,0,0,0,0,0,0,0,0,0,0,0,0,0,0,0.705771824469,0,0,15.6857628898,-3.83917947111,72.1990551615,4.85065975531e-16,-7.29281434516e-05,-0.00202725787994,0.000151189088986,0.0018031406475,-0.002247004698,0.00759855732674,-0.0280636065038,-7.29281434516e-05,0.00453160451117,1.33152611153e+20,1.35512206319e+20,0,-1.18463793401,1.33153023924e+20,1.33315632938e+20,0.47441714321,-1.18463793401,-1.18463793401,22.3301107035,0,1.33346131586e+20,0,0,0,0,0,0,0,-0.325092098148,0.0840855117263,0.0417021377626,947941.55473,2105054.06394,3102.96219715
21,3103.73435868,75.8382815503,0,0,0,1,0,0,0,0,0,0,0,0,0,0,0,0,0,0,0,0,0,0,0,0,0.699050272848,0,0,10.6642393311,-12.6303664716,58.9838391114,2.07130198869e-16,-0.000154119568469,0.000413106973942,-0.00155511246957,0.000987885927158,0.00197560504409,0.00772288115056,-0.0305198252088,-0.000154119568469,0.00501506024901,1.33197748584e+20,1.3551359305e+20,0,-1.1632428492,1.33198176469e+20,1.33367817278e+20,0.410705281489,-1.1632428492,-1.1632428492,18.3974063522,0,1.33383630692e+20,0,0,0,0,0,0,0,-0.357533069784,0.0876363477564,0.0440433832294,947944.036019,2105063.17333,3103.73435868
21,3144.20486064,32.16052584,0,0,0,1,0,0,0,0,0,0,0,0,0,0,0,0,0,0,0,0,0,0,0,0,0.240548859951,0,0,-5.33258808162,-27.292328398,31.0466402546,3.84531205109e-16,0.000105484737615,0.0347772999768,-0.0198315005711,-0.014840314668,0.015073255967,0.0169333657051,-0.0281351725073,0.000105484737615,0.00870103102774,1.32495379569e+20,1.35608195296e+20,0,-1.49627903122,1.3249843203e+20,1.33742622096e+20,3.34438640878,-1.49627903122,-1.49627903122,-200.756950167,0,1.33384934734e+20,0,0,0,0,0,0,0,-0.516778788174,0.246568759726,-0.138249642757,947959.649512,2105120.4941,3144.20486064
21,3140.53205392,37.8350665526,0,0,0,1,0,0,0,0,0,0,0,0,0,0,0,0,0,0,0,0,0,0,0,0,0.281465799145,0,0,-6.90619469029,-28.8245202512,32.3225204333,-7.3364509016e-16,0.000101261769771,0.0296735259736,-0.017848847317,-0.0117234168868,0.0152854618911,0.0167181197809,-0.0280636503757,0.000101261769771,0.00803767228759,1.32693056165e+20,1.35599752236e+20,0,-1.40249509146,1.3269573794e+20,1.33724544054e+20,2.48573025956,-1.40249509146,-1.40249509146,-127.1534396,0,1.3335466805e+20,0,0,0,0,0,0,0,-0.515855213501,0.246357089554,-0.123820700078,947958.630262,2105116.75219,3140.53205392
21,3151.16252412,24.6939161085,0,0,0,1,0,0,0,0,0,0,0,0,0,0,0,0,0,0,0,0,0,0,0,0,0.20267411939,0,0,-0.696144512739,-19.5475729274,22.3622198823,-5.51656682738e-16,4.5407835172e-05,0.0374994932814,-0.0231382934614,-0.0143157919848,0.0206983677341,0.0130604751738,-0.0296860024695,4.5407835172e-05,0.00965386934472,1.32141102118e+20,1.35616010559e+20,0,-1.66437988662,1.32143969889e+20,1.33770341086e+20,4.03972132633,-1.66437988662,-1.66437988662,-287.396993881,0,1.33413246769e+20,0,0,0,0,0,0,0,-0.550125072014,0.247615563303,-0.157715467259,947961.660821,2105127.87808,3151.16252412
21,3103.77116106,75.8587540132,0,0,0,1,0,0,0,0,0,0,0,0,0,0,0,0,0,0,0,0,0,0,0,0,0.702053708254,0,0,16.8302586635,3.79498237241,55.8333993875,2.29065615523e-16,-0.000147745891477,-0.00433667443896,0.00212178746217,0.00206714108532,-0.00586502971867,0.00802184527535,-0.027083562594,-0.000147745891477,0.00451134997779,1.33102784257e+20,1.35512973404e+20,0,-1.20824646135,1.33103216307e+20,1.33276817005e+20,0.382896835314,-1.20824646135,-1.20824646135,20.5737301672,0,1.33441884564e+20,0,0,0,0,0,0,0,-0.298745801358,0.0897927960266,0.0533368814486,947939.687148,2105047.20761,3103.77116106
21,3120.51972078,59.0945818077,0,0,0,1,0,0,0,0,0,0,0,0,0,0,0,0,0,0,0,0,0,0,0,0,0.502737791382,0,0,-9.94182577524,-35.8472942472,45.9963946619,-2.5111118672e-15,6.87597206896e-05,0.0193395256684,-0.0151307600938,-0.00414000585383,0.0185969184865,0.0135503852064,-0.032042013632,6.87597206896e-05,0.0076209448882,1.33184403568e+20,1.35554096236e+20,0,-1.1695714041,1.33185292029e+20,1.33599134673e+20,0.839535593442,-1.1695714041,-1.1695714041,-3.90869945124,0,1.33464630664e+20,0,0,0,0,0,0,0,-0.514437725311,0.211920445358,-0.0663708416778,947952.5731,2105094.51494,3120.51972078
21,3116.19562143,63.2573181911,0,0,0,1,0,0,0,0,0,0,0,0,0,0,0,0,0,0,0,0,0,0,0,0,0.544066420021,0,0,-8.70254985021,-34.9459386249,50.3231561323,-1.80950390227e-15,6.71913356169e-05,0.015085527339,-0.0127820529167,-0.00223628308672,0.0161325192093,0.0124563800945,-0.0319238074506,6.71913356169e-05,0.00698691867891,1.33221751648e+20,1.35545569119e+20,0,-1.15186766325,1.33222509005e+20,1.33559913907e+20,0.744977658546,-1.15186766325,-1.15186766325,2.93587856152,0,1.33443368732e+20,0,0,0,0,0,0,0,-0.494449235124,0.186935012796,-0.0564465873507,947951.026406,2105088.83667,3116.19562143
21,3110.31515482,69.3497245494,0,0,0,1,0,0,0,0,0,0,0,0,0,0,0,0,0,0,0,0,0,0,0,0,0.619958031698,0,0,-1.91774228498,-29.6481499324,55.3227395649,-3.84784265395e-16,1.86071205625e-05,0.00913411593015,-0.00742821679151,-0.00168729201808,0.0114517149921,0.0106503909006,-0.0320932849719,1.86071205625e-05,0.00614530727647,1.33241282766e+20,1.3552991105e+20,0,-1.14261630051,1.33241851975e+20,1.33487882981e+20,0.551635482677,-1.14261630051,-1.14261630051,12.5460984357,0,1.33422051033e+20,0,0,0,0,0,0,0,-0.467203781939,0.141657876972,-0.0120095680942,947948.500602,2105079.56386,3110.31515482
21,3107.58573284,72.1683632935,0,0,0,1,0,0,0,0,0,0,0,0,0,0,0,0,0,0,0,0,0,0,0,0,0.661345254579,0,0,1.19100986897,-27.3686062732,55.6331056202,-4.56238640133e-16,-6.84585038259e-05,0.00591835163066,-0.00579973692896,-0.000187073205523,0.00864060961229,0.00968544428792,-0.030253111533,-6.84585038259e-05,0.00540842666065,1.33236650741e+20,1.3552137217e+20,0,-1.14480889665,1.3323715854e+20,1.33450147167e+20,0.486851777183,-1.14480889665,-1.14480889665,14.4496429482,0,1.33401175115e+20,0,0,0,0,0,0,0,-0.423270106332,0.113517549395,0.00778527656816,947947.296147,2105075.14202,3107.58573284
21,3167.34010026,20.5074347271,0,0,0,1,0,0,0,0,0,0,0,0,0,0,0,0,0,0,0,0,0,0,0,0,0.206962226425,0,0,-0.0776070207765,-11.008611981,15.5256222421,-1.14827309003e-15,-0.000592040517284,0.0485483101823,-0.00588930724455,-0.0432510434551,-0.00465680134641,0.0467786772995,-0.0390131108118,-0.000592040517284,0.0170229585997,1.30788514934e+20,1.35615125637e+20,0,-2.30713616745,1.30805012114e+20,1.33845051255e+20,10.3433090129,-2.30713616745,-2.30713616745,-503.155156625,0,1.33454030668e+20,0,0,0,0,0,0,0,-0.794360665544,0.402433456704,-0.172505898691,947966.781003,2105146.67546,3167.34010026
21,3160.73558107,20.5616441382,0,0,0,1,0,0,0,0,0,0,0,0,0,0,0,0,0,0,0,0,0,0,0,0,0.105667908657,0,0,2.13205648924,-14.4738032621,18.3840232042,-3.07026114902e-15,3.64026811676e-05,0.0413254236411,-0.0102859465079,-0.031003074452,0.0108052010472,0.0279657882016,-0.0347209132184,3.64026811676e-05,0.0128120689722,1.31424111903e+20,1.35636027788e+20,0,-2.00494154807,1.314330789e+20,1.33818322866e+20,10.1874695146,-2.00494154807,-2.00494154807,-557.074916974,0,1.33405700809e+20,0,0,0,0,0,0,0,-0.600607889282,0.217247215535,-0.200283644831,947964.413361,2105137.9833,3160.73558107
21,3113.42275179,66.033959119,0,0,0,1,0,0,0,0,0,0,0,0,0,0,0,0,0,0,0,0,0,0,0,0,0.575933317104,0,0,-5.83629757414,-31.2567265745,49.5841721571,-1.22176700841e-16,4.49882164837e-05,0.0129069259822,-0.0107805730558,-0.00208136470995,0.0143991462049,0.011956480123,-0.0325847008078,4.49882164837e-05,0.00674457103129,1.33236978425e+20,1.35538994235e+20,0,-1.14465475322,1.33237640097e+20,1.33528681706e+20,0.604532514452,-1.14465475322,-1.14465475322,7.52640141667,0,1.33454699049e+20,0,0,0,0,0,0,0,-0.476618256281,0.161509499035,-0.0368558792677,947950.071317,2105085.33031,3113.42275179
21,3127.13522147,51.2619194254,0,0,0,1,0,0,0,0,0,0,0,0,0,0,0,0,0,0,0,0,0,0,0,0,0.426644890401,0,0,-12.0916898579,-31.6467590659,38.653822468,3.92404805162e-15,0.000118650086452,0.0269206046385,-0.0213905335628,-0.00541142098917,0.0188232400046,0.0157933902354,-0.0311782916037,0.000118650086452,0.00846602004361,1.33084918747e+20,1.35569796432e+20,0,-1.21671008005,1.33086005263e+20,1.33653592464e+20,1.16009331455,-1.21671008005,-1.21671008005,-30.3830739126,0,1.33365545179e+20,0,0,0,0,0,0,0,-0.457986440886,0.23047493972,-0.0973051778654,947954.87937,2105102.9818,3127.13522147
21,3158.58414282,21.7777851383,0,0,0,1,0,0,0,0,0,0,0,0,0,0,0,0,0,0,0,0,0,0,0,0,0.12215990634,0,0,1.74422079781,-16.2293574308,20.0865324816,-2.95391013108e-15,0.000130790273753,0.0402070942467,-0.0129864402812,-0.0270898636917,0.0143945822305,0.0221097755898,-0.0328526188914,0.000130790273753,0.0117362983719,1.31600832538e+20,1.35632624706e+20,0,-1.92096603814,1.31607941005e+20,1.33808750796e+20,9.28634871389,-1.92096603814,-1.92096603814,-524.747505595,0,1.33397591904e+20,0,0,0,0,0,0,0,-0.572507617727,0.197720780828,-0.202812299893,947963.793145,2105135.70634,3158.58414282
21,3160.03411656,20.5954223079,0,0,0,1,0,0,0,0,0,0,0,0,0,0,0,0,0,0,0,0,0,0,0,0,0.100401256971,0,0,2.35425748551,-15.1060681481,18.8962147288,-3.05328511644e-15,0.000138397334356,0.0415562742609,-0.011655230843,-0.0297626460835,0.0133430947917,0.0250427376248,-0.0341609740138,0.000138397334356,0.0123951680063,1.31498508033e+20,1.35637114562e+20,0,-1.96956675743,1.31506777371e+20,1.33814005247e+20,10.1241142288,-1.96956675743,-1.96956675743,-556.445611347,0,1.33394378487e+20,0,0,0,0,0,0,0,-0.570790755473,0.183837669704,-0.208196516575,947964.171231,2105137.09438,3160.03411656
21,3104.19386849,75.3818934901,0,0,0,1,0,0,0,0,0,0,0,0,0,0,0,0,0,0,0,0,0,0,0,0,0.689650789435,0,0,8.51327996846,-13.1620566841,52.82714642,8.89698640563e-17,-0.000125830357224,0.00126131330056,-0.0020991489444,0.000712005286616,0.00296446502242,0.00788734319529,-0.0308521636318,-0.000125830357224,0.00512255104872,1.33206383269e+20,1.35515532303e+20,0,-1.15914840553,1.33206820971e+20,1.33381426625e+20,0.37265585912,-1.15914840553,-1.15914840553,16.1360475211,0,1.33391081459e+20,0,0,0,0,0,0,0,-0.366984845258,0.0903934566148,0.038331726774,947944.570744,2105065.13643,3104.19386849
21,3106.0172295,73.650577327,0,0,0,1,0,0,0,0,0,0,0,0,0,0,0,0,0,0,0,0,0,0,0,0,0.674184947808,0,0,3.39529303719,-19.8373068357,45.6507177144,1.32435215999e-16,-8.66867742577e-05,0.00403712341942,-0.00441840016013,0.000294589966455,0.00631937908049,0.00924276931484,-0.0310178102458,-8.66867742577e-05,0.00538001831173,1.33226234484e+20,1.35518723124e+20,0,-1.14974539749,1.33226709477e+20,1.33420548027e+20,0.358178552748,-1.14974539749,-1.14974539749,13.3039960332,0,1.33410293747e+20,0,0,0,0,0,0,0,-0.404877781278,0.0993890255692,0.0221038264909,947946.155747,2105070.95534,3106.0172295
21,3103.86030764,0,75.9005920663,0.252125660059,-0.0598699577245,0.381679389313,-4.37627781724,4.21132225162,0.606943315339,0.9891608038,0.216221911902,210,0.00530901941601,0.175959102091,1.33965321141e+20,-1.21435202388,0.69884528214,-0.285733973679,0.0892543617432,0.0520979112824,3179.64161313,0,3153.98261101,-3.10463538698,0,0,-0.0214158706684,0,0,-8.96762482863e-13,-1.3789603918e-13,0.0484028831764,6.23808718528e-15,-2.37872368257e-06,-0.000877319182484,0.00267408671388,-0.00179914625508,-0.00201073295357,-0.000741754472072,0.000416180400757,-2.37872368257e-06,0.000221307786925,1.36778832648e+20,1.35662252548e+20,0.00335687741564,0.00228497182077,1.36778832648e+20,1.36778832648e+20,257.756904369,0,0,0,1,1.33494628764e+20,0,0,0,25.7624899616,0,0,-1.08628627998,-1.97817263103,0.595671493638,-0.265146931648,947939.140247,2105045.19981,3179.74510097
21,3127.23804226,0,51.0849805788,0.247729439492,-0.179514300253,0.381679389313,-4.38031672818,4.21457331563,0.605557803426,0.959596481668,0.215728327037,210,0.00512132028817,0.176216655613,1.34053559847e+20,-1.21746747753,0.425472634508,-0.458191100823,0.230604995822,-0.0975128418028,3178.36517989,0,3155.11659645,-3.16576500983,0,0,-0.0239261932438,0,0,6.31384353418e-13,7.90430669018e-14,0.0606235716634,3.74708874382e-16,1.86700941574e-06,0.00178266570734,0.000930040483223,-0.00271083918115,0.00382239331445,-6.04108869914e-05,0.000194177048541,1.86700941574e-06,0.000345553974936,1.36778832648e+20,1.35662770585e+20,0.00335531999383,0.0025294772396,1.36778832648e+20,1.36778832648e+20,329.239977791,0,0,0,1,1.33334675118e+20,0,0,0,23.3541089435,0,0,-1.15653724929,-1.71684787908,0.632908103652,-0.317637304171,947954.910161,2105103.09484,3178.4707054
21,3127.15767341,0,51.170601382,0.247353285734,-0.179732443335,0.381679389313,-4.38029662438,4.21455684226,0.605563808725,0.959634578026,0.215730466408,210,0.00511930902569,0.176218188356,1.3405493643e+20,-1.21639003196,0.42639542654,-0.457939510964,0.230484318152,-0.0973343509301,3178.37164218,0,3155.10386911,-3.16562004704,0,0,-0.0240202301187,0,0,6.22444614508e-13,7.50016232263e-14,0.060485831958,4.44194686824e-16,1.94105283351e-06,0.00177434415056,0.000944872388625,-0.00271727548635,0.00380291096688,-7.59516245604e-05,0.000197407676355,1.94105283351e-06,0.000343028551081,1.36778832648e+20,1.35662789991e+20,0.0033552616528,0.00253863643122,1.36778832648e+20,1.36778832648e+20,328.251329862,0,0,0,1,1.33334839161e+20,0,0,0,23.3732937372,0,0,-1.15651418818,-1.71813242685,0.633028880639,-0.317396227742,947954.887195,2105103.01052,3178.47716285
21,3138.43445117,0,39.0234403604,0.313477770719,-0.110440899471,0.381679389313,-4.38349246431,4.21722684428,0.604766134625,0.954261147571,0.215446297171,210,0.00545876726142,0.175967038262,1.33768360907e+20,-1.36310272349,0.296478457,-0.5101697302,0.246507585163,-0.118504435085,3177.32484793,0,3156.72201528,-3.17075380941,5.12472917023e-10,0,-0.0123319193219,0,0,1.51942446056e-12,6.33338949154e-13,0.0722552093434,-5.88159918603e-15,-3.06220194965e-06,0.00226271234237,-0.000601034775632,-0.00166473976868,0.00585084442806,0.00195783545684,0.000384696498536,-3.06220194965e-06,0.000605355257884,1.36778832648e+20,1.35660377964e+20,0.0033625131522,0.00140019495961,1.36778832648e+20,1.36778832648e+20,424.333691157,0,0,0,1,1.33319838096e+20,0,0,0,20.7085244428,0,0,-1.14687986869,-1.54560574452,0.615502473161,-0.345457234311,947958.023278,2105114.52381,3177.43053972
21,3103.60564509,0,76.1026015277,0.260358246505,-0.071788501503,0.381679389313,-4.37743275753,4.21155265942,0.604406656896,0.972082140629,0.215318234204,210,0.00512717433149,0.175968839921,1.33971083404e+20,-1.16813317406,0.699170074206,-0.351626012669,0.0871756500093,0.0447574799144,3179.552607,0,3153.70716996,-3.06526910819,-9.54684833096e-10,0,-0.0288701384124,0,0,-1.35053592082e-14,-4.562209321e-13,0.0536817046488,1.34133999199e-15,-3.55664259473e-07,-0.000249012620039,0.00224650361965,-0.00199784666387,-0.000896778603973,-0.000546045050042,0.000598789191329,-3.55664259473e-07,0.000155065798543,1.36778832648e+20,1.35663790832e+20,0.00335225273103,0.00301101749895,1.36778832648e+20,1.36778832648e+20,289.487321028,0,0,0,1,1.33382199649e+20,0,0,0,25.9476126783,0,0,-1.05267422408,-1.96740351414,0.61806450117,-0.262311091472,947943.457696,2105061.05017,3179.65478264
21,3102.96219715,0,76.8032701416,0.256611667689,-0.0685779868454,0.381679389313,-4.37755988393,4.21141245827,0.603620636867,0.962496770716,0.215038216697,210,0.00543006566334,0.17560564175,1.33980154965e+20,-1.18444231744,0.705771824469,-0.325092098148,0.0840855117263,0.0417021377626,3179.6068091,0,3153.75796112,-3.08794396847,9.90870367181e-10,0,-0.0260709772788,0,0,7.32363547815e-13,-1.66348674264e-13,0.064902490996,2.80632980742e-15,5.27852580451e-07,-0.000399385698427,0.00229966739519,-0.00189975384418,-0.00127769571516,-0.000623029465055,0.000513241970297,5.27852580451e-07,0.000171257815905,1.36778832648e+20,1.35663213189e+20,0.00335398935261,0.00273837920458,1.36778832648e+20,1.36778832648e+20,348.719812314,0,0,0,1,1.33350685299e+20,0,0,0,25.9517794382,0,0,-1.0774365418,-1.98009755015,0.609273939166,-0.261659591206,947941.55473,2105054.06394,3179.70974056
21,3103.73435868,0,75.8969855432,0.258599343591,-0.0741967613565,0.381679389313,-4.37763340891,4.21175542969,0.604464123009,0.973708433626,0.215338706351,210,0.00515138580302,0.175949958191,1.3399805094e+20,-1.16304008732,0.699050272848,-0.357533069784,0.0876363477564,0.0440433832294,3179.47316043,0,3153.64989916,-3.06412801998,-1.53979041138e-09,0,-0.0300242465967,0,0,-2.0302740516e-13,-4.19566662598e-13,0.0538870596952,1.58005809098e-17,2.30481586658e-07,-0.00013411056239,0.00219661284083,-0.00206227179685,-0.000751688826292,-0.000551879372109,0.000637091727576,2.30481586658e-07,0.000152312278015,1.36778832648e+20,1.35664028998e+20,0.00335153671176,0.00312342763611,1.36778832648e+20,1.36778832648e+20,291.056998675,0,0,0,1,1.33386205282e+20,0,0,0,25.9253988739,0,0,-1.05158938226,-1.96432736518,0.620568519577,-0.263134537755,947944.036019,2105063.17333,3179.57529803
21,3144.20486064,0,32.1308881322,0.344567223764,-0.0992874134712,0.381679389313,-4.38641137717,4.22011243295,0.605405740278,0.955403772297,0.215674154952,210,0.00555891686985,0.175972131224,1.33957219441e+20,-1.49483082364,0.240548859951,-0.516778788174,0.246568759726,-0.138249642757,3176.19333668,0,3158.84208681,-3.18214147015,-6.50826647127e-10,0,0.00182014147026,0,0,1.31937619779e-12,9.71855780713e-13,0.0811973195952,-1.57497701545e-15,-1.58573286813e-05,0.00298253952104,-0.00245415365822,-0.000544243191492,0.00686221838315,0.0021799060801,-0.000445809521145,-1.58573286813e-05,0.000736724846579,1.36778832648e+20,1.35657457531e+20,0.00337129311823,2.17842384657e-05,1.36778832648e+20,1.36778832648e+20,495.643867649,0,0,0,1,1.33382552352e+20,0,0,0,17.4573212459,0,0,-1.1465943318,-1.42861389503,0.586187597711,-0.368954037188,947959.649512,2105120.4941,3176.29940806
21,3140.53205392,0,37.9600558793,0.30652030182,-0.160501164655,0.381679389313,-4.38040539266,4.21463086451,0.605485082305,0.964501070199,0.215702420334,210,0.00510429867229,0.176247917379,1.34065060886e+20,-1.40122324825,0.281465799145,-0.515855213501,0.246357089554,-0.123820700078,3178.34276385,0,3157.08894905,-3.16148278542,-4.61576210416e-10,0,-0.0103312898057,0,0,1.51185985596e-12,7.83637880162e-13,0.0742316142476,-8.50941586292e-15,-1.0548923025e-05,0.0031501639254,-0.00112737972995,-0.00203333311848,0.00610770229954,0.00238821330752,-0.000355249735695,-1.0548923025e-05,0.00066169785151,1.36778832648e+20,1.35659965109e+20,0.00336375435424,0.00120533364474,1.36778832648e+20,1.36778832648e+20,441.083637955,0,0,0,1,1.33360750695e+20,0,0,0,21.3591975593,0,0,-1.13675966211,-1.50994525053,0.618048245598,-0.357896434859,947958.630262,2105116.75219,3178.44814661
21,3151.16252412,0,24.644129445,0.387728089873,-0.00537107545531,0.381679389313,-4.38779512484,4.22133259853,0.605256569147,0.953980986805,0.215621013141,210,0.00519517074191,0.17634735486,1.34180448332e+20,-1.66301864776,0.20267411939,-0.550125072014,0.247615563303,-0.157715467259,3175.71479105,0,3161.20869536,-3.18960542441,-2.27089223289e-10,0,0.0107739506866,0,0,-1.47710012138e-12,7.84552944133e-13,0.0773721996479,6.45183971185e-15,-1.66358219711e-05,0.00277304575619,-0.00380061522445,0.00101093364629,0.00737964181121,0.00201151226501,0.000579272929311,-1.66358219711e-05,0.000778067816847,1.36778832648e+20,1.35655609815e+20,0.00337684807737,-0.000850316779207,1.36778832648e+20,1.36778832648e+20,487.450657576,0,0,0,1,1.33410846029e+20,0,0,0,14.6124158673,0,0,-1.20533966056,-1.26068105017,0.545949377839,-0.384949751607,947961.660821,2105127.87808,3175.82111123
21,3103.77116106,0,76.0704900224,0.252525863032,-0.0606635728063,0.381679389313,-4.37636396816,4.21123850401,0.606445125607,0.98689134082,0.21604443316,210,0.00537403875542,0.175855954105,1.33964552e+20,-1.20804169365,0.702053708254,-0.298745801358,0.0897927960266,0.0533368814486,3179.67453442,0,3153.90642372,-3.10185193656,0,0,-0.0224927143687,0,0,-8.73650197741e-13,-5.9155638225e-14,0.0503728911186,6.67747809959e-15,-2.57762495757e-06,-0.00077155182795,0.00260706189136,-0.00183808768837,-0.00188292770619,-0.000725624115251,0.000458241897831,-2.57762495757e-06,0.000211643949091,1.36778832648e+20,1.35662474769e+20,0.00335620933474,0.00238985639716,1.36778832648e+20,1.36778832648e+20,268.39698841,0,0,0,1,1.33468052655e+20,0,0,0,25.8715057648,0,0,-1.08460738875,-1.97865194551,0.598679132194,-0.263806704805,947939.687148,2105047.20761,3179.77792948
21,3120.51972078,0,59.0939128123,0.245966378309,-0.119068438858,0.381679389313,-4.37706920064,4.21182517268,0.606261368588,0.975129085027,0.215978970219,210,0.00498595514711,0.176432100648,1.33551220101e+20,-1.1691503814,0.502737791382,-0.514437725311,0.211920445358,-0.0663708416778,3179.44213672,0,3154.44157746,-3.17467587839,1.86264514923e-09,0,-0.0234267272529,0,0,-5.65675570247e-13,3.8034925907e-13,0.0589186561802,-6.45321044703e-15,-8.45313929253e-06,0.000475985346766,0.00107574582786,-0.00156018431392,0.00169785448346,0.000108332442765,0.000305630292391,-8.45313929253e-06,0.00014298714357,1.36778832648e+20,1.35662667515e+20,0.00335562986461,0.00248082925208,1.36778832648e+20,1.36778832648e+20,316.071128709,0,0,0,1,1.3346979662e+20,0,0,0,25.1063817888,0,0,-1.15874766855,-1.80209083678,0.635174157735,-0.298175271103,947952.5731,2105094.51494,3179.54795925
21,3116.19562143,0,63.2145840836,0.265274715052,-0.0961002779679,0.381679389313,-4.37719115429,4.21216027089,0.606944812817,0.975266609651,0.216222445375,210,0.0049422316418,0.176557351188,1.34106008454e+20,-1.15150879684,0.544066420021,-0.494449235124,0.186935012796,-0.0564465873507,3179.3139475,0,3154.1748431,-3.07966405057,6.84212888862e-10,0,-0.0297399869771,0,0,-1.34716025212e-12,3.70340354894e-13,0.059718558956,-9.49956548733e-15,-3.70011995917e-06,0.000402201915339,0.00145273962789,-0.00185864166318,0.00107401149057,-4.59539733716e-05,0.000657030988588,-3.70011995917e-06,0.000122236309806,1.36778832648e+20,1.35663970337e+20,0.00335171306925,0.00309574074923,1.36778832648e+20,1.36778832648e+20,321.669855349,0,0,0,1,1.33456378604e+20,0,0,0,25.2417598618,0,0,-1.0623423821,-1.84422668359,0.635442666449,-0.289472056681,947951.026406,2105088.83667,3179.41660296
21,3110.31515482,0,69.4473687506,0.261281209458,-0.079684574551,0.381679389313,-4.37665162169,4.21135136912,0.605983163626,0.971850720381,0.215879860455,210,0.005066756258,0.176206493301,1.34227440002e+20,-1.14234659324,0.619958031698,-0.467203781939,0.141657876972,-0.0120095680942,3179.63136395,0,3153.76574036,-3.06969454732,7.28226928835e-10,0,-0.0313385787907,0,0,4.30248206535e-13,3.77740175147e-14,0.0570072006292,-2.556664605e-15,-5.02803715285e-06,0.000231998143975,0.0015737550136,-0.00181078119473,0.000400586842018,-0.000200270177504,0.000603360644,-5.02803715285e-06,0.000108453523243,1.36778832648e+20,1.35664300228e+20,0.0033507212889,0.00325144359182,1.36778832648e+20,1.36778832648e+20,307.456390847,0,0,0,1,1.33423694807e+20,0,0,0,25.9679467429,0,0,-1.05367425355,-1.90104522723,0.633066150094,-0.27589779275,947948.500602,2105079.56386,3179.7336871
21,3107.58573284,0,72.3490361635,0.252655718213,-0.0753175938528,0.381679389313,-4.37648036197,4.21111378261,0.605736617616,0.972668133314,0.215792029107,210,0.00511530643329,0.176040438069,1.34128663728e+20,-1.1445682794,0.661345254579,-0.423270106332,0.113517549395,0.00778527656816,3179.72333609,0,3153.69933174,-3.10450053519,-8.87234276598e-10,0,-0.0310172964649,0,0,9.93389712999e-13,-2.19859981396e-13,0.0545824404758,1.5321496302e-15,-2.07398450596e-06,0.000113451332621,0.00175834469368,-0.0018738700108,6.08841669509e-05,-0.000272508321156,0.00057101188955,-2.07398450596e-06,0.00011536840679,1.36778832648e+20,1.35664233927e+20,0.00335092061529,0.00322015069329,1.36778832648e+20,1.36778832648e+20,293.77917451,0,0,0,1,1.33407139771e+20,0,0,0,26.127487701,0,0,-1.08931873669,-1.92228882418,0.631098460152,-0.272031294787,947947.296147,2105075.14202,3179.82681944
21,3167.34010026,0,20.5007655944,0.526614318364,0.597575350211,0.381679389313,-4.35353177614,4.19066403281,0.607555234125,1.00537324273,0.216439906312,210,0.00395094397187,0.176769720016,1.34514304099e+20,-2.29928807807,0.206962226425,-0.794360665544,0.402433456704,-0.172505898691,3187.71582499,0,3177.37410026,-3.81483167005,6.04499613075e-10,0,-0.0166269408967,0,0,-9.27168100936e-13,-2.43787205667e-12,0.0517999027416,-3.94618016794e-15,-9.54221409857e-06,0.00195232629899,-0.000876315936526,-0.00108555257656,-0.000732590342919,-0.00017315628932,0.000710894422864,-9.54221409857e-06,0.000146487906103,1.36778832648e+20,1.35661264293e+20,0.00335984849851,0.00181853006097,1.36778832648e+20,1.36778832648e+20,335.316590553,0,0,0,1,1.3345396422e+20,0,0,0,10.4688857787,0,0,-1.72120146101,-0.929375173343,0.537936493143,-0.533864754048,947966.781003,2105146.67546,3187.84298604
21,3160.73558107,0,20.5807314423,0.497654444944,0.524062510192,0.381679389313,-4.37190314814,4.20733529631,0.60701866843,0.992388629123,0.216248756237,210,0.0042947443801,0.176963934887,1.342892494e+20,-2.00067971261,0.105667908657,-0.600607889282,0.217247215535,-0.200283644831,3181.18811168,0,3170.76958107,-3.59548178963,3.52178627034e-09,0,0.00386362597696,0,0,1.8458666288e-12,1.89153766967e-13,0.0795229417912,-3.22783841821e-15,-8.39863958244e-06,0.000427186303916,-0.000772076961961,0.000336492018463,9.45349224036e-05,-0.000958510323749,0.000591482465519,-8.39863958244e-06,6.61106040457e-05,1.36778832648e+20,1.35657035829e+20,0.00337256091825,-0.000177251152501,1.36778832648e+20,1.36778832648e+20,509.950023442,0,0,0,1,1.33405753498e+20,0,0,0,10.5383799991,0,0,-1.64325356319,-1.05830273578,0.532326564681,-0.463189443218,947964.413361,2105137.9833,3181.30796107
21,3113.42275179,0,66.0641383287,0.260307176978,-0.0835393632624,0.381679389313,-4.37673725517,4.21195115151,0.607578787614,0.977656614952,0.216448297179,210,0.00477484734839,0.176787674271,1.34384063636e+20,-1.1443412257,0.575933317104,-0.476618256281,0.161509499035,-0.0368558792677,3179.39518194,0,3154.00946932,-3.10183321859,6.2200659476e-10,0,-0.0305597802812,0,0,-9.07235718375e-13,2.25932195806e-13,0.0548989453263,-7.97292971016e-15,-3.69746323807e-06,0.000379743494826,0.00153891997227,-0.00192236093034,0.000845217726545,-0.00010997980024,0.000591924034285,-3.69746323807e-06,0.000123505865812,1.36778832648e+20,1.35664139512e+20,0.00335120446256,0.00317558861705,1.36778832648e+20,1.36778832648e+20,295.470461638,0,0,0,1,1.33478322713e+20,0,0,0,25.4891070558,0,0,-1.08301268006,-1.86806242444,0.634979438925,-0.284415238286,947950.071317,2105085.33031,3179.49857638
21,3127.13522147,0,51.1985740764,0.247297407815,-0.179572162721,0.381679389313,-4.38028141726,4.21454405452,0.60556735103,0.959659201335,0.215731728345,210,0.00511720348899,0.176220664013,1.34053164805e+20,-1.21619512148,0.426644890401,-0.457986440886,0.23047493972,-0.0973051778654,3178.37664285,0,3155.10172912,-3.16598122901,5.65090265698e-12,0,-0.0240089770585,0,0,6.199449843e-13,7.50351657285e-14,0.0604511391874,4.24387136346e-16,1.91374275503e-06,0.00177012938454,0.000945697017953,-0.00271391265974,0.00379752414413,-7.55236509787e-05,0.000195879483738,1.91374275503e-06,0.000342469208749,1.36778832648e+20,1.35662787669e+20,0.00335526863427,0.00253754038315,1.36778832648e+20,1.36778832648e+20,328.046014594,0,0,0,1,1.33335239163e+20,0,0,0,23.3804464317,0,0,-1.15686571725,-1.7184411509,0.633057176816,-0.317355285341,947954.87937,2105102.9818,3178.48217556
21,3158.58414282,0,21.8031867024,0.481316248905,0.424112998017,0.381679389313,-4.37468141236,4.20969748751,0.606450902428,0.984819851376,0.216046491136,210,0.00442852384639,0.176863978996,1.34262396447e+20,-1.91758843059,0.12215990634,-0.572507617727,0.197720780828,-0.202812299893,3180.266422,0,3168.62283234,-3.46727260412,3.42408663678e-09,0,0.00484902162629,0,0,1.39580684442e-12,1.02312079995e-13,0.0826138855594,-3.09063177803e-15,-6.70630316642e-06,0.000498014950467,-0.00103123797552,0.000526516721882,0.00132361297726,-0.000501880554363,0.000951346446661,-6.70630316642e-06,0.00015485455657,1.36778832648e+20,1.3565683248e+20,0.00337317226448,-0.000273228688749,1.36778832648e+20,1.36778832648e+20,523.925185725,0,0,0,1,1.33397461302e+20,0,0,0,11.7591654129,0,0,-1.55867407661,-1.0972032499,0.53284285961,-0.442390838015,947963.793145,2105135.70634,3180.38199775
21,3160.03411656,0,20.6142045659,0.499735941453,0.509571471236,0.381679389313,-4.37385183167,4.20903879578,0.606763239126,0.988133277617,0.216157760239,210,0.0043847702462,0.176917996616,1.34226515972e+20,-1.96563736139,0.100401256971,-0.570790755473,0.183837669704,-0.208196516575,3180.52154593,0,3170.06811656,-3.55963862361,3.19788713319e-09,0,0.00551703023517,0,0,2.17456069331e-12,8.82965243686e-14,0.0820330769904,-3.23586926207e-15,-6.42865029367e-06,0.000264785644961,-0.000801842248226,0.000530627952972,0.000199566338253,-0.000816808524883,0.000706445755747,-6.42865029367e-06,5.43554240546e-05,1.36778832648e+20,1.35656694629e+20,0.00337358669841,-0.000338292727256,1.36778832648e+20,1.36778832648e+20,527.662882758,0,0,0,1,1.33394483651e+20,0,0,0,10.5720839937,0,0,-1.59927601662,-1.07348179743,0.528875476771,-0.450338739222,947964.171231,2105137.09438,3180.64020055
21,3104.19386849,0,75.3859470775,0.263841748833,-0.066812522868,0.381679389313,-4.37772504502,4.21178731818,0.604304511088,0.970158315778,0.215281845036,210,0.00522551567975,0.175860775386,1.34008994341e+20,-1.15894099437,0.689650789435,-0.366984845258,0.0903934566148,0.038331726774,3179.46094102,0,3153.64741288,-3.05570817288,-1.29415781699e-09,0,-0.0302001553795,0,0,-5.17391622246e-13,-3.814552457e-13,0.04851160178,-1.38495335393e-15,-2.12569535757e-07,-0.000126695885373,0.00214692723501,-0.00202044391917,-0.000662692211056,-0.000431296059857,0.000650164529222,-2.12569535757e-07,0.000145746203237,1.36778832648e+20,1.35664065299e+20,0.00335142757664,0.00314056115156,1.36778832648e+20,1.36778832648e+20,261.755552833,0,0,0,1,1.33378548464e+20,0,0,0,25.9153850741,0,0,-1.04348914785,-1.95821090159,0.622875740303,-0.264759595306,947944.570744,2105065.13643,3179.56279796
21,3106.0172295,0,73.6667095054,0.255037994808,-0.0605999462754,0.381679389313,-4.37733787314,4.21154766768,0.604657720793,0.967441625624,0.215407675037,210,0.00527923455957,0.175813526298,1.34086148687e+20,-1.1495203237,0.674184947808,-0.404877781278,0.0993890255692,0.0221038264909,3179.55303013,0,3153.66699744,-3.11127723225,-8.8973349918e-10,0,-0.0314346798346,0,0,2.44715546026e-13,-3.24116536848e-13,0.0431319850667,-2.36864481845e-16,2.68435497531e-06,5.10217368369e-05,0.00198155916167,-0.00202989654353,-0.000306710503636,-0.000274131332245,0.000611142094548,2.68435497531e-06,0.000130657602222,1.36778832648e+20,1.3566432006e+20,0.00335066166677,0.00326080383352,1.36778832648e+20,1.36778832648e+20,231.816127331,0,0,0,1,1.3339279079e+20,0,0,0,25.9897419315,0,0,-1.09870383946,-1.94078925861,0.628269569874,-0.26681342581,947946.155747,2105070.95534,3179.65673937
