#Time,"zbed","depth","height","surfgrad1","surfgrad2","densrel","mass balance","melting","rain","firn","accu","potrad","refreeze","bottomwater","enthbellowactive","outbedtemp","outbedpres","outbedvel1","outbedvel2","outbedvel3","zs top","zs top residual","ref zs top","zs top velocity","zs top loads","qlat","pressure","dsdt","ds","flow solution loads 1","flow solution loads 2","flow solution loads 3","flow solution loads 4","eij","strainrate 1","strainrate 2","strainrate 3","strainrate 4","strainrate 5","strainrate 6","strainrate 7","flow solution deformational heat","enthalpy_h","phase change enthalpy","water content","temperature","surface enthalpy","save enthalpy subgrid","enthalpy_h contact load","bedtemperatureexp","rock_temperature","rock_temperature contact load","icymask","surfaceenthexp","schur","mesh update:0","mesh update:1","mesh update:2","mesh velocity:0","mesh velocity:1","mesh velocity:2","velocity:0","velocity:1","velocity:2","Points:0","Points:1","Points:2"
441,3118.99166466,25.6248803007,0,0,0,1,0,0,0,0,0,0,0,0,0,0,0,0,0,0,0,0,0,0,0,0,0.289204075591,0,0,15.7565102393,18.1602607466,35.3997583951,5.85365236468e-17,5.11287764879e-06,-0.00451234474918,0.00435902040007,0.000158437226754,-0.00497568328669,0.00421305201086,-0.00740260904319,5.11287764879e-06,0.00130837544972,1.30310767698e+20,1.35598155506e+20,0,-2.53451376525,1.30311965554e+20,1.31282478864e+20,-2.30651138757e-09,-2.53451376525,-2.53451376525,-132.03718,0,1.29570246199e+20,0,0,0,0,0,0,0,-0.11528177368,0.0490248159621,0.000203759297252,947931.542105,2105017.30526,3118.99166466
441,3122.76157511,23.0701391179,0,0,0,1,0,0,0,0,0,0,0,0,0,0,0,0,0,0,0,0,0,0,0,0,0.259758282017,0,0,13.5820090235,15.6575947935,32.4983449343,6.07848850859e-16,3.26163218373e-06,-0.00403601506943,0.004418943648,-0.000379666946385,-0.0039821930841,0.00432662783559,-0.0058832153233,3.26163218373e-06,0.00109420185208,1.30143432744e+20,1.35604231453e+20,0,-2.61422456101,1.30145054189e+20,1.31204940095e+20,-2.92034206098e-09,-2.61422456101,-2.61422456101,-156.581234732,0,1.29415419258e+20,0,0,0,0,0,0,0,-0.0978742010713,0.0493529270109,-0.00642740193095,947929.973464,2105011.54641,3122.76157511
441,3106.07249317,39.8469482175,0,0,0,1,0,0,0,0,0,0,0,0,0,0,0,0,0,0,0,0,0,0,0,0,0.405685337811,0,0,14.4606639632,9.49271405083,36.4128264146,3.06876655451e-16,-2.53764771661e-05,-0.00391923025355,0.00180857810999,0.00208527566639,-0.00360249861857,0.00342120924948,-0.00998355698934,-2.53764771661e-05,0.00143538876618,1.30785070686e+20,1.35574121113e+20,0,-2.30879996993,1.30786217053e+20,1.31431298942e+20,-2.73487017137e-09,-2.30879996993,-2.30879996993,-29.705917485,0,1.29411205162e+20,0,0,0,0,0,0,0,-0.127278603217,0.0431255351741,0.0223330579466,947937.392168,2105038.78221,3106.07249317
441,3108.24835539,37.4812014623,0,0,0,1,0,0,0,0,0,0,0,0,0,0,0,0,0,0,0,0,0,0,0,0,0.383674867248,0,0,12.7846671834,10.9472359524,27.7458729896,4.32424714965e-16,-1.97636404157e-05,-0.00417100320321,0.00240404725051,0.00174719231228,-0.00404121497162,0.00383624514894,-0.00980670101203,-1.97636404157e-05,0.00145888059169,1.30717397401e+20,1.35578662584e+20,0,-2.34097620671,1.30718668772e+20,1.31409496781e+20,-2.84825031922e-09,-2.34097620671,-2.34097620671,-28.7600317226,0,1.29835154068e+20,0,0,0,0,0,0,0,-0.131783071548,0.0458908390956,0.0209931248327,947936.200702,2105034.40806,3108.24835539
441,3114.67643207,31.286497007,0,0,0,1,0,0,0,0,0,0,0,0,0,0,0,0,0,0,0,0,0,0,0,0,0.325054540901,0,0,15.5640669182,16.4759906406,32.7053515204,-6.24979945682e-17,-8.78003936863e-06,-0.00445388040197,0.00363681239741,0.000808287965186,-0.00467407253033,0.00394868456157,-0.00794196391584,-8.78003936863e-06,0.00130877479342,1.30476738558e+20,1.35590758147e+20,0,-2.45552331412,1.30478102456e+20,1.31325704352e+20,4.92708868863e-10,-2.45552331412,-2.45552331412,-80.9981371661,0,1.2995398647e+20,0,0,0,0,0,0,0,-0.121969041364,0.0484946785057,0.00794467887078,947933.214674,2105023.44565,3114.67643207
441,3109.40671343,36.6481471347,0,0,0,1,0,0,0,0,0,0,0,0,0,0,0,0,0,0,0,0,0,0,0,0,0.372844251063,0,0,12.8142967948,11.6863638919,26.8899590777,3.23555994966e-16,-1.59864273549e-05,-0.00446489288639,0.00282939196581,0.00161951449322,-0.00437825836952,0.00409477967274,-0.00974273666403,-1.59864273549e-05,0.00150404106217,1.3067015883e+20,1.35580897341e+20,0,-2.36346423454,1.30671446361e+20,1.3139041981e+20,-8.11127249149e-10,-2.36346423454,-2.36346423454,-35.1288298759,0,1.30007273921e+20,0,0,0,0,0,0,0,-0.127349447561,0.0460329352007,0.0183674355536,947935.578796,2105032.1249,3109.40671343
441,3112.71191108,34.0380392114,0,0,0,1,0,0,0,0,0,0,0,0,0,0,0,0,0,0,0,0,0,0,0,0,0.343161744524,0,0,14.3595646292,15.1741430687,30.7297572947,2.62351993513e-16,-1.26891367796e-05,-0.00477387916039,0.00344434359019,0.00131684643342,-0.00486530996192,0.00416744721406,-0.00898393286115,-1.26891367796e-05,0.00147178940887,1.30560767298e+20,1.3558702191e+20,0,-2.41551364194,1.30562250795e+20,1.3136260294e+20,2.04072004046e-09,-2.41551364194,-2.41551364194,-58.7249025108,0,1.30047523589e+20,0,0,0,0,0,0,0,-0.130538811075,0.0488163555517,0.0125656989171,947934.145885,2105026.86434,3112.71191108
441,3126.38285389,19.985453467,0,0,0,1,0,0,0,0,0,0,0,0,0,0,0,0,0,0,0,0,0,0,0,0,0.225418345073,0,0,9.10042010515,9.48851371613,22.9075312044,2.45877843171e-16,4.35597087538e-06,-0.00383852692574,0.0046553360946,-0.000812453197975,-0.00352673840609,0.00463005947589,-0.00515286358062,4.35597087538e-06,0.00101434115124,1.29979550154e+20,1.35611317279e+20,0,-2.69224702943,1.29981593746e+20,1.31146202078e+20,-3.41008910148e-10,-2.69224702943,-2.69224702943,-150.059659766,0,1.28191584543e+20,0,0,0,0,0,0,0,-0.0806593475601,0.0510887170534,-0.0134490730373,947928.456909,2105005.97879,3126.38285389
441,3169.24302927,20.0005341584,0,0,0,1,0,0,0,0,0,0,0,0,0,0,0,0,0,0,0,0,0,0,0,0,0.153674995814,0,0,-0.374108099182,3.95298917994,24.2919091656,-4.29274700521e-17,-1.38084095664e-05,0.00187419988565,0.0110367470584,-0.0129247553537,-0.00167125402959,0.00259256823041,-0.00362869206661,-1.38084095664e-05,0.00171667055488,1.28712509937e+20,1.35626121388e+20,0,-3.2964359204,1.28714342017e+20,1.4978793234e+20,2.63945511323e-09,-3.2964359204,-3.2964359204,-198.518898879,0,1.28307806098e+20,0,0,0,0,0,0,0,-0.0529115319804,0.0860082465439,-0.0455178973949,947909.555548,2104936.58749,3169.24302927
441,3172.55731505,19.9997280143,0,0,0,1,0,0,0,0,0,0,0,0,0,0,0,0,0,0,0,0,0,0,0,0,0.0880784263207,0,0,0.790602004966,2.69558967651,13.0757330371,6.89951408696e-17,-6.96800672537e-05,0.00585898295696,0.00734588716366,-0.0132745501879,-0.000976294499351,-0.00451779073871,-0.00758152735642,-6.96800672537e-05,0.00200869071952,1.28615003002e+20,1.35639657446e+20,0,-3.3429855522,1.28616904802e+20,1.47655804805e+20,6.65278924909e-11,-3.3429855522,-3.3429855522,-122.407941657,0,1.28028844699e+20,0,0,0,0,0,0,0,-0.0803127939318,-0.00430321513291,-0.0159437503196,947906.350836,2104924.82225,3172.55731505
441,3172.78731579,19.9996038378,0,0,0,1,0,0,0,0,0,0,0,0,0,0,0,0,0,0,0,0,0,0,0,0,0.0801344681833,0,0,0.912590702743,2.62462921485,12.079478879,3.17294728153e-17,-8.10459078497e-05,0.00590602703806,0.00675178930929,-0.0127388622552,-0.000804917431112,-0.00543545931332,-0.00804385606129,-8.10459078497e-05,0.00198557519238,1.28606333231e+20,1.35641296707e+20,0,-3.34712430349,1.28608258429e+20,1.48079528008e+20,-1.92447338235e-10,-3.34712430349,-3.34712430349,-116.198138809,0,1.27899976388e+20,0,0,0,0,0,0,0,-0.0816399728184,-0.0140264005964,-0.0131506559648,947906.064719,2104923.77185,3172.78731579
441,3144.27438186,20.0284288632,0,0,0,1,0,0,0,0,0,0,0,0,0,0,0,0,0,0,0,0,0,0,0,0,0.155772473106,0,0,2.94351155946,2.58281822312,12.2919908555,-1.8031715009e-16,-1.90713022708e-06,-0.00130677171409,0.00697852206814,-0.00567365748428,-0.000742955379209,0.00559724856081,-0.00204837905565,-1.90713022708e-06,0.00103166770635,1.29317677464e+20,1.35625688593e+20,0,-3.00770148806,1.29320387108e+20,1.30572196432e+20,5.60682862641e-10,-3.00770148806,-3.00770148806,-143.037721102,0,1.29240788359e+20,0,0,0,0,0,0,0,-0.0311948076149,0.0886561980159,-0.0484898357176,947920.278043,2104975.95227,3144.27438186
441,3147.59399703,20.015653465,0,0,0,1,0,0,0,0,0,0,0,0,0,0,0,0,0,0,0,0,0,0,0,0,0.127627244223,0,0,2.8278835002,2.67451572426,13.7857378195,-5.0149002191e-16,-5.80881306301e-08,-0.000997633473137,0.00787560811658,-0.00687803273157,-0.000736165476981,0.00526022651396,-0.00204048175019,-5.80881306301e-08,0.00111601962177,1.292332012e+20,1.35631496381e+20,0,-3.04799643643,1.29235815153e+20,1.30430286391e+20,2.50129972014e-09,-3.04799643643,-3.04799643643,-170.764873908,0,1.29624242791e+20,0,0,0,0,0,0,0,-0.0306041371368,0.0949802478955,-0.0573987136862,947918.866204,2104970.76908,3147.59399703
441,3150.66941031,19.9800685165,0,0,0,1,0,0,0,0,0,0,0,0,0,0,0,0,0,0,0,0,0,0,0,0,0.124193243409,0,0,3.11771842028,2.92716830269,15.683120637,-5.02677504329e-16,8.20294823113e-06,-0.000934596497527,0.00892139528848,-0.00797859584272,-0.000794829175285,0.00522940930116,-0.00212091422156,8.20294823113e-06,0.00126612902928,1.29136422602e+20,1.35632204996e+20,0,-3.09415310716,1.29139021032e+20,1.30339070355e+20,3.98607267094e-09,-3.09415310716,-3.09415310716,-204.84209641,0,1.29323491681e+20,0,0,0,0,0,0,0,-0.031579413998,0.100686009873,-0.0652874977933,947917.803959,2104966.86933,3150.66941031
441,3155.4206505,19.9946528408,0,0,0,1,0,0,0,0,0,0,0,0,0,0,0,0,0,0,0,0,0,0,0,0,0.113821715883,0,0,2.64669726299,2.85843601693,17.3188793284,-1.47053484482e-15,2.5329006687e-06,-0.000547098497054,0.00952438836016,-0.00897475696244,-0.00117329707002,0.00526596681123,-0.0021369905523,2.5329006687e-06,0.00138850074247,1.29012428067e+20,1.35634345192e+20,0,-3.15330480758,1.29015200394e+20,1.3011802313e+20,3.55856096764e-09,-3.15330480758,-3.15330480758,-236.275390627,0,1.27437379667e+20,0,0,0,0,0,0,0,-0.0341274349893,0.113383072779,-0.0751895173641,947916.025634,2104960.34068,3155.4206505
441,3157.53327083,20.0052164797,0,0,0,1,0,0,0,0,0,0,0,0,0,0,0,0,0,0,0,0,0,0,0,0,0.115213139139,0,0,1.99008934354,2.63424039525,16.0058683518,-1.45653025019e-15,1.60302195122e-06,-0.000340337054729,0.00991477200638,-0.0095728319297,-0.00138197710161,0.00523112018159,-0.0023359078646,1.60302195122e-06,0.00146331892004,1.28964689756e+20,1.3563405807e+20,0,-3.17608346972,1.28967525347e+20,1.30006631654e+20,3.1759510336e-09,-3.17608346972,-3.17608346972,-220.550071899,0,1.27375624408e+20,0,0,0,0,0,0,0,-0.0357270618018,0.117591885064,-0.0790890456584,947915.209464,2104957.34433,3157.53327083
441,3158.52503376,20.0041483205,0,0,0,1,0,0,0,0,0,0,0,0,0,0,0,0,0,0,0,0,0,0,0,0,0.112650633298,0,0,1.82540539497,2.72808734651,16.8508219783,-1.64629149417e-15,7.27526264694e-07,-0.000222614292724,0.00985980110664,-0.00963645928766,-0.00148599470994,0.00493590172827,-0.00239642025872,7.27526264694e-07,0.00144900069634,1.28946660685e+20,1.35634586849e+20,0,-3.18468806611,1.28949453026e+20,1.29936255078e+20,3.55843866506e-09,-3.18468806611,-3.18468806611,-222.732657395,0,1.27383862897e+20,0,0,0,0,0,0,0,-0.0372453096561,0.117891500339,-0.07802343052,947914.733177,2104955.59577,3158.52503376
441,3163.86700559,19.9995716938,0,0,0,1,0,0,0,0,0,0,0,0,0,0,0,0,0,0,0,0,0,0,0,0,0.127465558449,0,0,0.472562893835,2.39418877284,12.964461639,-1.27275535885e-15,1.59261271777e-06,0.000342843003915,0.0101117255047,-0.0104529758959,-0.00177533926158,0.00382687181067,-0.00299582017385,1.59261271777e-06,0.00149444298711,1.2882772296e+20,1.35631529745e+20,0,-3.24144415733,1.28830404156e+20,1.2967972621e+20,5.45338059956e-10,-3.24144415733,-3.24144415733,-141.93249936,0,1.27721805478e+20,0,0,0,0,0,0,0,-0.0436292606893,0.12068026359,-0.0801783403935,947912.543235,2104947.55599,3163.86700559
441,3168.60167556,19.9997073215,0,0,0,1,0,0,0,0,0,0,0,0,0,0,0,0,0,0,0,0,0,0,0,0,0.144430860634,0,0,-0.319861742159,3.95982953242,23.9550461552,-4.50310731348e-16,-1.03715894279e-05,0.00125481768062,0.0110777806021,-0.0123429698721,-0.00175867695632,0.00263028467389,-0.00336139176144,-1.03715894279e-05,0.00166434831418,1.28724184746e+20,1.3562802894e+20,0,-3.29086341875,1.28726370959e+20,1.48898107399e+20,1.83259222223e-09,-3.29086341875,-3.29086341875,-205.822572449,0,1.28216855536e+20,0,0,0,0,0,0,0,-0.0533786765222,0.100050330723,-0.0548361332285,947910.085047,2104938.53141,3168.60167556
441,3166.09552123,19.9999624194,0,0,0,1,0,0,0,0,0,0,0,0,0,0,0,0,0,0,0,0,0,0,0,0,0.140320565216,0,0,-0.0283823250337,3.15244260162,17.8369115341,-8.02694250275e-16,-4.33837400719e-06,0.000742022523757,0.0105073667521,-0.0112537276499,-0.00170561598438,0.00333647456276,-0.0031859780827,-4.33837400719e-06,0.00155211100601,1.28782352783e+20,1.35628877094e+20,0,-3.26309984718,1.28784715953e+20,1.39995183844e+20,9.25921689274e-10,-3.26309984718,-3.26309984718,-167.798480068,0,1.27646095891e+20,0,0,0,0,0,0,0,-0.0479054848738,0.107977718023,-0.0682420142667,947911.303665,2104943.00524,3166.09552123
441,3130.61095561,20.0482202928,0,0,0,1,0,0,0,0,0,0,0,0,0,0,0,0,0,0,0,0,0,0,0,0,0.217150963071,0,0,4.34828695089,5.01812271323,13.6699859232,-4.14689191736e-17,1.65355042988e-05,-0.0023238854292,0.00401733113735,-0.00167691020386,-0.00241682676753,0.00432697332,-0.00335066982354,1.65355042988e-05,0.000732540326691,1.29794370194e+20,1.35613023239e+20,0,-2.78046608831,1.2979684049e+20,1.31016404705e+20,-1.98992929769e-10,-2.78046608831,-2.78046608831,-120.513580804,0,1.28395605404e+20,0,0,0,0,0,0,0,-0.0532331903551,0.0516462553692,-0.0213773204761,947926.222049,2104997.7741,3130.61095561
441,3135.56441415,19.9112502017,0,0,0,1,0,0,0,0,0,0,0,0,0,0,0,0,0,0,0,0,0,0,0,0,0.163252471196,0,0,5.03794844388,4.79432873313,16.8101708953,1.08381075888e-16,1.33485362179e-05,-0.0021306984389,0.00567619575344,-0.00353214877833,-0.00161949614584,0.00596656846078,-0.00303889754876,1.33485362179e-05,0.000974103180042,1.29584753605e+20,1.35624145074e+20,0,-2.88037314194,1.29587793076e+20,1.30877683654e+20,2.1359466888e-09,-2.88037314194,-2.88037314194,-195.423138605,0,1.28429536047e+20,0,0,0,0,0,0,0,-0.0458686284564,0.067357817585,-0.0316097024971,947924.316281,2104990.77758,3135.56441415
441,3142.06467961,20.0021689911,0,0,0,1,0,0,0,0,0,0,0,0,0,0,0,0,0,0,0,0,0,0,0,0,0.167498130916,0,0,3.39439067721,3.11218502187,14.5185675874,1.54459765102e-16,-7.62600196285e-07,-0.00145071523714,0.00635993950459,-0.00490998686765,-0.000883082853678,0.00595195303662,-0.00213794877595,-7.62600196285e-07,0.000995850438348,1.29384397894e+20,1.35623268991e+20,0,-2.97589155325,1.2938721683e+20,1.30649170108e+20,-1.79564194065e-10,-2.97589155325,-2.97589155325,-167.811561038,0,1.28005763476e+20,0,0,0,0,0,0,0,-0.0332589030487,0.0855667674496,-0.0434766430641,947921.276096,2104979.61635,3142.06467961
441,3128.93641007,20.0450548826,0,0,0,1,0,0,0,0,0,0,0,0,0,0,0,0,0,0,0,0,0,0,0,0,0.228447169988,0,0,5.18465201048,6.13570100964,15.5197618602,2.55095381502e-17,1.24576964856e-05,-0.00273087709655,0.00393526837254,-0.00119193357951,-0.00263118273907,0.00421449003896,-0.00382859731556,1.24576964856e-05,0.000770883837402,1.29870879045e+20,1.35610692294e+20,0,-2.74401928012,1.29873102084e+20,1.31055960258e+20,-2.16054967309e-11,-2.74401928012,-2.74401928012,-117.380160029,0,1.27852788621e+20,0,0,0,0,0,0,0,-0.061504271542,0.0501513653718,-0.018454468431,947926.972753,2105000.53011,3128.93641007
441,3136.42018182,19.9157175295,0,0,0,1,0,0,0,0,0,0,0,0,0,0,0,0,0,0,0,0,0,0,0,0,0.166043393766,0,0,5.10701257995,4.59659289074,16.9953707162,1.63080023365e-16,9.69231626749e-06,-0.0020240993861,0.00567902001942,-0.00364522831705,-0.00129255331359,0.00608126952804,-0.00282827390505,9.69231626749e-06,0.000959638245486,1.29550543228e+20,1.35623569174e+20,0,-2.89667645633,1.2955359326e+20,1.30853567901e+20,2.04608747454e-09,-2.89667645633,-2.89667645633,-198.714123923,0,1.28222948256e+20,0,0,0,0,0,0,0,-0.0438554224819,0.0701854316278,-0.032441788251,947923.939394,2104989.39394,3136.42018182
441,3137.23560935,19.9153280375,0,0,0,1,0,0,0,0,0,0,0,0,0,0,0,0,0,0,0,0,0,0,0,0,0.157574291384,0,0,4.91696153867,4.41174053235,16.7789710219,1.92401670148e-16,9.23139436391e-06,-0.00195942392452,0.00584887283278,-0.0038802175139,-0.00124509525543,0.00602648358176,-0.00268245902931,9.23139436391e-06,0.000961998125775,1.29524071674e+20,1.35625316767e+20,0,-2.90929287655,1.29527100746e+20,1.30826566975e+20,1.64015721517e-09,-2.90929287655,-2.90929287655,-198.821967185,0,1.28019399715e+20,0,0,0,0,0,0,0,-0.0421632791065,0.0719748510757,-0.0340901796203,947923.537712,2104987.91927,3137.23560935
441,3118.99166466,0,25.6220341441,0.220658332337,-0.0806526578816,1,-9.79510247366,8.98210896834,0.0998098126994,0,0,210,1.81311070492e-05,0.190227214601,1.32881442334e+20,-2.53394347131,0.289204075591,-0.11528177368,0.0490248159621,0.000203759297252,3144.18576275,0,3155.71016692,-13.2754657404,-1.96628104475e-09,0,0.0481290431769,0,0,-3.02623423397e-13,5.24461426668e-14,0.536546650559,8.80658662444e-16,5.45003338914e-06,-0.0124228259161,-0.0006338985209,0.0130621744704,-0.00924854741026,-0.00227266243039,-0.00767265188561,5.45003338914e-06,0.00210039097963,1.36778832648e+20,1.35647901243e+20,0.00340002306414,-0.00448870278778,1.36778832648e+20,1.36778832648e+20,38562.7395352,0,0,0,1,1.2964700982e+20,0,0,0,-11.0818886402,0,0,-14.2432945267,-0.437019757156,0.131827396713,0.155772699665,947931.542105,2105017.30526,3144.62827828
441,3122.76157511,0,23.0947864318,0.0488055420782,-0.181021977374,1,-9.79175517768,8.97903949793,0.0999743869094,0,0,210,1.34387668505e-05,0.190201742201,1.3296814488e+20,-2.61345228137,0.259758282017,-0.0978742010713,0.0493529270109,-0.00642740193095,3145.62284422,411.528752198,3156.2642126,-6.25938455406,411.528752196,0,0.0505036000884,0,0,-2.33680661105e-13,1.04291529397e-13,0.536548859888,7.20922773974e-16,-2.74494237829e-07,-0.0118281740849,-0.00139468903272,0.0132225886233,-0.00844460405466,0.000830072995282,-0.00147666292727,-2.74494237829e-07,0.00205259140962,1.36778832648e+20,1.35647411236e+20,0.00340149621923,-0.00471998463098,1.36778832648e+20,1.36778832648e+20,30886.7348036,0,0,0,0.509282990563,1.2956668934e+20,0,0,0,-10.4327222354,0,0,-7.13654806714,-0.305921851406,0.146564562963,0.117220300717,947929.973464,2105011.54641,3145.83149037
441,3106.07249317,0,39.8223427232,0.265716669719,-0.0306742948008,1,-9.79158328571,8.97888187299,0.100006424001,0,0,210,9.479035235e-05,0.190211236086,1.32800792537e+20,-2.30825455892,0.405685337811,-0.127278603217,0.0431255351741,0.0223330579466,3145.56053306,0,3154.3049317,-9.98235707658,-2.02836921632e-10,0,0.0300495375478,0,0,2.52945172464e-13,-1.42535411732e-13,0.379059641888,-4.43326445426e-16,9.66161502058e-06,-0.00499900336523,0.000882307992255,0.00412635698799,-0.00201506761982,-0.000263629796725,-0.00196418304448,9.66161502058e-06,0.000453728033346,1.36778832648e+20,1.35651632102e+20,0.00338880663942,-0.00272775893951,1.36778832648e+20,1.36778832648e+20,22294.0604806,0,0,0,1,1.2932090953e+20,0,0,0,-8.41165340517,0,0,-11.4617768975,-0.667495502596,0.160498878284,0.157715365112,947937.392168,2105038.78221,3145.8932783
441,3108.24835538,0,37.4766331066,0.259159817064,-0.104793879498,1,-9.79213517528,8.97938795574,0.100055831821,0,0,210,8.21864372286e-05,0.190250491107,1.33135494719e+20,-2.3403713012,0.383674867248,-0.131783071548,0.0458908390956,0.0209931248327,3145.35654054,0,3154.442848,-10.150700185,-6.5567689187e-10,0,0.0292372536599,0,0,2.06321726402e-13,-2.95419658393e-14,0.306574058888,-1.85042976598e-15,1.24208166273e-05,-0.00578666124511,0.0011743676814,0.00462471438034,-0.00223307765608,0.000369339780164,-0.0014678088342,1.24208166273e-05,0.000502992155418,1.36778832648e+20,1.35651799724e+20,0.00338830270157,-0.00264864248881,1.36778832648e+20,1.36778832648e+20,19237.4430317,0,0,0,1,1.30075237659e+20,0,0,0,-8.74795079107,0,0,-11.6668109633,-0.637517914339,0.158027436446,0.159353117118,947936.200702,2105034.40806,3145.69489721
441,3114.67643207,0,31.3115400646,0.258626769665,-0.0439527152227,1,-9.79133946543,8.9786582898,0.100168567673,0,0,210,7.59174077604e-05,0.19027814991,1.33115086765e+20,-2.45487417417,0.325054540901,-0.121969041364,0.0484946785057,0.00794467887078,3145.61728026,0,3155.21085054,-10.9092350942,-1.13884553961e-09,0,0.037104443289,0,0,3.79083841596e-14,5.40445038132e-14,0.443644127262,-9.11388890171e-16,9.38848142377e-06,-0.00938341595914,0.0011364717637,0.00825633267686,-0.00643321768171,-0.00120350990424,-0.00468654934336,9.38848142377e-06,0.00134266041131,1.36778832648e+20,1.35650176264e+20,0.00339318345935,-0.0034149067587,1.36778832648e+20,1.36778832648e+20,29862.0013883,0,0,0,1,1.30069970099e+20,0,0,0,-9.22992910998,0,0,-11.9566379056,-0.525866802662,0.140851680089,0.15832891141,947933.214674,2105023.44565,3145.98092143
441,3109.40671343,0,36.6381268618,0.291363453914,-0.102007761207,1,-9.79118871975,8.97852005601,0.100198011335,0,0,210,9.87592536344e-05,0.190287093122,1.3336607178e+20,-2.36285158287,0.372844251063,-0.127349447561,0.0460329352007,0.0183674355536,3145.69069607,0,3154.52032938,-10.3323627598,0,0,0.0292704021639,0,0,-1.19926302856e-13,2.77670284846e-14,0.314691176014,-1.64305096891e-15,2.00620404608e-05,-0.00562955375626,0.00141777241627,0.00423184338045,-0.00262235185524,-0.000584315071099,-0.00295723340751,2.00620404608e-05,0.000578851499448,1.36778832648e+20,1.35651792884e+20,0.00338832326678,-0.0026518711531,1.36778832648e+20,1.36778832648e+20,18451.5347015,0,0,0,1,1.30329224228e+20,0,0,0,-8.48522121792,0,0,-11.19562631,-0.624655908319,0.152729898734,0.159651280635,947935.578796,2105032.1249,3146.03510816
441,3112.71191108,0,34.0571845981,0.32651141407,-0.00486920910712,1,-9.78915843635,8.97665828614,0.100336036627,0,0,210,0.000121444898817,0.190289139746,1.33246595075e+20,-2.41480764008,0.343161744524,-0.130538811075,0.0488163555517,0.0125656989171,3146.45264617,0,3154.92895888,-9.36790374922,-1.16812271844e-09,0,0.0284803437711,0,0,2.48470392098e-14,4.57185691286e-14,0.393558216834,-1.18425611398e-15,2.25850456544e-05,-0.00554908560361,0.0021222837347,0.00344938691457,-0.00357506193482,-0.00204177443118,-0.00424140981611,2.25850456544e-05,0.000660366613966,1.36778832648e+20,1.3565195592e+20,0.00338783311726,-0.00257491946566,1.36778832648e+20,1.36778832648e+20,22551.7610524,0,0,0,1,1.3013772606e+20,0,0,0,-8.1640492494,0,0,-10.2310617034,-0.587556557179,0.139888181296,0.159528844364,947934.145885,2105026.86434,3146.76490963
441,3126.38285389,0,20.0963778668,-0.0586501401263,-0.344332968789,1,-9.79022130271,8.97763293458,0.0998926526643,0,0,210,1.35879792325e-05,0.190118097564,1.33255094649e+20,-2.69127354748,0.225418345073,-0.0806593475601,0.0510887170534,-0.0134490730373,3146.38285389,699.214348739,3156.94448773,-1.36424205266e-11,699.214348739,0,0.0592087398465,0,0,8.45012869468e-15,1.34728688933e-14,0.429412885307,5.97509964796e-17,-1.27722552956e-05,-0.013454598795,-0.00392301722091,0.0173648437606,-0.00897216349726,0.00554728733554,0.0022196966736,-1.27722552956e-05,0.00239218459507,1.36778832648e+20,1.35645614865e+20,0.00340689681339,-0.00556786524339,1.36778832648e+20,1.36778832648e+20,15730.3649623,0,0,0,0.604242379293,1.27888936032e+20,0,0,0,-10.5616338334,0,0,3.22005024934e-14,-0.180952856052,0.170660517445,0.0907470427782,947928.456909,2105005.97879,3146.38285389
441,3169.24302927,0,19.9993292004,0.185155092801,-0.40839133139,1,-9.67098572163,8.86829390673,0.100582317435,0,0,210,2.01695271942e-05,0.186841706802,1.33458879227e+20,-3.29556137171,0.153674995814,-0.0529115319804,0.0860082465439,-0.0455178973949,3189.24302927,1276.08738532,3179.27702927,-8.13669167701e-12,1276.08738532,0,-0.0279856766246,0,0,6.72345396597e-13,-1.05048633941e-12,0.577682673119,8.7092616467e-16,-5.59442451406e-06,0.00100156391975,-3.06854526881e-05,-0.000976472891571,0.000403721098072,-0.000523269699235,0.000373335120121,-5.59442451406e-06,6.87517258698e-05,1.36778832648e+20,1.35663608313e+20,0.0033528014573,0.00292487092087,1.36778832648e+20,1.36778832648e+20,65735.8409118,0,0,0,-1,1.28310350319e+20,0,0,0,9.96599999816,0,0,1.07937280681e-11,-0.116620569218,0.131025328039,-0.183045599683,947909.555548,2104936.58749,3189.24302927
441,3172.55731505,0,20.0001837033,0.20554455628,-0.320055571857,1,-9.6617654889,8.85983895333,0.10039575656,0,0,210,1.12594175896e-05,0.186478483791,1.33614440516e+20,-3.34207757389,0.0880784263207,-0.0803127939318,-0.00430321513291,-0.0159437503196,3192.55731505,796.34172454,3182.59131505,1.60249358189e-12,796.34172454,0,-0.0213155146048,0,0,9.09879716814e-13,-1.03738048145e-12,0.349373739765,-1.64034621368e-15,-2.23770352453e-06,0.000577224206389,-0.00012108232095,-0.000458379588964,0.000113601166486,-0.000147038750997,0.000265655759951,-2.23770352453e-06,2.94281364829e-05,1.36778832648e+20,1.35662231839e+20,0.00335693967776,0.00227519714015,1.36778832648e+20,1.36778832648e+20,38978.1811697,0,0,0,-1,1.28024394421e+20,0,0,0,9.96600000096,0,0,-5.3290705182e-14,-0.126886777578,0.130337089785,-0.193205670208,947906.350836,2104924.82225,3192.55731505
441,3172.78731579,0,20.0002984556,0.201043540426,-0.312835403728,1,-9.66112563451,8.85925220685,0.100429427706,0,0,210,9.69218369864e-06,0.1864746276,1.33653048589e+20,-3.34620514382,0.0801344681833,-0.0816399728184,-0.0140264005964,-0.0131506559648,3192.78731579,757.089851651,3182.82131579,-1.03752480459e-12,757.089851651,0,-0.0205087123226,0,0,8.32806356811e-13,-9.01051295952e-13,0.331583690992,-1.80426726313e-15,-1.8315995419e-06,0.000570880927237,-0.000137591241002,-0.000435121285777,0.000142458544171,-0.000140279557123,0.000241710622191,-1.8315995419e-06,2.90378458219e-05,1.36778832648e+20,1.35662065345e+20,0.00335744022254,0.00219661459787,1.36778832648e+20,1.36778832648e+20,37100.1547587,0,0,0,-1,1.27894969297e+20,0,0,0,9.96600000094,0,0,9.92339761945e-13,-0.128360814555,0.130741647487,-0.193372732762,947906.064719,2104923.77185,3192.78731579
441,3144.27438186,0,19.9623331773,-0.148785676257,-0.599794668102,1,-9.7404476675,8.9319905111,0.100524825447,0,0,210,1.37258724815e-05,0.188908077878,1.33393701959e+20,-3.00640932027,0.155772473106,-0.0311948076149,0.0886561980159,-0.0484898357176,3164.27438186,722.681863564,3161.69174224,1.62797380987e-13,722.681863564,0,0.0226483555741,0,0,-6.01580572681e-14,-3.61633025302e-13,0.353072212465,-2.35337200109e-16,-1.5062917877e-06,-0.000320906570764,-0.000319754667635,0.000639154946611,-0.000343346369694,0.000913722471032,0.000408977007805,-1.5062917877e-06,6.32055596094e-05,1.36778832648e+20,1.35653159406e+20,0.00338421496477,-0.00200688381526,1.36778832648e+20,1.36778832648e+20,35753.6958439,0,0,0,-1,1.29522243252e+20,0,0,0,2.58263961876,0,0,-6.90260895379e-12,-0.0637397029591,0.18993200241,-0.0846035448771,947920.278043,2104975.95227,3164.27438186
441,3147.59399703,0,19.9800830743,-0.118055803529,-0.643720269306,1,-9.73121260862,8.92352196211,0.100518998537,0,0,210,1.84160127048e-05,0.188627181755,1.33415148461e+20,-3.04674973917,0.127627244223,-0.0306041371368,0.0949802478955,-0.0573987136862,3167.59399703,875.682528725,3162.69333697,1.36424205266e-11,875.682528725,0,0.0162365121066,0,0,-1.76351280236e-13,5.72607977989e-13,0.434672813442,-1.1939877165e-17,-3.20470645975e-06,-0.000227923348935,-0.00032107416291,0.000545792805385,-5.93343159641e-05,0.000777065739778,0.000128030059138,-3.20470645975e-06,4.83350513257e-05,1.36778832648e+20,1.35654482559e+20,0.00338023704915,-0.00138237026152,1.36778832648e+20,1.36778832648e+20,46094.160962,0,0,0,-1,1.29873976297e+20,0,0,0,4.90066005985,0,0,-8.03390390225e-12,-0.0652328569952,0.187345458184,-0.0988546091702,947918.866204,2104970.76908,3167.59399703
441,3150.66941031,0,20.0253656404,-0.103374732742,-0.683386816401,1,-9.72265691124,8.91567638761,0.100407799143,0,0,210,2.21210925325e-05,0.188318493881,1.33403485705e+20,-3.0929136131,0.124193243409,-0.031579413998,0.100686009873,-0.0652874977933,3170.66941031,1020.24664007,3163.56756638,1.9455926767e-11,1020.24664007,0,0.00972646883963,0,0,-1.51165409771e-14,1.34548525789e-12,0.512891133499,1.58738419099e-16,-2.22590377874e-07,-1.83642711422e-05,-0.000208798685375,0.000226940366139,4.69024490782e-05,0.00037443691104,-6.64603467563e-05,-2.22590377874e-07,1.06657467418e-05,1.36778832648e+20,1.35655825972e+20,0.00337619822478,-0.000748292047323,1.36778832648e+20,1.36778832648e+20,55708.8266294,0,0,0,-1,1.29241655666e+20,0,0,0,7.1018439354,0,0,-5.78686088784e-12,-0.0677883474318,0.185913525747,-0.107036428963,947917.803959,2104966.86933,3170.66941031
441,3155.4206505,0,20.0017699431,-0.0491400939706,-0.674579482532,1,-9.70943911922,8.90355567233,0.100187394452,0,0,210,2.95436806358e-05,0.18781933518,1.33419220095e+20,-3.1519820803,0.113821715883,-0.0341274349893,0.113383072779,-0.0751895173641,3175.4206505,1159.81051904,3166.05792227,3.79791751154e-12,1159.81051904,0,-0.0171143636463,0,0,-4.40524454474e-13,1.78375434293e-12,0.582483105176,6.26899643691e-16,4.70565738107e-06,0.000329050067757,-0.000123843129286,-0.00020050128109,0.00030757821209,-0.000253192214627,-0.000223771824062,4.70565738107e-06,2.70558753473e-05,1.36778832648e+20,1.35661364882e+20,0.00335954608828,0.0018660050368,1.36778832648e+20,1.36778832648e+20,67639.7322031,0,0,0,-1,1.27369865655e+20,0,0,0,9.36272822423,0,0,-3.10372822628e-14,-0.0750443429033,0.180064779668,-0.117967651701,947916.025634,2104960.34068,3175.4206505
441,3157.53327083,0,19.9900390975,-0.0153236716134,-0.678092250556,1,-9.70356187978,8.89816624376,0.100093559754,0,0,210,2.88562280063e-05,0.187599294821,1.33468613633e+20,-3.1747304604,0.115213139139,-0.0357270618018,0.117591885064,-0.0790890456584,3177.53327083,1072.99626423,3167.56727083,2.34877347808e-12,1072.99626423,0,-0.0244942569797,0,0,-4.34462171605e-13,1.65890463782e-12,0.539621385926,4.4985371192e-16,6.28102595194e-06,0.000453734753076,-6.45471282844e-05,-0.00038290659884,0.000452018138506,-0.000492973414886,-0.000314928791928,6.28102595194e-06,4.15678642843e-05,1.36778832648e+20,1.35662887813e+20,0.00335496756244,0.00258480664747,1.36778832648e+20,1.36778832648e+20,64579.4887259,0,0,0,-1,1.27369507218e+20,0,0,0,9.9659999995,0,0,-2.39288928687e-12,-0.0793789374919,0.177116372115,-0.123495133848,947915.209464,2104957.34433,3177.53327083
441,3158.52503376,0,19.9918499104,0.00663695012208,-0.661287115074,1,-9.70080282832,8.89563619357,0.100134506369,0,0,210,2.84019453034e-05,0.187534924984,1.33459979768e+20,-3.18335566228,0.112650633298,-0.0372453096561,0.117891500339,-0.07802343052,3178.52503376,1110.22303427,3168.55903376,-2.73672136565e-12,1110.22303427,0,-0.0254995610398,0,0,-3.82454991646e-13,1.67767088147e-12,0.553696461454,-9.78406167856e-17,5.15322527e-06,0.000536112257181,-2.45873033677e-05,-0.000506371728544,0.000505440720569,-0.000598326578923,-0.000295575759741,5.15322527e-06,5.08079391741e-05,1.36778832648e+20,1.3566309527e+20,0.00335434386292,0.00268272326292,1.36778832648e+20,1.36778832648e+20,66198.9483675,0,0,0,-1,1.27370404025e+20,0,0,0,9.96599999941,0,0,2.70481129614e-12,-0.0835568120541,0.173120163414,-0.128211445991,947914.733177,2104955.59577,3178.52503376
441,3163.86700559,0,20.0021674301,0.106339162549,-0.626543393191,1,-9.68594164053,8.88200848437,0.100522101109,0,0,210,2.01234836194e-05,0.187264710195,1.33566991671e+20,-3.24016452847,0.127465558449,-0.0436292606893,0.12068026359,-0.0801783403935,3183.86700559,776.254216365,3173.90100559,-1.36424205266e-11,776.254216365,0,-0.031524597235,0,0,-1.9634375091e-13,2.59182738116e-14,0.380012186128,-1.40202054134e-15,4.4548495196e-06,0.00109532015603,-0.000191576329583,-0.000899288976931,0.000709327106217,-0.00119354149136,-9.71606552286e-05,4.4548495196e-06,9.84509612189e-05,1.36778832648e+20,1.35664338615e+20,0.00335060588146,0.00326956178829,1.36778832648e+20,1.36778832648e+20,47888.9390123,0,0,0,-1,1.27718724166e+20,0,0,0,9.96600000217,0,0,2.49479976791e-12,-0.098961826936,0.154399832149,-0.145457096961,947912.543235,2104947.55599,3183.86700559
441,3168.60167556,0,19.9998786989,0.175372003764,-0.448803964891,1,-9.6727699463,8.86993004075,0.100607749545,0,0,210,1.73773197734e-05,0.186907108233,1.33561861112e+20,-3.28981986248,0.144430860634,-0.0533786765222,0.100050330723,-0.0548361332285,3188.60167556,1274.82076949,3178.63567556,-1.12258642873e-11,1274.82076949,0,-0.0297073241993,0,0,4.36839548128e-13,-8.01172152317e-13,0.584248382804,6.47373545123e-16,-5.47883395638e-06,0.00107850044633,-2.02309855187e-05,-0.00106374829476,0.000485457001009,-0.000656785825636,0.000323539174452,-5.47883395638e-06,7.6958536116e-05,1.36778832648e+20,1.35663963597e+20,0.0033517333338,0.00309255939466,1.36778832648e+20,1.36778832648e+20,67853.6734502,0,0,0,-1,1.28217678096e+20,0,0,0,9.96599999794,0,0,1.11381622226e-11,-0.114854612084,0.132161215471,-0.178082291724,947910.085047,2104938.53141,3188.60167556
441,3166.09552123,0,20.0009535824,0.147540167178,-0.551852924057,1,-9.6797419842,8.87632339951,0.100614992768,0,0,210,2.00912724094e-05,0.187120474273,1.33543397838e+20,-3.26197193427,0.140320565216,-0.0479054848738,0.107977718023,-0.0682420142667,3186.09552123,990.442566191,3176.12952123,-1.36424205266e-11,990.442566191,0,-0.0304630896284,0,0,8.54445788265e-14,-4.97858105334e-13,0.467624287462,-2.93154304943e-16,7.88302369621e-07,0.00106418799772,-0.000125437763336,-0.000937961932019,0.000611858155161,-0.000941859736338,0.000140458036039,7.88302369621e-07,8.78170408654e-05,1.36778832648e+20,1.35664119559e+20,0.00335126445029,0.00316617094742,1.36778832648e+20,1.36778832648e+20,56325.5550841,0,0,0,-1,1.27645629053e+20,0,0,0,9.96600000028,0,0,5.97841729586e-12,-0.106810062698,0.144550878059,-0.160777008947,947911.303665,2104943.00524,3186.09552123
441,3130.61095561,0,19.8321194279,-0.157183589643,-0.571851522002,1,-9.77845886447,8.96684677872,0.0999948650545,0,0,210,1.22310087342e-05,0.189810538747,1.33034450891e+20,-2.77928899031,0.217150963071,-0.0532331903551,0.0516462553692,-0.0213773204761,3150.61095561,642.354550278,3157.94570981,0,642.354550278,0,0.046607704753,0,0,-1.75504242565e-14,1.15624227188e-15,0.315976818188,1.12039620356e-16,-1.48753112036e-06,-0.00349499954275,-0.000162161100911,0.00365567311254,-0.00119988014156,0.00651992484184,0.00392314210293,-1.48753112036e-06,0.000671993134752,1.36778832648e+20,1.35648215183e+20,0.00339907923758,-0.0043405244253,1.36778832648e+20,1.36778832648e+20,14787.2175281,0,0,0,0,1.28380596148e+20,0,0,0,-7.3347541922,0,0,3.37201837424e-12,-0.0980968133587,0.197053347391,0.0155075323357,947926.222049,2104997.7741,3150.61095561
441,3135.56441415,0,20.1386638836,-0.160915489149,-0.575448134175,1,-9.76467850773,8.95421019159,0.100309055267,0,0,210,2.68405731458e-05,0.189539268271,1.33315374891e+20,-2.87892432229,0.163252471196,-0.0458686284564,0.067357817585,-0.0316097024971,3155.56441415,915.935361106,3159.11842126,1.09904019456e-11,915.935361106,0,0.0332187789188,0,0,1.11992889508e-13,6.45780384486e-14,0.447137637564,6.32962684268e-16,5.17498676981e-07,-0.00236863901264,7.29112428826e-05,0.00229624526843,-0.00102269446251,0.00206501292985,0.00143062314474,5.17498676981e-07,0.000275121689288,1.36778832648e+20,1.35650978102e+20,0.00339077281976,-0.00303644304906,1.36778832648e+20,1.36778832648e+20,38232.145803,0,0,0,-5.63923487548,1.28192030679e+20,0,0,0,-3.55400711565,0,0,2.64165913337e-12,-0.0779590070177,0.196982564147,-0.0254801834549,947924.316281,2104990.77758,3155.56441415
441,3142.06467961,0,19.9932005741,-0.142900297323,-0.562195125163,1,-9.74659498562,8.93762760181,0.100224829823,0,0,210,1.41115249368e-05,0.18895588635,1.33379590194e+20,-2.97454742576,0.167498130916,-0.0332589030487,0.0855667674496,-0.0434766430641,3162.06467961,829.950631928,3160.97269688,-8.40854297982e-12,829.950631928,0,0.023797808781,0,0,-7.73283715584e-14,-2.12309993738e-13,0.400311210896,5.09628997907e-16,-5.69621178511e-07,-0.000800718211596,-0.000320155596565,0.00112030418698,-0.000578215285733,0.0012409476115,0.00059403072353,-5.69621178511e-07,0.000110195484669,1.36778832648e+20,1.35652922207e+20,0.00338492807871,-0.0021188405576,1.36778832648e+20,1.36778832648e+20,40094.5449908,0,0,0,-1,1.27855326001e+20,0,0,0,1.09198272472,0,0,0,-0.0661264943083,0.191140910721,-0.071678163341,947921.276096,2104979.61635,3162.06467961
441,3128.93641007,0,19.8732019469,-0.138268370351,-0.494873404056,1,-9.78311739443,8.97111865069,0.0999149748389,0,0,210,1.11407075025e-05,0.189914299152,1.33056597676e+20,-2.74296011332,0.228447169988,-0.061504271542,0.0501513653718,-0.018454468431,3148.93641007,614.17241995,3157.60132761,-4.17487521113e-12,614.17241995,0,0.0511449912868,0,0,2.05181170521e-14,-3.52680414312e-14,0.326766552132,-2.23372378922e-16,-5.47899119825e-06,-0.00631902133023,-0.00175653314371,0.00807007548274,-0.00350537281048,0.00656959835056,0.00320558384836,-5.47899119825e-06,0.00121934166574,1.36778832648e+20,1.3564727888e+20,0.00340189413104,-0.00478245613369,1.36778832648e+20,1.36778832648e+20,11189.9948669,0,0,0,0.306021589277,1.27619359308e+20,0,0,0,-8.66491754064,0,0,5.3290705182e-14,-0.127282666531,0.188362723945,0.0399677478578,947926.972753,2105000.53011,3148.93641007
441,3136.42018182,0,20.1299573185,-0.169919958777,-0.566716892148,1,-9.76229779055,8.95202707394,0.100326473625,0,0,210,2.42238399888e-05,0.189475521024,1.33321354408e+20,-2.89522252308,0.166043393766,-0.0438554224819,0.0701854316278,-0.032441788251,3156.42018182,931.479314703,3159.31339394,1.03351670657e-11,931.479314703,0,0.0309176728494,0,0,1.00802363091e-13,4.61314488298e-14,0.453434395833,5.05795098036e-16,1.43689331597e-06,-0.00197128623637,-5.10564213984e-05,0.00202377955108,-0.00092760050861,0.00139763302515,0.00113382968158,1.43689331597e-06,0.000201843473775,1.36778832648e+20,1.35651452955e+20,0.00338934522679,-0.00281231531791,1.36778832648e+20,1.36778832648e+20,40334.0479998,0,0,0,-6.27272727275,1.27916618014e+20,0,0,0,-2.89321211855,0,0,3.22973970791e-15,-0.0739419979857,0.196220476652,-0.0334454995552,947923.939394,2104989.39394,3156.42018182
441,3137.23560935,0,20.1332981468,-0.164787218414,-0.571313921914,1,-9.76002929831,8.94994686655,0.100298924094,0,0,210,2.43603200865e-05,0.189394560166,1.3333072213e+20,-2.90784887082,0.157574291384,-0.0421632791065,0.0719748510757,-0.0340901796203,3157.23560935,935.598506798,3159.58402186,1.10618609465e-11,935.598506798,0,0.0308088480262,0,0,7.12999889638e-14,1.11290457184e-13,0.45563325158,4.64704628979e-16,-1.31652786791e-07,-0.00177938168554,-8.9778566347e-05,0.0018690285991,-0.00087081461575,0.00146208932712,0.0011489058256,-1.31652786791e-07,0.00018868000749,1.36778832648e+20,1.35651475412e+20,0.00338927771265,-0.00280171578013,1.36778832648e+20,1.36778832648e+20,41080.1802968,0,0,0,-5.86505789419,1.276168082e+20,0,0,0,-2.34841250774,0,0,0,-0.071523280442,0.195210591072,-0.0399662606074,947923.537712,2104987.91927,3157.23560935
441,3103.86030764,43.2450394867,0,0,0,1,0,0,0,0,0,0,0,0,0,0,0,0,0,0,0,0,0,0,0,0,0.42444087772,0,0,11.3445597204,4.29384588117,31.8004272883,2.56972381169e-17,-2.1257009253e-05,-0.00325099866709,0.000987395499534,0.0022423461583,-0.00277055426966,0.00334340987604,-0.0109268898738,-2.1257009253e-05,0.00149224686303,1.30878787427e+20,1.35570251192e+20,0,-2.26419647985,1.30879796624e+20,1.31476672189e+20,1.61779726184e-10,-2.26419647985,-2.26419647985,-22.1226161397,0,1.28706614486e+20,0,0,0,0,0,0,0,-0.134136928412,0.0401948472362,0.0246444534864,947939.140247,2105045.19981,3103.86030764
441,3127.23804226,20.0480141684,0,0,0,1,0,0,0,0,0,0,0,0,0,0,0,0,0,0,0,0,0,0,0,0,0.191787673208,0,0,-3.0037788546,-12.3353568187,18.0119355793,-1.10774351546e-15,3.15227141399e-05,0.00821043440128,-0.00395730223619,-0.00422160945094,0.0082509502744,0.00111203585426,-0.00836376171465,3.15227141399e-05,0.00176829682346,1.30391487983e+20,1.35618256863e+20,0,-2.49607578626,1.30394889741e+20,1.31800611653e+20,1.13386645793e-09,-2.49607578626,-2.49607578626,-253.44813551,0,1.27937575417e+20,0,0,0,0,0,0,0,-0.108872097081,0.0214353582335,-0.0478346869307,947954.910161,2105103.09484,3127.23804226
441,3127.1576734,20.0486409623,0,0,0,1,0,0,0,0,0,0,0,0,0,0,0,0,0,0,0,0,0,0,0,0,0.192150753656,0,0,-3.00814848563,-12.3538049279,18.00429086,-1.10718226067e-15,3.1572474068e-05,0.00821070681599,-0.00399639131372,-0.0041827430282,0.00825710045321,0.00112150284959,-0.00838145143722,3.1572474068e-05,0.00176857238463,1.30394658401e+20,1.35618181942e+20,0,-2.49456582765,1.30398065338e+20,1.31801320437e+20,1.12723861205e-09,-2.49456582765,-2.49456582765,-252.141889662,0,1.27939677239e+20,0,0,0,0,0,0,0,-0.108906026237,0.0217201620496,-0.0475934014038,947954.887195,2105103.01052,3127.1576734
441,3138.43445117,19.9376533217,0,0,0,1,0,0,0,0,0,0,0,0,0,0,0,0,0,0,0,0,0,0,0,0,0.139902649343,0,0,-1.52270053596,-8.90842823518,17.161603409,-7.25252429296e-16,1.71190512232e-05,0.00831120590264,0.00121010687833,-0.00950419372975,0.00792451565654,-0.000350618165951,-0.00630851724691,1.71190512232e-05,0.00181268868233,1.29935167391e+20,1.35628963327e+20,0,-2.71339015576,1.2993801252e+20,1.3171416627e+20,-2.4482482332e-11,-2.71339015576,-2.71339015576,-396.637189779,0,1.28494483502e+20,0,0,0,0,0,0,0,-0.109114089159,-0.0171442194598,-0.0801468805939,947958.023278,2105114.52381,3138.43445117
441,3103.60564509,41.7656594015,0,0,0,1,0,0,0,0,0,0,0,0,0,0,0,0,0,0,0,0,0,0,0,0,0.420020508943,0,0,7.855870248,-6.40243748511,34.8603267663,-3.22430063581e-17,-1.68934369344e-05,-0.00158998073951,-0.000639703172361,0.00221279047494,0.000885649341341,0.00285562332602,-0.0130524475935,-1.68934369344e-05,0.00173745527366,1.30979964362e+20,1.35571163256e+20,0,-2.21607610795,1.30980989367e+20,1.3158146142e+20,9.84311468325e-10,-2.21607610795,-2.21607610795,-29.4842229904,0,1.28162230231e+20,0,0,0,0,0,0,0,-0.16515174495,0.0382490522335,0.0206077626872,947943.457696,2105061.05017,3103.60564509
441,3102.96219715,43.7018858307,0,0,0,1,0,0,0,0,0,0,0,0,0,0,0,0,0,0,0,0,0,0,0,0,0.426280028874,0,0,10.6552152034,-2.58754970996,43.234028547,1.23604435869e-16,-1.33364031574e-05,-0.00233912967942,-0.000188644263052,0.00251443753932,-0.000592337777161,0.00324599283812,-0.0125301851481,-1.33364031574e-05,0.00167257261636,1.30955183482e+20,1.3556987173e+20,0,-2.2278685564,1.30956167676e+20,1.31537751238e+20,-1.04587702792e-09,-2.2278685564,-2.2278685564,-31.7503758488,0,1.2912223022e+20,0,0,0,0,0,0,0,-0.15246357446,0.0377893084919,0.0195206394537,947941.55473,2105054.06394,3102.96219715
441,3103.73435868,41.2324115677,0,0,0,1,0,0,0,0,0,0,0,0,0,0,0,0,0,0,0,0,0,0,0,0,0.420469423446,0,0,7.41653968848,-7.66996414534,34.7606258234,-1.45269875633e-16,-2.28413956809e-05,-0.00135696421397,-0.000861660833156,0.00219578365144,0.00138815924787,0.00277527640198,-0.0132605765924,-2.28413956809e-05,0.00176795584397,1.30989128619e+20,1.35571070631e+20,0,-2.21171819825,1.30990165968e+20,1.31594958028e+20,1.29687055716e-09,-2.21171819825,-2.21171819825,-30.9255402898,0,1.28128895907e+20,0,0,0,0,0,0,0,-0.1674482437,0.0379969530623,0.0201372639797,947944.036019,2105063.17333,3103.73435868
441,3144.20486064,19.967347177,0,0,0,1,0,0,0,0,0,0,0,0,0,0,0,0,0,0,0,0,0,0,0,0,0.124570702929,0,0,-1.33361280895,-7.75289238688,17.8562021369,-6.98099896971e-16,1.44414848604e-05,0.00873161774129,0.00352294769166,-0.0122401239481,0.00762952564828,-0.000922872339062,-0.00500828833453,1.44414848604e-05,0.00192650745178,1.29761976893e+20,1.35632127124e+20,0,-2.79590726355,1.29763718381e+20,1.31638838587e+20,-3.61518983413e-11,-2.79590726355,-2.79590726355,-431.417423778,0,1.28888744512e+20,0,0,0,0,0,0,0,-0.11183191271,-0.040498610437,-0.102395897564,947959.649512,2105120.4941,3144.20486064
441,3140.53205392,19.9778901098,0,0,0,1,0,0,0,0,0,0,0,0,0,0,0,0,0,0,0,0,0,0,0,0,0.13380277019,0,0,-1.40529133635,-8.48548880863,17.141425523,-5.18963090186e-16,1.60484174252e-05,0.00779247020034,0.00263696098644,-0.0104133827694,0.00742289477098,-0.00076861255124,-0.00531279674711,1.60484174252e-05,0.00170407602002,1.29856526409e+20,1.35630222053e+20,0,-2.7508493946,1.29858882273e+20,1.31697652423e+20,6.64729145274e-10,-2.7508493946,-2.7508493946,-409.366432518,0,1.28506347839e+20,0,0,0,0,0,0,0,-0.106246620027,-0.0261180450607,-0.0867770439344,947958.630262,2105116.75219,3140.53205392
441,3151.16252412,20.0241759083,0,0,0,1,0,0,0,0,0,0,0,0,0,0,0,0,0,0,0,0,0,0,0,0,0.112485981293,0,0,-0.324355980065,-4.64270587918,15.1911807444,-6.18707346922e-16,3.57848968453e-06,0.0095538646752,0.00511849201478,-0.0146687782003,0.00924206046269,-0.00180242286368,-0.00517212757515,3.57848968453e-06,0.00238214164455,1.29590142359e+20,1.35634620841e+20,0,-2.87779757688,1.29590399292e+20,1.31491844246e+20,1.09825169743e-09,-2.87779757688,-2.87779757688,-378.168908349,0,1.29740543331e+20,0,0,0,0,0,0,0,-0.124378397462,-0.0632969517668,-0.127443755815,947961.660821,2105127.87808,3151.16252412
441,3103.77116106,43.4510404245,0,0,0,1,0,0,0,0,0,0,0,0,0,0,0,0,0,0,0,0,0,0,0,0,0.425553034499,0,0,11.0399754049,2.01401096089,33.3902862762,-2.84527909433e-17,-2.40254045966e-05,-0.00311574707407,0.00078787359694,0.00230384807254,-0.00237780217019,0.00346712498278,-0.0115217784812,-2.40254045966e-05,0.00157789837489,1.3089278017e+20,1.3557002172e+20,0,-2.25754280396,1.30893792342e+20,1.31489969508e+20,7.91399052867e-11,-2.25754280396,-2.25754280396,-23.3166614531,0,1.28667490684e+20,0,0,0,0,0,0,0,-0.141134916857,0.0404873223724,0.0253500455726,947939.687148,2105047.20761,3103.77116106
441,3120.51972078,23.3830422306,0,0,0,1,0,0,0,0,0,0,0,0,0,0,0,0,0,0,0,0,0,0,0,0,0.248295912292,0,0,-2.51749140098,-16.5730603568,22.1002366881,4.07394315112e-17,2.58277633285e-05,0.00590364701707,-0.00474270194763,-0.00113511730611,0.00985520132035,0.00156978558012,-0.0112337751495,2.58277633285e-05,0.00219620811006,1.306491749e+20,1.35606596618e+20,0,-2.37343997697,1.30650882335e+20,1.31792697132e+20,-8.64043154374e-10,-2.37343997697,-2.37343997697,-153.815778667,0,1.29280242887e+20,0,0,0,0,0,0,0,-0.160249730311,0.0467142237786,-0.0343883292469,947952.5731,2105094.51494,3120.51972078
441,3116.19562143,29.6064765856,0,0,0,1,0,0,0,0,0,0,0,0,0,0,0,0,0,0,0,0,0,0,0,0,0.282683400029,0,0,-2.25781457669,-17.1965224416,25.1841332928,-2.15310480684e-18,2.93595118908e-05,0.00462564223501,-0.00483441261834,0.000238129895212,0.0091430014127,0.00226524818364,-0.0123447031067,2.93595118908e-05,0.00223401752405,1.30783131122e+20,1.35599500999e+20,0,-2.30969722807,1.30784631506e+20,1.31772246658e+20,-6.78312501817e-10,-2.30969722807,-2.30969722807,-120.718657006,0,1.2905716215e+20,0,0,0,0,0,0,0,-0.169514841652,0.0508657566246,-0.0278850156576,947951.026406,2105088.83667,3116.19562143
441,3110.31515482,34.8238919884,0,0,0,1,0,0,0,0,0,0,0,0,0,0,0,0,0,0,0,0,0,0,0,0,0.34646820779,0,0,0.538890745317,-16.1639643556,29.8831662741,3.05484183641e-16,1.23195621988e-05,0.00193596910105,-0.00344108868348,0.00151743914463,0.00709117010416,0.00241720340248,-0.0135783239473,1.23195621988e-05,0.00214138987485,1.30926531975e+20,1.35586339667e+20,0,-2.24148760088,1.30928085296e+20,1.31715523597e+20,1.24226018495e-09,-2.24148760088,-2.24148760088,-67.4977030311,0,1.29284864099e+20,0,0,0,0,0,0,0,-0.18886876211,0.0507889873769,-0.0082384746534,947948.500602,2105079.56386,3110.31515482
441,3107.58573284,37.8528639897,0,0,0,1,0,0,0,0,0,0,0,0,0,0,0,0,0,0,0,0,0,0,0,0,0.381408713138,0,0,2.07515053914,-15.4942565535,31.056015582,9.04210288405e-17,-2.41434905419e-06,0.000907222794299,-0.00268888541596,0.00177924827261,0.00512277704288,0.00258381539655,-0.0126154651851,-2.41434905419e-06,0.00182788207675,1.30970785266e+20,1.35579130192e+20,0,-2.22044311488,1.30972120685e+20,1.31678743361e+20,-4.31388189365e-10,-2.22044311488,-2.22044311488,-52.1588903608,0,1.29278684136e+20,0,0,0,0,0,0,0,-0.182223167293,0.0438614038552,0.00180430094897,947947.296147,2105075.14202,3107.58573284
441,3167.34010026,20.0018345897,0,0,0,1,0,0,0,0,0,0,0,0,0,0,0,0,0,0,0,0,0,0,0,0,0.132369738801,0,0,-0.299786694303,-3.99982358136,11.6496164807,-2.17696854089e-18,-8.6335248851e-05,0.0120424369461,0.00991973880499,-0.0220485109999,0.00536997538385,0.00816948312998,-0.00949836095642,-8.6335248851e-05,0.0037898294357,1.2917965837e+20,1.35630517767e+20,0,-3.07352797882,1.29185438634e+20,1.31115440864e+20,-1.33424552556e-09,-3.07352797882,-3.07352797882,-224.828796695,0,1.30235690648e+20,0,0,0,0,0,0,0,-0.202326932957,-0.0199046832342,-0.116648137255,947966.781003,2105146.67546,3167.34010026
441,3160.73558107,19.9904466079,0,0,0,1,0,0,0,0,0,0,0,0,0,0,0,0,0,0,0,0,0,0,0,0,0.0774584874662,0,0,-0.0309761561779,-4.23818185021,15.4509607233,-1.10956341644e-15,6.00007954423e-06,0.00996072603241,0.00990428775382,-0.0198590137067,0.00723274715247,0.00369538606655,-0.00568758841316,6.00007954423e-06,0.00306665963072,1.29377063831e+20,1.35641848938e+20,0,-2.9793860241,1.29379771896e+20,1.31121850722e+20,-9.06552926312e-10,-2.9793860241,-2.9793860241,-335.484109993,0,1.28131352591e+20,0,0,0,0,0,0,0,-0.157604812837,-0.0794514849204,-0.147080812592,947964.413361,2105137.9833,3160.73558107
441,3113.42275179,32.6984724709,0,0,0,1,0,0,0,0,0,0,0,0,0,0,0,0,0,0,0,0,0,0,0,0,0.305486478262,0,0,-1.33033211638,-16.2078957698,25.7023329103,-1.44009463829e-16,2.41392379729e-05,0.00360741105369,-0.00424784612142,0.000664574305711,0.00809381031264,0.00251298527207,-0.0130693089096,2.41392379729e-05,0.00217940299364,1.30863743046e+20,1.35594795793e+20,0,-2.27135581507,1.30865297662e+20,1.31747771278e+20,-1.14622546957e-10,-2.27135581507,-2.27135581507,-85.0891419036,0,1.29080956796e+20,0,0,0,0,0,0,0,-0.176580272728,0.0491562156999,-0.0192764941997,947950.071317,2105085.33031,3113.42275179
441,3127.13522147,20.0515302028,0,0,0,1,0,0,0,0,0,0,0,0,0,0,0,0,0,0,0,0,0,0,0,0,0.192253114971,0,0,-3.00836463337,-12.3532264942,18.0032891678,-1.10926508102e-15,3.16066492638e-05,0.00820965730208,-0.00400166181546,-0.00417638883736,0.00826096622976,0.0011257605648,-0.00839084496525,3.16066492638e-05,0.00176998704021,1.30395511824e+20,1.3561816082e+20,0,-2.49415952129,1.30398914077e+20,1.31801400723e+20,1.12621985241e-09,-2.49415952129,-2.49415952129,-251.770686176,0,1.27939867814e+20,0,0,0,0,0,0,0,-0.108988337492,0.0217933798209,-0.0475523338699,947954.87937,2105102.9818,3127.13522147
441,3158.58414282,19.9978532275,0,0,0,1,0,0,0,0,0,0,0,0,0,0,0,0,0,0,0,0,0,0,0,0,0.0788087240599,0,0,-0.0649062266919,-4.47306457124,16.0976218054,-1.08452324858e-15,1.92805507526e-05,0.00980906791064,0.00896879719848,-0.0187585845584,0.00780012181435,0.00204649642546,-0.00526388932615,1.92805507526e-05,0.00286977206615,1.29438278479e+20,1.35641570304e+20,0,-2.95019629259,1.29440296282e+20,1.31242042808e+20,-4.97702812752e-10,-2.95019629259,-2.95019629259,-354.370666375,0,1.2808512311e+20,0,0,0,0,0,0,0,-0.148722005767,-0.0832895448794,-0.148061234308,947963.793145,2105135.70634,3158.58414282
441,3160.03411656,19.9891446828,0,0,0,1,0,0,0,0,0,0,0,0,0,0,0,0,0,0,0,0,0,0,0,0,0.0690649218516,0,0,0.0803710520525,-4.29322863473,15.7473982408,-1.20619806554e-15,2.24032173297e-05,0.00969612025954,0.00975756628697,-0.0194312833292,0.00738930674026,0.0029261706321,-0.00521509447523,2.24032173297e-05,0.00293738687505,1.29401047799e+20,1.35643580975e+20,0,-2.967946651,1.29403737965e+20,1.31185468248e+20,-7.6238583224e-10,-2.967946651,-2.967946651,-343.28855327,0,1.28140526629e+20,0,0,0,0,0,0,0,-0.151678174307,-0.088076261612,-0.152044368791,947964.171231,2105137.09438,3160.03411656
441,3104.19386849,41.7161052632,0,0,0,1,0,0,0,0,0,0,0,0,0,0,0,0,0,0,0,0,0,0,0,0,0.412464088347,0,0,6.06539753968,-7.90553918691,31.0608154492,-1.86100019851e-16,-2.05404425451e-05,-0.00110744433222,-0.00112197305429,0.00220887694397,0.00205822367682,0.00271610398774,-0.0134890055514,-2.05404425451e-05,0.00182333184801,1.30991017607e+20,1.35572722402e+20,0,-2.21081727063,1.3099208091e+20,1.31608559777e+20,9.81383642243e-10,-2.21081727063,-2.21081727063,-28.9467221115,0,1.28131005637e+20,0,0,0,0,0,0,0,-0.169756602702,0.0387506314532,0.0172772629851,947944.570744,2105065.13643,3104.19386849
441,3106.0172295,41.1912514735,0,0,0,1,0,0,0,0,0,0,0,0,0,0,0,0,0,0,0,0,0,0,0,0,0.396156633238,0,0,2.97904575146,-11.575760624,26.1660797627,-2.36947701933e-16,-1.17241665108e-05,-0.000177015541494,-0.00203545643241,0.0022007478074,0.00397475412334,0.00276121419686,-0.013095372105,-1.17241665108e-05,0.00183663663501,1.30985321016e+20,1.35576087169e+20,0,-2.21352894654,1.30986489088e+20,1.31650898834e+20,-1.1342610703e-09,-2.21352894654,-2.21352894654,-33.2091781476,0,1.29131220726e+20,0,0,0,0,0,0,0,-0.182292515032,0.0414992628631,0.00874411778691,947946.155747,2105070.95534,3106.0172295
441,3103.86030764,0,43.2879128425,0.292203269709,-0.0269108659387,1,-9.7880310136,8.97562443947,0.100349116787,0,0,210,0.000172833711826,0.190261164057,1.33442573074e+20,-2.26371644188,0.42444087772,-0.134136928412,0.0401948472362,0.0246444534864,3146.83501032,0,3153.98261101,-10.0548109319,2.98093946052e-10,0,0.0278128026138,0,0,4.13739685341e-13,1.42380879796e-14,0.32292023732,7.24974516402e-16,8.31851562077e-06,-0.00481980162632,0.00155489667506,0.00327322346688,-0.00114449759193,-0.000647235681941,-0.00286877381816,8.31851562077e-06,0.000430041935323,1.36778832648e+20,1.35652093673e+20,0.00338741897666,-0.00250990095694,1.36778832648e+20,1.36778832648e+20,16120.2927746,0,0,0,1,1.2807517045e+20,0,0,0,-6.81244032701,0,0,-11.2004082234,-0.70482508941,0.165496054802,0.159264246751,947939.140247,2105045.19981,3147.17017068
441,3127.23804226,0,19.8660625599,0.59871142296,0.566100048462,1,-9.78784219714,8.97545129477,0.10013810411,0,0,210,2.59540765785e-05,0.19015883475,1.33288745682e+20,-2.4944564226,0.191787673208,-0.108872097081,0.0214353582335,-0.0478346869307,3147.23804226,696.929963317,3155.11659645,-1.35500041293e-11,696.929963317,0,0.0702839542475,0,0,-2.56471260006e-13,5.95081690028e-14,0.488025327553,-1.54427243384e-17,-2.38436744705e-05,-5.16311533734e-05,-0.013352289837,0.0133800773159,0.00908920165083,-0.0117590505357,-0.00956348266949,-2.38436744705e-05,0.00276793327696,1.36778832648e+20,1.3564332942e+20,0.00341376775727,-0.00664659112606,1.36778832648e+20,1.36778832648e+20,22294.2121796,0,0,0,-0.00677419355845,1.27370544645e+20,0,0,0,-7.87855419132,0,0,-2.63746014272e-14,-0.377127148029,-0.039689369976,0.00363210336029,947954.910161,2105103.09484,3147.23804226
441,3127.15767341,0,19.8646826669,0.598374843486,0.564930435502,1,-9.78806578061,8.97565632082,0.100137928521,0,0,210,2.59491208612e-05,0.190165490301,1.33287619908e+20,-2.49294400465,0.192150753656,-0.108906026237,0.0217201620496,-0.0475934014038,3147.15767341,694.16225819,3155.10386911,-1.36184904538e-11,694.16225819,0,0.0703840222741,0,0,-2.52040601701e-13,5.89162122958e-14,0.486804653924,-2.42244427061e-17,-2.39487162532e-05,-4.33491282521e-05,-0.013428588542,0.013447988954,0.00912954061109,-0.0118040529666,-0.00958622759657,-2.39487162532e-05,0.00278021771732,1.36778832648e+20,1.3564330877e+20,0.00341382983846,-0.00665633775186,1.36778832648e+20,1.36778832648e+20,22021.6430557,0,0,0,0,1.27370541162e+20,0,0,0,-7.94619570451,0,0,-2.62180295075e-15,-0.377691235753,-0.0391070807493,0.00459869446334,947954.887195,2105103.01052,3147.15767341
441,3138.43445117,0,20.0719928907,0.607863850206,0.780568060559,1,-9.75669416029,8.94688854499,0.100172089784,0,0,210,2.78106029235e-05,0.189235993136,1.33440501111e+20,-2.71203478418,0.139902649343,-0.109114089159,-0.0171442194598,-0.0801468805939,3158.43445117,1008.62098591,3156.72201528,3.75346374773e-12,1008.62098591,0,0.0534767651941,0,0,-5.61181161413e-13,1.33565157267e-13,0.597418915541,1.2054451876e-15,-1.92610551817e-06,-0.00162495805454,-0.000164774249882,0.0017878061989,0.00325202131508,-0.00691889205046,-0.00445368361374,-1.92610551817e-06,0.000888907924204,1.36778832648e+20,1.35646797699e+20,0.00340334074919,-0.00500957091226,1.36778832648e+20,1.36778832648e+20,56905.4873515,0,0,0,-0.724868197662,1.28553538226e+20,0,0,0,1.71243588526,0,0,9.65718435436e-15,-0.289724599912,-0.136817311794,-0.131343169989,947958.023278,2105114.52381,3158.43445117
441,3103.60564509,0,41.7216347961,0.293093775179,-0.0916448674495,1,-9.79320206756,8.98036629595,0.0999058552154,0,0,210,8.28806949911e-05,0.19021394657,1.32622595171e+20,-2.21558863422,0.420020508943,-0.16515174495,0.0382490522335,0.0206077626872,3144.97638987,0,3153.70716996,-10.0501336891,-9.54684833096e-10,0,0.0338262370436,0,0,-4.75189963675e-13,1.94044378722e-13,0.366080136525,-1.56590972321e-16,7.67101028232e-06,-0.00436007762209,0.000462248386446,0.00390550024593,0.000578624324337,0.000378715218595,-0.00248889548376,7.67101028232e-06,0.000388336905598,1.36778832648e+20,1.35650852747e+20,0.0033911496883,-0.0030956094704,1.36778832648e+20,1.36778832648e+20,21228.2098321,0,0,0,1,1.27380096169e+20,0,0,0,-8.39577563802,0,0,-11.3026429785,-0.72178563862,0.181150110174,0.152514163446,947943.457696,2105061.05017,3145.31139432
441,3102.96219715,0,43.7181537491,0.276341888732,-0.156040993803,1,-9.78944305563,8.97691928201,0.0997934514495,0,0,210,0.000152964969257,0.190049218342,1.33255953071e+20,-2.22740046431,0.426280028874,-0.15246357446,0.0377893084919,0.0195206394537,3146.32953231,0,3153.75796112,-9.99206005043,9.90870367181e-10,0,0.0295815724961,0,0,2.09005545986e-14,-2.92989404462e-14,0.43476472594,1.18219291596e-15,1.09739988682e-05,-0.00415471301916,0.00100628760915,0.00315939940888,0.000135598668641,0.000847537333132,-0.00205462564592,1.09739988682e-05,0.00033375101294,1.36778832648e+20,1.35651728671e+20,0.00338851631564,-0.00268217914348,1.36778832648e+20,1.36778832648e+20,22030.4986003,0,0,0,1,1.29346432565e+20,0,0,0,-7.09536014555,0,0,-11.2503756931,-0.721875581572,0.18002864982,0.156060886678,947941.55473,2105054.06394,3146.66260098
441,3103.73435868,0,41.1811192933,0.29308316951,-0.0629340134129,1,-9.79435930265,8.98142748053,0.0999108509599,0,0,210,6.21525823244e-05,0.19025109893,1.32558305608e+20,-2.21122485836,0.420469423446,-0.1674482437,0.0379969530623,0.0201372639797,3144.55919927,0,3153.64989916,-10.0865315353,-1.53979041138e-09,0,0.0350341045818,0,0,-6.11722454886e-13,2.04002559716e-13,0.368774695302,-6.41415300149e-16,6.63727947332e-06,-0.00435901951563,0.000235757966739,0.00412989882836,0.000719413404661,0.000204333883344,-0.002491223949,6.63727947332e-06,0.000396372974185,1.36778832648e+20,1.35650603492e+20,0.00339189904413,-0.00321325576863,1.36778832648e+20,1.36778832648e+20,22311.9798566,0,0,0,1,1.27380762701e+20,0,0,0,-8.75448217126,0,0,-11.3443660835,-0.721268527094,0.180626665773,0.150910556464,947944.036019,2105063.17333,3144.89541699
441,3144.20486064,0,20.0505559105,0.632870482895,0.773500250784,1,-9.74064107322,8.93216786414,0.100371838806,0,0,210,2.44381658387e-05,0.188843838988,1.33601941235e+20,-2.79507751211,0.124570702929,-0.11183191271,-0.040498610437,-0.102395897564,3164.20486064,1089.46957285,3158.84208681,0,1089.46957285,0,0.0426576501217,0,0,-1.26421219284e-12,2.03483772425e-14,0.6468017244,3.03770229147e-15,1.99977043623e-06,-0.00192819508139,0.000991382942138,0.000938811909691,0.00135475293877,-0.00419343441231,-0.00421694901777,1.99977043623e-06,0.000590275176038,1.36778832648e+20,1.35649030316e+20,0.00339662862846,-0.00395578910421,1.36778832648e+20,1.36778832648e+20,73724.4439219,0,0,0,-1,1.28864694155e+20,0,0,0,5.36277383061,0,0,-9.95269837192e-15,-0.276965825579,-0.148437351135,-0.182516208347,947959.649512,2105120.4941,3164.20486064
441,3140.53205392,0,20.0527761565,0.61806066882,0.796899295105,1,-9.75085869925,8.94153742721,0.100305865559,0,0,210,2.75722138037e-05,0.189121453775,1.33478581718e+20,-2.74972692511,0.13380277019,-0.106246620027,-0.0261180450607,-0.0867770439344,3160.53205392,1020.0699694,3157.08894905,3.38068513489e-12,1020.0699694,0,0.0508554628821,0,0,-6.04955316784e-13,1.23422738607e-13,0.607307842502,1.5583802641e-15,-2.88859970445e-06,-0.00196237158365,0.000352454573455,0.00160702841049,0.00238188689397,-0.00529104454666,-0.00437058238294,-2.88859970445e-06,0.000699962897569,1.36778832648e+20,1.35647338626e+20,0.00340171451299,-0.00475425606707,1.36778832648e+20,1.36778832648e+20,61194.1076509,0,0,0,-1,1.28457846444e+20,0,0,0,3.44310486794,0,0,-3.37066390892e-12,-0.274797797525,-0.147960248415,-0.156518980752,947958.630262,2105116.75219,3160.53205392
441,3151.16252412,0,19.96720423,0.630395650948,0.768866174885,1,-9.72128508504,8.91441842298,0.100447339144,0,0,210,3.23690724051e-05,0.188295273201,1.33680969256e+20,-2.87767510454,0.112485981293,-0.124378397462,-0.0632969517668,-0.127443755815,3171.16252412,999.876071294,3161.20869536,-5.98958468973e-12,999.876071294,0,0.0238781286209,0,0,-8.51455059697e-13,3.9068661512e-14,0.590483738027,4.66868560829e-15,6.81101124535e-06,-0.00120556832508,0.00140826734886,-0.00019588801254,-0.00123619638878,-0.00145755296869,-0.00356052818815,6.81101124535e-06,0.000293050730432,1.36778832648e+20,1.3565290563e+20,0.00338497791607,-0.00212666371004,1.36778832648e+20,1.36778832648e+20,83137.4339019,0,0,0,-1,1.29770688817e+20,0,0,0,9.95382876499,0,0,-6.4970747935e-15,-0.281481186636,-0.141494353664,-0.233411965715,947961.660821,2105127.87808,3171.16252412
441,3103.77116106,0,43.5118837906,0.294484045265,-0.0470570591636,1,-9.78770001577,8.97532091446,0.10026792589,0,0,210,0.000180179456405,0.190214007718,1.33528365167e+20,-2.25706136147,0.425553034499,-0.141134916857,0.0404873223724,0.0253500455726,3146.95409452,0,3153.90642372,-10.0516789077,0,0,0.0273365310894,0,0,4.58381266592e-13,2.23374766673e-14,0.337082867573,9.23084987034e-16,8.82614747172e-06,-0.0046880560001,0.00157406237705,0.00312281977053,-0.000876052974146,-0.000419593252212,-0.00274218797782,8.82614747172e-06,0.000405705050444,1.36778832648e+20,1.35652191956e+20,0.00338712349954,-0.00246351211046,1.36778832648e+20,1.36778832648e+20,16495.9157841,0,0,0,1,1.28101663501e+20,0,0,0,-6.61727323887,0,0,-11.214617608,-0.710009386087,0.16843969206,0.158955419515,947939.687148,2105047.20761,3147.28915048
441,3120.51972078,0,23.4487486422,0.385012757858,0.0595110004355,1,-9.79707233274,8.98391532912,0.100195181396,0,0,210,2.09894048469e-05,0.190463054484,1.32643950578e+20,-2.3726274904,0.248295912292,-0.160249730311,0.0467142237786,-0.0343883292469,3143.46458013,0,3154.44157746,-13.6685002002,0,0,0.0615154751391,0,0,1.35835711101e-13,5.87536261383e-15,0.415094888907,-2.31643263833e-15,4.25937623986e-06,-0.00147205371351,-0.0144762530054,0.0159525660951,0.00581572126614,0.00300315103619,-0.00799309877347,4.25937623986e-06,0.00234659268423,1.36778832648e+20,1.35645138856e+20,0.00340832788146,-0.0057925412609,1.36778832648e+20,1.36778832648e+20,21113.9828129,0,0,0,1,1.29524354062e+20,0,0,0,-10.5213806532,0,0,-15.3561650145,-0.532558661039,0.110144829563,0.109866411628,947952.5731,2105094.51494,3143.9201968
441,3116.19562143,0,29.6103648873,0.318884731132,-0.119399927809,1,-9.79177649829,8.97905904893,0.100335565703,0,0,210,8.98512476181e-05,0.190367799234,1.3317964397e+20,-2.30898344464,0.282683400029,-0.169514841652,0.0508657566246,-0.0278850156576,3145.49406416,0,3154.1748431,-9.89287047833,0,0,0.038423459863,0,0,-2.75758118114e-13,8.54313751123e-14,0.407882846685,-1.93269322876e-15,1.89071022065e-05,-0.00256422041341,-0.00369102371959,0.00627415123521,0.00354129030429,0.00274419894572,-0.00336149851067,1.89071022065e-05,0.000798459158247,1.36778832648e+20,1.35649904073e+20,0.0033940017714,-0.00354337897299,1.36778832648e+20,1.36778832648e+20,23970.8674778,0,0,0,1,1.28966852167e+20,0,0,0,-8.3510165966,0,0,-11.1198496026,-0.608649575427,0.157503764454,0.128133973368,947951.026406,2105088.83667,3145.82382651
441,3110.31515482,0,34.785744711,0.29221471185,-0.113885787827,1,-9.79378222979,8.98089830472,0.100162680076,0,0,210,4.82095699385e-05,0.190349047395,1.33233241207e+20,-2.24074881235,0.34646820779,-0.18886876211,0.0507889873769,-0.0082384746534,3144.76455496,0,3153.76574036,-10.148863365,1.1344182204e-09,0,0.0342293609866,0,0,2.87798834292e-13,1.87207511863e-14,0.385929496414,1.35588534102e-15,2.17716609932e-06,-0.00332383311381,-0.00109772089304,0.00442373117294,0.00251324074727,0.00101745103035,-0.00253928207602,2.17716609932e-06,0.000459377273655,1.36778832648e+20,1.35650769558e+20,0.00339139978423,-0.00313487374246,1.36778832648e+20,1.36778832648e+20,25489.9134887,0,0,0,1,1.29120576408e+20,0,0,0,-8.66288995449,0,0,-11.4067947383,-0.671142064271,0.175983520622,0.136789253035,947948.500602,2105079.56386,3145.10285041
441,3107.58573284,0,37.8460691632,0.274518246664,-0.113578350322,1,-9.79292848023,8.98011541638,0.100124809165,0,0,210,7.42047407856e-05,0.190305981884,1.33089772994e+20,-2.21980799072,0.381408713138,-0.182223167293,0.0438614038552,0.00180430094897,3145.07177657,0,3153.69933174,-10.1388265538,9.75410872632e-10,0,0.0321372843756,0,0,3.64986287878e-13,1.04195449414e-13,0.371525191151,8.48082663811e-16,4.3222817059e-06,-0.00358730796555,-0.000566510417255,0.00415814066451,0.00213739959075,0.00103392715754,-0.00215632452845,4.3222817059e-06,0.000424863087328,1.36778832648e+20,1.35651201277e+20,0.00339010186962,-0.00293110548053,1.36778832648e+20,1.36778832648e+20,22986.132235,0,0,0,1,1.29392030013e+20,0,0,0,-8.28959428632,0,0,-11.3933484362,-0.691403084691,0.182277825667,0.142931760478,947947.296147,2105075.14202,3145.40973746
441,3167.34010026,0,19.9976363042,0.512589979418,0.619609075744,1,-9.67627960677,8.87314839941,0.100884842697,0,0,210,5.51232735852e-06,0.187139749546,1.34072338415e+20,-3.07077087657,0.132369738801,-0.202326932957,-0.0199046832342,-0.116648137255,3187.34010026,640.602991221,3177.37410026,1.84298662523e-11,640.602991221,0,0.00888216685092,0,0,-7.5767460174e-13,-1.40629143167e-12,0.342378035812,-3.39143249091e-16,-5.05566487009e-07,-0.00152993975767,0.00134256228185,0.00018687190934,-0.0012841559628,-0.000172238696527,-0.00180912017421,-5.05566487009e-07,0.000170738602526,1.36778832648e+20,1.35656000197e+20,0.00337567443415,-0.000666057033621,1.36778832648e+20,1.36778832648e+20,50603.790283,0,0,0,-1,1.30249604688e+20,0,0,0,9.96600000001,0,0,-9.19763825348e-12,-0.299779607366,-0.122851867472,-0.286366126975,947966.781003,2105146.67546,3187.34010026
441,3160.73558107,0,20.0096236808,0.588084932136,0.692509551002,1,-9.6946531593,8.88999694708,0.100794805341,0,0,210,1.36744789744e-05,0.187652059444,1.33887080759e+20,-2.97809464748,0.0774584874662,-0.157604812837,-0.0794514849204,-0.147080812592,3180.73558107,994.402146906,3170.76958107,0,994.402146906,0,0.014280476535,0,0,-1.02984132434e-12,-1.36524697357e-12,0.561009247335,-2.16946619067e-15,-4.50875584267e-06,-0.0017681018417,0.00204231068407,-0.000278717598216,-0.00125944781112,-0.000626689734313,-0.00298324715229,-4.50875584267e-06,0.000293976587174,1.36778832648e+20,1.356548862e+20,0.00337902354613,-0.00119185239686,1.36778832648e+20,1.36778832648e+20,87819.125756,0,0,0,-1,1.28099182927e+20,0,0,0,9.96599999876,0,0,5.3290705182e-14,-0.299979741822,-0.126412268981,-0.277150571123,947964.413361,2105137.9833,3180.73558107
441,3113.42275179,0,32.6999826571,0.290518833471,-0.160899586296,1,-9.79092862619,8.97828155022,0.100443401115,0,0,210,0.000108026177752,0.190391642198,1.33451988377e+20,-2.270616336,0.305486478262,-0.176580272728,0.0491562156999,-0.0192764941997,3145.83366712,0,3154.00946932,-8.84801189889,0,0,0.0327088390891,0,0,-3.03509219367e-13,4.85427280276e-14,0.370761856429,-1.59400660325e-15,1.44519820268e-05,-0.00338001668705,6.58848195313e-05,0.00332858384955,0.00295225084299,0.00135984655897,-0.00208368460556,1.44519820268e-05,0.000323509255019,1.36778832648e+20,1.35651083332e+20,0.00339045645861,-0.00298677490963,1.36778832648e+20,1.36778832648e+20,21251.3787048,0,0,0,1,1.28867984957e+20,0,0,0,-7.88086846928,0,0,-9.94667297514,-0.63710017625,0.169709698556,0.130380360424,947950.071317,2105085.33031,3146.12860085
441,3127.13522147,0,19.8683568708,0.59806323595,0.563230086717,1,-9.78811996132,8.97570600453,0.100138185429,0,0,210,2.58791445011e-05,0.19016724028,1.33285358401e+20,-2.49253992977,0.192253114971,-0.108988337492,0.0217933798209,-0.0475523338699,3147.13671611,691.750046264,3155.10172912,-0.0444484767868,691.750046264,0,0.0704004365694,0,0,-2.50807978191e-13,5.87326906104e-14,0.486382320751,-2.88592020419e-17,-2.39511386542e-05,-4.04744761636e-05,-0.0134617333168,0.0134782566543,0.00912689200005,-0.0117619013375,-0.00959735494424,-2.39511386542e-05,0.00278217524723,1.36778832648e+20,1.35643305383e+20,0.00341384002171,-0.00665793650421,1.36778832648e+20,1.36778832648e+20,21967.1656473,0,0,0,0.00303380526308,1.27370531048e+20,0,0,0,-7.96353140242,0,0,-0.0499541457316,-0.378129110562,-0.0385867531848,0.00494864615427,947954.87937,2105102.9818,3147.13819772
441,3158.58414282,0,19.9999570091,0.599043711286,0.708607291297,1,-9.70063838888,8.8954854026,0.100684124342,0,0,210,1.97675992644e-05,0.187781688003,1.33799671712e+20,-2.94923420762,0.0788087240599,-0.148722005767,-0.0832895448794,-0.148061234308,3178.58414282,1048.69123068,3168.62283234,-2.20608150645e-12,1048.69123068,0,0.0164390366756,0,0,-7.85053909432e-13,-1.13505724492e-12,0.595535360462,-1.67492545477e-15,-3.55201998051e-06,-0.00174698188094,0.00200883741443,-0.000265407553478,-0.00123525226342,-0.000824274174636,-0.00314059366037,-3.55201998051e-06,0.000303412649373,1.36778832648e+20,1.3565444076e+20,0.00338036271416,-0.00140209615455,1.36778832648e+20,1.36778832648e+20,91182.1332087,0,0,0,-1,1.28055672755e+20,0,0,0,9.96131048247,0,0,5.3290705182e-14,-0.296894141953,-0.130817548355,-0.267998540599,947963.793145,2105135.70634,3178.58414282
441,3160.03411656,0,20.0112320621,0.586918866148,0.707667267018,1,-9.69660461022,8.89178642757,0.100751939572,0,0,210,1.62131624496e-05,0.187691219504,1.33835580696e+20,-2.96666391948,0.0690649218516,-0.151678174307,-0.088076261612,-0.152044368791,3180.03411656,1024.78362187,3170.06811656,-1.28760538397e-12,1024.78362187,0,0.0148368294985,0,0,-9.56655879805e-13,-1.28720362433e-12,0.580191540475,-1.93499957429e-15,-4.39111120874e-06,-0.00175960940854,0.00204357783706,-0.000288359539721,-0.00124085811183,-0.000679980312541,-0.00301111664903,-4.39111120874e-06,0.000294886888023,1.36778832648e+20,1.35654771391e+20,0.00337936870744,-0.00124604117549,1.36778832648e+20,1.36778832648e+20,90410.0294302,0,0,0,-1,1.28107715023e+20,0,0,0,9.96599999904,0,0,4.82609966509e-14,-0.299401413237,-0.128114752751,-0.274747809629,947964.171231,2105137.09438,3180.03411656
441,3104.19386849,0,41.7108882855,0.303806599112,-0.0632805911963,1,-9.79157186062,8.97887139619,0.0998980530686,0,0,210,0.000124121684528,0.190161259549,1.32827650155e+20,-2.21031158895,0.412464088347,-0.169756602702,0.0387506314532,0.0172772629851,3145.56279946,0,3153.64741288,-10.037570175,-1.29415781699e-09,0,0.0337755539823,0,0,-5.09031360626e-13,1.98497466154e-13,0.336575725859,3.06678729977e-16,6.2369133274e-06,-0.00406879821714,0.000265416573912,0.00380961855655,0.00101700793048,0.000484992526304,-0.00286030447423,6.2369133274e-06,0.000406601031252,1.36778832648e+20,1.35650863205e+20,0.00339111824482,-0.00309067294023,1.36778832648e+20,1.36778832648e+20,19006.1061232,0,0,0,1,1.27380342949e+20,0,0,0,-7.75002774826,0,0,-11.288211567,-0.721113734566,0.183170682771,0.151806441482,947944.570744,2105065.13643,3145.89738514
441,3106.0172295,0,41.2702805764,0.294365379175,-0.0861291177677,1,-9.78772215121,8.97534121266,0.0999738303436,0,0,210,0.000199754666423,0.190079983063,1.33329002092e+20,-2.21297343876,0.396156633238,-0.182292515032,0.0414992628631,0.00874411778691,3146.94868629,0,3153.66699744,-9.97522278847,0,0,0.0317032801098,0,0,-8.44937427317e-14,8.20892686834e-14,0.301481275971,1.25921693845e-16,7.26012463052e-06,-0.00350133668115,8.94180273396e-05,0.00341917877844,0.00184792115868,0.00126227409296,-0.00283787505155,7.26012463052e-06,0.000400848802534,1.36778832648e+20,1.35651290838e+20,0.00338983261511,-0.00288883346503,1.36778832648e+20,1.36778832648e+20,15030.9260699,0,0,0,1,1.29394812283e+20,0,0,0,-6.38580371821,0,0,-11.2148014402,-0.712290770904,0.187512579663,0.150514587695,947946.155747,2105070.95534,3147.28119372
