#Time,"zbed","depth","height","surfgrad1","surfgrad2","densrel","mass balance","melting","rain","firn","accu","potrad","refreeze","bottomwater","enthbellowactive","outbedtemp","outbedpres","outbedvel1","outbedvel2","outbedvel3","zs top","zs top residual","ref zs top","zs top velocity","zs top loads","qlat","pressure","dsdt","ds","flow solution loads 1","flow solution loads 2","flow solution loads 3","flow solution loads 4","eij","strainrate 1","strainrate 2","strainrate 3","strainrate 4","strainrate 5","strainrate 6","strainrate 7","flow solution deformational heat","enthalpy_h","phase change enthalpy","water content","temperature","surface enthalpy","save enthalpy subgrid","enthalpy_h contact load","bedtemperatureexp","rock_temperature","rock_temperature contact load","icymask","surfaceenthexp","schur","mesh update:0","mesh update:1","mesh update:2","mesh velocity:0","mesh velocity:1","mesh velocity:2","velocity:0","velocity:1","velocity:2","Points:0","Points:1","Points:2"
441,3118.99166466,27.661231039,0,0,0,1,0,0,0,0,0,0,0,0,0,0,0,0,0,0,0,0,0,0,0,0,0.301627407647,0,0,16.5315306411,19.1775450927,36.8913771488,-6.0391980779e-16,3.80711668019e-06,-0.00497049552087,0.00468411446125,0.000290188176308,-0.00566327233861,0.00441348322363,-0.00857675507406,3.80711668019e-06,0.00146200151473,1.3196514962e+20,1.35595592065e+20,0,-1.74792445712,1.31966937345e+20,1.33589118319e+20,7.5779372084e-10,-1.74792445712,-1.74792445712,-211.723501666,0,1.34140966149e+20,0,0,0,0,0,0,0,-0.132010779054,0.0528565213583,0.00222163266359,947931.542105,2105017.30526,3118.99166466
441,3122.76157511,24.3006751325,0,0,0,1,0,0,0,0,0,0,0,0,0,0,0,0,0,0,0,0,0,0,0,0,0.269983427766,0,0,14.3193777539,16.626431909,33.7895779744,-3.7049249621e-16,1.97988179364e-06,-0.00450118361947,0.00466601570055,-0.000162852199291,-0.00456632049221,0.00445077654174,-0.00681983115152,1.97988179364e-06,0.00120384468381,1.31735925757e+20,1.35602121573e+20,0,-1.85683520922,1.31738133626e+20,1.3355731323e+20,3.15888358317e-09,-1.85683520922,-1.85683520922,-244.796116726,0,1.34168474203e+20,0,0,0,0,0,0,0,-0.113399858989,0.0519343383418,-0.00434859137102,947929.973464,2105011.54641,3122.76157511
441,3106.07249317,41.4956608046,0,0,0,1,0,0,0,0,0,0,0,0,0,0,0,0,0,0,0,0,0,0,0,0,0.418578375875,0,0,14.9572956567,9.82750093194,37.5904009711,-5.68957898335e-16,-3.15026852076e-05,-0.00426191998927,0.00199807084671,0.00223234645735,-0.00403675356168,0.00372342613009,-0.0112128368425,-3.15026852076e-05,0.00157734180165,1.32581109661e+20,1.35571460851e+20,0,-1.45562408797,1.32582524388e+20,1.3365516262e+20,9.60446464109e-10,-1.45562408797,-1.45562408797,-80.1210192145,0,1.34168537219e+20,0,0,0,0,0,0,0,-0.141450743123,0.0472453412785,0.0251066213905,947937.392168,2105038.78221,3106.07249317
441,3108.24835539,39.5992169581,0,0,0,1,0,0,0,0,0,0,0,0,0,0,0,0,0,0,0,0,0,0,0,0,0.397252719141,0,0,13.2451828184,11.3551705299,28.716407927,-3.35339760291e-16,-2.50520620394e-05,-0.00452852064109,0.00261879948253,0.00188466909652,-0.00453569668782,0.00415178380153,-0.0110565097401,-2.50520620394e-05,0.00160655554407,1.32495262619e+20,1.35575861006e+20,0,-1.49632075142,1.32496808019e+20,1.33642385241e+20,5.5598022754e-10,-1.49632075142,-1.49632075142,-68.4511246298,0,1.34195454665e+20,0,0,0,0,0,0,0,-0.14661124331,0.0502509772386,0.0237193546084,947936.200702,2105034.40806,3108.24835539
441,3114.67643207,32.6390594574,0,0,0,1,0,0,0,0,0,0,0,0,0,0,0,0,0,0,0,0,0,0,0,0,0.336530749001,0,0,16.2376513223,17.236477837,33.960128266,3.47670197303e-17,-1.18402840033e-05,-0.00488737746564,0.00393796941987,0.00093756776176,-0.00527662200205,0.00421896916784,-0.00910493933864,-1.18402840033e-05,0.00145634955909,1.32182082937e+20,1.35588390164e+20,0,-1.64496671053,1.32183876989e+20,1.33602338965e+20,-2.06921907628e-09,-1.64496671053,-1.64496671053,-142.595407131,0,1.34191555296e+20,0,0,0,0,0,0,0,-0.137786464622,0.0528460532826,0.0101576335876,947933.214674,2105023.44565,3114.67643207
441,3109.40671343,38.6851231342,0,0,0,1,0,0,0,0,0,0,0,0,0,0,0,0,0,0,0,0,0,0,0,0,0.385321068312,0,0,13.2900862882,12.1363707808,27.83761334,-6.83525038182e-17,-2.02999438672e-05,-0.00485496554279,0.00307050139884,0.00176416420008,-0.00492374040283,0.00442323322012,-0.0110206655842,-2.02999438672e-05,0.00166027586301,1.32434118284e+20,1.35578322937e+20,0,-1.52534643658,1.32435726402e+20,1.33631550022e+20,3.09140566259e-10,-1.52534643658,-1.52534643658,-76.1525027983,0,1.34215313365e+20,0,0,0,0,0,0,0,-0.141999640416,0.0503446735875,0.0209938620567,947935.578796,2105032.1249,3109.40671343
441,3112.71191108,35.322040766,0,0,0,1,0,0,0,0,0,0,0,0,0,0,0,0,0,0,0,0,0,0,0,0,0.354472694741,0,0,14.9282613169,15.8027822452,31.8585997112,1.20282793105e-16,-1.61220853686e-05,-0.0052033347191,0.00373898818559,0.00144822444814,-0.00546409968649,0.00449132647265,-0.0102497435489,-1.61220853686e-05,0.00163333255784,1.32292772937e+20,1.3558468804e+20,0,-1.59240630552,1.32294659908e+20,1.33620819049e+20,-1.53905110572e-09,-1.59240630552,-1.59240630552,-110.218521846,0,1.34215031729e+20,0,0,0,0,0,0,0,-0.146611963798,0.0533996373977,0.014917791802,947934.145885,2105026.86434,3112.71191108
441,3126.38285389,19.9998909382,0,0,0,1,0,0,0,0,0,0,0,0,0,0,0,0,0,0,0,0,0,0,0,0,0.233657802347,0,0,9.66777679365,10.1988185761,23.7742391552,-9.94678427895e-17,3.99314004788e-06,-0.00432195737374,0.00485519470363,-0.00052924418984,-0.00415254159228,0.00470667788974,-0.00603926197896,3.99314004788e-06,0.00111369497935,1.31514930167e+20,1.35609617104e+20,0,-1.96177227266,1.31517523109e+20,1.33537980327e+20,2.36954567713e-09,-1.96177227266,-1.96177227266,-227.917328673,0,1.34153411747e+20,0,0,0,0,0,0,0,-0.0948198677032,0.0523408457993,-0.0114334686912,947928.456909,2105005.97879,3126.38285389
441,3169.24302927,20.000530981,0,0,0,1,0,0,0,0,0,0,0,0,0,0,0,0,0,0,0,0,0,0,0,0,0.153695886148,0,0,-0.302237376878,4.01223937002,24.2870324794,-2.85461590883e-16,-1.36970531294e-05,0.00190485877309,0.0108896766567,-0.012808232483,-0.00171407337694,0.00252428514968,-0.00372868249609,-1.36970531294e-05,0.00165101111122,1.2967210273e+20,1.35626117077e+20,0,-2.8387325535,1.29674189092e+20,1.33689668363e+20,-2.98443164325e-09,-2.8387325535,-2.8387325535,-310.111200433,0,1.34057678725e+20,0,0,0,0,0,0,0,-0.0539540561064,0.0849963408871,-0.0452911037954,947909.555548,2104936.58749,3169.24302927
441,3172.55731505,19.9997290692,0,0,0,1,0,0,0,0,0,0,0,0,0,0,0,0,0,0,0,0,0,0,0,0,0.0891719810398,0,0,0.809816525053,2.74912483519,13.1162978188,1.09546637309e-16,-7.07975328493e-05,0.00590980375187,0.00731590861661,-0.0132965099013,-0.000962051006503,-0.00462806385271,-0.00767446388151,-7.07975328493e-05,0.00197077230771,1.29527963823e+20,1.35639431784e+20,0,-2.90743829806,1.29530102713e+20,1.33789663109e+20,7.43404201416e-10,-2.90743829806,-2.90743829806,-191.205368971,0,1.34113827177e+20,0,0,0,0,0,0,0,-0.0815627208379,-0.00510044819351,-0.0159711158571,947906.350836,2104924.82225,3172.55731505
441,3172.78731579,19.9996050293,0,0,0,1,0,0,0,0,0,0,0,0,0,0,0,0,0,0,0,0,0,0,0,0,0.0815632074149,0,0,0.927174449528,2.67862979452,12.128906925,1.16344554957e-16,-8.24175864804e-05,0.00595502169895,0.00673884558209,-0.0127762848675,-0.000789234681538,-0.00555258508203,-0.00813582376758,-8.24175864804e-05,0.00195340537046,1.29515520343e+20,1.35641001879e+20,0,-2.91336955281,1.29517679643e+20,1.33795758362e+20,4.77670007077e-10,-2.91336955281,-2.91336955281,-181.741268642,0,1.34122581657e+20,0,0,0,0,0,0,0,-0.0829707081861,-0.0148636201411,-0.0131838043739,947906.064719,2104923.77185,3172.78731579
441,3144.27438186,20.027511497,0,0,0,1,0,0,0,0,0,0,0,0,0,0,0,0,0,0,0,0,0,0,0,0,0.159120665979,0,0,3.13376525089,2.75694620994,12.3792188771,3.16536155785e-16,-1.55480173372e-06,-0.00140748718493,0.00668092136261,-0.00527498897942,-0.000981977905497,0.00555421954224,-0.00220609591081,-1.55480173372e-06,0.000963629895459,1.30566441017e+20,1.35624997692e+20,0,-2.41280259844,1.30569579368e+20,1.33372578406e+20,-6.69457560721e-10,-2.41280259844,-2.41280259844,-221.795040547,0,1.34177055359e+20,0,0,0,0,0,0,0,-0.0342622302425,0.08457404208,-0.0455672142642,947920.278043,2104975.95227,3144.27438186
441,3147.59399703,20.0155096924,0,0,0,1,0,0,0,0,0,0,0,0,0,0,0,0,0,0,0,0,0,0,0,0,0.12953122262,0,0,2.97639246764,2.78520243493,13.7837965403,5.50059874972e-16,9.09416112793e-08,-0.0010517466037,0.00759296202379,-0.00654112447848,-0.000930922842645,0.00524748819052,-0.002155871707,9.09416112793e-08,0.00104553898718,1.30441079801e+20,1.35631103492e+20,0,-2.47248046294,1.30444037715e+20,1.33361881669e+20,-9.06718444407e-11,-2.47248046294,-2.47248046294,-265.206710362,0,1.34143099078e+20,0,0,0,0,0,0,0,-0.0331088313773,0.0914564215584,-0.0548283349038,947918.866204,2104970.76908,3147.59399703
441,3150.66941031,19.980273634,0,0,0,1,0,0,0,0,0,0,0,0,0,0,0,0,0,0,0,0,0,0,0,0,0.124784632954,0,0,3.26491328214,3.01034286884,15.6333790338,8.18327552933e-16,8.23690662932e-06,-0.000974357642277,0.00866632716143,-0.00768373261252,-0.000985567888689,0.00523310984947,-0.00221976902858,8.23690662932e-06,0.00119304416283,1.30301178937e+20,1.35632082961e+20,0,-2.53907155179,1.30304061401e+20,1.33368097803e+20,4.78887717193e-10,-2.53907155179,-2.53907155179,-315.796410676,0,1.34109316465e+20,0,0,0,0,0,0,0,-0.0338827346843,0.0975892720355,-0.0629165953233,947917.803959,2104966.86933,3150.66941031
441,3155.4206505,19.9947085871,0,0,0,1,0,0,0,0,0,0,0,0,0,0,0,0,0,0,0,0,0,0,0,0,0.113669846289,0,0,2.77916363401,2.900185499,17.2310567297,-6.74441215079e-17,2.6363117457e-06,-0.000573357362321,0.00930999920796,-0.0087340055339,-0.0013250550184,0.00527979784679,-0.00221940363973,2.6363117457e-06,0.00131842400372,1.30119331751e+20,1.35634376531e+20,0,-2.62566276687,1.30122371162e+20,1.33410095498e+20,-7.67465121223e-10,-2.62566276687,-2.62566276687,-360.553638606,0,1.34013066615e+20,0,0,0,0,0,0,0,-0.0360737381959,0.110805901524,-0.0733444532028,947916.025634,2104960.34068,3155.4206505
441,3157.53327083,20.0051501129,0,0,0,1,0,0,0,0,0,0,0,0,0,0,0,0,0,0,0,0,0,0,0,0,0.115042764489,0,0,2.09801956281,2.66247875054,15.9252912449,-3.02678569019e-16,1.69808997676e-06,-0.000357780456815,0.00971732512184,-0.00935784657504,-0.0015148772083,0.00524198332453,-0.00241538221668,1.69808997676e-06,0.00139365769713,1.30046900154e+20,1.35634093228e+20,0,-2.66016034014,1.30049992817e+20,1.3342012851e+20,-7.33023211051e-10,-2.66016034014,-2.66016034014,-334.961335996,0,1.33948966796e+20,0,0,0,0,0,0,0,-0.0374714359796,0.115292439885,-0.0774942813248,947915.209464,2104957.34433,3157.53327083
441,3158.52503376,20.0040941632,0,0,0,1,0,0,0,0,0,0,0,0,0,0,0,0,0,0,0,0,0,0,0,0,0.112650664961,0,0,1.9319602583,2.76124876746,16.779932911,-6.4640550102e-16,8.19494259276e-07,-0.000237575794922,0.00966579883995,-0.00942740355077,-0.00160825771456,0.00494185749481,-0.00247624343592,8.19494259276e-07,0.00138037890643,1.30019548843e+20,1.35634586842e+20,0,-2.6731917095,1.30022597586e+20,1.33434483977e+20,-4.2312349682e-10,-2.6731917095,-2.6731917095,-338.989788431,0,1.33944664262e+20,0,0,0,0,0,0,0,-0.0389221253448,0.115665880253,-0.0765325564347,947914.733177,2104955.59577,3158.52503376
441,3163.86700559,19.9995835023,0,0,0,1,0,0,0,0,0,0,0,0,0,0,0,0,0,0,0,0,0,0,0,0,0.127067029438,0,0,0.533333935063,2.40978499168,12.9249470974,-7.30682421172e-16,1.64051997468e-06,0.000338638293991,0.00996660924589,-0.0103036070199,-0.00186022888682,0.0038088787787,-0.00308281276042,1.64051997468e-06,0.00143257385053,1.29841879413e+20,1.35631611983e+20,0,-2.7578283213,1.29844815956e+20,1.33522253747e+20,-1.16791402416e-09,-2.7578283213,-2.7578283213,-218.14855081,0,1.33975636229e+20,0,0,0,0,0,0,0,-0.045029301723,0.119094432425,-0.0793318484081,947912.543235,2104947.55599,3163.86700559
441,3168.60167556,19.9997055435,0,0,0,1,0,0,0,0,0,0,0,0,0,0,0,0,0,0,0,0,0,0,0,0,0.144995458461,0,0,-0.245589702981,4.02220031655,23.9582868008,-3.93393326511e-16,-1.04626354248e-05,0.00127575785936,0.0109105369458,-0.0121967574406,-0.0018197647896,0.00257687754252,-0.00345515759206,-1.04626354248e-05,0.00159559400409,1.2968820211e+20,1.35627912434e+20,0,-2.83105996981,1.29690640971e+20,1.33673034283e+20,-4.85317292869e-09,-2.83105996981,-2.83105996981,-319.872246645,0,1.34044727283e+20,0,0,0,0,0,0,0,-0.0545467811162,0.0987999266868,-0.0544616100064,947910.085047,2104938.53141,3168.60167556
441,3166.09552123,19.9999674817,0,0,0,1,0,0,0,0,0,0,0,0,0,0,0,0,0,0,0,0,0,0,0,0,0.140101509596,0,0,0.0377541368321,3.1857335847,17.8116733393,-5.33753076408e-16,-4.30716605894e-06,0.000752543476393,0.0103586333167,-0.0111154839592,-0.00177804574991,0.0033016176511,-0.00327761317356,-4.30716605894e-06,0.00148916607897,1.29774320244e+20,1.35628922297e+20,0,-2.79002273351,1.29776938464e+20,1.33600865341e+20,-3.03336746944e-09,-2.79002273351,-2.79002273351,-259.64068127,0,1.3403162049e+20,0,0,0,0,0,0,0,-0.0491760311303,0.106596537843,-0.0676336759963,947911.303665,2104943.00524,3166.09552123
441,3130.61095561,20.0354527011,0,0,0,1,0,0,0,0,0,0,0,0,0,0,0,0,0,0,0,0,0,0,0,0,0.226975661818,0,0,4.728771833,5.53153466427,14.1999364186,-3.29350718863e-16,1.67912928721e-05,-0.00265068455406,0.00403834166324,-0.00137086581631,-0.00290232934078,0.00415593374022,-0.00391087926522,1.67912928721e-05,0.000755637632807,1.31251409441e+20,1.35610995953e+20,0,-2.08700655287,1.31254495322e+20,1.33482195163e+20,3.65204853945e-09,-2.08700655287,-2.08700655287,-184.696978733,0,1.34148467839e+20,0,0,0,0,0,0,0,-0.0628438943989,0.0511091019549,-0.0195236730049,947926.222049,2104997.7741,3130.61095561
441,3135.56441415,19.9192961358,0,0,0,1,0,0,0,0,0,0,0,0,0,0,0,0,0,0,0,0,0,0,0,0,0.169735129129,0,0,5.51848397382,5.35067690728,17.2780273219,1.14027216656e-16,1.35075110756e-05,-0.00240912273818,0.00548445610645,-0.0030618258572,-0.00205897543771,0.00568390006436,-0.00349874016525,1.35075110756e-05,0.000929653391774,1.30952199075e+20,1.3562280738e+20,0,-2.22928808994,1.30955836486e+20,1.33445376023e+20,-4.68498522386e-09,-2.22928808994,-2.22928808994,-297.404576178,0,1.34159364611e+20,0,0,0,0,0,0,0,-0.0533936675729,0.0639901203885,-0.0285359882517,947924.316281,2104990.77758,3135.56441415
441,3142.06467961,20.001930296,0,0,0,1,0,0,0,0,0,0,0,0,0,0,0,0,0,0,0,0,0,0,0,0,0.170605125999,0,0,3.64495590028,3.34824031887,14.6452401884,4.34554504782e-16,-1.02878953033e-07,-0.00157573690236,0.00606046471853,-0.00448483069512,-0.0011729890086,0.00586856909766,-0.00233706198035,-1.02878953033e-07,0.000931134775529,1.30661829875e+20,1.35622627865e+20,0,-2.36741878524,1.30665139346e+20,1.33380874254e+20,-1.50388064876e-09,-2.36741878524,-2.36741878524,-258.834870442,0,1.34158227989e+20,0,0,0,0,0,0,0,-0.0370146721908,0.0811816714985,-0.0404883614331,947921.276096,2104979.61635,3142.06467961
441,3128.93641007,20.0385194172,0,0,0,1,0,0,0,0,0,0,0,0,0,0,0,0,0,0,0,0,0,0,0,0,0.238301837997,0,0,5.58753998754,6.67974470057,16.12404033,-1.97950948939e-16,1.27770699922e-05,-0.00310384354055,0.00402941964425,-0.000912799033701,-0.00316865898304,0.00413440642345,-0.00448905472922,1.27770699922e-05,0.000822087555135,1.31359399707e+20,1.35608658831e+20,0,-2.03568874735,1.3136223507e+20,1.33496108666e+20,3.38509456821e-09,-2.03568874735,-2.03568874735,-180.579037301,0,1.34152404541e+20,0,0,0,0,0,0,0,-0.0725819708109,0.050328771465,-0.0167478356003,947926.972753,2105000.53011,3128.93641007
441,3136.42018182,19.9223690801,0,0,0,1,0,0,0,0,0,0,0,0,0,0,0,0,0,0,0,0,0,0,0,0,0.171954150539,0,0,5.59518162767,5.12896837902,17.4291898638,2.20530623371e-16,9.9052379825e-06,-0.00229747646611,0.00546045532869,-0.00315307362461,-0.0017039764438,0.005796574809,-0.00325390626236,9.9052379825e-06,0.000905063526519,1.30903367412e+20,1.35622349492e+20,0,-2.25250566325,1.30907023365e+20,1.33436746965e+20,-5.76961390451e-09,-2.25250566325,-2.25250566325,-303.293946957,0,1.34156403672e+20,0,0,0,0,0,0,0,-0.0508660628861,0.0664321614436,-0.0291081205366,947923.939394,2104989.39394,3136.42018182
441,3137.23560935,19.9228376032,0,0,0,1,0,0,0,0,0,0,0,0,0,0,0,0,0,0,0,0,0,0,0,0,0.162863981916,0,0,5.38390229512,4.90813460398,17.1678297949,2.88492596441e-16,9.50336456202e-06,-0.00221668575572,0.00561031454394,-0.00338412542366,-0.00163995571167,0.00577689802036,-0.00306990141434,9.50336456202e-06,0.000904364119385,1.30865364331e+20,1.35624225239e+20,0,-2.27057867206,1.30868985318e+20,1.33430957294e+20,-5.68562429233e-09,-2.27057867206,-2.27057867206,-304.002843294,0,1.34156616487e+20,0,0,0,0,0,0,0,-0.048676574474,0.0681094179608,-0.0307305510998,947923.537712,2104987.91927,3137.23560935
441,3118.99166466,0,27.6737995028,0.263886966889,-0.0512533202143,1,-9.78940936098,8.97688838402,0.09983741553,0,0,210,5.73179664089e-05,0.19006833813,1.33020669681e+20,-1.74707562877,0.301627407647,-0.132010779054,0.0528565213583,0.00222163266359,3146.25392446,0,3155.71016692,-12.623649865,0,0,0.041141511171,0,0,1.00361490213e-13,-5.10134123749e-14,0.534851266523,1.20856513433e-15,2.15227639536e-05,-0.0111860471233,0.00102141809019,0.0101861517971,-0.00825976113891,-0.0035669315731,-0.00874034780194,2.15227639536e-05,0.00187475723437,1.36778832648e+20,1.35649343177e+20,0.00339568804535,-0.00380811717041,1.36778832648e+20,1.36778832648e+20,33789.3183521,0,0,0,1,1.34135119277e+20,0,0,0,-9.03545413112,0,0,-14.1760957502,-0.530810068084,0.131697243367,0.168164851884,947931.542105,2105017.30526,3146.67471279
441,3122.76157511,0,24.3306308928,0.0950323110968,-0.13496042826,1,-9.78831619128,8.9758859474,0.099991159612,0,0,210,4.48519275662e-05,0.190105816449,1.33350952008e+20,-1.85578638088,0.269983427766,-0.113399858989,0.0519343383418,-0.00434859137102,3146.85642591,420.612299413,3156.2642126,-6.33706184617,420.612299413,0,0.0499067419111,0,0,4.88636622428e-14,2.44470804652e-14,0.538592716789,1.43533841687e-15,2.79632097925e-06,-0.0133165113077,-0.000366347776422,0.0136856554051,-0.00905662994033,4.81718832675e-05,-0.0025427781831,2.79632097925e-06,0.00223061416744,1.36778832648e+20,1.35647534406e+20,0.00340112591992,-0.0046618506445,1.36778832648e+20,1.36778832648e+20,27621.3650315,0,0,0,0.509282990563,1.34181951492e+20,0,0,0,-9.19655129702,0,0,-7.10948023419,-0.37909927711,0.141775464861,0.135416871511,947929.973464,2105011.54641,3147.06766131
441,3106.07249317,0,41.491853591,0.267952721661,-0.0894606325178,1,-9.78694989045,8.97463304954,0.100028870428,0,0,210,0.000108573811235,0.190081924492,1.3327749832e+20,-1.45495295976,0.418578375875,-0.141450743123,0.0472453412785,0.0251066213905,3147.22055979,0,3154.3049317,-10.146875516,0,0,0.0293845046631,0,0,-5.67663119249e-14,8.03755906148e-15,0.378670835859,8.37942791762e-16,1.03110298084e-05,-0.00560754467121,0.00143684002681,0.00418101567421,-0.00174224427947,-3.99875354942e-05,-0.00210683485789,1.03110298084e-05,0.00048506148137,1.36778832648e+20,1.35651769338e+20,0.00338839405502,-0.00266298473652,1.36778832648e+20,1.36778832648e+20,21552.1669372,0,0,0,1,1.34170197796e+20,0,0,0,-6.74614272754,0,0,-11.4043259735,-0.754988908189,0.180895503384,0.161247974955,947937.392168,2105038.78221,3147.55878898
441,3108.24835538,0,39.5986173671,0.273886950787,-0.110020051742,1,-9.78620439663,8.97394943171,0.100084628924,0,0,210,0.000115248529972,0.190085001359,1.33254214799e+20,-1.49558759248,0.397252719141,-0.14661124331,0.0502509772386,0.0237193546084,3147.48219965,0,3154.442848,-10.3368898364,0,0,0.0286760556007,0,0,1.22473245323e-13,2.33098173125e-14,0.306531024995,-9.6823562812e-17,8.31599354607e-06,-0.00598287032914,0.00155464452842,0.00443654179426,-0.00222439525168,-4.0590220386e-05,-0.0021843808044,8.31599354607e-06,0.000541324872992,1.36778832648e+20,1.35651915533e+20,0.00338795453612,-0.00259398179785,1.36778832648e+20,1.36778832648e+20,17617.9929207,0,0,0,1,1.34183547034e+20,0,0,0,-6.61608536277,0,0,-11.6137119054,-0.728554492875,0.17284024068,0.162427975908,947936.200702,2105034.40806,3147.82676264
441,3114.67643207,0,32.661672378,0.287678687253,-0.0264129954059,1,-9.7875900063,8.97522003578,0.100186752783,0,0,210,7.21933097225e-05,0.190173517312,1.33185109431e+20,-1.64411518675,0.336530749001,-0.137786464622,0.0528460532826,0.0101576335876,3146.97552543,0,3155.21085054,-10.5950646808,2.27769107921e-09,0,0.0329046342694,0,0,4.35311509061e-13,9.34270682368e-15,0.440798551631,1.75432227161e-15,1.51604597963e-05,-0.00913698878725,0.00200966979659,0.00714247945046,-0.00624245490594,-0.00162434475556,-0.00535357223812,1.51604597963e-05,0.00130153833579,1.36778832648e+20,1.3565104293e+20,0.00339057792078,-0.00300584536019,1.36778832648e+20,1.36778832648e+20,27813.4438081,0,0,0,1,1.34201075782e+20,0,0,0,-7.88215628861,0,0,-11.9028226598,-0.615383745408,0.15046495614,0.162795407394,947933.214674,2105023.44565,3147.32869425
441,3109.40671343,0,38.6781796466,0.306483884053,-0.0849516873935,1,-9.78549498299,8.9732988994,0.100225705273,0,0,210,0.000130730171217,0.190128239576,1.33221502674e+20,-1.52458341867,0.385321068312,-0.141999640416,0.0503446735875,0.0209938620567,3147.75098911,0,3154.52032938,-9.9233366989,0,0,0.0288936540004,0,0,1.61886093478e-13,2.62213218838e-15,0.313858352035,-2.54247745814e-16,1.25361881046e-05,-0.0059115127413,0.0019285463844,0.003995502545,-0.00250179865794,-0.000690906944374,-0.00323220743514,1.25361881046e-05,0.000589372405536,1.36778832648e+20,1.35651870629e+20,0.00338808953346,-0.00261517588199,1.36778832648e+20,1.36778832648e+20,17027.2898536,0,0,0,1,1.34215702921e+20,0,0,0,-6.4385623788,0,0,-11.1534303379,-0.714072011063,0.166665384177,0.162300974026,947935.578796,2105032.1249,3148.081767
441,3112.71191108,0,35.3322835055,0.334095790945,0.00450663114186,1,-9.78561399486,8.97340803329,0.100353267037,0,0,210,0.000107074503481,0.190190246539,1.33428624742e+20,-1.59151081326,0.354472694741,-0.146611963798,0.0533996373977,0.014917791802,3147.73674349,0,3154.92895888,-9.06731263426,2.33624543688e-09,0,0.0261291603707,0,0,4.70608286355e-13,3.34231956811e-14,0.390985369582,2.20984782532e-15,1.90765479601e-05,-0.00615257388916,0.00293637111051,0.00323527932661,-0.00345196548919,-0.00123159530233,-0.00342897830301,1.90765479601e-05,0.000643164040601,1.36778832648e+20,1.35652441108e+20,0.00338637445024,-0.00234591420245,1.36778832648e+20,1.36778832648e+20,22401.4867577,0,0,0,1,1.34249416504e+20,0,0,0,-6.88997164076,0,0,-10.1940793535,-0.671153900288,0.155390812599,0.160300099448,947934.145885,2105026.86434,3148.03898724
441,3126.38285389,0,20.0801555974,0.0356592502475,-0.252041197222,1,-9.79022130271,8.97763293458,0.0998926526643,0,0,210,2.89336001177e-05,0.190118097564,1.33307366503e+20,-1.96054020149,0.233657802347,-0.0948198677032,0.0523408457993,-0.0114334686912,3146.38285389,703.384310883,3156.94448773,-1.36424205266e-11,703.384310883,0,0.0663059922018,0,0,5.0697009118e-14,9.22034828522e-14,0.435950589371,5.86603422061e-17,-2.03297801186e-05,-0.0165830473637,-0.00372371600685,0.0202864335905,-0.0108992003777,0.00306511599742,-0.00263005687759,-2.03297801186e-05,0.00298924315984,1.36778832648e+20,1.35644150298e+20,0.00341129987479,-0.00625913762282,1.36778832648e+20,1.36778832648e+20,15436.1576057,0,0,0,0,1.34154371373e+20,0,0,0,-10.5616338334,0,0,1.36746210291e-11,-0.249664096509,0.156348363012,0.110285154527,947928.456909,2105005.97879,3146.38285389
441,3169.24302927,0,19.9993302901,0.185155092801,-0.40839133139,1,-9.67098572163,8.86829390673,0.100582317435,0,0,210,2.01693485181e-05,0.186841706802,1.33511435829e+20,-2.83773819391,0.153695886148,-0.0539540561064,0.0849963408871,-0.0452911037954,3189.24302927,1276.0199669,3179.27702927,0,1276.0199669,0,-0.0280179724129,0,0,-1.28634413253e-13,7.94692423065e-13,0.577682673122,-1.41338648346e-15,-5.50859364412e-06,0.00099621770163,-2.9294536207e-05,-0.000972431759067,0.000395274903783,-0.000524813484127,0.000374401260133,-5.50859364412e-06,6.82271711798e-05,1.36778832648e+20,1.35663614977e+20,0.0033527814207,0.00292801653067,1.36778832648e+20,1.36778832648e+20,65517.8077423,0,0,0,-1,1.34058305839e+20,0,0,0,9.96599999816,0,0,4.25373285227e-14,-0.119399086965,0.127479945909,-0.181545534374,947909.555548,2104936.58749,3189.24302927
441,3172.55731505,0,20.000183535,0.20554455628,-0.320055571857,1,-9.6617654889,8.85983895333,0.10039575656,0,0,210,1.12594955598e-05,0.186478483791,1.3365505006e+20,-2.90641865789,0.0891719810398,-0.0815627208379,-0.00510044819351,-0.0159711158571,3192.55731505,796.345933295,3182.59131505,0,796.345933295,0,-0.0212810151432,0,0,2.8396645266e-14,4.36206571621e-14,0.349373739767,-8.46855321381e-16,-2.21362032954e-06,0.000568298584039,-0.000116603530687,-0.000453908673682,0.00011158234585,-0.000146815814209,0.000262668411703,-2.21362032954e-06,2.90609935542e-05,1.36778832648e+20,1.35662224719e+20,0.00335696108147,0.00227183689255,1.36778832648e+20,1.36778832648e+20,38801.642499,0,0,0,-1,1.34113793929e+20,0,0,0,9.96600000096,0,0,0,-0.129877145132,0.126521134924,-0.19287420138,947906.350836,2104924.82225,3192.55731505
441,3172.78731579,0,20.0002983204,0.201043540427,-0.312835403728,1,-9.66112563451,8.85925220685,0.100429427706,0,0,210,9.69227241405e-06,0.1864746276,1.33693453531e+20,-2.91234016513,0.0815632074149,-0.0829707081861,-0.0148636201411,-0.0131838043739,3192.78731579,757.100789297,3182.82131579,0,757.100789297,0,-0.0204603980511,0,0,3.09780645156e-15,-1.16511481765e-14,0.331583690993,-5.65144746622e-16,-1.80033454259e-06,0.000561022548324,-0.00013296499173,-0.000429857891136,0.000140990360417,-0.000139821420203,0.000238341096423,-1.80033454259e-06,2.85854072468e-05,1.36778832648e+20,1.35662055375e+20,0.00335747019701,0.00219190878776,1.36778832648e+20,1.36778832648e+20,36931.0665921,0,0,0,-1,1.34122536504e+20,0,0,0,9.96600000094,0,0,0,-0.131376926268,0.126903147152,-0.193151828555,947906.064719,2104923.77185,3192.78731579
441,3144.27438186,0,19.9623952344,-0.148785676257,-0.599794668102,1,-9.7404476675,8.9319905111,0.100524825447,0,0,210,1.39013963024e-05,0.188908077878,1.33509114435e+20,-2.41130904994,0.159120665979,-0.0342622302425,0.08457404208,-0.0455672142642,3164.27438186,722.482241657,3161.69174224,-1.62797380987e-13,722.482241657,0,0.0239643040147,0,0,-1.01443912936e-13,2.03823963806e-13,0.353072212465,-3.19950584005e-16,-1.85637644467e-06,-0.000404816607694,-0.000335078904848,0.000738039136098,-0.000459116671803,0.00103989821057,0.000521421967237,-1.85637644467e-06,7.77501120559e-05,1.36778832648e+20,1.35652887847e+20,0.00338503137753,-0.00213505719337,1.36778832648e+20,1.36778832648e+20,35575.0744737,0,0,0,-1,1.34187597281e+20,0,0,0,2.58263961876,0,0,-6.74639342004e-12,-0.0690318579149,0.187390465504,-0.0795756548021,947920.278043,2104975.95227,3164.27438186
441,3147.59399703,0,19.9801369878,-0.118055803529,-0.643720269306,1,-9.73121260862,8.92352196211,0.100518998537,0,0,210,1.84475403668e-05,0.188627181755,1.33525073227e+20,-2.47107251713,0.12953122262,-0.0331088313773,0.0914564215584,-0.0548283349038,3167.59399703,875.560902209,3162.69333697,-8.0448366832e-12,875.560902209,0,0.0161910925095,0,0,-8.21828977521e-14,4.02946369145e-13,0.434672813442,1.41995018341e-16,-3.01173083464e-06,-0.000243644527807,-0.000307973151109,0.000548605948081,-0.000118525727971,0.000823106137956,0.000164183923554,-3.01173083464e-06,5.05770781179e-05,1.36778832648e+20,1.35654491932e+20,0.00338020887089,-0.00137794639277,1.36778832648e+20,1.36778832648e+20,45917.413343,0,0,0,-1,1.34150105941e+20,0,0,0,4.90066005985,0,0,0,-0.0697734593808,0.184518289201,-0.0950677014699,947918.866204,2104970.76908,3167.59399703
441,3150.66941031,0,20.0252902923,-0.103374732742,-0.683386816401,1,-9.72265691124,8.91567638761,0.100407799143,0,0,210,2.21492192503e-05,0.188318493881,1.33525192947e+20,-2.53769919285,0.124784632954,-0.0338827346843,0.0975892720355,-0.0629165953233,3170.66941031,1020.16098632,3163.56756638,-5.81350624043e-12,1020.16098632,0,0.0104386353202,0,0,-1.65530940971e-13,6.5892960294e-13,0.512891133499,1.98797412934e-16,-3.2165675715e-07,-2.87571574667e-05,-0.000203211942072,0.000231647442781,-1.02449463355e-05,0.000396384485238,-2.51820095586e-05,-3.2165675715e-07,1.18019114573e-05,1.36778832648e+20,1.35655679009e+20,0.00337664005095,-0.000817657062547,1.36778832648e+20,1.36778832648e+20,55496.905413,0,0,0,-1,1.34110338116e+20,0,0,0,7.1018439354,0,0,0,-0.0718393842618,0.183045822583,-0.103865164849,947917.803959,2104966.86933,3170.66941031
441,3155.4206505,0,20.0017604209,-0.0491400939705,-0.674579482532,1,-9.70943911922,8.90355567233,0.100187394452,0,0,210,2.95458733305e-05,0.18781933518,1.33544813504e+20,-2.62421523789,0.113669846289,-0.0360737381959,0.110805901524,-0.0733444532028,3175.4206505,1159.74530932,3166.05792227,0,1159.74530932,0,-0.0171920030998,0,0,-5.68318912695e-13,-7.42357724967e-13,0.582483105175,5.98405662668e-16,4.75164754704e-06,0.000320730819795,-0.000110632469311,-0.000205346702937,0.000271263075302,-0.000245502274988,-0.000196334137058,4.75164754704e-06,2.46165678525e-05,1.36778832648e+20,1.35661380904e+20,0.00335949792024,0.00187356711959,1.36778832648e+20,1.36778832648e+20,67400.7423431,0,0,0,-1,1.34011832878e+20,0,0,0,9.36272822423,0,0,-3.84550899026e-14,-0.0786113103301,0.176962260819,-0.115185751559,947916.025634,2104960.34068,3175.4206505
441,3157.53327083,0,19.9900692405,-0.0153236716133,-0.678092250556,1,-9.70356187978,8.89816624376,0.100093559754,0,0,210,2.88558811179e-05,0.187599294821,1.33586249355e+20,-2.65868728839,0.115042764489,-0.0374714359796,0.115292439885,-0.0774942813248,3177.53327083,1072.94456824,3167.56727083,-2.34877347808e-12,1072.94456824,0,-0.0245742641271,0,0,-7.56971068854e-13,-1.28466878937e-12,0.539621385925,3.89720799974e-16,6.35126263063e-06,0.000438209184132,-5.19952676753e-05,-0.000379862653826,0.000421120529217,-0.00048505275724,-0.000289239831969,6.35126263063e-06,3.82881571195e-05,1.36778832648e+20,1.35662904323e+20,0.00335491792542,0.00259259934365,1.36778832648e+20,1.36778832648e+20,64346.6740432,0,0,0,-1,1.33947880494e+20,0,0,0,9.9659999995,0,0,-5.3290705182e-14,-0.0826736879938,0.173944224399,-0.120836813048,947915.209464,2104957.34433,3177.53327083
441,3158.52503376,0,19.9918759271,0.00663695012215,-0.661287115074,1,-9.70080282832,8.89563619357,0.100134506369,0,0,210,2.84011189725e-05,0.187534924984,1.33577494229e+20,-2.67173952288,0.112650664961,-0.0389221253448,0.115665880253,-0.0765325564347,3178.52503376,1110.16761583,3168.55903376,-2.73672136565e-12,1110.16761583,0,-0.0255609204214,0,0,-6.33379507843e-13,-1.17348171028e-12,0.553696461453,5.39519976935e-17,5.23368472788e-06,0.00052170323911,-1.36486224695e-05,-0.000502820931913,0.000477287864956,-0.000590715698301,-0.000273816371883,5.23368472788e-06,4.76873299986e-05,1.36778832648e+20,1.35663107933e+20,0.00335430579513,0.00268869966671,1.36778832648e+20,1.36778832648e+20,65954.3251094,0,0,0,-1,1.33943165714e+20,0,0,0,9.96599999941,0,0,2.68343066047e-12,-0.0867535465588,0.169941327208,-0.125618624748,947914.733177,2104955.59577,3178.52503376
441,3163.86700559,0,20.0021611221,0.106339162549,-0.62654339319,1,-9.68594164053,8.88200848437,0.100522101109,0,0,210,2.01242652359e-05,0.187264710195,1.33657914e+20,-2.75642915767,0.127067029438,-0.045029301723,0.119094432425,-0.0793318484081,3183.86700559,776.219452567,3173.90100559,-2.52833783377e-12,776.219452567,0,-0.031474392984,0,0,2.24996525336e-14,3.42814811166e-13,0.380012186128,-1.85296605599e-15,4.55069481438e-06,0.00107481099959,-0.000188325839437,-0.000881934465342,0.000681393457614,-0.00118560927926,-8.52869989002e-05,4.55069481438e-06,9.67553694669e-05,1.36778832648e+20,1.35664328255e+20,0.00335063702863,0.00326467189428,1.36778832648e+20,1.36778832648e+20,47720.9316389,0,0,0,-1,1.3397528849e+20,0,0,0,9.96600000218,0,0,2.60529028514e-12,-0.10177517102,0.151145811295,-0.14324420857,947912.543235,2104947.55599,3183.86700559
441,3168.60167556,0,19.9998798722,0.175372003764,-0.448803964891,1,-9.6727699463,8.86993004075,0.100607749545,0,0,210,1.73772436122e-05,0.186907108233,1.33615412857e+20,-2.82989765324,0.144995458461,-0.0545467811162,0.0987999266868,-0.0544616100064,3188.60167556,1274.7527499,3178.63567556,0,1274.7527499,0,-0.0297692549549,0,0,-1.23796275148e-13,8.1904445962e-13,0.584248382807,-7.26383462617e-16,-5.35748932159e-06,0.0010709755702,-1.77738646452e-05,-0.00105855919488,0.000475271170234,-0.000659119342114,0.000326375720879,-5.35748932159e-06,7.62529074267e-05,1.36778832648e+20,1.35663976377e+20,0.00335169491142,0.00309859145025,1.36778832648e+20,1.36778832648e+20,67633.4227434,0,0,0,-1,1.34045236601e+20,0,0,0,9.96599999794,0,0,3.44113595629e-14,-0.117608311233,0.128679011277,-0.176377094716,947910.085047,2104938.53141,3188.60167556
441,3166.09552123,0,20.0009505201,0.147540167178,-0.551852924057,1,-9.6797419842,8.87632339951,0.100614992768,0,0,210,2.00917116306e-05,0.187120474273,1.33618240044e+20,-2.78877512852,0.140101509596,-0.0491760311303,0.106596537843,-0.0676336759963,3186.09552123,990.393633021,3176.12952123,0,990.393633021,0,-0.0304606418522,0,0,-7.00421880669e-14,6.29135293407e-13,0.467624287463,-1.6465693641e-15,8.94339772989e-07,0.00105098520231,-0.00012338487286,-0.000926705989678,0.000591941422694,-0.000938811868852,0.000148016093418,8.94339772989e-07,8.66667722941e-05,1.36778832648e+20,1.35664119054e+20,0.00335126596892,0.00316593253404,1.36778832648e+20,1.36778832648e+20,56134.7147095,0,0,0,-1,1.34031920451e+20,0,0,0,9.96600000028,0,0,8.29276534972e-14,-0.1095957189,0.141196301073,-0.158831169491,947911.303665,2104943.00524,3186.09552123
441,3130.61095561,0,19.8495358316,-0.157183589643,-0.571851522002,1,-9.77845886447,8.96684677872,0.0999948650545,0,0,210,1.45741133772e-05,0.189810538747,1.33253228185e+20,-2.08553962527,0.226975661818,-0.0628438943989,0.0511091019549,-0.0195236730049,3150.61095561,641.455496095,3157.94570981,-3.34485938299e-12,641.455496095,0,0.0500433354849,0,0,-9.87012432467e-14,1.51049191563e-13,0.315976818188,-1.35133437314e-15,3.08942695226e-06,-0.00564955632151,1.29534107444e-06,0.00565135040739,-0.00245731336568,0.00919968478476,0.00674978991764,3.08942695226e-06,0.00120463426734,1.36778832648e+20,1.35647506214e+20,0.00340121067735,-0.00467515485857,1.36778832648e+20,1.36778832648e+20,14298.7104824,0,0,0,-1,1.34158753448e+20,0,0,0,-7.3347541922,0,0,-4.67577766996e-14,-0.11453270328,0.199650654461,0.0361678260867,947926.222049,2104997.7741,3150.61095561
441,3135.56441415,0,20.1345255056,-0.160915489149,-0.575448134175,1,-9.76467850773,8.95421019159,0.100309055267,0,0,210,2.72207297775e-05,0.189539268271,1.33460154474e+20,-2.22755812717,0.169735129129,-0.0533936675729,0.0639901203885,-0.0285359882517,3155.56441415,915.173320528,3159.11842126,-2.65201858095e-12,915.173320528,0,0.0323715615064,0,0,1.37651141228e-13,4.32390382879e-14,0.447137637564,-1.83439350828e-15,3.00755658442e-06,-0.00289646190957,0.000379780985044,0.00251968848111,-0.00113239105592,0.00234578414038,0.0017201966145,3.00755658442e-06,0.000343262537381,1.36778832648e+20,1.35651152934e+20,0.00339024720667,-0.00295392407306,1.36778832648e+20,1.36778832648e+20,37909.7472424,0,0,0,-5.83362989327,1.34162538218e+20,0,0,0,-3.55400711565,0,0,-1.09955816694e-11,-0.0890895300902,0.194654410283,-0.0147123131255,947924.316281,2104990.77758,3155.56441415
441,3142.06467961,0,19.9933840519,-0.142900297323,-0.562195125163,1,-9.74659498562,8.93762760181,0.100224829823,0,0,210,1.44627661325e-05,0.18895588635,1.33505805659e+20,-2.36584406348,0.170605125999,-0.0370146721908,0.0811816714985,-0.0404883614331,3162.06467961,829.620619744,3160.97269688,1.88762980734e-11,829.620619744,0,0.0260329469515,0,0,-1.40486043461e-14,3.77848767236e-13,0.400311210896,1.55451321365e-16,-2.07157155478e-06,-0.00100482746921,-0.000372760302961,0.00137551620062,-0.000789189346255,0.00147881032048,0.000807663064956,-2.07157155478e-06,0.000147157859025,1.36778832648e+20,1.35652460965e+20,0.00338631475362,-0.00233654301541,1.36778832648e+20,1.36778832648e+20,39842.5235504,0,0,0,-1,1.34157980718e+20,0,0,0,1.09198272472,0,0,-1.36519097965e-11,-0.0724571096006,0.188785872351,-0.0654714299238,947921.276096,2104979.61635,3162.06467961
441,3128.93641007,0,19.8809013058,-0.104385308065,-0.462169122148,1,-9.78311739443,8.97111865069,0.0999149748389,0,0,210,1.72603221185e-05,0.189914299152,1.33172544346e+20,-2.03434111945,0.238301837997,-0.0725819708109,0.050328771465,-0.0167478356003,3148.93641007,611.982396567,3157.60132761,-4.17487521113e-12,611.982396567,0,0.055838760518,0,0,-6.19146213476e-14,1.22277096326e-13,0.329285307939,-7.29486154354e-16,-2.70888370076e-06,-0.00836744876635,-0.00175771484293,0.0101224547256,-0.00487242084858,0.00738888945023,0.00329122063487,-2.70888370076e-06,0.0017578650024,1.36778832648e+20,1.35646310287e+20,0.00340480610288,-0.00523962925681,1.36778832648e+20,1.36778832648e+20,11294.9695874,0,0,0,-0.693978410723,1.34157876656e+20,0,0,0,-8.66491754064,0,0,4.15420071853e-12,-0.162714042262,0.18508412107,0.0595343551734,947926.972753,2105000.53011,3148.93641007
441,3136.42018182,0,20.1256013564,-0.169919958777,-0.566716892148,1,-9.76229779055,8.95202707394,0.100326473625,0,0,210,2.34495243792e-05,0.189475521024,1.33452762601e+20,-2.25076674809,0.171954150539,-0.0508660628861,0.0664321614436,-0.0291081205366,3156.42018182,930.776359709,3159.31339394,-1.65362673045e-12,930.776359709,0,0.0295423555938,0,0,1.74921525077e-13,4.93342740384e-14,0.453434395833,-1.48990918804e-15,4.88418463248e-06,-0.0019544722174,7.05818546522e-05,0.00188877454738,-0.000795065821973,0.00116194247131,0.000895376087471,4.88418463248e-06,0.000170325598107,1.36778832648e+20,1.35651736764e+20,0.00338849198434,-0.00267835941719,1.36778832648e+20,1.36778832648e+20,40241.2054557,0,0,0,-6.27272727275,1.34162202542e+20,0,0,0,-2.89321211855,0,0,-1.19887937961e-11,-0.0843097448066,0.19313444692,-0.0242799654469,947923.939394,2104989.39394,3156.42018182
441,3137.23560935,0,20.1288120749,-0.164787218414,-0.571313921914,1,-9.76002929831,8.94994686655,0.100298924094,0,0,210,2.37925254223e-05,0.189394560166,1.33467882e+20,-2.26885628057,0.162863981916,-0.048676574474,0.0681094179608,-0.0307305510998,3157.23560935,934.951268333,3159.58402186,5.16111916025e-12,934.951268333,0,0.0296350182339,0,0,1.57286470879e-13,5.75182268549e-14,0.45563325158,-1.26588077914e-15,2.1751323301e-06,-0.00176890766652,-7.04921630842e-06,0.00177813201516,-0.00079907752286,0.00128740991743,0.000995443608594,2.1751323301e-06,0.000166813497921,1.36778832648e+20,1.35651717642e+20,0.00338854947237,-0.00268738475834,1.36778832648e+20,1.36778832648e+20,40952.4514859,0,0,0,-5.86505789419,1.34160344889e+20,0,0,0,-2.34841250774,0,0,-1.3643050546e-11,-0.0810346427308,0.192158752179,-0.0314506898272,947923.537712,2104987.91927,3157.23560935
441,3103.86030764,44.110340505,0,0,0,1,0,0,0,0,0,0,0,0,0,0,0,0,0,0,0,0,0,0,0,0,0.4364557777,0,0,11.7121679164,4.43479037372,32.7878988157,1.21590850012e-16,-2.61989923384e-05,-0.00346070240083,0.00109558377512,0.00233891963338,-0.00308226547965,0.00367063691332,-0.0121988587664,-2.61989923384e-05,0.00162780039789,1.32699297087e+20,1.35567772138e+20,0,-1.39953766173,1.32700543922e+20,1.33688914276e+20,-8.81107071403e-10,-1.39953766173,-1.39953766173,-63.1414361219,0,1.34202714723e+20,0,0,0,0,0,0,0,-0.148218021951,0.0440033780082,0.02730149392,947939.140247,2105045.19981,3103.86030764
441,3127.23804226,20.0491265685,0,0,0,1,0,0,0,0,0,0,0,0,0,0,0,0,0,0,0,0,0,0,0,0,0.198449465107,0,0,-3.15864504849,-13.2463295643,18.5933914971,3.14683640939e-16,3.56820811296e-05,0.00910872180051,-0.0050800306711,-0.00399300904828,0.00902015105235,0.00178384963935,-0.00932433969867,3.56820811296e-05,0.00194768614136,1.3192440209e+20,1.35616882217e+20,0,-1.76726247142,1.31928422451e+20,1.34210667739e+20,5.9253990559e-09,-1.76726247142,-1.76726247142,-336.423204386,0,1.34264912397e+20,0,0,0,0,0,0,0,-0.12325494122,0.0308680395521,-0.04927442973,947954.910161,2105103.09484,3127.23804226
441,3127.1576734,20.0497337657,0,0,0,1,0,0,0,0,0,0,0,0,0,0,0,0,0,0,0,0,0,0,0,0,0.198811909059,0,0,-3.16365251247,-13.2641737162,18.5870539404,3.1725736203e-16,3.5740394019e-05,0.00911154311568,-0.0051197803728,-0.00395602234886,0.00903023291494,0.00179446656326,-0.00934518122702,3.5740394019e-05,0.00194931083897,1.31929144298e+20,1.35616807427e+20,0,-1.76500909317,1.31933170182e+20,1.3420996866e+20,5.98385158832e-09,-1.76500909317,-1.76500909317,-334.677177792,0,1.34266267723e+20,0,0,0,0,0,0,0,-0.123335304638,0.0311542160833,-0.0490567705582,947954.887195,2105103.01052,3127.1576734
441,3138.43445117,19.9379653363,0,0,0,1,0,0,0,0,0,0,0,0,0,0,0,0,0,0,0,0,0,0,0,0,0.146015016822,0,0,-1.55034643694,-9.83490754815,17.523969329,-1.39792447197e-16,1.90900099138e-05,0.00892213625096,0.000140557560905,-0.00904360380195,0.00822925652934,0.000200625542704,-0.00688221706348,1.90900099138e-05,0.00182712408217,1.31247756086e+20,1.35627702032e+20,0,-2.08875574711,1.31251303529e+20,1.34303518341e+20,-2.23453103932e-09,-2.08875574711,-2.08875574711,-528.123077234,0,1.34073393607e+20,0,0,0,0,0,0,0,-0.11796344009,-0.00776494075793,-0.0782802394222,947958.023278,2105114.52381,3138.43445117
441,3103.60564509,44.2848073747,0,0,0,1,0,0,0,0,0,0,0,0,0,0,0,0,0,0,0,0,0,0,0,0,0.432681110508,0,0,8.11871102077,-6.6101748095,35.9837412062,-1.29126375567e-16,-2.06881065868e-05,-0.00158194257387,-0.000675396700753,0.00223665116803,0.000942947517204,0.00320951310998,-0.0145175654021,-2.06881065868e-05,0.0018918358337,1.32809676466e+20,1.3556855097e+20,0,-1.34719630502,1.32810935861e+20,1.33795953945e+20,7.92581323335e-10,-1.34719630502,-1.34719630502,-73.0147823584,0,1.34104007253e+20,0,0,0,0,0,0,0,-0.182655676365,0.0423390819366,0.0228192748464,947943.457696,2105061.05017,3103.60564509
441,3102.96219715,45.4312869158,0,0,0,1,0,0,0,0,0,0,0,0,0,0,0,0,0,0,0,0,0,0,0,0,0.438885588137,0,0,11.003212218,-2.66334076654,44.5814623749,-4.88495376467e-17,-1.58036296267e-05,-0.00242010665094,-0.000166310523735,0.00257061354505,-0.000694281747288,0.00357921680656,-0.013912585874,-1.58036296267e-05,0.0018145374166,1.32787829218e+20,1.35567270807e+20,0,-1.3575643068,1.32789041962e+20,1.33745628597e+20,-8.88597263189e-10,-1.3575643068,-1.3575643068,-84.8154586621,0,1.34064950694e+20,0,0,0,0,0,0,0,-0.168722473952,0.0415139403125,0.0216001299768,947941.55473,2105054.06394,3102.96219715
441,3103.73435868,43.8260797526,0,0,0,1,0,0,0,0,0,0,0,0,0,0,0,0,0,0,0,0,0,0,0,0,0.433346847497,0,0,7.66738442738,-7.92300494798,35.8935707081,-1.33456960656e-16,-2.75875073895e-05,-0.0013222687994,-0.000920756063742,0.00221543735575,0.00150086191036,0.0031420027583,-0.0147559767127,-2.75875073895e-05,0.00192681115388,1.32818285229e+20,1.35568413608e+20,0,-1.34311506211,1.32819557931e+20,1.33811038262e+20,1.32868699045e-09,-1.34311506211,-1.34311506211,-74.6505058488,0,1.34107950221e+20,0,0,0,0,0,0,0,-0.185250132473,0.0421609794653,0.0222972904082,947944.036019,2105063.17333,3103.73435868
441,3144.20486064,19.9678056065,0,0,0,1,0,0,0,0,0,0,0,0,0,0,0,0,0,0,0,0,0,0,0,0,0.129403777315,0,0,-1.30411653224,-8.55184053848,18.1145182462,-4.26968971461e-16,1.57148095392e-05,0.00914125641412,0.00265045935677,-0.0117760009613,0.00768204920233,-0.000578381602109,-0.00535801825205,1.57148095392e-05,0.00185531374229,1.30974525916e+20,1.35631129812e+20,0,-2.21867719699,1.30976739229e+20,1.34340262785e+20,-2.81109578385e-09,-2.21867719699,-2.21867719699,-578.662780979,0,1.34086170067e+20,0,0,0,0,0,0,0,-0.11736166205,-0.0323275700248,-0.0994351872511,947959.649512,2105120.4941,3144.20486064
441,3140.53205392,19.9797189202,0,0,0,1,0,0,0,0,0,0,0,0,0,0,0,0,0,0,0,0,0,0,0,0,0.140141817849,0,0,-1.42254780541,-9.40224447024,17.4882009231,-7.46497336736e-17,1.75397967668e-05,0.00824617267775,0.00166314286877,-0.00989177574975,0.00757147096427,-0.000315711493175,-0.00571509518981,1.75397967668e-05,0.00165588893492,1.31127182154e+20,1.35628913981e+20,0,-2.14606636332,1.31130082398e+20,1.34317150034e+20,-2.19446863659e-09,-2.14606636332,-2.14606636332,-547.101682558,0,1.34061673211e+20,0,0,0,0,0,0,0,-0.113455971302,-0.0172006753684,-0.0841210353279,947958.630262,2105116.75219,3140.53205392
441,3151.16252412,20.0244364223,0,0,0,1,0,0,0,0,0,0,0,0,0,0,0,0,0,0,0,0,0,0,0,0,0.112425310068,0,0,-0.149441097271,-4.96084782446,15.1117845042,-6.26120100815e-16,4.14698307741e-06,0.00989413852268,0.00438024334105,-0.0142702348806,0.00928110704091,-0.00170194702175,-0.00547520326201,4.14698307741e-06,0.00228641117105,1.30691800412e+20,1.35634633359e+20,0,-2.35314976163,1.30692324929e+20,1.34376198666e+20,-7.12007448486e-10,-2.35314976163,-2.35314976163,-513.081451937,0,1.34063218981e+20,0,0,0,0,0,0,0,-0.127247650845,-0.05647237747,-0.123966467857,947961.660821,2105127.87808,3151.16252412
441,3103.77116106,44.2953754579,0,0,0,1,0,0,0,0,0,0,0,0,0,0,0,0,0,0,0,0,0,0,0,0,0.437945605646,0,0,11.3991227597,2.08645088696,34.4325954186,1.03163728213e-16,-2.90694172526e-05,-0.0033092130101,0.00088292313862,0.00239722045423,-0.00265575792851,0.00381145979421,-0.0128579405957,-2.90694172526e-05,0.00172099721516,1.32715412673e+20,1.35567464742e+20,0,-1.39189752844,1.32716660161e+20,1.33701652628e+20,-1.42702277912e-09,-1.39189752844,-1.39189752844,-64.8077699794,0,1.3418560693e+20,0,0,0,0,0,0,0,-0.155894592521,0.0443292394716,0.0280616953098,947939.687148,2105047.20761,3103.77116106
441,3120.51972078,25.4813397157,0,0,0,1,0,0,0,0,0,0,0,0,0,0,0,0,0,0,0,0,0,0,0,0,0.25923079047,0,0,-2.69759958864,-17.5317308266,23.0572125863,3.90028886665e-16,2.77146847909e-05,0.00668931335534,-0.00559502303139,-0.00106657563916,0.010775613152,0.00220703599254,-0.0124888006908,2.77146847909e-05,0.00240907327229,1.32294129554e+20,1.35604340275e+20,0,-1.59175876793,1.32296278498e+20,1.3412968219e+20,1.79367630248e-09,-1.59175876793,-1.59175876793,-215.912950125,0,1.34244507231e+20,0,0,0,0,0,0,0,-0.181958115128,0.0570012681039,-0.0362447713334,947952.5731,2105094.51494,3120.51972078
441,3116.19562143,32.0472922248,0,0,0,1,0,0,0,0,0,0,0,0,0,0,0,0,0,0,0,0,0,0,0,0,0.293761741631,0,0,-2.39940898079,-18.0681533469,26.2382945523,-1.609668922e-16,3.12435904482e-05,0.0052800536192,-0.00551769269698,0.000268882668234,0.00996559882391,0.00287698668222,-0.0137245771692,3.12435904482e-05,0.00244293425266,1.32486670796e+20,1.35597215078e+20,0,-1.50039026179,1.3248865307e+20,1.34071117236e+20,2.86814703119e-09,-1.50039026179,-1.50039026179,-178.130781431,0,1.34172942284e+20,0,0,0,0,0,0,0,-0.191858222925,0.0600152901673,-0.0299222287078,947951.026406,2105088.83667,3116.19562143
441,3110.31515482,36.2872150766,0,0,0,1,0,0,0,0,0,0,0,0,0,0,0,0,0,0,0,0,0,0,0,0,0.358746204669,0,0,0.549034814849,-16.8292833579,31.0268686239,-6.68163624118e-16,1.30017209455e-05,0.00235901688817,-0.0038278994084,0.00148188424118,0.0076712408382,0.00293853329451,-0.0150095600216,1.30017209455e-05,0.00231761982177,1.32697762541e+20,1.35583806262e+20,0,-1.40026447805,1.32699602399e+20,1.33971037767e+20,-2.74736653026e-09,-1.40026447805,-1.40026447805,-115.760649866,0,1.3415042069e+20,0,0,0,0,0,0,0,-0.211222380856,0.0580375694344,-0.00853281159337,947948.500602,2105079.56386,3110.31515482
441,3107.58573284,39.642285724,0,0,0,1,0,0,0,0,0,0,0,0,0,0,0,0,0,0,0,0,0,0,0,0,0.39408978147,0,0,2.14717773996,-16.0829066769,32.1819333323,-5.72711356229e-16,-4.28148216223e-06,0.00120086911439,-0.00296805608719,0.00176290549064,0.00558067735683,0.00307455607005,-0.0140266125486,-4.28148216223e-06,0.00199394925503,1.32767253364e+20,1.35576513649e+20,0,-1.36731519192,1.32768821095e+20,1.33921095797e+20,-1.02914348584e-09,-1.36731519192,-1.36731519192,-98.2612082189,0,1.34152613064e+20,0,0,0,0,0,0,0,-0.20296892584,0.0495500406936,0.0022541787331,947947.296147,2105075.14202,3107.58573284
441,3167.34010026,20.0019419714,0,0,0,1,0,0,0,0,0,0,0,0,0,0,0,0,0,0,0,0,0,0,0,0,0.13385589838,0,0,-0.300021907045,-4.13189805811,11.6895138406,-8.19454591492e-16,-8.95103241207e-05,0.0121415481314,0.00954394502608,-0.0217750034816,0.00520840525886,0.00837623406238,-0.00957956881403,-8.95103241207e-05,0.00366708848079,1.30037730184e+20,1.35630211094e+20,0,-2.664526943,1.30043755676e+20,1.34479529139e+20,1.54277178309e-09,-2.664526943,-2.664526943,-301.622881318,0,1.34224656789e+20,0,0,0,0,0,0,0,-0.203872807474,-0.0159669191497,-0.115095513404,947966.781003,2105146.67546,3167.34010026
441,3160.73558107,19.9903866417,0,0,0,1,0,0,0,0,0,0,0,0,0,0,0,0,0,0,0,0,0,0,0,0,0.0776871090778,0,0,0.0750805373828,-4.40173135161,15.3829491247,-4.65594212818e-16,6.10751568148e-06,0.0101454806263,0.00945835058461,-0.0195977236952,0.00717405693356,0.0037803461204,-0.00591685112675,6.10751568148e-06,0.00295841450333,1.30340182821e+20,1.35641801761e+20,0,-2.5205053518,1.30343174429e+20,1.34432479131e+20,6.70005822722e-10,-2.5205053518,-2.5205053518,-455.02386001,0,1.34116176122e+20,0,0,0,0,0,0,0,-0.159386683172,-0.0748316763082,-0.14494191181,947964.413361,2105137.9833,3160.73558107
441,3113.42275179,34.7445394394,0,0,0,1,0,0,0,0,0,0,0,0,0,0,0,0,0,0,0,0,0,0,0,0,0.316480564404,0,0,-1.40064086763,-16.9336367747,26.7240080851,-5.61060820616e-16,2.59385936175e-05,0.0041860227294,-0.00479897441113,0.000638890275341,0.00881283270312,0.00309857191909,-0.0145124113001,2.59385936175e-05,0.00237856337431,1.32601796312e+20,1.35592527276e+20,0,-1.44578512443,1.32603825888e+20,1.34029229473e+20,-1.08752887017e-10,-1.44578512443,-1.44578512443,-134.661855313,0,1.34149494294e+20,0,0,0,0,0,0,0,-0.198684140415,0.0571907700154,-0.0206527092499,947950.071317,2105085.33031,3113.42275179
441,3127.13522147,20.057793284,0,0,0,1,0,0,0,0,0,0,0,0,0,0,0,0,0,0,0,0,0,0,0,0,0.198921402958,0,0,-3.16392637824,-13.2628050136,18.5864268701,3.18931002869e-16,3.57784034034e-05,0.00911078507594,-0.00512474770668,-0.00395025896586,0.00903497770229,0.00179886776971,-0.00935622724939,3.57784034034e-05,0.00195102969937,1.31930400674e+20,1.35616784833e+20,0,-1.76441246912,1.31934421214e+20,1.34209746583e+20,5.96987171678e-09,-1.76441246912,-1.76441246912,-334.196697099,0,1.34266313356e+20,0,0,0,0,0,0,0,-0.123433690441,0.0312305610787,-0.0490187470111,947954.87937,2105102.9818,3127.13522147
441,3158.58414282,19.9979954951,0,0,0,1,0,0,0,0,0,0,0,0,0,0,0,0,0,0,0,0,0,0,0,0,0.0788781665428,0,0,0.0666795236695,-4.66556780983,16.0138774153,-5.63642193027e-16,1.99801146856e-05,0.0100315191168,0.00847727333781,-0.0184888123399,0.00778565031645,0.00212180996357,-0.00551801940183,1.99801146856e-05,0.00276946006215,1.30437290228e+20,1.35641555974e+20,0,-2.47427793296,1.30439604229e+20,1.34421789442e+20,2.44088476918e-10,-2.47427793296,-2.47427793296,-481.677408259,0,1.34088992868e+20,0,0,0,0,0,0,0,-0.150756180787,-0.0783152533395,-0.145710939611,947963.793145,2105135.70634,3158.58414282
441,3160.03411656,19.989021286,0,0,0,1,0,0,0,0,0,0,0,0,0,0,0,0,0,0,0,0,0,0,0,0,0.0692708486968,0,0,0.193938314658,-4.46292083534,15.6748426895,-3.24329309522e-16,2.30158815047e-05,0.00989285837271,0.00931628656605,-0.0191861290573,0.00735182033523,0.00299528211979,-0.00545194703215,2.30158815047e-05,0.00283414091027,1.3037725378e+20,1.35643538481e+20,0,-2.50285128617,1.30380236245e+20,1.3442744623e+20,6.56504149107e-10,-2.50285128617,-2.50285128617,-465.925779473,0,1.34098371212e+20,0,0,0,0,0,0,0,-0.153448878575,-0.0834467622421,-0.149812609901,947964.171231,2105137.09438,3160.03411656
441,3104.19386849,43.7357564201,0,0,0,1,0,0,0,0,0,0,0,0,0,0,0,0,0,0,0,0,0,0,0,0,0.4251378655,0,0,6.26942976177,-8.17162356779,32.078169764,-1.21471230549e-16,-2.4476134172e-05,-0.00103553108891,-0.00120583334071,0.00221688829545,0.00221938196215,0.00309579880879,-0.0149863063475,-2.4476134172e-05,0.00198307253893,1.32816839615e+20,1.35570107391e+20,0,-1.34379776897,1.32818138925e+20,1.33828572789e+20,7.83612790621e-10,-1.34379776897,-1.34379776897,-68.3517151902,0,1.34129149527e+20,0,0,0,0,0,0,0,-0.187991579181,0.0431133305996,0.0191511061253,947944.570744,2105065.13643,3104.19386849
441,3106.0172295,42.4888249502,0,0,0,1,0,0,0,0,0,0,0,0,0,0,0,0,0,0,0,0,0,0,0,0,0.408563726105,0,0,3.08385702206,-11.987356088,27.0705325869,-1.75781733943e-16,-1.41239190812e-05,2.19642133315e-05,-0.00222746305116,0.00219137491874,0.00431439559481,0.00322086960357,-0.0145702248099,-1.41239190812e-05,0.002002894404,1.32795684938e+20,1.35573527169e+20,0,-1.35383069668,1.32797089594e+20,1.33880913067e+20,2.91352566284e-10,-1.35383069668,-1.35383069668,-68.9862468683,0,1.34145342363e+20,0,0,0,0,0,0,0,-0.202404407854,0.0464025335286,0.00984295560803,947946.155747,2105070.95534,3106.0172295
441,3103.86030764,0,44.1098354371,0.265434480218,-0.0266190356919,1,-9.78575280288,8.97353532025,0.100360213434,0,0,210,0.000149675535596,0.190197609801,1.32908710247e+20,-1.39894634451,0.4364557777,-0.148218021951,0.0440033780082,0.02730149392,3147.65694611,0,3153.98261101,-9.9643646284,1.56455120318e-09,0,0.0283841696415,0,0,-1.33650249555e-14,-5.96278682192e-15,0.318087980311,5.4335667932e-16,7.58189573464e-06,-0.00498551947572,0.0014590022048,0.00353409916665,-0.00111554577338,-0.000409230271199,-0.00222845833643,7.58189573464e-06,0.000410042303011,1.36778832648e+20,1.35651975766e+20,0.00338777345091,-0.00256555210545,1.36778832648e+20,1.36778832648e+20,16556.1594883,0,0,0,1,1.34238418713e+20,0,0,0,-5.99351941434,0,0,-11.1913362662,-0.788058317289,0.18900695921,0.161561642519,947939.140247,2105045.19981,3147.9890916
441,3127.23804226,0,19.86839461,0.560275689587,0.460785378675,1,-9.78784219714,8.97545129477,0.10013810411,0,0,210,3.88538903046e-05,0.19015883475,1.33758331052e+20,-1.76535341504,0.198449465107,-0.12325494122,0.0308680395521,-0.04927442973,3147.23804226,696.640521104,3155.11659645,-1.35500041293e-11,696.640521104,0,0.0749472965856,0,0,7.18736897974e-14,-8.92433797135e-14,0.481249974105,-9.25864662015e-16,-3.39205896304e-05,0.000680416471112,-0.0177644331357,0.0170500960749,0.00948030420777,-0.00954604510291,-0.0102078096811,-3.39205896304e-05,0.00316959040567,1.36778832648e+20,1.3564236711e+20,0.0034166608368,-0.0071008006698,1.36778832648e+20,1.36778832648e+20,20952.1641979,0,0,0,-0.00677419355845,1.3426466603e+20,0,0,0,-7.87855419132,0,0,1.35500041293e-11,-0.422082955888,0.00411188787721,0.021086877972,947954.910161,2105103.09484,3147.23804226
441,3127.15767341,0,19.8670556701,0.559749840222,0.459012507014,1,-9.78806578061,8.97565632082,0.100137928521,0,0,210,3.89006414546e-05,0.190165490301,1.3375943234e+20,-1.76309742557,0.198811909059,-0.123335304638,0.0311542160833,-0.0490567705582,3147.15767341,693.877646844,3155.10386911,-1.3594560381e-11,693.877646844,0,0.0750604683933,0,0,7.07426098992e-14,-8.75740249518e-14,0.479989196039,-9.4925778044e-16,-3.40912901144e-05,0.000692788922159,-0.0178687716959,0.0171418914836,0.00952259648805,-0.00957693743424,-0.010233364001,-3.40912901144e-05,0.00318432722,1.36778832648e+20,1.35642343756e+20,0.00341673104737,-0.00711182360388,1.36778832648e+20,1.36778832648e+20,20683.8842505,0,0,0,0,1.34266305017e+20,0,0,0,-7.9461957045,0,0,1.35467937123e-11,-0.422844243409,0.0048849571665,0.0221085925403,947954.887195,2105103.01052,3147.15767341
441,3138.43445117,0,20.0717651227,0.607863850206,0.780568060559,1,-9.75669416029,8.94688854499,0.100172089784,0,0,210,2.98148602635e-05,0.189235993136,1.33564482272e+20,-2.08706945392,0.146015016822,-0.11796344009,-0.00776494075793,-0.0782802394222,3158.43445117,1007.39827882,3156.72201528,-3.75346374773e-12,1007.39827882,0,0.0553464177913,0,0,2.82114089235e-13,-2.40005674169e-13,0.597418915541,1.10382107167e-15,3.68063192164e-07,-0.00159152949203,-0.000227846337644,0.00181974389287,0.00415921883694,-0.00845306475892,-0.00453651179154,3.68063192164e-07,0.00106479918132,1.36778832648e+20,1.35646411883e+20,0.00340450066544,-0.00519167507521,1.36778832648e+20,1.36778832648e+20,55203.1697151,0,0,0,-0.724868197662,1.34051501119e+20,0,0,0,1.71243588526,0,0,3.7552964937e-12,-0.306159106802,-0.126573657355,-0.119249751975,947958.023278,2105114.52381,3158.43445117
441,3103.60564509,0,44.2840162367,0.276982579013,-0.0789110911986,1,-9.7860588212,8.97381593904,0.0999404792316,0,0,210,0.000127971034399,0.190014597074,1.33284216111e+20,-1.34659914115,0.432681110508,-0.182655676365,0.0423390819366,0.0228192748464,3147.54445868,0,3153.70716996,-10.0389663602,-1.86264514923e-09,0,0.0278162390085,0,0,-1.67018586221e-13,-1.29884433177e-13,0.355428158316,1.90278848625e-15,6.00530271912e-06,-0.00410406452768,0.0010053004679,0.0031047693625,0.000631012655032,0.000146071636115,-0.00177165055035,6.00530271912e-06,0.000307839022254,1.36778832648e+20,1.35652092964e+20,0.00338742110876,-0.00251023566178,1.36778832648e+20,1.36778832648e+20,18639.5570147,0,0,0,1,1.34136934237e+20,0,0,0,-5.82807907469,0,0,-11.2791268291,-0.809853230063,0.208337682544,0.153063122692,947943.457696,2105061.05017,3147.87909089
441,3102.96219715,0,45.4508190516,0.275853955172,-0.0842750343353,1,-9.78461683308,8.97249363593,0.0998167620149,0,0,210,0.00016620125467,0.189914493142,1.33633825485e+20,-1.35698923198,0.438885588137,-0.168722473952,0.0415139403125,0.0216001299768,3148.06416955,0,3153.75796112,-9.99766210962,-9.90870367181e-10,0,0.0279721783386,0,0,-2.43679931882e-13,8.04886497023e-14,0.42978492485,3.72826614768e-16,8.39081069879e-06,-0.00432968832649,0.00123907247241,0.00309900666478,0.000126212399705,0.000370191354378,-0.00204296072084,8.39081069879e-06,0.000338635161064,1.36778832648e+20,1.35652060784e+20,0.00338751785275,-0.00252542415255,1.36778832648e+20,1.36778832648e+20,21386.8898821,0,0,0,1,1.34051694113e+20,0,0,0,-5.36053616895,0,0,-11.2416111166,-0.811353261494,0.202593298993,0.157950776232,947941.55473,2105054.06394,3148.39742495
441,3103.73435868,0,43.8194337468,0.282163462808,-0.0773476823768,1,-9.78699857716,8.97467769525,0.0999465268777,0,0,210,0.000109876037449,0.190045679128,1.33205969294e+20,-1.34251159386,0.433346847497,-0.185250132473,0.0421609794653,0.0222972904082,3147.2061727,0,3153.64989916,-10.0534636222,-1.53979041138e-09,0,0.0291346953988,0,0,2.58503039987e-14,-1.38427741146e-13,0.357463874376,1.91829522849e-15,4.87991507461e-06,-0.00414298376694,0.000835063208596,0.00331280047342,0.000835039967948,0.000172002448135,-0.00190334619593,4.87991507461e-06,0.000325983594369,1.36778832648e+20,1.35651820888e+20,0.00338823907446,-0.0026386533142,1.36778832648e+20,1.36778832648e+20,19447.4525402,0,0,0,1,1.341475167e+20,0,0,0,-6.10861100792,0,0,-11.2946064372,-0.810059869291,0.209591816203,0.151339363671,947944.036019,2105063.17333,3147.54128815
441,3144.20486064,0,20.0489427945,0.632870482895,0.773500250784,1,-9.74064107322,8.93216786414,0.100371838806,0,0,210,2.57099593701e-05,0.188843838988,1.33697433634e+20,-2.21762482746,0.129403777315,-0.11736166205,-0.0323275700248,-0.0994351872511,3164.20486064,1088.60302838,3158.84208681,0,1088.60302838,0,0.0444717047978,0,0,1.49983344451e-13,-1.02764420265e-13,0.6468017244,2.64799447468e-15,3.75610233122e-06,-0.00197639123175,0.00102086268601,0.000959284648077,0.00182115627587,-0.0049231578079,-0.00430232736893,3.75610233122e-06,0.000661199180967,1.36778832648e+20,1.35648655972e+20,0.00339775405485,-0.00413247802965,1.36778832648e+20,1.36778832648e+20,72394.9575093,0,0,0,-1,1.34074583554e+20,0,0,0,5.36277383061,0,0,1.86202997339e-14,-0.286054079895,-0.139690145516,-0.173767149428,947959.649512,2105120.4941,3164.20486064
441,3140.53205392,0,20.0503443559,0.61806066882,0.796899295106,1,-9.75085869925,8.94153742721,0.100305865559,0,0,210,2.89664337745e-05,0.189121453775,1.33583501639e+20,-2.14468740406,0.140141817849,-0.113455971302,-0.0172006753684,-0.0841210353279,3160.53205392,1019.02195207,3157.08894905,0,1019.02195207,0,0.0523600608575,0,0,3.24972456724e-13,-2.69460411954e-13,0.607307842502,2.25350736454e-15,-5.39059361131e-07,-0.00202740829013,0.000372619453658,0.00165424977712,0.00292784837145,-0.00599579410137,-0.00443604073461,-5.39059361131e-07,0.000779623707428,1.36778832648e+20,1.35647028141e+20,0.00340264795225,-0.00490080390987,1.36778832648e+20,1.36778832648e+20,59729.6555895,0,0,0,-1,1.34048732758e+20,0,0,0,3.44310486794,0,0,-6.60290065407e-15,-0.286368654447,-0.138618918103,-0.14639496249,947958.630262,2105116.75219,3160.53205392
441,3151.16252412,0,19.9677795032,0.630395650948,0.768866174885,1,-9.72128508504,8.91441842298,0.100447339144,0,0,210,3.22621817148e-05,0.188295273201,1.33788726678e+20,-2.35290019883,0.112425310068,-0.127247650845,-0.05647237747,-0.123966467857,3171.16252412,999.691669138,3161.20869536,-5.98958468973e-12,999.691669138,0,0.0245481864199,0,0,-5.74123720263e-14,3.3733625821e-13,0.590483738026,2.36340953474e-15,7.20026699392e-06,-0.00113693086707,0.00123383812322,-8.97069891526e-05,-0.00117486562848,-0.00148578358813,-0.00352423320784,7.20026699392e-06,0.000286857038564,1.36778832648e+20,1.35652767357e+20,0.00338539361837,-0.00219192733966,1.36778832648e+20,1.36778832648e+20,82719.7412717,0,0,0,-1,1.3406609342e+20,0,0,0,9.953828765,0,0,6.04287539491e-12,-0.285834699328,-0.132257716963,-0.228462266595,947961.660821,2105127.87808,3171.16252412
441,3103.77116106,0,44.3033730446,0.266375344777,-0.0238265725017,1,-9.78549346629,8.97329750858,0.100278656439,0,0,210,0.000154196496108,0.190152444755,1.33009904189e+20,-1.39130591608,0.437945605646,-0.155894592521,0.0443292394716,0.0280616953098,3147.74951287,0,3153.90642372,-9.98397971319,1.54130884291e-09,0,0.0280876948167,0,0,8.94997947309e-14,3.31185716666e-14,0.331193481463,3.5675721021e-16,6.96555415847e-06,-0.00484228716977,0.00142552814509,0.00342372457883,-0.000882802030522,-0.0003391559134,-0.00219145983764,6.96555415847e-06,0.000393676860521,1.36778832648e+20,1.35652036946e+20,0.00338758951908,-0.00253667545752,1.36778832648e+20,1.36778832648e+20,16937.3439766,0,0,0,1,1.34220085559e+20,0,0,0,-5.82411152423,0,0,-11.2134385095,-0.793748668293,0.191949841741,0.161275366707,947939.687148,2105047.20761,3148.08231219
441,3120.51972078,0,25.5634149921,0.365560360859,-0.0725434797532,1,-9.79118864271,8.97851998537,0.100223800303,0,0,210,4.72193116222e-05,0.190298901779,1.33300233665e+20,-1.59073892642,0.25923079047,-0.181958115128,0.0570012681039,-0.0362447713334,3145.58154047,0,3154.44157746,-13.6078616366,9.36889717117e-10,0,0.0507481203079,0,0,-4.80208694798e-13,5.44432821955e-14,0.415967301639,1.20431326712e-16,1.99509337423e-05,-0.000421240344358,-0.0113286746711,0.0117698659492,0.00549452004986,0.00717271190665,-0.00696834098966,1.99509337423e-05,0.00195887260853,1.36778832648e+20,1.35647360779e+20,0.0034016479107,-0.00474380090035,1.36778832648e+20,1.36778832648e+20,18759.7061135,0,0,0,1,1.34234501252e+20,0,0,0,-8.4064416043,0,0,-15.2886286929,-0.616588924902,0.168810177138,0.114753149433,947952.5731,2105094.51494,3146.03513585
441,3116.19562143,0,32.0658700876,0.315766504246,-0.124776032648,1,-9.78496385794,8.97281185773,0.100368715224,0,0,210,0.000122389580181,0.19017773471,1.33342323619e+20,-1.49944984433,0.293761741631,-0.191858222925,0.0600152901673,-0.0299222287078,3147.94379429,0,3154.1748431,-9.86669472229,0,0,0.0251758507291,0,0,-1.1206550378e-13,2.08147688172e-13,0.409947823212,1.38274494569e-15,3.14463427918e-05,-0.00260818500092,-0.00112454090755,0.00376417225125,0.00367119338348,0.00188380437323,-0.00191711837733,3.14463427918e-05,0.000581528561939,1.36778832648e+20,1.35652637838e+20,0.00338578300468,-0.00225306184339,1.36778832648e+20,1.36778832648e+20,21787.0433658,0,0,0,1,1.34191288524e+20,0,0,0,-5.90215898682,0,0,-11.0824573014,-0.690627922944,0.19760024797,0.127789285764,947951.026406,2105088.83667,3148.27268411
441,3110.31515482,0,36.2399835862,0.308182931245,-0.0682516787981,1,-9.78973729655,8.97718910093,0.100182318063,0,0,210,5.42131884667e-05,0.190236178352,1.33027973678e+20,-1.39939193088,0.358746204669,-0.211222380856,0.0580375694344,-0.00853281159337,3146.21971572,0,3153.76574036,-10.113540728,-1.1344182204e-09,0,0.0355974725807,0,0,-5.5113049332e-13,1.6233087498e-13,0.38712544598,-1.38106303824e-15,-3.90408090241e-06,-0.00327358744312,-0.00127102004824,0.00454070341045,0.00269279709448,0.00104183828796,-0.00257905894208,-3.90408090241e-06,0.000470232856934,1.36778832648e+20,1.35650487236e+20,0.00339224855496,-0.00326812781173,1.36778832648e+20,1.36778832648e+20,25041.8825044,0,0,0,1,1.34178848831e+20,0,0,0,-7.20890661672,0,0,-11.3764609615,-0.753402309532,0.206399759399,0.137151802971,947948.500602,2105079.56386,3146.55683374
441,3107.58573284,0,39.6679578702,0.277906002152,-0.113777702824,1,-9.78784615716,8.97545492612,0.100149508064,0,0,210,0.000105782478227,0.190164176902,1.33433151556e+20,-1.3665717584,0.39408978147,-0.20296892584,0.0495500406936,0.0022541787331,3146.89973794,0,3153.69933174,-10.1064257545,-9.75410872632e-10,0,0.0329800824241,0,0,-2.97964833235e-13,7.51713981572e-14,0.369176527252,-1.07405421424e-15,9.81560155491e-07,-0.00335529169149,-0.000734621914679,0.00409089516632,0.00218284037146,0.00133817488638,-0.002171528958,9.81560155491e-07,0.000423218479586,1.36778832648e+20,1.35651027358e+20,0.00339062473737,-0.00301319401046,1.36778832648e+20,1.36778832648e+20,21535.9867788,0,0,0,1,1.34187643747e+20,0,0,0,-6.46271294677,0,0,-11.3641981812,-0.777127451522,0.213838167822,0.144260890734,947947.296147,2105075.14202,3147.2366188
441,3167.34010026,0,19.9976958444,0.512589979418,0.619609075744,1,-9.67627960677,8.87314839941,0.100884842697,0,0,210,5.50135946596e-06,0.187139749546,1.34111605077e+20,-2.66165691851,0.13385589838,-0.203872807474,-0.0159669191497,-0.115095513404,3187.34010026,640.727512348,3177.37410026,-9.21493312614e-12,640.727512348,0,0.0087392799361,0,0,-1.80504242557e-13,6.14631602641e-13,0.342378035809,-1.94469877325e-15,-5.72579607531e-07,-0.00148924890204,0.00130745922839,0.000181217094046,-0.00129264114129,-0.000186159475543,-0.00178927810087,-5.72579607531e-07,0.000169082265958,1.36778832648e+20,1.35656029683e+20,0.00337558578706,-0.000652139848141,1.36778832648e+20,1.36778832648e+20,50475.2834919,0,0,0,-1,1.34224804543e+20,0,0,0,9.96600000001,0,0,9.2322279988e-12,-0.299500897854,-0.114476605837,-0.283345891092,947966.781003,2105146.67546,3187.34010026
441,3160.73558107,0,20.0094638328,0.588084932135,0.692509551002,1,-9.6946531593,8.88999694708,0.100794805341,0,0,210,1.3704898319e-05,0.187652059444,1.33958909365e+20,-2.51908100156,0.0776871090778,-0.159386683172,-0.0748316763082,-0.14494191181,3180.73558107,994.504929368,3170.76958107,0,994.504929368,0,0.0146452912706,0,0,-1.27210115437e-12,4.0014064276e-14,0.561009247332,7.38367498354e-16,-4.8220330114e-06,-0.00173559951996,0.00201615276046,-0.000285375273507,-0.0012316561057,-0.00067593653029,-0.00295359658154,-4.8220330114e-06,0.000290024119272,1.36778832648e+20,1.35654810917e+20,0.00337924987692,-0.00122738535211,1.36778832648e+20,1.36778832648e+20,87422.8800902,0,0,0,-1,1.34115076142e+20,0,0,0,9.96599999876,0,0,-4.16461112874e-14,-0.301209483,-0.117919677083,-0.27318563329,947964.413361,2105137.9833,3180.73558107
441,3113.42275179,0,34.7428752403,0.301998239093,-0.101968538895,1,-9.78525287766,8.97307688882,0.100471016411,0,0,210,0.000125121755746,0.190233294571,1.33171064395e+20,-1.4448224433,0.316480564404,-0.198684140415,0.0571907700154,-0.0206527092499,3147.87427747,0,3154.00946932,-8.83548651014,0,0,0.0226644187664,0,0,-3.17079138117e-13,2.62818544367e-13,0.374407906365,7.23685760288e-16,2.04891555768e-05,-0.00358769830001,0.00123924740933,0.00236894004626,0.0032914601318,-0.000836158884775,-0.000990496911063,2.04891555768e-05,0.000254549028748,1.36778832648e+20,1.35653156094e+20,0.00338422492415,-0.00200844837024,1.36778832648e+20,1.36778832648e+20,20827.8223821,0,0,0,1,1.3417000779e+20,0,0,0,-5.84067564128,0,0,-9.92447754398,-0.717215245,0.200370714579,0.128760573191,947950.071317,2105085.33031,3148.16879368
441,3127.13522147,0,19.8758943697,0.559473779819,0.457048605655,1,-9.78810546438,8.97569271084,0.100138255576,0,0,210,3.88730470568e-05,0.190166835653,1.33758077051e+20,-1.76250334245,0.198921402958,-0.123433690441,0.0312305610787,-0.0490187470111,3147.14193403,691.467761866,3155.10172912,-0.0442420575134,691.467761866,0,0.0750357780468,0,0,6.8360226462e-14,-8.72199877245e-14,0.479587848182,-9.42035222818e-16,-3.40271439085e-05,0.000701092159578,-0.0178848509181,0.0171497316146,0.00951348292128,-0.00951663362571,-0.0102411035732,-3.40271439085e-05,0.00318346104979,1.36778832648e+20,1.35642348852e+20,0.00341671572976,-0.00710941876413,1.36778832648e+20,1.36778832648e+20,20631.1630039,0,0,0,0.00303380526308,1.34266283605e+20,0,0,0,-7.95832036402,0,0,-0.0497271937471,-0.423428373571,0.00551096312604,0.02241841733,947954.87937,2105102.9818,3147.14340876
441,3158.58414282,0,19.9998859461,0.599043711285,0.708607291297,1,-9.70063838888,8.8954854026,0.100684124342,0,0,210,1.9788537307e-05,0.187781688003,1.33882929076e+20,-2.47317640281,0.0788781665428,-0.150756180787,-0.0783152533395,-0.145710939611,3178.58414282,1048.75070817,3168.62283234,-2.20608150645e-12,1048.75070817,0,0.016850507851,0,0,-1.28466010242e-12,-2.56618815137e-14,0.59553536046,1.09708404458e-15,-3.8149135245e-06,-0.00170843573645,0.00195438556154,-0.000249764738615,-0.00120322289712,-0.000864486903641,-0.00309645874768,-3.8149135245e-06,0.000298004273376,1.36778832648e+20,1.35654355849e+20,0.00338061799064,-0.00144217344704,1.36778832648e+20,1.36778832648e+20,90742.36682,0,0,0,-1,1.34087987078e+20,0,0,0,9.96131048247,0,0,2.17002581304e-12,-0.298770201026,-0.12225007527,-0.263734680451,947963.793145,2105135.70634,3178.58414282
441,3160.03411656,0,20.0110670106,0.586918866148,0.707667267018,1,-9.69660461022,8.89178642757,0.100751939572,0,0,210,1.62437398879e-05,0.187691219504,1.3391449729e+20,-2.50143146752,0.0692708486968,-0.153448878575,-0.0834467622421,-0.149812609901,3180.03411656,1024.88937528,3170.06811656,0,1024.88937528,0,0.0153268700399,0,0,-1.36738637691e-12,-5.17510985287e-14,0.580191540473,1.09458010343e-15,-4.78062471982e-06,-0.00173038384639,0.00202162412671,-0.00029602090504,-0.00120615170661,-0.000733154178746,-0.00298192955815,-4.78062471982e-06,0.000290417906291,1.36778832648e+20,1.35654670266e+20,0.0033796727283,-0.00129377112424,1.36778832648e+20,1.36778832648e+20,89995.1268678,0,0,0,-1,1.34097375485e+20,0,0,0,9.96599999903,0,0,-4.32312881198e-14,-0.300808244002,-0.119668696126,-0.270624684678,947964.171231,2105137.09438,3180.03411656
441,3104.19386849,0,43.7327146329,0.29129854116,-0.090417335807,1,-9.78593524328,8.97370261809,0.0999254147406,0,0,210,0.000135626407007,0.190003974683,1.33340558109e+20,-1.34318168305,0.4251378655,-0.187991579181,0.0431133305996,0.0191511061253,3147.58991756,0,3153.64741288,-10.0078317652,-1.29415781699e-09,0,0.0283121785782,0,0,9.39201243494e-14,-8.24668653183e-14,0.323686669838,2.09259672848e-15,6.46316367662e-06,-0.00385969100006,0.000839870764852,0.00302628339889,0.00113353722164,0.000491680116213,-0.00223361552395,6.46316367662e-06,0.000340659591212,1.36778832648e+20,1.35651990622e+20,0.00338772878814,-0.00255854017586,1.36778832648e+20,1.36778832648e+20,16890.3388853,0,0,0,1,1.34148419249e+20,0,0,0,-5.72390093411,0,0,-11.2495385502,-0.808274400213,0.212109905097,0.150460554004,947944.570744,2105065.13643,3147.92351195
441,3106.0172295,0,42.5429174851,0.29396174475,-0.139948991988,1,-9.78417644879,8.97208980354,0.0999910943582,0,0,210,0.000181452742536,0.189981067258,1.33729731687e+20,-1.3531646408,0.408563726105,-0.202404407854,0.0464025335286,0.00984295560803,3148.22478839,0,3153.66699744,-9.92808575069,0,0,0.0292903236199,0,0,6.51333550143e-15,4.99643030704e-14,0.292876630038,-1.34168044515e-16,1.04741554916e-05,-0.0033592289545,0.000415356612486,0.00295434649751,0.0019424080097,0.00149450389758,-0.0026954301745,1.04741554916e-05,0.000385022873149,1.36778832648e+20,1.35651788773e+20,0.00338833562588,-0.00265381150291,1.36778832648e+20,1.36778832648e+20,14267.6956607,0,0,0,1,1.34117804201e+20,0,0,0,-5.11127285799,0,0,-11.1672599815,-0.798953697347,0.217645583801,0.148740718372,947946.155747,2105070.95534,3148.55572458
