profil A
vecteur normal 
-250 13 0.0
point
948147 2105030 3190
xyref
948153 2105143
profil B
vecteur  normal
-252 18 0.0
point
948045 2105030 3160
xyref
948054 2105154
profil C
vecteur normal 
-268 73 0.0
point 
947935 2105030 3140
xyref
947969 2105155
profil D
vecteur normal
-294 14 0.0
point
947828 2105030 3135
xy ref
947833 2105139
transect juliette
vecteur normal 
24 93 0.0
point 
947901 2105095 3150
xy ref
948265 2105001

