Point(1)={ 9.4992000e+05, 1.0367000e+05,0.0,50};
Point(2)={ 9.4998000e+05, 1.0380000e+05,0.0,80}; 
Point(3)={ 9.4998000e+05, 1.0407000e+05,0.0,80}; 
Point(4)={ 9.5003000e+05, 1.0422000e+05,0.0,80}; 
Point(5)={ 9.5009000e+05, 1.0430000e+05,0.0,80}; 
Point(6)={ 9.5018000e+05, 1.0436000e+05,0.0,80}; 
Point(7)={ 9.5032000e+05, 1.0445000e+05,0.0,80}; 
Point(8)={ 9.5042000e+05, 1.0466000e+05,0.0,80}; 
Point(9)={ 9.5045000e+05, 1.0476000e+05,0.0,80}; 
Point(10)={ 9.5047000e+05, 1.0507000e+05,0.0,80}; 
Point(11)={ 9.5044000e+05, 1.0529000e+05,0.0,80}; 
Point(12)={ 9.5032000e+05, 1.0551000e+05,0.0,80}; 
Point(13)={ 9.5020000e+05, 1.0557000e+05,0.0,80}; 
Point(14)={ 9.5015000e+05, 1.0562000e+05,0.0,80}; 
Point(15)={ 9.5011000e+05, 1.0566000e+05,0.0,20}; 
Point(16)={ 9.5005000e+05, 1.0566000e+05,0.0,20}; 
Point(17)={ 9.5002000e+05, 1.0561000e+05,0.0,20}; 
Point(18)={ 9.4998000e+05, 1.0556000e+05,0.0,20}; 
Point(19)={ 9.4995000e+05, 1.0551000e+05,0.0,20}; 
Point(20)={ 9.4995000e+05, 1.0548000e+05,0.0,20}; 
Point(21)={ 9.4992000e+05, 1.0546000e+05,0.0,20}; 
Point(22)={ 9.4991000e+05, 1.0545000e+05,0.0,20}; 
Point(23)={ 9.4990000e+05, 1.0543000e+05,0.0,20}; 
Point(24)={ 9.4987000e+05, 1.0543000e+05,0.0,20}; 
Point(25)={ 9.4982000e+05, 1.0542000e+05,0.0,20}; 
Point(26)={ 9.4978000e+05, 1.0542000e+05,0.0,20}; 
Point(27)={ 9.4974000e+05, 1.0541000e+05,0.0,20}; 
Point(28)={ 9.4972000e+05, 1.0543000e+05,0.0,20}; 
Point(29)={ 9.4968000e+05, 1.0544000e+05,0.0,20}; 
Point(30)={ 9.4967000e+05, 1.0543000e+05,0.0,20}; 
Point(31)={ 9.4965000e+05, 1.0541000e+05,0.0,20}; 
Point(32)={ 9.4962000e+05, 1.0539000e+05,0.0,20}; 
Point(33)={ 9.4958000e+05, 1.0535000e+05,0.0,20}; 
Point(34)={ 9.4956000e+05, 1.0533000e+05,0.0,20}; 
Point(35)={ 9.4952000e+05, 1.0531000e+05,0.0,20}; 
Point(36)={ 9.4949000e+05, 1.0529000e+05,0.0,20}; 
Point(37)={ 9.4947000e+05, 1.0527000e+05,0.0,20}; 
Point(38)={ 9.4945000e+05, 1.0525000e+05,0.0,20}; 
Point(39)={ 9.4939000e+05, 1.0522000e+05,0.0,20}; 
Point(40)={ 9.4931000e+05, 1.0521000e+05,0.0,20}; 
Point(41)={ 9.4922000e+05, 1.0522000e+05,0.0,20}; 
Point(42)={ 9.4918000e+05, 1.0524000e+05,0.0,20}; 
Point(43)={ 9.4915000e+05, 1.0529000e+05,0.0,20}; 
Point(44)={ 9.4914000e+05, 1.0533000e+05,0.0,20}; 
Point(45)={ 9.4910000e+05, 1.0530000e+05,0.0,80}; 
Point(46)={ 9.4907000e+05, 1.0526000e+05,0.0,80}; 
Point(47)={ 9.4905000e+05, 1.0522000e+05,0.0,80}; 
Point(48)={ 9.4903000e+05, 1.0520000e+05,0.0,80}; 
Point(49)={ 9.4896000e+05, 1.0503000e+05,0.0,80}; 
Point(50)={ 9.4890000e+05, 1.0493000e+05,0.0,80}; 
Point(51)={ 9.4888000e+05, 1.0485000e+05,0.0,80}; 
Point(52)={ 9.4887000e+05, 1.0465000e+05,0.0,80}; 
Point(53)={ 9.4892000e+05, 1.0450000e+05,0.0,80}; 
Point(54)={ 9.4901000e+05, 1.0433000e+05,0.0,80}; 
Point(55)={ 9.4912000e+05, 1.0419000e+05,0.0,80}; 
Point(56)={ 9.4931000e+05, 1.0402000e+05,0.0,80}; 
Point(57)={ 9.4945000e+05, 1.0388000e+05,0.0,80}; 
Point(58)={ 9.4966000e+05, 1.0366000e+05,0.0,80}; 
Point(59)={ 9.4977000e+05, 1.0358000e+05,0.0,50};
Point(60)={ 9.4984000e+05, 1.0359000e+05,0.0,80}; 
Point(61) = {949192, 104963,0.0,50};
Point(62) = {949521, 105002,0.0,50};
Point(63) = {949965, 105161,0.0,50};

Spline(1) = {50, 49, 48, 46, 45};
Spline(2) = {45, 43, 42, 41, 40, 39, 38};
Spline(3) = {38, 36, 35, 34, 33, 32, 31, 30, 28, 27, 26, 25, 24, 23, 21, 19, 17, 16, 15};
Spline(4) = {50, 61, 62, 63, 11};
BSpline(5) = {11, 12, 13, 14, 15};
Line Loop(6) = {4, 5, -3, -2, -1};
Plane Surface(7) = {6};
BSpline(8) = {50, 51, 52, 53, 54, 55, 56, 57, 58, 59, 60, 1, 2, 3, 4, 5, 6, 7, 8, 9, 10, 11};
Line Loop(9) = {8, -4};
Plane Surface(10) = {9};
Physical Line(11) = {2};
Physical Line(12) = {3};
Physical Line(13) = {5, 8, 1};
Physical Surface(14) = {10, 7};
