$MeshFormat
4.1 0 8
$EndMeshFormat
$Entities
63 6 2 0
1 949920 103670 0 0 
2 949980 103800 0 0 
3 949980 104070 0 0 
4 950030 104220 0 0 
5 950090 104300 0 0 
6 950180 104360 0 0 
7 950320 104450 0 0 
8 950420 104660 0 0 
9 950450 104760 0 0 
10 950470 105070 0 0 
11 950440 105290 0 0 
12 950320 105510 0 0 
13 950200 105570 0 0 
14 950150 105620 0 0 
15 950110 105660 0 0 
16 950050 105660 0 0 
17 950020 105610 0 0 
18 949980 105560 0 0 
19 949950 105510 0 0 
20 949950 105480 0 0 
21 949920 105460 0 0 
22 949910 105450 0 0 
23 949900 105430 0 0 
24 949870 105430 0 0 
25 949820 105420 0 0 
26 949780 105420 0 0 
27 949740 105410 0 0 
28 949720 105430 0 0 
29 949680 105440 0 0 
30 949670 105430 0 0 
31 949650 105410 0 0 
32 949620 105390 0 0 
33 949580 105350 0 0 
34 949560 105330 0 0 
35 949520 105310 0 0 
36 949490 105290 0 0 
37 949470 105270 0 0 
38 949450 105250 0 0 
39 949390 105220 0 0 
40 949310 105210 0 0 
41 949220 105220 0 0 
42 949180 105240 0 0 
43 949150 105290 0 0 
44 949140 105330 0 0 
45 949100 105300 0 0 
46 949070 105260 0 0 
47 949050 105220 0 0 
48 949030 105200 0 0 
49 948960 105030 0 0 
50 948900 104930 0 0 
51 948880 104850 0 0 
52 948870 104650 0 0 
53 948920 104500 0 0 
54 949010 104330 0 0 
55 949120 104190 0 0 
56 949310 104020 0 0 
57 949450 103880 0 0 
58 949660 103660 0 0 
59 949770 103580 0 0 
60 949840 103590 0 0 
61 949192 104963 0 0 
62 949521 105002 0 0 
63 949965 105161 0 0 
1 948900 104930 0 949100 105300 0 1 13 2 50 -45 
2 949100 105210 0 949450 105300 0 1 11 2 45 -38 
3 949450 105250 0 950110 105660 0 1 12 2 38 -15 
4 948900 104930 0 950440 105290 0 0 2 50 -11 
5 950110 105290 0 950440 105660 0 1 13 2 11 -15 
8 948900 103588.040695016 0 950440 105290 0 1 13 2 50 -11 
7 948900 104930 0 950440 105660 0 1 14 5 4 5 -3 -2 -1 
10 948900 103588.040695016 0 950440 105290 0 1 14 2 8 -4 
$EndEntities
$Nodes
13 702 1 702
0 11 0 1
1
950440 105290 0
0 15 0 1
2
950110 105660 0
0 38 0 1
3
949450 105250 0
0 45 0 1
4
949100 105300 0
0 50 0 1
5
948900 104930 0
1 1 0 5
6
7
8
9
10
948937.9902887135 104989.3782463665 0
948969.9761684247 105052.1306090208 0
948996.2651868415 105117.5389796755 0
949022.3939427236 105183.0119973647 0
949057.2145105689 105243.9959271903 0
1 2 0 9
11
12
13
14
15
16
17
18
19
949160.7350345601 105275.908190308 0
949193.6858613912 105228.881706676 0
949240.0368080981 105216.1964991008 0
949282.584589544 105211.1820082559 0
949321.3464801478 105210.1785653938 0
949355.9418907282 105213.0282499752 0
949386.227086653 105218.9623937928 0
949411.567924974 105228.5617713701 0
949432.1463445114 105240.0858426924 0
1 3 0 43
20
21
22
23
24
25
26
27
28
29
30
31
32
33
34
35
36
37
38
39
40
41
42
43
44
45
46
47
48
49
50
51
52
53
54
55
56
57
58
59
60
61
62
949463.7461309124 105264.118198366 0
949477.4939876624 105278.2347049142 0
949491.9325325378 105291.6338858951 0
949507.9503162756 105303.0748341112 0
949525.1217119036 105312.7349042012 0
949542.9723776327 105321.0774761325 0
949560.3849001589 105330.2582821307 0
949574.3951938703 105343.9802914218 0
949588.0142451251 105358.2169189209 0
949601.705280047 105372.3889078955 0
949615.7544994149 105386.2032767102 0
949631.295632286 105398.264457078 0
949648.0948612825 105408.5505713743 0
949660.4990412705 105423.6660833286 0
949677.9332084142 105431.5216954422 0
949697.5991875369 105432.4795229207 0
949717.1957086528 105430.6811023614 0
949731.2268013069 105418.2278938641 0
949747.1259247621 105410.3152500253 0
949765.886981566 105416.2828115298 0
949785.0662771779 105420.4159599206 0
949804.7486120285 105419.6829657204 0
949824.3931835502 105420.5940658137 0
949843.6925142558 105424.551635714 0
949862.9245774213 105428.8382566775 0
949882.4782358627 105429.5282843488 0
949901.4365516282 105430.9622881287 0
949912.7093116366 105446.9233161336 0
949922.4592491352 105464.0394715663 0
949932.1876367837 105481.1751828448 0
949942.2876488182 105498.0931893455 0
949953.0832208917 105514.5766354513 0
949964.3036792555 105530.7749972951 0
949975.6709275161 105546.8708727931 0
949987.085691185 105562.933114096 0
949998.490535849 105579.0023929989 0
950009.820673116 105595.1243835997 0
950020.9225051103 105611.4038068558 0
950030.3070438091 105628.7090056604 0
950038.1463746015 105646.7843072927 0
950051.4729228441 105660.7508765011 0
950070.780468007 105663.6455633907 0
950090.3784472232 105661.6611606577 0
1 4 0 19
63
64
65
66
67
68
69
70
71
72
73
74
75
76
77
78
79
80
81
948978.9906581757 104938.8774770233 0
949057.9840426375 104947.7306491142 0
949136.9676733001 104956.6702785213 0
949215.9630023489 104965.4925883213 0
949295.2460189097 104971.1466457761 0
949374.5139809711 104976.99894901 0
949453.2909400484 104987.4567295423 0
949530.8803738181 105004.6004050981 0
949606.7518794697 105028.2517772113 0
949681.3990873477 105055.5573504764 0
949755.4920434499 105084.3414292802 0
949829.5817711449 105113.1339021135 0
949904.1505675155 105140.6562144384 0
949979.6344349342 105165.5467221627 0
950055.8530880511 105188.1037351929 0
950132.458468124 105209.3132195745 0
950209.2987620151 105229.6569204075 0
950286.2467405219 105249.5904204206 0
950363.1861714441 105269.5567605732 0
1 5 0 9
82
83
84
85
86
87
88
89
90
950402.4798284252 105356.0225236183 0
950363.8961797613 105417.3905376095 0
950323.7247098085 105472.7456373301 0
950281.3013040429 105519.7090288919 0
950237.0284550785 105554.9358283712 0
950197.0044086326 105581.5233550048 0
950166.4403909023 105605.8751768356 0
950143.2838421054 105627.1396030626 0
950125.0021603141 105645.0314301037 0
1 8 0 45
91
92
93
94
95
96
97
98
99
100
101
102
103
104
105
106
107
108
109
110
111
112
113
114
115
116
117
118
119
120
121
122
123
124
125
126
127
128
129
130
131
132
133
134
135
948885.6699349998 104851.7250510663 0
948879.2325836807 104772.3890976198 0
948879.678013081 104692.794993906 0
948888.8425698268 104613.7640452208 0
948910.2311173154 104537.1642556713 0
948941.5947490071 104464.008411016 0
948978.2344384037 104393.3341237661 0
949019.640245838 104325.345359061 0
949066.3634578726 104260.9048539016 0
949118.4198424809 104200.6849440648 0
949174.416829317 104144.0933668979 0
949232.3193357723 104089.4419396324 0
949290.6843014493 104035.2828443004 0
949348.3736996799 103980.4065521995 0
949404.9796406939 103924.4130216561 0
949460.7615426807 103867.5975438019 0
949516.1863700681 103810.4331255812 0
949571.848043528 103753.4996972961 0
949628.4323037816 103697.4857199227 0
949687.4789790225 103644.0964671245 0
949753.1512370164 103599.4183718219 0
949829.8358244569 103595.4104681949 0
949891.3726950602 103645.0377170605 0
949935.7821373937 103710.8954437015 0
949962.757118926 103785.6083855388 0
949974.805612319 103864.2431642248 0
949980.2672108142 103943.6736841707 0
949985.5823304135 104023.1149760017 0
949996.6566722136 104101.9172380101 0
950018.7385695491 104178.3214747299 0
950054.645334831 104249.2145991044 0
950107.8756355599 104308.0467476985 0
950172.4279474191 104354.5825027121 0
950238.4097316801 104399.1257612212 0
950297.8397977273 104451.9287696453 0
950345.2035781862 104515.7781775551 0
950383.1664014085 104585.7288092042 0
950415.2449621735 104658.585275625 0
950437.8255754856 104734.8125610897 0
950449.2176922772 104813.5911816473 0
950456.2427109092 104892.8963789114 0
950459.6455698265 104972.4387072992 0
950459.4810340536 105052.0543985668 0
950455.9855712897 105131.594408439 0
950449.4124688543 105210.9401349912 0
2 7 0 272
136
137
138
139
140
141
142
143
144
145
146
147
148
149
150
151
152
153
154
155
156
157
158
159
160
161
162
163
164
165
166
167
168
169
170
171
172
173
174
175
176
177
178
179
180
181
182
183
184
185
186
187
188
189
190
191
192
193
194
195
196
197
198
199
200
201
202
203
204
205
206
207
208
209
210
211
212
213
214
215
216
217
218
219
220
221
222
223
224
225
226
227
228
229
230
231
232
233
234
235
236
237
238
239
240
241
242
243
244
245
246
247
248
249
250
251
252
253
254
255
256
257
258
259
260
261
262
263
264
265
266
267
268
269
270
271
272
273
274
275
276
277
278
279
280
281
282
283
284
285
286
287
288
289
290
291
292
293
294
295
296
297
298
299
300
301
302
303
304
305
306
307
308
309
310
311
312
313
314
315
316
317
318
319
320
321
322
323
324
325
326
327
328
329
330
331
332
333
334
335
336
337
338
339
340
341
342
343
344
345
346
347
348
349
350
351
352
353
354
355
356
357
358
359
360
361
362
363
364
365
366
367
368
369
370
371
372
373
374
375
376
377
378
379
380
381
382
383
384
385
386
387
388
389
390
391
392
393
394
395
396
397
398
399
400
401
402
403
404
405
406
407
949704.0485684393 105252.6520967099 0
950110.9555191601 105417.2052631571 0
949882.1203009528 105318.8040705497 0
949584.579721778 105177.3212715641 0
950094.9494580576 105548.8315905372 0
949793.0869487993 105340.5205978297 0
950002.905189126 105372.6729513009 0
949477.7882872394 105134.4481018029 0
950035.6817322501 105492.4281375411 0
949700.9064671881 105339.4268161277 0
949636.0727908137 105298.6106794694 0
949520.04760561 105204.4678561425 0
949564.661505676 105252.6967056615 0
949809.6386567366 105231.32767245 0
949393.6127675991 105129.0570969772 0
949988.412519559 105457.611261813 0
950075.9329408916 105616.7643342037 0
949253.0182578678 105088.2044123984 0
950166.8450270572 105495.1459608867 0
950234.3523150963 105385.6157503621 0
949687.1018219506 105390.4708841296 0
949654.569881357 105358.973563609 0
950053.0553206868 105579.0212116537 0
949895.9670859042 105376.4894616938 0
949845.4619248416 105371.3543108047 0
949954.5713171143 105405.3962224119 0
949133.2405414949 105145.910681523 0
949967.3412351366 105272.2324496504 0
949724.2178327267 105378.586764547 0
949446.2012769612 105191.4463582951 0
950024.9781398894 105550.2272374591 0
949513.3655846606 105256.4477866686 0
950090.924028057 105317.5232594156 0
950001.0969567505 105516.8526386617 0
949631.0845031356 105231.0731164537 0
950042.0938980903 105426.2891744447 0
949592.0111315241 105308.2848935356 0
949765.4924338155 105376.8729029513 0
950100.0012961349 105488.0370084069 0
949696.6135032909 105166.5367497665 0
950116.1684655942 105590.9627026558 0
949479.686915008 105229.5189611871 0
949292.3594761828 105135.3988771146 0
949748.1414096146 105300.5409513251 0
949619.5412603229 105341.4590290058 0
949948.4193066318 105345.5795826782 0
950157.5598933088 105551.2613373985 0
949804.9613526898 105384.9525010104 0
949905.1939257288 105249.3811456852 0
949338.6908805049 105041.2090598171 0
949743.3809545346 105346.4587482855 0
949550.6923190567 105283.4864210644 0
949548.6327506253 105098.9792149182 0
949947.0125182584 105440.738634831 0
949197.9232010024 105153.6663445888 0
949064.3343223636 105038.2070944618 0
949974.8353459681 105485.880858643 0
949874.909631793 105396.3779926855 0
950155.0410613788 105343.5468159026 0
949437.928174164 105064.9994009099 0
950058.4099600846 105523.1145932004 0
949637.600925272 105123.9909805957 0
950050.6477457113 105605.9245469592 0
949458.9703348493 105219.3130196403 0
949755.2168606888 105197.3772433782 0
950099.352971397 105631.6376530609 0
949413.7561409052 105185.971194201 0
949828.3877915994 105294.923819847 0
949166.5410147487 105023.8852799181 0
950232.0476857701 105464.4699118533 0
949691.5118927071 105286.1597186534 0
949707.5533984557 105404.8058524848 0
949338.666490851 105162.2748012788 0
950312.0572411753 105360.1887233402 0
950187.4378166243 105427.609036914 0
949601.0139166852 105258.3603452873 0
949121.576674793 105201.4635866706 0
949917.8948929167 105400.5302460408 0
949652.935993824 105381.7827971255 0
950067.8483805768 105366.462458734 0
950083.052551384 105586.9631246584 0
949998.3987496718 105416.3451529051 0
950060.7725863457 105637.4294370769 0
949960.7844313583 105462.3751203468 0
949250.8795945819 105173.8058464869 0
950223.6222200256 105314.0551376239 0
950024.5976407854 105295.4492070379 0
950122.2893762742 105525.8153011602 0
949540.1965189148 105147.2846343697 0
950020.0745544203 105573.8113608314 0
949514.2385601442 105277.3377971447 0
950192.1487132958 105530.9915851576 0
949838.9700102985 105398.5452543705 0
950001.3452113224 105540.9531516167 0
950004.5605594583 105484.844774843 0
949375.8704700674 105187.7841044066 0
949756.3125938184 105256.1787288805 0
949925.5738766204 105425.8761806858 0
949665.923545689 105259.5894124044 0
949675.9413981048 105216.4928924765 0
949640.1209407662 105175.3881482844 0
949566.7134840111 105302.5409383234 0
949781.0338479987 105395.4358196501 0
949831.0760474891 105336.2411451579 0
949556.2507601456 105213.4884309245 0
950063.3549745592 105458.8983886101 0
949660.7628293558 105319.5064015241 0
949597.027260798 105335.3086967171 0
950119.7817026051 105618.2162219585 0
949920.9557345263 105301.2782655808 0
949486.7047404083 105254.4761622282 0
949745.2051998148 105387.7263733339 0
949681.7659824865 105360.6307724546 0
949432.1979812426 105153.6700107687 0
949619.9575639351 105364.2061556368 0
949893.6973657873 105409.2775341752 0
949497.948129207 105075.6852291673 0
950158.710722652 105281.3162052404 0
950022.3876394781 105454.9558669165 0
949483.8290847624 105201.9324744202 0
949856.795432911 105188.3297023753 0
950292.8873386038 105411.4335404297 0
949677.2438100373 105409.7778357291 0
949342.1720549586 105118.1482436467 0
949974.9000998613 105511.4496183673 0
949785.9255526671 105301.4374936013 0
950138.8067735953 105455.7192076865 0
950028.7687882605 105521.526369645 0
950032.6601210003 105593.1677953306 0
949591.177595098 105223.8564548161 0
949574.6429467679 105322.5551023467 0
949815.4622018922 105400.9207726762 0
949431.7853042249 105216.5951710091 0
949725.6850131854 105400.6851981652 0
949907.7271659381 105344.489476774 0
949061.6307045777 105118.9754755917 0
950060.739060442 105253.1847327588 0
950007.3050185166 105560.6646765743 0
950051.3900883256 105551.577659301 0
950124.4005579459 105562.0300479707 0
949581.3175419264 105282.6742635792 0
950098.6317983356 105609.7228318967 0
950139.9129080229 105604.9896152983 0
949714.9226899568 105307.348255753 0
949004.641215079 105006.1517173883 0
950079.404505436 105645.4161261397 0
949870.4825394216 105352.3068932162 0
949275.9809829073 105032.1827842865 0
949983.8130505416 105529.0782684045 0
950087.258164061 105520.3634571299 0
949304.3530305962 105180.760954786 0
949760.9488775913 105397.3266314981 0
949189.1496612661 105097.1061107492 0
950067.8401473468 105494.8925025589 0
949506.5515027255 105165.3926299142 0
949857.1097494144 105409.6407126771 0
949932.1500353918 105374.3737439627 0
949702.285720436 105371.3957313474 0
949867.0665786224 105279.929161459 0
949721.5459692362 105356.0979424897 0
949392.6314076737 105081.1668186792 0
949952.1048993387 105221.8182639491 0
950232.6206350615 105509.8084381661 0
949761.9945211485 105327.6886046971 0
949528.9726299644 105290.8368822936 0
949971.2975002879 105435.6400814875 0
949616.568205481 105317.9472061419 0
949535.1566986087 105265.6655438205 0
949545.2997054687 105304.2723556611 0
949495.7504448858 105273.0409653641 0
949634.0056934941 105376.5910013397 0
949532.866831395 105236.7823745632 0
949466.7419340402 105243.4518778342 0
950111.7908650205 105370.6023551594 0
950006.429322742 105227.9640046707 0
949663.1623743635 105397.4539705665 0
949300.4443304843 105083.0286754527 0
949641.9438948213 105333.3436605207 0
949606.1833247605 105354.3636370036 0
949988.7530865826 105330.7408457953 0
949758.2840679719 105142.9304004082 0
949167.9500531537 105191.7683496547 0
949801.9033578907 105174.6197841451 0
950048.5937068328 105625.0281227652 0
949816.856290109 105362.5621358126 0
949441.8357993111 105109.3153447263 0
949968.3204438464 105373.7574741773 0
950074.5801890853 105564.2137138091 0
949798.2544583575 105404.2816037955 0
949693.7025630774 105415.1677788088 0
950066.1320030361 105597.5399642172 0
950098.3579087136 105446.9179961047 0
949788.8577546186 105367.5910788155 0
949765.1069720985 105354.4874073741 0
949116.0604547178 105251.8862372796 0
949114.9683707609 105013.6457648001 0
949930.2712057442 105448.2299654443 0
949742.3499392199 105367.0157341642 0
949951.4816261244 105481.9923362244 0
950033.6944479293 105390.8114212036 0
949210.0951036455 105192.8637493015 0
949582.1210548781 105124.851380777 0
950150.2477707344 105582.7737058606 0
949408.8750836547 105028.8934540172 0
949220.1305838278 105041.3742351347 0
949121.0554500016 105072.0389454942 0
949397.293087146 105162.9299492409 0
949717.6265848684 105217.8475422423 0
949940.3687783119 105463.8285531832 0
949233.5184874602 105129.9580232029 0
949609.7705467638 105289.903852717 0
950269.7029233908 105467.5798468939 0
950075.4017497713 105407.3841237752 0
949874.2239120556 105414.7325561128 0
949505.9080805001 105228.9032685639 0
949959.3175883327 105498.3985276063 0
949824.3423559662 105383.6669949349 0
949857.9536355153 105390.4954276682 0
949074.3163374657 105179.707826605 0
949633.9876068337 105272.475798268 0
949670.995888365 105339.3171765332 0
950155.1022592206 105522.7478023232 0
949669.7653121812 105377.5064047441 0
949536.6816136551 105182.7073578242 0
950148.4976778153 105395.4230306735 0
950133.6355384629 105494.518594952 0
950101.5460155337 105572.5549840933 0
949706.2312174113 105112.4613897852 0
949513.56135244 105114.101940985 0
949613.2489817678 105199.782223256 0
950110.7080698187 105265.3343542473 0
950189.4160071797 105466.5693932734 0
949956.3673407193 105312.4577859262 0
949726.49556339 105279.367240378 0
949872.1814234601 105376.7790753756 0
950017.0449586775 105502.8784392259 0
949990.3513760624 105499.3910642944 0
949683.1933509149 105314.8459586446 0
949809.6190851387 105318.280764109 0
949152.0016157231 105229.9816141177 0
950032.3579841759 105346.1390214969 0
949713.570229675 105416.8445600044 0
949805.3078957812 105267.1032051511 0
949634.3287995737 105353.6693953717 0
949340.2815522706 105191.7256301863 0
950268.6905737743 105354.4773011642 0
949018.571810159 105070.5862283429 0
950036.6262244929 105612.8466555143 0
949853.5157185796 105244.2740699628 0
950100.827616874 105648.7492739924 0
949707.3712447914 105388.6980214714 0
949727.7722944503 105329.5790445259 0
949909.7525259197 105416.375408486 0
949557.8092620755 105315.8027397854 0
949403.841385365 105207.5749269559 0
950359.7666033322 105323.2719766261 0
949473.7782725251 105032.6218173911 0
949661.3805746799 105293.4225820032 0
949470.5828922633 105170.3573804159 0
949902.219748679 105198.923782772 0
950189.7902181881 105373.2499542952 0
949369.7043589933 105154.8545584222 0
949447.7153435214 105233.9329759226 0
950255.6358670584 105427.3125246923 0
950198.3370023861 105499.4872074725 0
950072.2480557309 105542.8041304185 0
949852.6857814074 105314.5885407256 0
949602.6142868542 105079.6743852477 0
949557.8839238626 105054.2888895224 0
950302.2615917121 105311.856719958 0
950037.8878560509 105567.4250079026 0
950062.6717719409 105651.8925684972 0
2 10 0 295
408
409
410
411
412
413
414
415
416
417
418
419
420
421
422
423
424
425
426
427
428
429
430
431
432
433
434
435
436
437
438
439
440
441
442
443
444
445
446
447
448
449
450
451
452
453
454
455
456
457
458
459
460
461
462
463
464
465
466
467
468
469
470
471
472
473
474
475
476
477
478
479
480
481
482
483
484
485
486
487
488
489
490
491
492
493
494
495
496
497
498
499
500
501
502
503
504
505
506
507
508
509
510
511
512
513
514
515
516
517
518
519
520
521
522
523
524
525
526
527
528
529
530
531
532
533
534
535
536
537
538
539
540
541
542
543
544
545
546
547
548
549
550
551
552
553
554
555
556
557
558
559
560
561
562
563
564
565
566
567
568
569
570
571
572
573
574
575
576
577
578
579
580
581
582
583
584
585
586
587
588
589
590
591
592
593
594
595
596
597
598
599
600
601
602
603
604
605
606
607
608
609
610
611
612
613
614
615
616
617
618
619
620
621
622
623
624
625
626
627
628
629
630
631
632
633
634
635
636
637
638
639
640
641
642
643
644
645
646
647
648
649
650
651
652
653
654
655
656
657
658
659
660
661
662
663
664
665
666
667
668
669
670
671
672
673
674
675
676
677
678
679
680
681
682
683
684
685
686
687
688
689
690
691
692
693
694
695
696
697
698
699
700
701
702
949585.1712014751 104460.4656552012 0
949930.6997936486 104711.7552923098 0
949262.8936733084 104614.9603050897 0
949655.9138963448 104151.5858257287 0
950160.4873599168 104920.9545149926 0
949663.1121094764 104750.3650226204 0
949856.6997936931 104441.5877607363 0
949339.7245983928 104350.9195115423 0
949739.7516983252 103928.6397930334 0
950171.0610572877 104679.6705776873 0
949434.2646849592 104758.9547051357 0
949939.8123283129 104924.0098496775 0
949446.2524210375 104176.1851313674 0
949086.1330637925 104734.0024922961 0
950046.4776332753 104513.8950674864 0
949833.1978154137 104250.5355295096 0
949181.041013527 104459.1576023094 0
950270.0652878487 105052.4154147149 0
949744.9027301844 104576.4887731985 0
949441.8070532627 104571.9006166925 0
949763.2878451194 104896.8319117828 0
949675.9832117683 104309.9608853922 0
949263.1235440825 104776.0296002095 0
949581.8611006207 103992.8631375334 0
949817.7890388768 104078.768060084 0
950296.0284434126 104792.134722855 0
949505.3010426257 104332.4158753045 0
949069.7327258753 104575.7491365372 0
949784.537555129 103764.5491631069 0
950057.4102319151 105028.672686346 0
950069.4021441179 104782.9699903709 0
949546.6744436065 104860.8710606326 0
949594.8441013771 104611.0009239305 0
949303.5463604822 104206.1270277155 0
949801.847583255 104743.1940059699 0
950012.0339710235 104387.0623804119 0
950190.568272745 104529.2964633945 0
949205.7887189321 104310.2464172595 0
949867.8970607156 104579.5597872965 0
949320.2536223696 104497.6501688324 0
950323.3418865199 104921.2828227128 0
949723.5773928649 104449.8193381802 0
949461.1992281247 104044.2953284555 0
949456.2861474951 104445.3545476869 0
950047.6210240434 104640.442498424 0
949624.1864056314 103872.7167879358 0
950292.6875898787 104674.1945175287 0
949566.0505822957 104227.6355174606 0
949863.2744077524 103859.751817009 0
949838.9997162295 104991.9372808523 0
949363.2559316725 104856.7050335384 0
950153.2274420471 105089.2555989812 0
949697.2763190051 104037.2062856298 0
949001.7318014458 104819.8263294264 0
949138.5494290164 104844.2371881604 0
948995.7715452575 104666.7604970877 0
949648.5202488991 104919.066665001 0
950341.4004490981 105147.8459752333 0
949361.6228434456 104669.1479875182 0
949943.1151515382 104277.8059740288 0
949784.3467412754 104350.3783596993 0
949903.8607204282 104817.8175865479 0
949546.6612211027 104738.6968953394 0
949552.7644455876 104109.3215422535 0
949945.3541257309 105036.1803656313 0
949898.6609994441 104155.3056246444 0
950048.6497506439 104899.3428160287 0
949152.0269853504 104647.5780939481 0
949062.4971622512 104464.570048034 0
949866.8873170146 103973.6585466299 0
950174.4065051026 104800.0213773267 0
949417.5793951382 104278.8351168498 0
949363.0076057799 104139.836612171 0
949719.7110149844 104258.677642498 0
950085.4526600254 104432.2030345956 0
949687.5249292683 103799.6275381598 0
949944.0493603803 104497.1615780016 0
949192.0081659819 104537.3574190428 0
949816.3542213469 104660.3769949028 0
949126.7641041498 104352.3340054409 0
950362.983419896 105012.9776219414 0
949460.0758004624 104889.077155678 0
949476.1385145043 104669.349425929 0
949582.471797924 104388.5572640445 0
950188.8064602024 105006.8857598995 0
949274.1631115449 104424.59312055 0
949641.1856656037 104552.853380022 0
949671.2264512783 104668.4120344322 0
950266.4411299797 104594.1491143076 0
949766.5935095854 104135.6660388464 0
949881.0780455202 104361.6955524231 0
949199.252760844 104743.548675999 0
949499.9391214075 103960.2370094481 0
950247.9585773721 105144.5226345834 0
949966.1001189998 104593.4765684964 0
949522.5780365153 104552.267833293 0
949800.4431809301 104514.9621770696 0
949750.9768953951 104989.9581820553 0
949797.5632942307 103672.6553533628 0
949687.0140130731 104851.5740115939 0
949259.8679897181 104905.4179000687 0
950370.4095456009 104853.3640473287 0
950251.8119041808 104890.4412900984 0
949859.1107323719 104898.6300284126 0
949348.7297602514 104762.1686793724 0
949282.2445396078 104712.2089305452 0
949213.7851157931 104224.618935305 0
949349.2673029618 104589.1565694266 0
949875.3639522336 103786.2811378357 0
949919.9019700869 104073.7525306005 0
950351.9502824494 104728.9733053512 0
950107.546032073 104573.7528891263 0
949990.4891117727 104830.4363107938 0
950167.9031435717 104450.5745194354 0
949663.7110318035 103962.5965180552 0
949793.2919594606 103995.0383663123 0
948994.218368007 104537.0682939804 0
948952.9110092281 104737.8956943526 0
949426.4486509651 104366.4856887788 0
949622.9781184011 104070.5032173574 0
949738.9634451624 104708.2430894991 0
949643.7720742403 104227.2752338229 0
950230.5219379326 104737.3490574618 0
949070.0600832797 104865.6987950327 0
949543.3673257823 103885.5659480517 0
949278.502255831 104285.6501654982 0
950080.2700280013 105105.3392748781 0
950014.5124288514 104712.6259355684 0
949753.4994622509 103854.644255547 0
949246.0654046503 104496.5236843991 0
949716.5161303098 103714.5349390171 0
949569.1283272047 104933.5396052813 0
949524.243136077 104424.6832397538 0
949587.3722771044 104302.5319536493 0
949998.0123186164 104968.2450002869 0
950098.4436856484 104957.7175543086 0
949493.7484162183 104252.6055102055 0
949076.8715664018 104657.0485021632 0
950095.7606473203 104699.3366226482 0
949369.6028012002 104432.5859059478 0
950005.478437915 105091.0682673103 0
949647.2266693201 104435.058738491 0
949617.8147122393 104815.9418265092 0
950267.1297405532 104973.9308025342 0
949400.810939878 104508.3851288496 0
950023.0154844201 104313.4077787615 0
949374.6130681317 104055.4080829929 0
949493.619762684 104799.3753258591 0
950391.6678779374 105090.1880032562 0
949862.1049163133 104706.5192393877 0
950109.1716012692 104854.4766463607 0
949809.38523353 104824.9074337025 0
949286.1199187725 104142.5812321366 0
948957.1432153562 104604.3110423538 0
949833.9279882216 104168.6648112411 0
949134.5953505744 104277.6944653614 0
950179.9175822182 104613.963893817 0
949605.2200420322 104697.9642761088 0
949856.9239268095 103715.8837630135 0
949377.6184108581 104212.3187156685 0
949906.3855591296 103913.727722371 0
949114.0644260875 104510.189205745 0
949929.5431930951 104427.7556225563 0
950001.7054553037 104458.3742100793 0
949882.396801475 105058.4800545063 0
949053.5390915974 104389.4667351677 0
950395.626714943 104932.8902754699 0
950119.5895483382 104499.9443948076 0
950275.7922136361 104519.6801651716 0
949951.2793704809 104205.5271022936 0
949704.021430747 104522.1020848679 0
949736.4145881091 104781.0452698746 0
949182.0286715843 104901.0713706804 0
949197.6375016719 104384.5917595063 0
949428.2357428423 104107.9422845971 0
949788.6423923525 104421.5067508767 0
949714.3512085867 104380.8956218911 0
949675.0379261015 104984.8842859531 0
949907.4074452186 104637.119940036 0
949532.6984136157 104043.7196484402 0
948952.6425903469 104872.5591584395 0
950119.1015918606 105035.2177603506 0
949874.2592806283 104508.8655189327 0
950179.9321621108 105158.5985864354 0
949780.8605595245 104283.7654340608 0
949521.4575419682 104171.4039098269 0
949818.6465563552 103907.7699693891 0
949617.8785598992 103803.1352220647 0
950377.7536930803 105206.443399034 0
949802.2857105315 104589.8205779382 0
949962.1621119394 104770.8871871885 0
949275.7519182928 104554.3730652958 0
949417.8209516075 103992.9519989504 0
949509.0235535314 104936.438188956 0
949333.0804591139 104911.5435089083 0
949907.3920960902 104981.0705718271 0
949593.8227764728 104159.6208744083 0
949467.6487119792 104513.6629645114 0
949916.5173300721 103841.9224453959 0
948934.4375839403 104810.8790661809 0
949982.5094130876 104654.7422739186 0
949693.7347054558 103883.6449785462 0
949218.4353708001 104668.8224509074 0
950345.216717588 104639.2561137251 0
949072.2645693428 104796.3013108576 0
949343.3942041405 104266.7701074548 0
949023.3009715001 104725.380431646 0
949419.2272833207 104822.6976906583 0
950116.8124733656 104641.6528384665 0
949508.4048463933 104616.3748507055 0
950030.630493823 104579.3305067811 0
949810.9419132981 105048.7609413638 0
949259.6405566337 104351.9943813481 0
950215.1572964051 104937.5652861207 0
949116.175047651 104424.8846571311 0
949704.044840513 104103.6006481399 0
949211.5350216771 104826.9199448375 0
949743.2507212367 104637.1382435274 0
949592.7667874717 103929.6944362301 0
949422.0412435045 104638.7744204605 0
949891.424647643 104225.2045056473 0
949706.5827446831 104929.558491424 0
950148.2304583522 104739.869525099 0
949402.3406464445 104919.9828932338 0
950322.8151224304 105089.5899299458 0
949131.4498451465 104589.7300593546 0
949833.9515397564 104321.1021134265 0
949490.4346321961 104108.8113074901 0
950384.0676175939 104785.6038895373 0
949815.7418449754 103832.9792732186 0
948934.86927055 104663.1052545842 0
949296.5987844192 104839.7974444891 0
950229.8216601191 104663.14964223 0
949946.1920677265 104343.5192167247 0
950293.2085491825 105187.5431778423 0
949751.8117934009 104055.4964987523 0
949809.3159717041 104938.2711639314 0
949012.6491978962 104888.4433469748 0
950216.35150758 105089.1818539938 0
949537.6598390375 104677.3181592325 0
949137.6278865775 104777.0156495486 0
949125.9706061296 104895.7388954819 0
949006.0766443508 104454.4764124601 0
950302.0131459441 104856.059494823 0
949205.4276598133 104602.1368989397 0
949522.5686757873 104486.8696619908 0
949584.7304062557 104526.5633168788 0
949642.0347567771 104495.922446835 0
949415.1895495802 104702.6144552885 0
949925.159816806 103991.7000906349 0
949485.3718519139 104726.624110027 0
949867.7399702061 104767.8426040568 0
949018.7474841797 104608.1874944245 0
949730.8887472774 103987.4721513934 0
949938.7563482439 104867.023850708 0
949607.4062739251 104875.1746737264 0
949997.1576097405 104245.4758650907 0
950120.6640394427 105150.6952673166 0
949776.4906466739 104212.518822338 0
950190.3026030713 104863.8114599097 0
949612.8200775547 104971.148028884 0
949561.4847413574 104795.1592838146 0
950291.0916697134 104733.6779389563 0
949942.775381671 105095.5262790502 0
949303.9332803219 104654.9934198511 0
949957.2599085101 104145.1849465272 0
949233.5332075404 104162.8971263895 0
949989.7127780551 104533.9221216244 0
950231.9013544503 104466.2868523737 0
950080.1611396896 104359.0604888359 0
949828.9437025195 104379.2541074324 0
949142.213150973 104704.7446517997 0
950403.2440120521 105157.4023841908 0
949738.6774101448 103657.6762828316 0
949478.0697442907 104392.234837881 0
949989.5104857663 104893.9793593446 0
949600.5567139799 104757.4016102529 0
949735.0505472278 104316.7355887083 0
949570.3649631164 103832.3924538681 0
949711.0876637236 104181.554035229 0
949643.5997789395 104367.4800453786 0
949309.1825377776 104091.7353398134 0
949076.4508642177 104317.3776361964 0
949863.3095938951 104034.8464870139 0
950001.5637785443 105031.0415798936 0
949681.9917778618 104598.0632735929 0
950328.3023422838 104570.2273222535 0
949888.1598779331 104296.6438152933 0
950237.5292920251 104821.1110230025 0
949868.4607730688 104107.0683856627 0
949749.0254199578 104838.5896567384 0
949051.168622831 104516.9112630873 0
950041.444618714 104852.2410245798 0
949644.4399933573 103753.6566232921 0
949924.9043406663 104558.3509190646 0
$EndNodes
$Elements
7 1402 1 1402
1 1 1 6
1 5 6 
2 6 7 
3 7 8 
4 8 9 
5 9 10 
6 10 4 
1 2 1 10
7 4 11 
8 11 12 
9 12 13 
10 13 14 
11 14 15 
12 15 16 
13 16 17 
14 17 18 
15 18 19 
16 19 3 
1 3 1 44
17 3 20 
18 20 21 
19 21 22 
20 22 23 
21 23 24 
22 24 25 
23 25 26 
24 26 27 
25 27 28 
26 28 29 
27 29 30 
28 30 31 
29 31 32 
30 32 33 
31 33 34 
32 34 35 
33 35 36 
34 36 37 
35 37 38 
36 38 39 
37 39 40 
38 40 41 
39 41 42 
40 42 43 
41 43 44 
42 44 45 
43 45 46 
44 46 47 
45 47 48 
46 48 49 
47 49 50 
48 50 51 
49 51 52 
50 52 53 
51 53 54 
52 54 55 
53 55 56 
54 56 57 
55 57 58 
56 58 59 
57 59 60 
58 60 61 
59 61 62 
60 62 2 
1 5 1 10
61 1 82 
62 82 83 
63 83 84 
64 84 85 
65 85 86 
66 86 87 
67 87 88 
68 88 89 
69 89 90 
70 90 2 
1 8 1 46
71 5 91 
72 91 92 
73 92 93 
74 93 94 
75 94 95 
76 95 96 
77 96 97 
78 97 98 
79 98 99 
80 99 100 
81 100 101 
82 101 102 
83 102 103 
84 103 104 
85 104 105 
86 105 106 
87 106 107 
88 107 108 
89 108 109 
90 109 110 
91 110 111 
92 111 112 
93 112 113 
94 113 114 
95 114 115 
96 115 116 
97 116 117 
98 117 118 
99 118 119 
100 119 120 
101 120 121 
102 121 122 
103 122 123 
104 123 124 
105 124 125 
106 125 126 
107 126 127 
108 127 128 
109 128 129 
110 129 130 
111 130 131 
112 131 132 
113 132 133 
114 133 134 
115 134 135 
116 135 1 
2 7 2 632
117 184 163 245 
118 166 229 263 
119 152 201 281 
120 32 31 214 
121 139 197 236 
122 182 87 338 
123 217 161 322 
124 229 169 263 
125 151 217 254 
126 87 182 227 
127 172 276 346 
128 179 232 261 
129 166 263 274 
130 136 206 234 
131 194 221 396 
132 191 64 331 
133 64 191 280 
134 222 163 310 
135 197 139 337 
136 205 210 399 
137 148 211 276 
138 241 171 348 
139 221 155 396 
140 211 148 265 
141 278 176 338 
142 153 178 345 
143 67 68 185 
144 160 239 282 
145 157 214 306 
146 165 249 394 
147 161 213 292 
148 176 275 338 
149 327 241 348 
150 201 90 385 
151 83 209 391 
152 147 307 350 
153 172 237 276 
154 217 151 301 
155 218 152 281 
156 90 201 244 
157 241 144 254 
158 198 152 319 
159 200 149 232 
160 162 190 317 
161 209 83 257 
162 306 250 379 
163 159 213 251 
164 157 306 379 
165 67 185 283 
166 329 173 333 
167 23 22 226 
168 43 42 228 
169 194 168 253 
170 219 189 301 
171 178 153 312 
172 210 155 399 
173 168 194 309 
174 178 220 345 
175 183 238 328 
176 56 55 225 
177 316 74 318 
178 152 218 319 
179 161 189 233 
180 136 234 235 
181 249 143 394 
182 152 216 277 
183 82 83 391 
184 272 222 310 
185 144 196 263 
186 212 162 317 
187 14 13 220 
188 65 66 204 
189 36 35 377 
190 35 325 377 
191 197 175 236 
192 216 152 326 
193 147 240 307 
194 210 205 367 
195 193 159 251 
196 213 161 233 
197 245 138 294 
198 263 196 274 
199 33 32 311 
200 151 192 219 
201 221 194 253 
202 161 217 301 
203 299 186 387 
204 202 165 268 
205 54 53 229 
206 282 239 402 
207 151 219 301 
208 238 183 324 
209 59 218 407 
210 163 184 297 
211 238 173 328 
212 217 171 254 
213 144 230 254 
214 162 212 354 
215 60 59 407 
216 150 296 321 
217 40 39 238 
218 261 232 378 
219 156 207 325 
220 258 33 311 
221 218 59 319 
222 216 176 277 
223 192 151 230 
224 235 170 236 
225 177 255 350 
226 90 2 385 
227 190 162 288 
228 158 198 264 
229 140 223 275 
230 161 292 322 
231 165 202 249 
232 173 247 333 
233 214 31 306 
234 32 214 311 
235 203 378 384 
236 155 221 381 
237 47 46 233 
238 165 199 268 
239 87 88 338 
240 175 200 343 
241 269 207 386 
242 21 20 246 
243 168 215 376 
244 185 68 339 
245 276 211 346 
246 56 225 264 
247 5 63 6 
248 175 197 363 
249 142 217 322 
250 86 87 227 
251 246 167 305 
252 14 220 286 
253 28 27 243 
254 228 42 267 
255 243 172 302 
256 196 144 289 
257 230 151 254 
258 158 216 326 
259 148 187 303 
260 248 145 293 
261 170 211 265 
262 167 246 350 
263 186 329 333 
264 239 160 320 
265 30 29 250 
266 234 170 235 
267 189 161 301 
268 17 16 231 
269 207 269 377 
270 222 168 376 
271 270 159 282 
272 149 200 318 
273 246 177 350 
274 66 283 340 
275 271 191 341 
276 138 282 402 
277 214 157 358 
278 148 240 265 
279 223 140 285 
280 146 242 313 
281 224 139 359 
282 198 158 326 
283 162 271 341 
284 179 299 387 
285 163 315 368 
286 163 222 315 
287 204 66 340 
288 65 204 331 
289 184 245 294 
290 247 38 269 
291 240 148 307 
292 180 243 302 
293 304 237 389 
294 79 80 221 
295 252 143 321 
296 89 90 244 
297 201 152 277 
298 262 137 360 
299 232 179 369 
300 264 225 406 
301 302 146 313 
302 177 199 255 
303 293 145 295 
304 175 235 236 
305 232 136 343 
306 34 33 258 
307 66 67 283 
308 220 13 336 
309 138 245 270 
310 57 56 264 
311 17 231 390 
312 171 241 254 
313 187 148 276 
314 223 182 275 
315 74 256 318 
316 72 197 403 
317 258 156 325 
318 59 58 319 
319 152 198 326 
320 76 297 395 
321 199 177 308 
322 199 165 255 
323 225 55 273 
324 46 45 251 
325 141 239 320 
326 236 170 365 
327 157 248 358 
328 79 221 253 
329 168 222 272 
330 43 228 291 
331 206 136 369 
332 294 203 384 
333 83 84 257 
334 167 226 305 
335 211 170 355 
336 271 162 354 
337 187 300 303 
338 155 210 396 
339 187 237 304 
340 249 150 321 
341 38 247 287 
342 210 262 360 
343 81 391 405 
344 192 230 372 
345 200 316 318 
346 269 37 377 
347 213 159 292 
348 245 181 270 
349 10 212 330 
350 190 220 336 
351 23 226 300 
352 189 219 344 
353 212 10 354 
354 215 168 309 
355 158 264 406 
356 226 22 305 
357 216 158 323 
358 219 192 334 
359 378 149 384 
360 6 63 280 
361 52 51 260 
362 248 156 358 
363 1 82 391 
364 144 241 289 
365 172 243 266 
366 279 206 369 
367 54 229 273 
368 300 226 303 
369 200 175 316 
370 7 6 280 
371 154 262 367 
372 88 89 278 
373 235 175 343 
374 156 248 293 
375 77 78 272 
376 240 139 265 
377 288 162 341 
378 208 178 259 
379 164 269 386 
380 229 53 284 
381 272 78 366 
382 150 259 296 
383 176 244 277 
384 38 37 269 
385 73 74 316 
386 74 75 256 
387 42 41 267 
388 199 308 398 
389 207 156 386 
390 34 258 325 
391 35 34 325 
392 255 147 350 
393 178 208 286 
394 325 207 377 
395 197 72 363 
396 40 238 324 
397 220 178 286 
398 136 232 369 
399 75 76 395 
400 143 249 321 
401 237 187 276 
402 227 182 357 
403 64 65 331 
404 191 271 382 
405 81 1 391 
406 141 320 328 
407 238 39 287 
408 78 79 253 
409 391 209 405 
410 243 27 266 
411 80 81 405 
412 63 64 280 
413 237 172 266 
414 266 26 389 
415 15 14 286 
416 257 155 381 
417 259 185 296 
418 296 185 339 
419 221 80 405 
420 170 234 355 
421 137 327 348 
422 320 183 328 
423 275 182 338 
424 47 233 332 
425 332 189 344 
426 139 236 365 
427 19 18 268 
428 234 206 393 
429 174 223 285 
430 257 84 347 
431 9 8 271 
432 149 256 384 
433 28 243 314 
434 139 224 337 
435 244 176 278 
436 27 26 266 
437 85 86 298 
438 260 169 284 
439 71 72 403 
440 138 270 282 
441 290 143 364 
442 296 195 321 
443 244 201 277 
444 55 54 273 
445 231 202 390 
446 39 38 287 
447 262 210 367 
448 250 29 314 
449 231 16 380 
450 195 252 321 
451 200 232 343 
452 246 20 308 
453 171 217 335 
454 15 286 380 
455 139 240 359 
456 247 173 287 
457 224 290 364 
458 159 270 292 
459 164 247 269 
460 173 238 287 
461 180 302 313 
462 21 246 305 
463 41 40 324 
464 156 258 311 
465 176 216 362 
466 220 190 345 
467 62 61 281 
468 229 166 273 
469 145 248 356 
470 261 141 299 
471 166 225 273 
472 252 70 404 
473 308 3 398 
474 154 227 357 
475 70 252 392 
476 286 208 380 
477 30 250 306 
478 239 141 374 
479 251 213 388 
480 202 268 390 
481 44 43 291 
482 307 167 350 
483 185 259 312 
484 256 149 318 
485 209 257 381 
486 241 174 289 
487 57 264 383 
488 204 288 341 
489 159 193 370 
490 182 223 357 
491 208 259 397 
492 259 178 312 
493 53 52 284 
494 143 252 364 
495 146 355 393 
496 280 191 382 
497 86 227 298 
498 285 196 289 
499 89 244 278 
500 240 147 359 
501 153 283 312 
502 155 257 399 
503 157 313 356 
504 335 215 348 
505 271 8 382 
506 52 260 284 
507 171 335 348 
508 181 245 368 
509 216 323 362 
510 20 3 308 
511 233 46 388 
512 181 315 322 
513 251 45 349 
514 237 266 389 
515 147 255 290 
516 12 11 375 
517 169 229 284 
518 4 10 330 
519 281 201 385 
520 248 157 356 
521 208 231 380 
522 24 23 300 
523 156 311 358 
524 268 18 390 
525 249 202 342 
526 188 252 404 
527 153 288 340 
528 215 335 376 
529 10 9 354 
530 184 384 395 
531 279 179 387 
532 242 146 393 
533 259 150 397 
534 355 234 393 
535 164 293 295 
536 85 298 347 
537 197 337 403 
538 11 4 330 
539 29 28 314 
540 169 260 372 
541 22 21 305 
542 283 185 312 
543 31 30 306 
544 195 339 392 
545 315 142 322 
546 260 51 351 
547 300 187 304 
548 253 168 366 
549 174 262 361 
550 223 174 361 
551 257 347 399 
552 190 288 345 
553 13 12 336 
554 179 261 299 
555 84 85 347 
556 334 192 351 
557 174 241 327 
558 262 174 327 
559 264 198 383 
560 141 261 374 
561 70 71 404 
562 76 77 310 
563 25 24 304 
564 225 166 406 
565 232 149 378 
566 7 280 382 
567 160 282 370 
568 243 180 314 
569 163 297 310 
570 62 281 385 
571 145 356 373 
572 227 154 400 
573 298 205 347 
574 158 274 323 
575 335 142 376 
576 309 137 348 
577 265 139 365 
578 226 167 303 
579 217 142 335 
580 19 268 398 
581 230 144 371 
582 267 41 324 
583 180 250 314 
584 148 303 307 
585 136 235 343 
586 247 164 333 
587 68 69 339 
588 196 285 401 
589 78 253 366 
590 183 267 324 
591 279 145 373 
592 186 299 329 
593 292 181 322 
594 373 242 393 
595 224 188 337 
596 188 224 364 
597 48 47 332 
598 215 309 348 
599 384 256 395 
600 69 70 392 
601 285 140 401 
602 288 153 345 
603 72 73 363 
604 323 140 362 
605 147 290 359 
606 302 172 346 
607 16 15 380 
608 313 242 356 
609 18 17 390 
610 337 188 403 
611 233 189 332 
612 50 49 334 
613 46 251 388 
614 166 274 406 
615 275 176 362 
616 45 44 349 
617 274 158 406 
618 88 278 338 
619 353 160 370 
620 263 169 371 
621 174 285 289 
622 49 48 344 
623 145 279 387 
624 283 153 340 
625 37 36 377 
626 51 50 351 
627 262 154 361 
628 252 188 364 
629 203 239 374 
630 288 204 340 
631 282 159 370 
632 270 181 292 
633 311 214 358 
634 339 69 392 
635 177 246 308 
636 9 271 354 
637 202 231 342 
638 8 7 382 
639 371 169 372 
640 294 138 402 
641 160 228 352 
642 25 304 389 
643 24 300 304 
644 231 208 397 
645 156 293 386 
646 228 160 353 
647 183 320 352 
648 2 62 385 
649 295 145 387 
650 58 57 383 
651 61 60 407 
652 77 272 310 
653 303 167 307 
654 357 223 361 
655 142 315 376 
656 137 262 327 
657 228 267 352 
658 206 279 373 
659 3 19 398 
660 140 275 362 
661 206 373 393 
662 281 61 407 
663 193 251 349 
664 26 25 389 
665 203 294 402 
666 245 163 368 
667 168 272 366 
668 328 173 329 
669 320 160 352 
670 239 203 402 
671 213 233 388 
672 192 260 351 
673 48 332 344 
674 250 180 379 
675 297 76 310 
676 150 249 342 
677 44 291 349 
678 12 317 336 
679 164 295 333 
680 186 295 387 
681 146 302 346 
682 195 296 339 
683 334 49 344 
684 299 141 329 
685 205 298 400 
686 293 164 386 
687 261 203 374 
688 143 290 394 
689 50 334 351 
690 137 309 360 
691 252 195 392 
692 170 265 365 
693 256 75 395 
694 290 255 394 
695 268 199 398 
696 218 281 407 
697 203 261 378 
698 230 371 372 
699 356 242 373 
700 260 192 372 
701 255 165 394 
702 179 279 369 
703 144 263 371 
704 316 175 363 
705 319 58 383 
706 317 12 375 
707 11 330 375 
708 298 227 400 
709 297 184 395 
710 290 224 359 
711 180 313 379 
712 191 331 341 
713 367 205 400 
714 317 190 336 
715 291 228 353 
716 347 205 399 
717 331 204 341 
718 154 357 361 
719 315 181 368 
720 267 183 352 
721 315 222 376 
722 313 157 379 
723 295 186 333 
724 274 196 401 
725 141 328 329 
726 198 319 383 
727 309 194 360 
728 193 291 353 
729 219 334 344 
730 291 193 349 
731 146 346 355 
732 323 274 401 
733 193 353 370 
734 330 212 375 
735 184 294 384 
736 212 317 375 
737 150 342 397 
738 73 316 363 
739 346 211 355 
740 210 360 396 
741 360 194 396 
742 154 367 400 
743 403 188 404 
744 342 231 397 
745 381 221 405 
746 209 381 405 
747 140 323 401 
748 71 403 404 
2 10 2 654
749 488 425 551 
750 448 488 551 
751 482 123 521 
752 447 493 547 
753 493 415 547 
754 522 460 527 
755 449 504 578 
756 431 522 527 
757 478 438 630 
758 534 77 548 
759 77 76 548 
760 479 434 526 
761 415 479 526 
762 535 438 598 
763 504 449 583 
764 440 494 693 
765 495 440 693 
766 132 133 488 
767 438 520 598 
768 412 492 543 
769 479 420 544 
770 480 420 567 
771 441 480 567 
772 509 131 574 
773 543 474 558 
774 412 543 558 
775 594 536 637 
776 438 478 558 
777 457 511 603 
778 481 429 529 
779 130 131 509 
780 420 480 582 
781 509 433 636 
782 433 518 636 
783 511 457 644 
784 434 479 544 
785 486 442 528 
786 443 482 571 
787 112 113 506 
788 482 422 571 
789 479 415 613 
790 420 479 567 
791 430 499 513 
792 485 424 537 
793 485 599 652 
794 422 482 575 
795 416 536 594 
796 499 624 648 
797 480 441 560 
798 541 434 544 
799 128 518 611 
800 128 129 518 
801 429 481 685 
802 466 512 513 
803 436 483 538 
804 483 436 536 
805 100 514 563 
806 455 541 544 
807 100 101 514 
808 434 491 540 
809 499 430 624 
810 453 483 609 
811 482 443 677 
812 483 453 595 
813 424 485 569 
814 458 512 615 
815 123 482 677 
816 132 488 574 
817 596 80 642 
818 542 472 603 
819 445 514 533 
820 514 441 533 
821 504 426 578 
822 81 80 596 
823 511 419 603 
824 454 496 611 
825 469 511 559 
826 445 487 563 
827 489 439 601 
828 411 529 604 
829 424 493 537 
830 599 410 652 
831 438 546 630 
832 486 446 586 
833 1 81 596 
834 73 72 505 
835 519 564 616 
836 527 411 604 
837 135 1 596 
838 431 500 626 
839 510 448 551 
840 105 106 500 
841 487 445 581 
842 485 537 599 
843 413 495 528 
844 497 432 562 
845 568 477 594 
846 414 504 583 
847 471 527 604 
848 512 430 513 
849 519 444 564 
850 419 542 603 
851 624 462 648 
852 114 115 516 
853 529 411 687 
854 491 434 541 
855 111 112 506 
856 409 598 659 
857 442 486 557 
858 543 492 589 
859 487 581 622 
860 506 113 566 
861 456 568 594 
862 488 448 574 
863 448 509 574 
864 446 486 597 
865 611 496 694 
866 466 513 672 
867 501 425 632 
868 465 501 632 
869 500 431 587 
870 450 500 587 
871 467 553 641 
872 581 424 622 
873 512 458 639 
874 123 124 521 
875 493 447 537 
876 541 429 688 
877 92 93 525 
878 512 418 615 
879 67 66 508 
880 491 408 540 
881 500 532 626 
882 500 106 532 
883 469 559 659 
884 436 506 566 
885 496 454 640 
886 414 498 570 
887 459 492 646 
888 492 425 646 
889 109 110 538 
890 118 119 517 
891 488 133 556 
892 408 491 549 
893 470 555 658 
894 472 542 692 
895 510 551 621 
896 553 467 664 
897 439 489 555 
898 491 541 688 
899 516 436 566 
900 464 507 629 
901 507 428 629 
902 514 445 563 
903 502 586 702 
904 586 446 702 
905 461 525 614 
906 498 414 678 
907 109 538 701 
908 525 93 638 
909 489 69 631 
910 612 461 614 
911 555 470 669 
912 425 492 551 
913 529 429 541 
914 518 454 611 
915 576 126 694 
916 73 505 619 
917 425 488 632 
918 527 471 587 
919 431 527 587 
920 69 489 601 
921 494 440 654 
922 79 501 642 
923 522 453 609 
924 434 540 682 
925 562 473 628 
926 427 515 552 
927 515 447 552 
928 495 413 565 
929 439 539 601 
930 506 436 538 
931 557 409 659 
932 482 521 575 
933 440 495 565 
934 615 489 631 
935 458 615 631 
936 492 412 621 
937 114 516 566 
938 424 569 622 
939 103 104 554 
940 456 594 637 
941 415 493 620 
942 529 455 604 
943 444 496 564 
944 427 617 627 
945 493 424 581 
946 515 427 627 
947 466 515 627 
948 492 459 589 
949 507 464 663 
950 535 452 546 
951 414 570 590 
952 570 484 590 
953 428 507 698 
954 505 457 619 
955 517 119 673 
956 496 444 576 
957 496 576 694 
958 617 490 627 
959 462 531 612 
960 95 96 524 
961 481 529 687 
962 103 554 689 
963 513 499 610 
964 534 437 589 
965 459 534 589 
966 441 514 674 
967 453 522 626 
968 440 503 654 
969 413 507 550 
970 430 512 639 
971 105 500 600 
972 437 542 543 
973 542 474 543 
974 500 450 600 
975 507 413 579 
976 427 503 617 
977 423 562 628 
978 570 498 641 
979 526 451 547 
980 586 502 608 
981 415 526 547 
982 562 432 697 
983 419 511 662 
984 511 469 662 
985 564 417 616 
986 67 508 602 
987 125 126 576 
988 523 643 661 
989 544 420 593 
990 111 506 681 
991 418 512 656 
992 512 466 656 
993 462 612 648 
994 106 107 532 
995 473 517 673 
996 505 428 644 
997 457 505 644 
998 449 549 584 
999 483 536 609 
1000 643 460 661 
1001 501 79 591 
1002 432 497 643 
1003 564 496 640 
1004 410 515 672 
1005 443 553 677 
1006 463 525 638 
1007 511 428 559 
1008 80 79 642 
1009 416 522 609 
1010 75 74 572 
1011 545 435 633 
1012 122 123 677 
1013 569 476 622 
1014 425 501 646 
1015 549 449 655 
1016 411 527 623 
1017 501 465 642 
1018 505 72 585 
1019 503 427 605 
1020 538 483 701 
1021 455 529 541 
1022 437 534 548 
1023 446 504 590 
1024 449 578 655 
1025 504 446 597 
1026 70 539 668 
1027 415 533 613 
1028 504 414 590 
1029 444 521 676 
1030 71 70 668 
1031 95 524 561 
1032 426 504 597 
1033 515 410 599 
1034 508 66 580 
1035 550 507 663 
1036 503 440 617 
1037 560 441 674 
1038 477 523 594 
1039 428 505 629 
1040 438 535 546 
1041 598 469 659 
1042 547 451 552 
1043 447 547 552 
1044 557 486 586 
1045 584 549 688 
1046 475 545 633 
1047 118 517 657 
1048 602 508 639 
1049 455 544 593 
1050 413 528 579 
1051 527 460 623 
1052 553 443 641 
1053 608 502 618 
1054 433 509 651 
1055 452 608 618 
1056 515 466 672 
1057 509 448 651 
1058 657 517 691 
1059 130 509 636 
1060 478 530 696 
1061 523 432 643 
1062 546 452 616 
1063 448 510 651 
1064 428 511 644 
1065 524 435 660 
1066 610 499 679 
1067 444 519 575 
1068 75 572 671 
1069 436 516 637 
1070 516 456 637 
1071 519 422 575 
1072 521 444 575 
1073 442 559 579 
1074 516 115 606 
1075 64 531 649 
1076 563 487 690 
1077 486 528 625 
1078 94 95 561 
1079 409 535 598 
1080 447 515 599 
1081 514 101 674 
1082 522 431 626 
1083 530 478 630 
1084 443 570 641 
1085 432 523 691 
1086 116 117 568 
1087 523 477 691 
1088 475 610 679 
1089 133 134 556 
1090 524 96 650 
1091 517 473 697 
1092 576 444 676 
1093 524 650 699 
1094 465 596 642 
1095 121 122 553 
1096 422 519 618 
1097 519 452 618 
1098 555 418 658 
1099 72 71 585 
1100 481 592 685 
1101 65 64 649 
1102 456 516 606 
1103 528 442 579 
1104 530 433 696 
1105 69 68 631 
1106 558 478 667 
1107 66 65 580 
1108 593 420 635 
1109 520 438 700 
1110 533 415 620 
1111 520 469 598 
1112 559 442 659 
1113 477 657 691 
1114 545 421 614 
1115 463 545 614 
1116 554 480 689 
1117 518 129 636 
1118 99 100 563 
1119 508 624 639 
1120 458 602 639 
1121 624 430 639 
1122 523 416 594 
1123 528 495 625 
1124 113 114 566 
1125 451 540 653 
1126 454 518 670 
1127 452 519 616 
1128 513 610 672 
1129 610 410 672 
1130 5 91 588 
1131 63 5 588 
1132 460 522 661 
1133 522 416 661 
1134 650 476 699 
1135 518 433 670 
1136 97 98 573 
1137 521 124 676 
1138 437 543 589 
1139 409 586 608 
1140 561 524 660 
1141 121 553 664 
1142 469 520 662 
1143 79 78 591 
1144 525 461 607 
1145 92 525 607 
1146 435 524 699 
1147 107 108 686 
1148 535 409 608 
1149 452 535 608 
1150 131 132 574 
1151 579 559 698 
1152 451 526 682 
1153 525 463 614 
1154 570 443 571 
1155 420 582 635 
1156 484 570 571 
1157 531 64 645 
1158 417 530 630 
1159 416 523 661 
1160 526 434 682 
1161 421 612 614 
1162 412 558 667 
1163 435 545 660 
1164 537 447 599 
1165 115 116 606 
1166 104 105 600 
1167 116 568 606 
1168 468 583 584 
1169 583 449 584 
1170 134 135 680 
1171 77 534 665 
1172 76 75 671 
1173 572 457 603 
1174 472 572 603 
1175 445 533 620 
1176 426 597 625 
1177 597 486 625 
1178 539 70 601 
1179 554 450 582 
1180 480 554 582 
1181 417 546 616 
1182 548 76 671 
1183 531 461 612 
1184 70 69 601 
1185 454 530 640 
1186 530 417 640 
1187 473 577 628 
1188 533 441 613 
1189 439 555 669 
1190 536 416 609 
1191 64 63 645 
1192 554 104 600 
1193 461 531 645 
1194 555 489 615 
1195 497 666 687 
1196 651 510 696 
1197 488 556 632 
1198 534 459 665 
1199 427 552 605 
1200 532 453 626 
1201 605 451 653 
1202 621 412 667 
1203 510 621 667 
1204 108 595 686 
1205 409 557 586 
1206 545 475 679 
1207 421 545 679 
1208 433 530 670 
1209 102 103 689 
1210 578 426 693 
1211 494 578 693 
1212 78 77 665 
1213 453 532 686 
1214 591 459 646 
1215 501 591 646 
1216 530 454 670 
1217 531 462 649 
1218 437 548 692 
1219 68 67 602 
1220 573 98 690 
1221 542 419 683 
1222 474 542 683 
1223 101 102 674 
1224 120 121 664 
1225 129 130 636 
1226 625 495 693 
1227 540 451 682 
1228 433 651 696 
1229 536 436 637 
1230 91 92 607 
1231 539 439 663 
1232 464 539 663 
1233 503 653 654 
1234 532 107 686 
1235 484 571 675 
1236 571 422 675 
1237 545 463 660 
1238 487 573 690 
1239 572 472 671 
1240 99 563 690 
1241 127 128 611 
1242 568 456 606 
1243 506 538 681 
1244 124 125 676 
1245 653 408 654 
1246 656 490 658 
1247 74 73 619 
1248 455 593 604 
1249 593 471 604 
1250 450 554 600 
1251 497 562 666 
1252 538 110 681 
1253 473 562 697 
1254 560 102 689 
1255 119 120 673 
1256 569 485 633 
1257 435 569 633 
1258 135 596 680 
1259 552 451 605 
1260 573 476 650 
1261 97 573 650 
1262 477 568 657 
1263 580 65 649 
1264 568 117 657 
1265 546 417 630 
1266 102 560 674 
1267 440 565 647 
1268 565 470 647 
1269 585 71 668 
1270 540 408 653 
1271 93 94 638 
1272 539 464 668 
1273 567 479 613 
1274 441 567 613 
1275 551 492 621 
1276 666 481 687 
1277 110 111 681 
1278 418 555 615 
1279 96 97 650 
1280 108 109 701 
1281 548 472 692 
1282 117 118 657 
1283 468 634 678 
1284 471 593 635 
1285 426 625 693 
1286 577 120 664 
1287 94 561 638 
1288 561 463 638 
1289 542 437 692 
1290 418 656 658 
1291 581 445 620 
1292 634 498 678 
1293 602 458 631 
1294 126 127 694 
1295 98 99 690 
1296 556 465 632 
1297 683 520 700 
1298 408 549 655 
1299 587 471 635 
1300 450 587 635 
1301 125 576 676 
1302 472 548 671 
1303 461 588 607 
1304 588 91 607 
1305 572 74 619 
1306 413 550 684 
1307 439 550 663 
1308 127 611 694 
1309 550 439 669 
1310 612 421 648 
1311 474 683 700 
1312 457 572 619 
1313 476 573 622 
1314 573 487 622 
1315 429 584 688 
1316 120 577 673 
1317 417 564 640 
1318 549 491 688 
1319 508 580 624 
1320 442 557 659 
1321 493 581 620 
1322 623 497 687 
1323 411 623 687 
1324 505 585 629 
1325 577 467 628 
1326 553 122 677 
1327 558 474 700 
1328 438 558 700 
1329 463 561 660 
1330 580 462 624 
1331 465 556 680 
1332 556 134 680 
1333 423 592 666 
1334 592 481 666 
1335 565 413 684 
1336 459 591 665 
1337 588 461 645 
1338 578 494 655 
1339 562 423 666 
1340 462 580 649 
1341 585 464 629 
1342 494 654 655 
1343 654 408 655 
1344 499 648 679 
1345 648 421 679 
1346 423 628 695 
1347 582 450 635 
1348 446 590 702 
1349 470 565 684 
1350 480 560 689 
1351 634 423 695 
1352 559 428 698 
1353 468 592 634 
1354 592 423 634 
1355 647 470 658 
1356 490 647 658 
1357 627 490 656 
1358 497 623 643 
1359 595 453 686 
1360 590 484 702 
1361 63 588 645 
1362 467 577 664 
1363 569 435 699 
1364 476 569 699 
1365 577 473 673 
1366 617 440 647 
1367 490 617 647 
1368 68 602 631 
1369 467 641 695 
1370 641 498 695 
1371 475 633 652 
1372 633 485 652 
1373 507 579 698 
1374 503 605 653 
1375 583 468 678 
1376 464 585 668 
1377 595 108 701 
1378 468 584 685 
1379 432 691 697 
1380 691 517 697 
1381 414 583 678 
1382 591 78 665 
1383 410 610 652 
1384 610 475 652 
1385 592 468 685 
1386 584 429 685 
1387 623 460 643 
1388 596 465 680 
1389 466 627 656 
1390 510 667 696 
1391 483 595 701 
1392 484 675 702 
1393 675 502 702 
1394 618 502 675 
1395 422 618 675 
1396 662 520 683 
1397 550 669 684 
1398 628 467 695 
1399 498 634 695 
1400 419 662 683 
1401 669 470 684 
1402 667 478 696 
$EndElements
